round,fitness,name,position,team,situation,price,meatches,average,last_score,difference,disarms,goals,assists,no_goals,fouls_suffered,strikes_out,strikes_defended,strikes_post,difficult_defense,penalty_defense,own_goal,red_card,yellow_card,goal_suffered,penalty_lost,fouls_commited,offsides,wrong_pass
2,150.48999999999998,Guto Ferreira ,TEC,Bahia,3,"8,76",1,"8,39","8,39","4,76",0,0,0,0,0,0,0,0,0,0,0,0,0,0,0,0,0,0
2,150.48999999999998,Fernando Prass ,GOL,Palmeiras,3,"13,23",1,"10,70","10,70","5,23",0,0,0,1,0,0,0,0,2,0,0,0,0,0,0,0,0,1
2,150.48999999999998,Henrique ,ZAG,Fluminense,3,"12,80",1,"8,10","8,10","2,80",2,0,0,0,3,0,0,1,0,0,0,0,0,0,0,0,0,1
2,150.48999999999998,Tiago  ,ZAG,Bahia,3,"9,97",1,"8,10","8,10","3,97",1,1,0,0,1,0,0,0,0,0,0,0,0,0,0,2,1,2
2,150.48999999999998,Jean ,LAT,Palmeiras,3,"19,24",1,"15,20","15,20","7,24",1,1,0,1,0,1,2,0,0,0,0,0,0,0,0,1,1,4
2,150.48999999999998,João Lucas ,LAT,Ponte Preta,3,"10,89",1,"11,40","11,40","6,89",2,0,1,1,0,0,0,0,0,0,0,0,0,0,0,1,0,5
2,150.48999999999998,Zé Rafael  ,MEI,Bahia,3,"14,78",1,"15,90","15,90","9,78",1,1,1,0,2,1,1,0,0,0,0,0,0,0,0,2,1,0
2,150.48999999999998,Sornoza ,MEI,Fluminense,3,"17,54",1,"9,80","9,80","2,54",1,1,0,0,0,0,1,0,0,0,0,0,0,0,0,0,0,3
2,150.48999999999998,Ramiro ,MEI,Grêmio,3,"16,98",1,"17,00","17,00","9,98",1,2,0,0,2,2,0,0,0,0,0,0,1,0,0,1,0,2
2,150.48999999999998,Lucca ,ATA,Ponte Preta,3,"14,78",1,"13,90","13,90","7,78",3,1,0,0,2,1,1,0,0,0,0,0,0,0,0,1,1,3
2,150.48999999999998,Henrique Dourado ,ATA,Fluminense,3,"16,91",1,"15,90","15,90","8,91",0,2,0,0,2,0,0,0,0,0,0,0,0,0,0,1,0,2
2,150.48999999999998,Borja ,ATA,Palmeiras,3,"22,71",1,"16,10","16,10","6,71",0,2,0,0,2,2,0,0,0,0,0,0,0,0,0,2,2,1
3,133.68,Guto Ferreira ,TEC,Bahia,3,"10,41",2,"5,98","3,56","1,65",0,0,0,0,0,0,0,0,0,0,0,0,0,0,0,0,0,0
3,133.68,Gatito Fernández ,GOL,Botafogo,3,"19,92",2,"11,00","11,00","3,65",0,0,0,1,0,0,0,0,7,0,0,0,0,0,2,0,0,0
3,133.68,David Braz ,ZAG,Santos,3,"11,34",1,"9,20","9,20","1,34",0,1,0,1,0,1,0,0,0,0,0,0,1,0,0,2,0,5
3,133.68,Kadu ,ZAG,Ponte Preta,3,"12,95",2,"8,15","6,20","2,98",7,0,0,1,1,1,0,0,0,0,0,0,0,0,0,3,0,1
3,133.68,Jean ,LAT,Palmeiras,3,"19,24",1,"15,20","0,00","0,00",1,1,0,1,0,1,2,0,0,0,0,0,0,0,0,1,1,4
3,133.68,Rodinei ,LAT,Flamengo,3,"10,81",1,"13,00","13,00","3,81",0,1,0,1,0,0,1,0,0,0,0,0,0,0,0,2,0,0
3,133.68,Zé Rafael  ,MEI,Bahia,3,"16,93",2,"9,65","3,40","2,15",3,1,1,0,2,1,1,0,0,0,0,0,0,0,0,2,1,0
3,133.68,Rodrigo Lindoso ,MEI,Botafogo,3,"11,22",1,"15,60","15,60","5,22",5,1,0,0,1,0,0,0,0,0,0,0,0,0,0,1,0,3
3,133.68,Ramiro ,MEI,Grêmio,3,"18,90",2,"10,25","3,50","1,92",2,2,1,0,4,2,0,0,0,0,0,0,2,0,0,2,1,6
3,133.68,Bruno Henrique ,ATA,Santos,3,"15,27",2,"7,60","5,90","1,62",2,0,2,0,6,1,2,1,0,0,0,0,1,0,0,5,1,8
3,133.68,Henrique Dourado ,ATA,Fluminense,3,"21,82",2,"13,45","11,00","4,91",0,3,1,0,2,1,1,0,0,0,0,0,0,0,0,5,1,6
3,133.68,Borja ,ATA,Palmeiras,3,"22,71",1,"16,10","0,00","0,00",0,2,0,0,2,2,0,0,0,0,0,0,0,0,0,2,2,1
4,114.75666666666666,Renato Gaúcho ,TEC,Grêmio,3,"14,27",3,"5,49","5,30","0,38",0,0,0,0,0,0,0,0,0,0,0,0,0,0,0,0,0,0
4,114.75666666666666,Gatito Fernández ,GOL,Botafogo,3,"24,69",3,"13,90","19,70","4,77",0,0,0,2,0,0,0,0,12,0,0,0,0,0,2,0,0,1
4,114.75666666666666,Joel Carli ,ZAG,Botafogo,3,"11,45",1,"7,80","0,00","0,00",2,0,0,1,1,0,0,0,0,0,0,0,0,0,0,1,0,2
4,114.75666666666666,Kadu ,ZAG,Ponte Preta,3,"13,02",3,"6,63","3,60","0,07",10,0,0,1,3,1,0,0,0,0,0,0,1,0,0,4,0,1
4,114.75666666666666,Jean ,LAT,Palmeiras,3,"16,51",2,"6,40","-2,40","-2,73",2,1,0,1,1,2,2,0,0,0,0,0,0,1,0,1,1,10
4,114.75666666666666,Reinaldo ,LAT,Chapecoense,3,"13,20",3,"7,40","15,80","4,45",6,1,0,2,3,1,0,0,0,0,0,0,0,0,0,2,0,24
4,114.75666666666666,Mancuello ,MEI,Flamengo,3,"8,44",1,"9,30","9,30","1,44",1,1,0,0,1,1,0,0,0,0,0,0,0,0,0,2,0,2
4,114.75666666666666,Régis ,MEI,Bahia,3,"18,33",2,"9,50","0,50","-1,12",1,2,0,0,1,1,1,0,0,0,0,0,0,0,0,0,0,3
4,114.75666666666666,Ramiro ,MEI,Grêmio,3,"18,90",2,"10,25","0,00","0,00",2,2,1,0,4,2,0,0,0,0,0,0,2,0,0,2,1,6
4,114.75666666666666,Lucca ,ATA,Ponte Preta,3,"20,09",3,"10,67","17,20","4,84",3,3,0,0,7,3,3,0,0,0,0,0,0,0,0,5,1,9
4,114.75666666666666,Henrique Dourado ,ATA,Fluminense,3,"26,12",3,"15,07","18,30","4,30",1,5,1,0,4,2,1,0,0,0,0,0,0,0,0,6,1,8
4,114.75666666666666,André ,ATA,Sport,3,"11,50",2,"12,60","26,30","8,03",2,3,0,0,1,0,0,0,0,0,0,0,0,0,0,2,1,4
5,101.55833333333334,Renato Gaúcho ,TEC,Grêmio,3,"15,00",4,"5,65","6,12","0,73",0,0,0,0,0,0,0,0,0,0,0,0,0,0,0,0,0,0
5,101.55833333333334,Gatito Fernández ,GOL,Botafogo,3,"24,47",4,"12,55","8,50","-0,22",0,0,0,3,1,0,0,0,13,0,0,0,0,0,2,0,0,1
5,101.55833333333334,Juan ,ZAG,Flamengo,3,"6,11",1,"7,50","7,50","1,11",2,0,0,1,0,2,1,0,0,0,0,0,1,0,0,2,0,1
5,101.55833333333334,Marcio ,ZAG,Coritiba,3,"7,80",3,"7,53","15,70","4,10",4,1,0,2,4,0,0,0,0,0,0,0,0,0,0,3,0,9
5,101.55833333333334,Arnaldo ,LAT,Botafogo,3,"8,71",3,"7,47","10,30","2,47",6,0,0,3,3,0,0,0,0,0,0,0,0,0,0,5,0,6
5,101.55833333333334,Reinaldo ,LAT,Chapecoense,3,"13,67",4,"7,60","8,20","0,47",9,1,0,3,4,1,0,0,0,0,0,0,0,0,0,5,0,27
5,101.55833333333334,Zé Rafael  ,MEI,Bahia,3,"22,66",4,"11,35","21,10","5,29",10,1,3,0,9,2,5,0,0,0,0,0,0,0,0,7,1,5
5,101.55833333333334,Everton ,MEI,Flamengo,3,"15,11",3,"6,90","2,80","-1,08",5,1,1,0,4,2,2,0,0,0,0,0,1,0,0,3,0,9
5,101.55833333333334,Vinícius ,MEI,Bahia,3,"8,62",1,"8,80","8,80","2,62",0,1,0,0,1,2,0,0,0,0,0,0,0,0,0,1,0,2
5,101.55833333333334,Lucca ,ATA,Ponte Preta,3,"20,61",4,"10,43","9,70","0,52",5,4,0,0,8,3,3,0,0,0,0,0,0,0,0,7,1,13
5,101.55833333333334,Luan ,ATA,Grêmio,3,"19,66",3,"8,37","9,60","0,42",5,2,0,0,6,4,2,0,0,0,0,0,0,0,0,5,1,14
5,101.55833333333334,André ,ATA,Sport,3,"8,33",3,"8,17","-0,70","-3,17",4,3,0,0,2,0,0,0,0,0,0,0,1,0,0,6,1,6
6,96.67333333333335,Renato Gaúcho ,TEC,Grêmio,3,"15,75",5,"6,14","8,10","0,75",0,0,0,0,0,0,0,0,0,0,0,0,0,0,0,0,0,0
6,96.67333333333335,Wilson ,GOL,Coritiba,3,"13,44",5,"6,30","13,70","2,35",0,0,0,3,2,0,0,0,7,0,0,0,0,0,2,0,0,5
6,96.67333333333335,Lucão ,ZAG,São Paulo,3,"5,68",3,"5,10","5,70","1,17",4,0,0,2,1,2,1,0,0,0,0,0,0,0,0,4,0,8
6,96.67333333333335,Marcio ,ZAG,Coritiba,3,"7,99",4,"7,75","8,40","0,19",5,1,1,3,4,0,0,0,0,0,0,0,1,0,0,4,1,10
6,96.67333333333335,Nino Paraíba ,LAT,Ponte Preta,3,"22,03",5,"7,44","2,80","-1,08",11,1,1,2,11,2,3,0,0,0,0,0,1,0,0,7,1,28
6,96.67333333333335,Reinaldo ,LAT,Chapecoense,3,"14,57",5,"7,88","9,00","0,90",10,2,0,3,4,2,0,0,0,0,0,0,0,0,0,6,0,30
6,96.67333333333335,Zé Rafael  ,MEI,Bahia,3,"20,19",5,"9,82","3,70","-2,47",12,1,3,0,13,3,5,0,0,0,0,0,0,0,0,10,1,8
6,96.67333333333335,Renê Júnior ,MEI,Bahia,3,"8,26",3,"7,13","3,90","-1,14",9,1,0,0,7,3,1,0,0,0,0,0,1,0,0,5,2,10
6,96.67333333333335,Ramiro ,MEI,Grêmio,3,"18,63",4,"7,55","7,70","0,94",5,2,2,0,8,4,0,0,0,0,0,0,2,0,0,6,1,12
6,96.67333333333335,Lucca ,ATA,Ponte Preta,3,"19,11",5,"8,76","2,10","-1,50",5,4,0,0,13,3,4,0,0,0,0,0,0,0,0,8,1,16
6,96.67333333333335,Luan ,ATA,Grêmio,3,"25,71",4,"13,75","29,90","6,05",5,3,4,0,12,4,2,0,0,0,0,0,0,0,0,6,1,16
6,96.67333333333335,Luis Fabiano ,ATA,Vasco,3,"16,15",4,"9,65","19,20","3,91",2,4,1,0,4,6,3,0,0,0,0,0,2,0,0,7,4,5
7,102.17666666666666,Renato Gaúcho ,TEC,Grêmio,3,"16,21",6,"6,43","7,91","0,46",0,0,0,0,0,0,0,0,0,0,0,0,0,0,0,0,0,0
7,102.17666666666666,Vanderlei ,GOL,Santos,3,"16,84",6,"7,02","10,70","1,22",0,0,0,3,0,0,0,0,11,1,0,0,0,0,6,0,0,3
7,102.17666666666666,Pedro Geromel ,ZAG,Grêmio,3,"14,68",4,"10,10","18,80","3,14",9,0,1,4,3,1,2,0,0,0,0,0,0,0,0,1,0,12
7,102.17666666666666,Kanu ,ZAG,Vitória,3,"8,30",1,"8,60","8,60","0,30",3,0,0,1,1,0,0,0,0,0,0,0,0,0,0,0,1,5
7,102.17666666666666,Nino Paraíba ,LAT,Ponte Preta,3,"22,37",6,"7,18","5,90","0,34",15,1,1,2,15,2,4,0,0,0,0,0,2,0,0,9,1,31
7,102.17666666666666,Reinaldo ,LAT,Chapecoense,3,"11,92",6,"5,87","-4,20","-2,65",10,2,0,3,4,2,0,0,0,0,0,0,1,0,0,8,0,34
7,102.17666666666666,Zé Rafael  ,MEI,Bahia,3,"20,27",6,"8,98","4,80","0,08",14,1,3,0,16,4,7,0,0,0,0,0,0,0,0,12,1,14
7,102.17666666666666,Marquinhos Gabriel ,MEI,Corinthians,3,"10,26",3,"8,13","4,60","-0,75",2,1,3,0,7,0,1,0,0,0,0,0,1,0,0,3,0,10
7,102.17666666666666,Douglas ,MEI,Vasco,3,"18,59",6,"6,62","15,80","2,72",15,1,0,0,13,9,4,1,0,0,0,0,1,0,0,7,1,27
7,102.17666666666666,Lucca ,ATA,Ponte Preta,3,"21,96",6,"9,77","14,80","2,85",6,5,1,0,17,3,4,0,0,0,0,0,0,0,0,9,2,19
7,102.17666666666666,Luan ,ATA,Grêmio,3,"23,41",5,"12,78","8,90","-2,30",8,3,4,0,14,7,4,0,0,0,0,0,0,0,0,8,1,17
7,102.17666666666666,Henrique Dourado ,ATA,Fluminense,3,"25,14",5,"12,20","6,60","-1,09",2,7,1,0,9,3,3,0,0,0,0,0,1,0,0,12,1,15
8,95.19761904761904,Renato Gaúcho ,TEC,Grêmio,3,"16,04",7,"6,34","5,79","-0,17",0,0,0,0,0,0,0,0,0,0,0,0,0,0,0,0,0,0
8,95.19761904761904,Vanderlei ,GOL,Santos,3,"21,15",7,"9,73","26,00","4,31",0,0,0,4,0,0,0,0,18,1,0,0,0,0,6,0,0,3
8,95.19761904761904,Pedro Geromel ,ZAG,Grêmio,3,"12,81",5,"8,92","4,20","-1,87",9,0,1,5,4,1,2,0,0,0,0,0,0,0,0,3,0,13
8,95.19761904761904,Wanderson ,ZAG,Atlético-PR,3,"4,71",1,"6,90","6,90","0,71",1,0,0,1,1,0,0,0,0,0,0,0,0,0,0,0,0,1
8,95.19761904761904,Bruno Cortez ,LAT,Grêmio,3,"11,72",6,"6,37","10,90","0,26",8,1,0,5,7,0,0,0,0,0,0,0,2,0,0,8,0,13
8,95.19761904761904,Júnior Tavares ,LAT,São Paulo,3,"12,63",7,"5,64","3,50","-1,63",9,0,2,4,14,1,1,0,0,0,0,0,0,0,0,11,0,30
8,95.19761904761904,Zé Rafael  ,MEI,Bahia,3,"19,62",7,"8,08","2,70","-0,65",17,1,3,0,18,5,8,0,0,0,0,0,1,0,0,17,1,16
8,95.19761904761904,Renê Júnior ,MEI,Bahia,3,"10,51",5,"7,64","10,30","1,34",19,1,0,0,12,4,1,0,0,0,0,0,2,0,0,6,2,13
8,95.19761904761904,Douglas ,MEI,Vasco,3,"16,36",7,"5,93","1,80","-2,23",16,1,0,0,15,9,5,1,0,0,0,0,1,0,0,9,1,30
8,95.19761904761904,Lucca ,ATA,Ponte Preta,3,"20,08",7,"8,82","3,10","-1,88",6,5,1,0,19,5,6,0,0,0,0,0,0,0,0,11,2,20
8,95.19761904761904,Luan ,ATA,Grêmio,3,"23,66",6,"12,15","9,00","0,25",9,4,4,0,15,8,5,0,0,0,0,0,0,0,0,9,1,25
8,95.19761904761904,Henrique Dourado ,ATA,Fluminense,3,"23,16",6,"9,97","-1,20","-1,98",2,7,1,0,12,4,3,0,0,0,0,0,2,0,0,13,1,18
9,93.21226190476192,Renato Gaúcho ,TEC,Grêmio,3,"15,86",8,"6,07","4,22","-0,18",0,0,0,0,0,0,0,0,0,0,0,0,0,0,0,0,0,0
9,93.21226190476192,Vanderlei ,GOL,Santos,3,"19,76",8,"9,89","11,00","-1,39",0,0,0,5,0,0,0,0,20,1,0,0,0,0,6,0,0,3
9,93.21226190476192,Pedro Geromel ,ZAG,Grêmio,3,"12,97",6,"8,17","4,40","0,16",12,0,1,5,4,2,2,0,0,0,0,0,0,0,0,4,0,16
9,93.21226190476192,Yerry Mina ,ZAG,Palmeiras,3,"16,73",4,"7,25","9,00","-0,68",9,1,0,2,4,2,1,0,0,0,0,0,1,0,0,7,1,9
9,93.21226190476192,Victor Luis ,LAT,Botafogo,3,"12,38",6,"5,98","6,80","0,69",11,0,0,4,6,1,0,0,0,0,0,0,0,0,0,7,0,10
9,93.21226190476192,Sidcley ,LAT,Atlético-PR,3,"14,04",7,"6,53","16,60","1,19",11,2,1,2,14,2,0,0,0,0,0,0,0,0,0,7,4,23
9,93.21226190476192,Zé Rafael  ,MEI,Bahia,3,"19,84",8,"7,63","4,50","0,22",19,1,3,0,23,6,9,0,0,0,0,0,1,0,0,19,1,23
9,93.21226190476192,Renê Júnior ,MEI,Bahia,3,"10,18",6,"7,28","5,50","-0,33",22,1,0,0,14,4,2,0,0,0,0,0,2,0,0,8,2,15
9,93.21226190476192,Bruno Silva ,MEI,Botafogo,3,"13,48",7,"7,30","8,50","-0,48",14,4,1,0,14,4,3,0,0,0,0,0,5,0,0,10,0,25
9,93.21226190476192,Lucca ,ATA,Ponte Preta,3,"20,26",8,"8,29","4,60","0,18",7,5,1,0,25,6,6,0,0,0,0,0,0,0,0,12,2,21
9,93.21226190476192,Luan ,ATA,Grêmio,3,"22,03",7,"10,49","0,50","-1,63",10,4,4,0,17,8,5,0,0,0,0,0,0,0,0,11,1,29
9,93.21226190476192,Henrique Dourado ,ATA,Fluminense,3,"24,22",7,"9,46","6,40","1,06",2,8,1,0,13,4,3,0,0,0,0,0,2,0,0,16,1,20
10,94.95095238095239,Renato Gaúcho ,TEC,Grêmio,3,"16,37",9,"6,10","6,30","0,51",0,0,0,0,0,0,0,0,0,0,0,0,0,0,0,0,0,0
10,94.95095238095239,Vanderlei ,GOL,Santos,3,"21,13",9,"10,40","14,50","1,37",0,0,0,6,1,0,0,0,23,1,0,0,0,0,6,0,0,3
10,94.95095238095239,Pedro Geromel ,ZAG,Grêmio,3,"13,87",7,"8,12","7,80","0,90",15,0,1,6,5,2,2,0,0,0,0,0,1,0,0,5,0,17
10,94.95095238095239,Yerry Mina ,ZAG,Palmeiras,3,"15,96",5,"6,52","3,60","-0,77",10,1,0,3,4,2,2,0,0,0,0,0,2,0,0,10,1,11
10,94.95095238095239,Sidcley ,LAT,Atlético-PR,3,"12,83",8,"6,45","5,90","-1,21",13,2,1,3,17,2,1,0,0,0,0,0,1,0,0,10,4,28
10,94.95095238095239,Mascarenhas ,LAT,Fluminense,3,"5,95",2,"7,30","14,00","4,91",2,1,0,1,1,1,0,0,0,0,0,0,0,0,0,3,0,5
10,94.95095238095239,Zé Rafael  ,MEI,Bahia,3,"19,56",9,"7,15","3,30","-0,28",20,1,3,0,24,7,10,0,0,0,0,0,1,0,0,19,1,25
10,94.95095238095239,Diego ,MEI,Flamengo,3,"22,83",6,"7,53","20,60","2,96",6,3,2,0,17,5,1,0,0,0,0,0,0,0,0,7,2,25
10,94.95095238095239,Bruno Silva ,MEI,Botafogo,3,"13,27",8,"7,06","5,40","-0,21",15,4,2,0,15,4,3,0,0,0,0,0,5,0,0,13,0,26
10,94.95095238095239,Lucca ,ATA,Ponte Preta,3,"21,26",9,"8,38","9,10","1,00",7,6,1,0,30,6,6,0,0,0,0,0,0,0,0,13,2,24
10,94.95095238095239,Luan ,ATA,Grêmio,3,"24,80",8,"11,02","14,70","2,77",11,4,6,0,18,8,11,0,0,0,0,0,0,0,0,14,2,34
10,94.95095238095239,Henrique Dourado ,ATA,Fluminense,3,"25,81",8,"9,93","13,20","1,59",3,9,1,0,16,7,4,0,0,0,0,0,2,0,0,17,1,22
11,94.95095238095239,Renato Gaúcho ,TEC,Grêmio,3,"16,37",9,"6,10","6,30","0,51",0,0,0,0,0,0,0,0,0,0,0,0,0,0,0,0,0,0
11,94.95095238095239,Vanderlei ,GOL,Santos,3,"21,13",9,"10,40","14,50","1,37",0,0,0,6,1,0,0,0,23,1,0,0,0,0,6,0,0,3
11,94.95095238095239,Pedro Geromel ,ZAG,Grêmio,3,"13,87",7,"8,12","7,80","0,90",15,0,1,6,5,2,2,0,0,0,0,0,1,0,0,5,0,17
11,94.95095238095239,Yerry Mina ,ZAG,Palmeiras,3,"15,96",5,"6,52","3,60","-0,77",10,1,0,3,4,2,2,0,0,0,0,0,2,0,0,10,1,11
11,94.95095238095239,Sidcley ,LAT,Atlético-PR,3,"12,83",8,"6,45","5,90","-1,21",13,2,1,3,17,2,1,0,0,0,0,0,1,0,0,10,4,28
11,94.95095238095239,Mascarenhas ,LAT,Fluminense,3,"5,95",2,"7,30","14,00","4,91",2,1,0,1,1,1,0,0,0,0,0,0,0,0,0,3,0,5
11,94.95095238095239,Zé Rafael  ,MEI,Bahia,3,"19,56",9,"7,15","3,30","-0,28",20,1,3,0,24,7,10,0,0,0,0,0,1,0,0,19,1,25
11,94.95095238095239,Diego ,MEI,Flamengo,3,"22,83",6,"7,53","20,60","2,96",6,3,2,0,17,5,1,0,0,0,0,0,0,0,0,7,2,25
11,94.95095238095239,Bruno Silva ,MEI,Botafogo,3,"13,27",8,"7,06","5,40","-0,21",15,4,2,0,15,4,3,0,0,0,0,0,5,0,0,13,0,26
11,94.95095238095239,Lucca ,ATA,Ponte Preta,3,"21,26",9,"8,38","9,10","1,00",7,6,1,0,30,6,6,0,0,0,0,0,0,0,0,13,2,24
11,94.95095238095239,Luan ,ATA,Grêmio,3,"24,80",8,"11,02","14,70","2,77",11,4,6,0,18,8,11,0,0,0,0,0,0,0,0,14,2,34
11,94.95095238095239,Henrique Dourado ,ATA,Fluminense,3,"25,81",8,"9,93","13,20","1,59",3,9,1,0,16,7,4,0,0,0,0,0,2,0,0,17,1,22
12,81.53491341991342,Renato Gaúcho ,TEC,Grêmio,3,"15,09",11,"5,20","-0,53","-0,78",0,0,0,0,0,0,0,0,0,0,0,0,0,0,0,0,0,0
12,81.53491341991342,Vanderlei ,GOL,Santos,3,"20,83",11,"9,55","10,50","1,77",0,0,0,6,1,0,0,0,26,2,0,0,0,0,8,1,0,3
12,81.53491341991342,Balbuena ,ZAG,Corinthians,3,"10,56",8,"6,62","11,00","1,31",7,2,0,6,6,3,0,0,0,0,0,0,1,0,0,2,2,20
12,81.53491341991342,Wanderson ,ZAG,Atlético-PR,3,"5,73",5,"7,44","-1,20","-1,90",5,2,0,3,2,0,3,0,0,0,0,0,1,0,0,4,1,6
12,81.53491341991342,Fagner ,LAT,Corinthians,3,"11,91",8,"5,42","1,30","-1,55",12,0,1,7,11,0,0,0,0,0,0,0,3,0,0,9,0,40
12,81.53491341991342,Sander ,LAT,Sport,3,"6,91",6,"5,87","10,40","1,25",20,0,0,3,8,0,0,0,0,0,0,0,0,0,0,20,0,26
12,81.53491341991342,Zé Rafael  ,MEI,Bahia,3,"19,68",11,"6,86","2,60","-1,02",27,1,3,0,30,8,11,0,0,0,0,0,2,0,0,23,2,28
12,81.53491341991342,Diego ,MEI,Flamengo,3,"22,11",8,"7,17","14,00","2,88",9,4,2,0,20,7,3,0,0,0,0,0,0,0,0,11,3,36
12,81.53491341991342,Bruno Silva ,MEI,Botafogo,3,"12,58",10,"6,05","1,10","-0,40",19,4,2,0,16,6,3,0,0,0,0,0,5,0,0,17,0,35
12,81.53491341991342,Lucca ,ATA,Ponte Preta,3,"21,97",11,"8,64","8,40","-0,17",12,7,1,0,37,9,8,0,0,0,0,0,1,0,0,13,4,29
12,81.53491341991342,Paolo Guerrero ,ATA,Flamengo,3,"14,32",7,"7,17","14,70","3,19",9,4,1,0,20,8,8,0,0,0,0,0,2,0,0,29,6,14
12,81.53491341991342,Arthur  ,ATA,Chapecoense,3,"13,72",11,"6,61","19,20","3,76",11,4,3,0,24,10,6,1,0,0,0,0,2,0,0,19,4,20
13,76.5188888888889,Renato Gaúcho ,TEC,Grêmio,3,"15,48",12,"4,96","2,35","0,39",0,0,0,0,0,0,0,0,0,0,0,0,0,0,0,0,0,0
13,76.5188888888889,Vanderlei ,GOL,Santos,3,"19,46",12,"8,90","1,70","-1,37",0,0,0,6,1,0,0,0,26,2,0,0,0,0,8,1,0,3
13,76.5188888888889,Pedro Geromel ,ZAG,Grêmio,3,"13,57",9,"7,37","4,10","-0,21",19,0,1,6,7,3,2,0,0,0,0,0,2,0,0,6,0,19
13,76.5188888888889,Wanderson ,ZAG,Atlético-PR,3,"5,53",6,"5,95","-1,50","-0,20",5,2,0,3,2,0,3,0,0,0,0,0,1,0,0,4,1,6
13,76.5188888888889,Sidcley ,LAT,Atlético-PR,3,"13,62",10,"6,41","8,40","0,89",13,2,2,3,18,2,1,0,0,0,0,0,1,0,0,10,5,31
13,76.5188888888889,Victor Luis ,LAT,Botafogo,3,"12,38",10,"5,08","3,70","0,70",17,1,0,4,9,2,0,0,0,0,0,0,2,0,0,12,0,19
13,76.5188888888889,Zé Rafael  ,MEI,Bahia,3,"20,55",12,"6,87","7,00","0,87",27,1,3,0,30,8,11,0,0,0,0,0,2,0,0,23,2,28
13,76.5188888888889,Diego ,MEI,Flamengo,3,"20,81",9,"6,88","4,60","-1,30",9,4,2,0,20,7,3,0,0,0,0,0,0,0,0,11,3,36
13,76.5188888888889,Bruno Silva ,MEI,Botafogo,3,"13,04",11,"5,83","3,60","0,46",19,4,2,0,16,6,3,0,0,0,0,0,5,0,0,17,0,35
13,76.5188888888889,Lucca ,ATA,Ponte Preta,3,"20,41",12,"7,88","-0,50","-1,56",12,7,1,0,37,9,8,0,0,0,0,0,1,0,0,13,4,29
13,76.5188888888889,Paolo Guerrero ,ATA,Flamengo,3,"11,89",8,"6,17","-0,80","-2,43",9,4,1,0,20,8,8,0,0,0,0,0,2,0,0,29,6,14
13,76.5188888888889,Henrique Dourado ,ATA,Fluminense,3,"23,53",10,"8,29","2,40","-0,30",3,9,1,0,20,7,6,0,0,0,0,0,2,0,0,20,1,27
14,74.3279564879565,Renato Gaúcho ,TEC,Grêmio,3,"15,92",13,"4,95","4,85","0,44",0,0,0,0,0,0,0,0,0,0,0,0,0,0,0,0,0,0
14,74.3279564879565,Jefferson ,GOL,Botafogo,3,"9,67",2,"12,50","8,00","-0,97",0,0,0,0,0,0,0,0,4,1,0,0,0,0,1,0,0,0
14,74.3279564879565,Pedro Geromel ,ZAG,Grêmio,3,"14,58",10,"7,50","8,70","1,01",21,0,1,6,7,3,3,0,0,0,0,0,2,0,0,6,0,20
14,74.3279564879565,Emerson Silva ,ZAG,Botafogo,3,"6,08",1,"6,50","0,00","0,00",3,0,0,0,4,1,0,0,0,0,0,0,0,0,0,2,0,1
14,74.3279564879565,Sidcley ,LAT,Atlético-PR,3,"12,54",11,"5,97","1,60","-1,08",15,3,2,3,19,2,1,0,0,0,0,0,1,0,0,11,5,41
14,74.3279564879565,Fagner ,LAT,Corinthians,3,"13,11",9,"5,72","8,10","1,20",12,0,1,7,11,0,0,0,0,0,0,0,3,0,0,9,0,40
14,74.3279564879565,Zé Rafael  ,MEI,Bahia,3,"18,93",13,"6,23","-1,50","-1,62",31,1,3,0,32,10,11,0,0,0,0,0,2,0,0,25,2,32
14,74.3279564879565,Diego ,MEI,Flamengo,3,"21,16",10,"6,83","6,40","0,35",10,4,2,0,26,7,4,0,0,0,0,0,0,0,0,12,3,38
14,74.3279564879565,Thiago Neves ,MEI,Cruzeiro,3,"17,77",10,"6,76","4,50","-0,77",6,5,1,0,19,7,12,0,0,0,0,0,1,0,0,10,2,35
14,74.3279564879565,Lucca ,ATA,Ponte Preta,3,"21,37",13,"7,71","5,70","0,96",13,7,1,0,40,10,8,0,0,0,0,0,1,1,0,13,4,32
14,74.3279564879565,Marcos Calazans ,ATA,Fluminense,3,"6,85",8,"6,05","2,00","-0,93",25,0,2,0,13,3,2,0,0,0,0,0,1,0,0,16,2,19
14,74.3279564879565,Arthur  ,ATA,Chapecoense,3,"10,84",13,"5,80","0,00","-0,55",11,4,3,0,27,12,7,1,0,0,0,0,2,0,0,19,4,24
15,75.50034632034632,Renato Gaúcho ,TEC,Grêmio,3,"16,03",14,"4,95","4,90","0,11",0,0,0,0,0,0,0,0,0,0,0,0,0,0,0,0,0,0
15,75.50034632034632,Jefferson ,GOL,Botafogo,3,"9,14",3,"9,57","3,70","-0,53",0,0,0,1,0,0,0,0,5,1,0,0,0,0,1,0,0,0
15,75.50034632034632,Pedro Geromel ,ZAG,Grêmio,3,"13,66",11,"7,05","2,50","-0,92",24,0,1,7,7,3,3,0,0,0,0,0,2,0,0,7,0,23
15,75.50034632034632,Balbuena ,ZAG,Corinthians,3,"10,16",11,"6,32","3,60","-0,18",8,2,0,8,8,3,1,0,0,0,0,0,1,0,0,3,2,21
15,75.50034632034632,Mena ,LAT,Sport,3,"4,06",4,"5,55","-0,70","-2,14",4,1,2,2,3,0,1,0,0,0,0,1,1,0,0,9,1,8
15,75.50034632034632,Fagner ,LAT,Corinthians,3,"11,39",10,"4,96","-1,90","-1,72",14,0,1,8,13,0,0,0,0,0,0,0,3,0,0,11,0,41
15,75.50034632034632,Diego Souza ,MEI,Sport,3,"16,12",8,"5,06","-0,10","-1,33",4,5,0,0,19,5,2,0,0,0,0,0,2,0,0,14,0,34
15,75.50034632034632,Diego ,MEI,Flamengo,3,"21,08",11,"6,70","5,40","-0,08",13,4,2,0,32,8,5,0,0,0,0,0,0,0,0,13,4,46
15,75.50034632034632,Thiago Neves ,MEI,Cruzeiro,3,"17,40",11,"6,36","2,40","-0,37",9,5,1,0,22,8,13,0,0,0,0,0,1,0,0,13,3,41
15,75.50034632034632,Lucca ,ATA,Ponte Preta,3,"21,61",14,"7,62","6,40","0,24",13,7,1,0,42,12,13,0,0,0,0,0,1,1,0,14,4,36
15,75.50034632034632,Marcos Calazans ,ATA,Fluminense,3,"6,85",8,"6,05","0,00","0,00",28,0,2,0,13,3,2,0,0,0,0,0,2,0,0,17,2,21
15,75.50034632034632,Henrique Dourado ,ATA,Fluminense,3,"23,53",10,"8,29","0,00","0,00",3,9,2,0,21,8,6,0,0,0,0,0,3,0,0,23,1,28
16,83.06220057720057,Renato Gaúcho ,TEC,Grêmio,3,"15,46",15,"4,83","3,21","-0,57",0,0,0,0,0,0,0,0,0,0,0,0,0,0,0,0,0,0
16,83.06220057720057,Vanderlei ,GOL,Santos,3,"22,13",14,"10,21","12,20","-1,76",0,0,0,8,2,0,0,0,35,3,0,0,1,0,10,1,0,5
16,83.06220057720057,Pedro Geromel ,ZAG,Grêmio,3,"13,66",11,"7,05","0,00","0,00",26,0,1,7,7,3,3,0,0,0,0,0,2,0,0,7,0,26
16,83.06220057720057,Balbuena ,ZAG,Corinthians,3,"10,60",12,"6,33","6,40","0,44",11,2,0,9,10,3,1,0,0,0,0,0,1,0,0,4,2,23
16,83.06220057720057,Mena ,LAT,Sport,3,"8,21",5,"8,68","21,20","4,15",10,1,4,3,4,0,1,0,0,0,0,1,2,0,0,13,1,12
16,83.06220057720057,Edimar ,LAT,São Paulo,3,"5,29",1,"7,10","7,10","0,29",1,0,0,1,2,0,0,0,0,0,0,0,0,0,0,0,0,2
16,83.06220057720057,Diego Souza ,MEI,Sport,3,"18,45",9,"6,09","14,30","2,33",4,6,1,0,24,6,3,0,0,0,0,0,2,0,0,16,1,39
16,83.06220057720057,Diego ,MEI,Flamengo,3,"20,08",12,"6,33","2,20","-1,00",17,4,2,0,45,10,5,0,0,0,0,0,0,1,0,15,5,53
16,83.06220057720057,Thiago Neves ,MEI,Cruzeiro,3,"18,77",12,"6,78","11,40","1,37",10,5,2,0,26,8,18,1,0,0,0,0,1,0,0,15,3,49
16,83.06220057720057,Lucca ,ATA,Ponte Preta,3,"23,05",15,"8,14","15,40","1,44",17,8,1,0,53,14,17,0,0,0,0,0,1,1,0,15,6,44
16,83.06220057720057,Paolo Guerrero ,ATA,Flamengo,3,"13,80",10,"6,15","12,60","2,20",10,5,2,0,30,8,9,0,0,0,0,0,3,0,0,37,8,22
16,83.06220057720057,Richarlison  ,ATA,Fluminense,3,"13,50",12,"6,23","6,10","-1,35",20,5,2,0,32,6,6,0,0,0,0,0,3,0,0,30,11,30
17,76.13518467643468,Vanderlei Luxemburgo ,TEC,Sport,3,"8,46",13,"5,14","2,72","-1,07",0,0,0,0,0,0,0,0,0,0,0,0,0,0,0,0,0,0
17,76.13518467643468,Vanderlei ,GOL,Santos,3,"24,23",15,"10,86","20,00","2,10",0,0,0,8,2,0,0,0,35,3,0,0,1,0,10,1,0,5
17,76.13518467643468,Gabriel ,ZAG,Atlético-MG,3,"9,73",9,"4,12","0,00","0,00",13,1,0,2,6,3,1,0,0,0,0,0,0,0,0,8,0,17
17,76.13518467643468,Balbuena ,ZAG,Corinthians,3,"12,18",13,"6,84","12,90","1,58",11,2,0,9,10,3,1,0,0,0,0,0,1,0,0,4,2,23
17,76.13518467643468,Mena ,LAT,Sport,3,"5,44",6,"7,53","1,80","-2,77",10,1,4,3,4,0,1,0,0,0,0,1,2,0,0,13,1,12
17,76.13518467643468,Sidcley ,LAT,Atlético-PR,3,"12,37",14,"5,75","-1,20","-1,12",20,3,3,4,24,4,2,0,0,0,0,0,1,0,0,14,6,54
17,76.13518467643468,Diego Souza ,MEI,Sport,3,"17,27",10,"5,97","4,90","-1,18",4,6,1,0,24,6,3,0,0,0,0,0,2,0,0,16,1,39
17,76.13518467643468,Zé Rafael  ,MEI,Bahia,3,"19,82",15,"6,27","5,80","0,04",34,1,3,0,40,11,12,0,0,0,0,0,3,0,0,30,2,34
17,76.13518467643468,Thiago Neves ,MEI,Cruzeiro,3,"18,19",13,"6,70","5,80","-0,58",10,5,2,0,26,8,18,1,0,0,0,0,1,0,0,15,3,49
17,76.13518467643468,Lucca ,ATA,Ponte Preta,3,"24,02",16,"8,67","16,60","0,97",17,8,1,0,53,14,17,0,0,0,0,0,1,1,0,15,6,44
17,76.13518467643468,Luan ,ATA,Grêmio,3,"22,27",13,"8,44","2,70","-0,22",20,5,6,0,26,13,13,0,0,0,0,0,1,1,0,16,3,57
17,76.13518467643468,Richarlison  ,ATA,Fluminense,3,"12,64",13,"5,77","0,30","-0,86",20,5,2,0,32,6,6,0,0,0,0,0,3,0,0,30,11,30
18,92.4295417082917,Rogério Micale ,TEC,Atlético-MG,3,"9,37",1,"5,69","5,69","0,72",0,0,0,0,0,0,0,0,0,0,0,0,0,0,0,0,0,0
18,92.4295417082917,Douglas Friedrich ,GOL,Avaí,3,"7,74",8,"11,94","-3,50","-3,87",0,0,0,5,3,0,0,0,26,1,0,0,1,0,7,0,0,0
18,92.4295417082917,Pedro Geromel ,ZAG,Grêmio,3,"13,74",13,"6,74","4,80","-0,18",31,0,2,7,8,3,3,0,0,0,0,0,3,0,0,8,0,31
18,92.4295417082917,Balbuena ,ZAG,Corinthians,3,"11,98",14,"7,09","10,30","-0,20",15,3,1,10,13,3,1,0,0,0,0,0,2,0,0,5,2,25
18,92.4295417082917,Mena ,LAT,Sport,3,"5,94",7,"7,13","4,70","0,50",15,1,4,3,6,1,1,0,0,0,0,1,2,0,0,16,3,16
18,92.4295417082917,Juninho ,LAT,Vitória,3,"6,92",1,"6,50","6,50","1,92",0,0,0,1,3,0,0,0,0,0,0,0,0,0,0,0,0,0
18,92.4295417082917,Hernanes ,MEI,São Paulo,3,"13,95",1,"10,60","10,60","0,95",0,1,0,0,2,2,1,0,0,0,0,0,0,0,0,1,0,1
18,92.4295417082917,Zé Rafael  ,MEI,Bahia,3,"21,30",16,"6,80","14,70","1,48",42,1,3,0,52,11,16,0,0,0,0,0,3,0,0,34,3,36
18,92.4295417082917,Renê Júnior ,MEI,Bahia,3,"11,66",13,"6,93","6,80","0,78",42,3,0,0,27,15,6,0,0,0,0,1,3,0,0,24,3,36
18,92.4295417082917,Lucca ,ATA,Ponte Preta,3,"24,02",16,"8,67","0,00","0,00",17,10,1,0,56,15,17,0,0,0,0,0,1,1,0,17,6,46
18,92.4295417082917,Luan ,ATA,Grêmio,3,"21,66",14,"7,97","1,80","-0,61",21,5,6,0,34,14,15,0,0,0,0,0,1,1,0,16,3,70
18,92.4295417082917,Henrique Dourado ,ATA,Fluminense,3,"21,99",11,"7,53","0,00","0,00",4,9,2,0,22,8,6,0,0,0,0,0,3,0,0,24,1,34
19,82.87386554621848,Vanderlei Luxemburgo ,TEC,Sport,3,"8,79",15,"5,07","2,84","-0,32",0,0,0,0,0,0,0,0,0,0,0,0,0,0,0,0,0,0
19,82.87386554621848,Vanderlei ,GOL,Santos,3,"21,83",17,"10,34","2,50","-0,88",0,0,0,9,3,0,0,0,47,3,0,0,2,0,13,1,0,7
19,82.87386554621848,Fabián Noguera ,ZAG,Santos,3,"5,29",4,"5,50","0,00","0,00",4,0,1,2,1,2,0,0,0,0,0,0,0,0,0,1,0,4
19,82.87386554621848,Balbuena ,ZAG,Corinthians,3,"11,55",15,"6,96","5,20","-0,43",16,3,1,11,14,3,1,0,0,0,0,0,2,0,0,6,2,30
19,82.87386554621848,Fagner ,LAT,Corinthians,3,"14,22",14,"5,51","12,50","1,92",23,0,1,11,23,1,1,0,0,0,0,0,4,0,0,15,2,62
19,82.87386554621848,Juninho ,LAT,Vitória,3,"8,62",2,"6,65","6,80","1,70",2,0,1,1,3,0,0,0,0,0,0,0,0,0,0,2,0,2
19,82.87386554621848,Hernanes ,MEI,São Paulo,3,"13,99",2,"8,05","5,50","0,04",4,1,0,0,5,2,1,0,0,0,0,0,0,0,0,3,0,7
19,82.87386554621848,Zé Rafael  ,MEI,Bahia,3,"20,28",17,"6,71","5,20","-1,02",45,1,3,0,55,11,16,0,0,0,0,0,3,0,0,35,3,39
19,82.87386554621848,Renê Júnior ,MEI,Bahia,3,"11,36",14,"6,66","3,20","-0,30",44,3,0,0,30,15,7,0,0,0,0,1,3,0,0,27,3,40
19,82.87386554621848,Lucca ,ATA,Ponte Preta,3,"21,60",17,"8,25","1,50","-2,42",17,10,1,0,60,15,18,0,0,0,0,0,1,1,0,17,6,51
19,82.87386554621848,Paulinho ,ATA,Vasco,3,"5,25",5,"7,32","6,70","1,10",10,2,1,0,7,1,0,0,0,0,0,0,0,0,0,1,0,17
19,82.87386554621848,Henrique Dourado ,ATA,Fluminense,3,"21,70",12,"6,93","0,30","-0,29",5,9,2,0,23,8,6,0,0,0,0,0,3,0,0,26,1,37
20,79.30726495726495,Vanderlei Luxemburgo ,TEC,Sport,3,"8,79",16,"4,96","3,27","0,00",0,0,0,0,0,0,0,0,0,0,0,0,0,0,0,0,0,0
20,79.30726495726495,Vanderlei ,GOL,Santos,3,"22,47",18,"10,21","8,00","0,64",0,0,0,10,3,0,0,0,48,3,0,0,2,0,13,1,0,7
20,79.30726495726495,Emerson Silva ,ZAG,Botafogo,3,"6,38",3,"5,77","7,30","0,70",7,0,0,1,6,2,0,0,0,0,0,0,0,0,0,2,0,10
20,79.30726495726495,Wanderson ,ZAG,Atlético-PR,3,"6,98",10,"4,62","0,00","0,00",6,2,0,5,3,0,4,0,0,0,0,0,1,0,0,7,1,15
20,79.30726495726495,Thiago Carleto ,LAT,Coritiba,3,"6,03",5,"6,22","9,80","0,45",5,1,1,2,5,1,4,0,0,0,0,0,0,0,0,5,0,17
20,79.30726495726495,Juninho ,LAT,Vitória,3,"8,62",2,"6,65","0,00","0,00",2,0,1,1,3,0,0,0,0,0,0,0,0,0,0,2,0,2
20,79.30726495726495,Hernanes ,MEI,São Paulo,3,"15,08",3,"8,33","8,90","1,09",4,2,0,0,6,2,2,0,0,0,0,0,0,0,0,3,0,9
20,79.30726495726495,Zé Rafael  ,MEI,Bahia,3,"19,77",18,"6,55","3,90","-0,51",47,1,3,0,59,11,17,0,0,0,0,0,3,0,0,38,5,39
20,79.30726495726495,Renê Júnior ,MEI,Bahia,3,"10,56",15,"6,20","-0,30","-0,80",45,3,0,0,32,15,7,0,0,0,0,1,3,0,0,30,3,45
20,79.30726495726495,Lucca ,ATA,Ponte Preta,3,"21,36",18,"7,94","2,60","-0,24",18,10,1,0,64,16,18,0,0,0,0,0,1,1,0,20,6,52
20,79.30726495726495,Paulinho ,ATA,Vasco,3,"3,79",6,"5,82","-1,70","-1,46",11,2,1,0,7,1,0,0,0,0,0,0,1,0,0,2,0,20
20,79.30726495726495,Henrique Dourado ,ATA,Fluminense,3,"22,77",13,"7,06","8,60","1,07",6,10,2,0,26,8,6,0,0,0,0,0,3,0,0,30,1,39
21,77.04897955115061,Vanderlei Luxemburgo ,TEC,Sport,3,"9,25",17,"4,98","5,22","0,46",0,0,0,0,0,0,0,0,0,0,0,0,0,0,0,0,0,0
21,77.04897955115061,Vanderlei ,GOL,Santos,3,"22,09",19,"9,94","5,00","-0,38",0,0,0,11,3,0,0,0,48,3,0,0,2,0,13,1,0,7
21,77.04897955115061,Emerson Silva ,ZAG,Botafogo,3,"5,82",4,"5,08","3,00","-0,56",7,0,0,2,6,2,0,0,0,0,0,0,1,0,0,2,0,10
21,77.04897955115061,Wanderson ,ZAG,Atlético-PR,3,"6,37",11,"4,54","3,70","-0,61",7,2,0,5,3,0,6,0,0,0,0,0,1,0,0,7,1,15
21,77.04897955115061,Thiago Carleto ,LAT,Coritiba,3,"4,61",6,"5,25","0,40","-1,42",5,1,1,2,6,2,5,0,0,0,0,0,0,0,0,5,0,23
21,77.04897955115061,Sidcley ,LAT,Atlético-PR,3,"14,23",18,"5,97","7,70","0,62",24,4,3,7,29,4,3,0,0,0,0,0,1,0,0,20,9,64
21,77.04897955115061,Hernanes ,MEI,São Paulo,3,"18,79",4,"11,30","20,20","3,71",4,4,1,0,11,2,2,0,0,0,0,0,1,0,0,5,0,10
21,77.04897955115061,Zé Rafael  ,MEI,Bahia,3,"18,77",19,"6,12","-1,60","-1,00",48,1,3,0,61,11,17,0,0,0,0,0,4,0,0,42,5,40
21,77.04897955115061,Renê Júnior ,MEI,Bahia,3,"11,87",16,"6,25","7,00","1,31",48,3,0,0,36,16,7,0,0,0,0,1,3,0,0,31,3,46
21,77.04897955115061,Luis Fabiano ,ATA,Vasco,3,"13,05",10,"6,07","1,70","-0,99",4,5,2,0,21,17,6,0,0,0,0,0,4,0,0,19,6,13
21,77.04897955115061,Fernandinho ,ATA,Grêmio,3,"11,62",16,"6,19","1,20","-2,07",17,6,1,0,42,4,11,0,0,0,0,0,1,0,0,16,0,26
21,77.04897955115061,Henrique Dourado ,ATA,Fluminense,3,"20,95",14,"6,41","-2,10","-1,82",6,10,2,0,29,8,7,0,0,0,0,0,4,0,0,34,1,41
22,79.04744397759103,Vanderlei Luxemburgo ,TEC,Sport,3,"8,64",18,"4,81","1,99","-0,61",0,0,0,0,0,0,0,0,0,0,0,0,0,0,0,0,0,0
22,79.04744397759103,Vanderlei ,GOL,Santos,3,"22,87",20,"9,99","11,00","0,78",0,0,0,12,3,0,0,0,50,3,0,0,2,0,13,1,0,7
22,79.04744397759103,Oswaldo Henríquez ,ZAG,Sport,3,"5,58",8,"5,51","4,20","-0,94",21,0,0,4,3,1,0,0,0,0,0,0,2,0,0,10,0,16
22,79.04744397759103,Balbuena ,ZAG,Corinthians,3,"10,40",17,"6,53","-0,70","-1,49",23,3,1,11,14,4,1,0,0,0,0,0,3,0,0,7,3,40
22,79.04744397759103,Thiago Carleto ,LAT,Coritiba,3,"6,03",7,"5,73","8,60","1,42",6,1,1,3,6,3,7,0,0,0,0,0,0,0,0,6,0,24
22,79.04744397759103,Mena ,LAT,Sport,3,"5,35",10,"5,82","0,20","-1,43",20,1,4,4,10,1,1,0,0,0,0,1,3,0,0,20,3,27
22,79.04744397759103,Hernanes ,MEI,São Paulo,3,"16,93",5,"10,32","6,40","-1,86",4,5,1,0,11,3,4,0,0,0,0,0,2,0,0,6,0,16
22,79.04744397759103,Zé Rafael  ,MEI,Bahia,3,"19,01",20,"5,93","2,40","0,24",50,1,3,0,63,11,17,0,0,0,0,0,4,0,0,45,6,40
22,79.04744397759103,Renê Júnior ,MEI,Bahia,3,"11,06",17,"6,04","2,70","-0,81",48,3,0,0,40,16,8,0,0,0,0,1,3,0,0,31,3,47
22,79.04744397759103,Luis Fabiano ,ATA,Vasco,3,"11,82",11,"5,19","-3,60","-1,23",4,5,2,0,22,17,6,0,0,0,0,0,5,0,0,22,6,15
22,79.04744397759103,Lucca ,ATA,Ponte Preta,3,"20,16",20,"7,16","-1,40","-0,99",19,10,1,0,67,18,20,0,0,0,0,0,3,1,0,23,6,55
22,79.04744397759103,Henrique Dourado ,ATA,Fluminense,3,"23,43",15,"6,94","14,40","2,48",7,12,2,0,30,8,8,0,0,0,0,0,4,0,0,40,4,42
23,74.70805088702147,Valdir ,TEC,Vasco,3,"9,46",1,"5,14","5,14","0,53",0,0,0,0,0,0,0,0,0,0,0,0,0,0,0,0,0,0
23,74.70805088702147,Vanderlei ,GOL,Santos,3,"22,07",21,"9,70","4,00","-0,80",0,0,0,12,3,0,0,0,52,3,0,0,2,0,14,1,0,7
23,74.70805088702147,Pedro Henrique ,ZAG,Corinthians,3,"9,12",14,"4,90","3,40","-0,34",15,1,0,7,8,3,2,0,0,0,0,0,0,0,0,5,0,18
23,74.70805088702147,Wallace Reis  ,ZAG,Vitória,3,"9,22",7,"5,37","7,50","0,18",13,0,0,4,13,0,0,1,0,0,0,0,3,0,0,8,0,15
23,74.70805088702147,Thiago Carleto ,LAT,Coritiba,3,"6,03",7,"5,73","0,00","0,00",6,1,1,3,6,3,7,0,0,0,0,0,0,0,0,6,0,24
23,74.70805088702147,Fagner ,LAT,Corinthians,3,"13,18",17,"5,55","5,00","0,46",30,0,2,11,28,3,1,1,0,0,0,0,4,0,0,18,2,81
23,74.70805088702147,Hernanes ,MEI,São Paulo,3,"18,57",6,"10,52","11,50","1,64",4,6,1,0,17,4,5,0,0,0,0,0,2,0,0,6,0,20
23,74.70805088702147,Zé Rafael  ,MEI,Bahia,3,"20,43",21,"6,08","9,10","1,42",53,1,4,0,65,11,17,0,0,0,0,0,4,0,0,46,6,45
23,74.70805088702147,Renê Júnior ,MEI,Bahia,3,"13,35",18,"6,49","14,20","2,29",52,4,0,0,40,17,8,0,0,0,0,1,3,0,0,33,3,48
23,74.70805088702147,Júnior Dutra ,ATA,Avaí,3,"9,11",16,"5,22","6,60","-0,56",17,5,1,0,25,17,7,2,0,0,0,0,1,0,0,25,3,43
23,74.70805088702147,Rodrigão ,ATA,Bahia,3,"5,55",10,"4,52","0,70","0,21",2,4,2,0,8,10,7,0,0,0,0,0,1,0,0,11,7,24
23,74.70805088702147,Henrique Dourado ,ATA,Fluminense,3,"21,31",16,"6,49","-0,30","-2,12",7,12,2,0,31,8,8,0,0,0,0,0,4,0,0,41,4,43
24,76.21931272030344,Fábio Carille ,TEC,Corinthians,3,"11,47",22,"4,51","1,14","-0,46",0,0,0,0,0,0,0,0,0,0,0,0,0,0,0,0,0,0
24,76.21931272030344,Vanderlei ,GOL,Santos,3,"24,58",22,"10,05","17,50","2,51",0,0,0,13,4,0,0,0,56,3,0,0,2,0,14,1,0,7
24,76.21931272030344,Balbuena ,ZAG,Corinthians,3,"11,12",18,"6,36","3,40","0,72",25,3,1,11,14,4,1,0,0,0,0,0,3,0,0,7,3,40
24,76.21931272030344,Gustavo Henrique ,ZAG,Santos,3,"6,00",2,"5,70","6,20","0,30",0,0,0,2,2,1,2,0,0,0,0,0,0,0,0,4,0,1
24,76.21931272030344,Fabrício ,LAT,Atlético-PR,3,"6,04",6,"5,47","7,20","1,55",15,0,0,3,6,1,1,0,0,0,0,0,1,0,0,9,1,18
24,76.21931272030344,Mena ,LAT,Sport,3,"6,15",11,"5,70","4,50","0,80",24,1,4,4,11,1,1,0,0,0,0,1,4,0,0,21,3,28
24,76.21931272030344,Hernanes ,MEI,São Paulo,3,"18,85",7,"10,42","9,80","0,28",6,7,1,0,20,5,5,0,0,0,0,0,2,0,0,7,0,31
24,76.21931272030344,Zé Rafael  ,MEI,Bahia,3,"21,11",22,"6,34","11,80","0,68",55,2,4,0,67,12,17,0,0,0,0,0,4,0,0,47,7,46
24,76.21931272030344,Renê Júnior ,MEI,Bahia,3,"12,22",19,"6,46","5,90","-1,13",55,4,0,0,40,20,8,0,0,0,0,1,3,0,0,35,3,49
24,76.21931272030344,Júnior Dutra ,ATA,Avaí,3,"9,56",17,"5,39","8,10","0,45",19,6,1,0,28,18,7,2,0,0,0,0,2,0,0,28,4,48
24,76.21931272030344,Jô ,ATA,Corinthians,3,"11,88",21,"4,15","-1,10","-0,26",6,11,2,0,24,11,15,0,0,0,0,0,2,1,0,40,25,52
24,76.21931272030344,Henrique Dourado ,ATA,Fluminense,3,"22,68",17,"6,57","7,90","1,37",7,13,2,0,32,8,9,0,0,0,0,0,4,0,0,42,5,45
25,75.95670272519243,Fábio Carille ,TEC,Corinthians,3,"12,10",23,"4,53","4,91","0,63",0,0,0,0,0,0,0,0,0,0,0,0,0,0,0,0,0,0
25,75.95670272519243,Paulo Victor ,GOL,Grêmio,3,"8,38",3,"10,03","0,00","0,00",0,0,0,2,0,0,0,0,6,1,0,0,1,0,1,0,0,3
25,75.95670272519243,Balbuena ,ZAG,Corinthians,3,"11,77",19,"6,39","6,90","0,65",26,3,1,12,14,5,1,0,0,0,0,0,3,0,0,8,3,40
25,75.95670272519243,Kanu ,ZAG,Vitória,3,"8,74",18,"4,69","-0,90","-1,74",21,4,1,6,10,10,3,1,0,0,1,0,4,0,0,14,5,44
25,75.95670272519243,Mena ,LAT,Sport,3,"5,21",12,"5,13","-1,10","-0,94",24,1,4,4,12,1,1,0,0,0,0,1,4,0,0,23,3,30
25,75.95670272519243,Fagner ,LAT,Corinthians,3,"13,80",19,"5,48","8,30","1,20",34,0,2,12,30,3,1,2,0,0,0,0,5,0,0,20,2,93
25,75.95670272519243,Hernanes ,MEI,São Paulo,3,"17,33",8,"9,26","1,10","-1,52",6,7,1,0,21,7,7,0,0,0,0,0,2,0,0,9,0,37
25,75.95670272519243,Zé Rafael  ,MEI,Bahia,3,"20,24",23,"6,33","6,00","-0,87",57,2,4,0,73,12,18,0,0,0,0,0,4,0,0,48,7,49
25,75.95670272519243,Bruno Silva ,MEI,Botafogo,3,"13,90",20,"5,46","8,70","0,68",42,5,4,0,34,13,5,0,0,0,0,0,6,0,0,39,0,73
25,75.95670272519243,Lucca ,ATA,Ponte Preta,3,"21,73",22,"7,11","7,70","0,39",23,10,1,0,78,20,22,0,0,0,0,0,3,1,0,24,7,60
25,75.95670272519243,Bruno Henrique ,ATA,Santos,3,"14,19",18,"5,25","0,00","0,00",16,5,7,0,51,9,10,1,0,0,0,1,3,0,0,44,5,58
25,75.95670272519243,Henrique Dourado ,ATA,Fluminense,3,"23,18",18,"6,78","10,30","0,50",8,14,2,0,35,9,9,0,0,0,0,0,4,0,0,43,6,47
26,76.07557214524606,Reinaldo Rueda ,TEC,Flamengo,3,"12,61",5,"5,28","4,30","-0,30",0,0,0,0,0,0,0,0,0,0,0,0,0,0,0,0,0,0
26,76.07557214524606,Vanderlei ,GOL,Santos,3,"23,66",24,"9,87","11,00","1,08",0,0,0,14,4,0,0,0,61,3,0,0,2,0,16,1,0,8
26,76.07557214524606,Balbuena ,ZAG,Corinthians,3,"10,71",20,"6,10","0,50","-1,06",28,3,1,12,15,5,1,0,0,0,0,0,4,0,0,9,3,43
26,76.07557214524606,Kanu ,ZAG,Vitória,3,"9,01",19,"4,51","1,20","0,27",22,4,1,6,10,10,3,1,0,0,1,0,4,0,0,15,5,44
26,76.07557214524606,Sander ,LAT,Sport,3,"9,26",13,"5,68","0,00","0,00",35,0,1,6,13,1,1,0,0,0,0,0,1,0,0,28,0,43
26,76.07557214524606,Fagner ,LAT,Corinthians,3,"12,80",20,"5,31","2,10","-1,00",36,0,2,12,33,3,1,2,0,0,0,0,5,0,0,21,3,99
26,76.07557214524606,Hernanes ,MEI,São Paulo,3,"19,10",9,"9,41","10,60","1,77",10,7,1,0,25,9,9,0,0,0,0,0,2,0,0,10,1,39
26,76.07557214524606,Zé Rafael  ,MEI,Bahia,3,"20,60",24,"6,40","8,00","0,36",61,2,4,0,76,12,18,0,0,0,0,0,4,0,0,48,7,50
26,76.07557214524606,Bruno Silva ,MEI,Botafogo,3,"13,69",21,"5,52","6,80","-0,21",43,5,5,0,34,13,7,0,0,0,0,0,6,0,0,41,0,76
26,76.07557214524606,Bruno Henrique ,ATA,Santos,3,"15,24",19,"5,74","14,50","1,05",18,6,7,0,51,11,12,1,0,0,0,1,3,0,0,44,5,59
26,76.07557214524606,Lucca ,ATA,Ponte Preta,3,"20,68",23,"6,88","1,80","-1,05",23,10,1,0,81,21,23,0,0,0,0,0,3,1,0,25,7,63
26,76.07557214524606,Henrique Dourado ,ATA,Fluminense,3,"21,17",19,"6,36","-1,20","-2,01",9,14,2,0,36,9,9,0,0,0,0,0,4,0,0,48,6,50
27,75.92227694235588,Reinaldo Rueda ,TEC,Flamengo,3,"12,34",6,"4,75","2,07","-0,27",0,0,0,0,0,0,0,0,0,0,0,0,0,0,0,0,0,0
27,75.92227694235588,Vanderlei ,GOL,Santos,3,"23,02",25,"9,68","5,00","-0,64",0,0,0,15,4,0,0,0,61,3,0,0,2,0,16,1,0,8
27,75.92227694235588,Balbuena ,ZAG,Corinthians,3,"10,25",21,"5,70","-2,40","-0,46",29,3,1,12,15,5,1,0,0,0,0,0,5,0,0,11,4,45
27,75.92227694235588,Manoel ,ZAG,Cruzeiro,3,"8,77",1,"5,20","0,00","0,00",0,0,0,1,2,0,0,0,0,0,0,0,0,0,0,0,1,1
27,75.92227694235588,Thiago Carleto ,LAT,Coritiba,3,"5,02",10,"5,45","-1,20","-2,28",12,2,2,3,10,3,8,0,0,0,0,0,1,1,0,9,0,40
27,75.92227694235588,Raul Prata ,LAT,Sport,3,"5,04",8,"5,28","3,50","-0,86",18,0,1,3,7,5,1,0,0,0,0,0,1,0,0,9,0,33
27,75.92227694235588,Hernanes ,MEI,São Paulo,3,"18,87",10,"9,12","6,50","-0,23",14,7,1,0,28,9,9,0,0,0,0,0,2,0,0,10,1,45
27,75.92227694235588,Zé Rafael  ,MEI,Bahia,3,"22,69",25,"6,84","17,40","2,09",65,3,4,0,84,12,18,0,0,0,0,0,4,0,0,49,7,53
27,75.92227694235588,Renê Júnior ,MEI,Bahia,3,"12,22",19,"6,46","0,00","0,00",55,4,0,0,40,20,8,0,0,0,0,1,3,0,0,35,3,49
27,75.92227694235588,Bruno Henrique ,ATA,Santos,3,"14,01",20,"5,70","5,00","-1,23",19,6,8,0,56,12,12,1,0,0,0,1,4,0,0,47,6,62
27,75.92227694235588,Lucca ,ATA,Ponte Preta,3,"20,07",24,"6,49","-2,40","-0,61",23,10,1,0,83,22,24,0,0,0,0,0,3,2,0,27,7,65
27,75.92227694235588,Henrique Dourado ,ATA,Fluminense,3,"21,24",20,"5,98","-1,20","0,07",9,14,2,0,39,9,10,0,0,0,0,0,4,0,0,53,6,54
28,76.53299122807017,Reinaldo Rueda ,TEC,Flamengo,3,"12,34",6,"4,75","2,07","-0,27",0,0,0,0,0,0,0,0,0,0,0,0,0,0,0,0,0,0
28,76.53299122807017,Vanderlei ,GOL,Santos,3,"23,02",25,"9,68","5,00","-0,64",0,0,0,15,4,0,0,0,61,3,0,0,2,0,16,1,0,8
28,76.53299122807017,Balbuena ,ZAG,Corinthians,3,"10,25",21,"5,70","-2,40","-0,46",29,3,1,12,15,5,1,0,0,0,0,0,5,0,0,11,4,45
28,76.53299122807017,Manoel ,ZAG,Cruzeiro,3,"8,77",1,"5,20","0,00","0,00",0,0,0,1,2,0,0,0,0,0,0,0,0,0,0,0,1,1
28,76.53299122807017,Thiago Carleto ,LAT,Coritiba,3,"5,02",10,"5,45","-1,20","-2,28",12,2,2,3,10,3,8,0,0,0,0,0,1,1,0,9,0,40
28,76.53299122807017,Egídio ,LAT,Palmeiras,3,"9,55",14,"5,89","0,00","0,00",31,1,1,7,18,2,3,0,0,0,0,0,3,0,0,14,2,59
28,76.53299122807017,Hernanes ,MEI,São Paulo,3,"18,87",10,"9,12","6,50","-0,23",14,7,1,0,28,9,9,0,0,0,0,0,2,0,0,10,1,45
28,76.53299122807017,Zé Rafael  ,MEI,Bahia,3,"22,69",25,"6,84","17,40","2,09",65,3,4,0,84,12,18,0,0,0,0,0,4,0,0,49,7,53
28,76.53299122807017,Renê Júnior ,MEI,Bahia,3,"12,22",19,"6,46","0,00","0,00",55,4,0,0,40,20,8,0,0,0,0,1,3,0,0,35,3,49
28,76.53299122807017,Bruno Henrique ,ATA,Santos,3,"14,01",20,"5,70","5,00","-1,23",19,6,8,0,56,12,12,1,0,0,0,1,4,0,0,47,6,62
28,76.53299122807017,Lucca ,ATA,Ponte Preta,3,"20,07",24,"6,49","-2,40","-0,61",23,10,1,0,83,22,24,0,0,0,0,0,3,2,0,27,7,65
28,76.53299122807017,Henrique Dourado ,ATA,Fluminense,3,"21,24",20,"5,98","-1,20","0,07",9,14,2,0,39,9,10,0,0,0,0,0,4,0,0,53,6,54
29,77.44483333333334,Reinaldo Rueda ,TEC,Flamengo,3,"12,34",6,"4,75","2,07","-0,27",0,0,0,0,0,0,0,0,0,0,0,0,0,0,0,0,0,0
29,77.44483333333334,Vanderlei ,GOL,Santos,3,"23,02",25,"9,68","5,00","-0,64",0,0,0,15,4,0,0,0,61,3,0,0,2,0,16,1,0,8
29,77.44483333333334,Balbuena ,ZAG,Corinthians,3,"10,25",21,"5,70","-2,40","-0,46",29,3,1,12,15,5,1,0,0,0,0,0,5,0,0,11,4,45
29,77.44483333333334,Manoel ,ZAG,Cruzeiro,3,"8,77",1,"5,20","0,00","0,00",0,0,0,1,2,0,0,0,0,0,0,0,0,0,0,0,1,1
29,77.44483333333334,Thiago Carleto ,LAT,Coritiba,3,"5,02",10,"5,45","-1,20","-2,28",12,2,2,3,10,3,8,0,0,0,0,0,1,1,0,9,0,40
29,77.44483333333334,Egídio ,LAT,Palmeiras,3,"9,55",14,"5,89","0,00","0,00",31,1,1,7,18,2,3,0,0,0,0,0,3,0,0,14,2,59
29,77.44483333333334,Hernanes ,MEI,São Paulo,3,"18,87",10,"9,12","6,50","-0,23",14,7,1,0,28,9,9,0,0,0,0,0,2,0,0,10,1,45
29,77.44483333333334,Zé Rafael  ,MEI,Bahia,3,"22,69",25,"6,84","17,40","2,09",65,3,4,0,84,12,18,0,0,0,0,0,4,0,0,49,7,53
29,77.44483333333334,Ronaldo ,MEI,Atlético-GO,3,"3,69",4,"7,38","2,80","-0,08",15,1,0,0,4,1,0,0,0,0,0,0,1,0,0,7,0,4
29,77.44483333333334,Bruno Henrique ,ATA,Santos,3,"14,01",20,"5,70","5,00","-1,23",19,6,8,0,56,12,12,1,0,0,0,1,4,0,0,47,6,62
29,77.44483333333334,Lucca ,ATA,Ponte Preta,3,"20,07",24,"6,49","-2,40","-0,61",23,10,1,0,83,22,24,0,0,0,0,0,3,2,0,27,7,65
29,77.44483333333334,Henrique Dourado ,ATA,Fluminense,3,"21,24",20,"5,98","-1,20","0,07",9,14,2,0,39,9,10,0,0,0,0,0,4,0,0,53,6,54
30,71.79411610129002,Carpegiani ,TEC,Bahia,3,"10,55",3,"5,02","3,21","-0,34",0,0,0,0,0,0,0,0,0,0,0,0,0,0,0,0,0,0
30,71.79411610129002,Vanderlei ,GOL,Santos,3,"22,79",28,"8,90","7,20","0,72",0,0,0,15,5,0,0,0,66,3,0,0,2,0,20,1,0,9
30,71.79411610129002,Balbuena ,ZAG,Corinthians,3,"11,67",24,"5,39","7,50","0,67",34,3,1,13,16,5,1,0,0,0,0,0,5,0,0,12,5,56
30,71.79411610129002,Réver ,ZAG,Flamengo,3,"14,19",23,"5,48","18,30","2,31",31,5,0,7,22,5,5,0,0,0,0,0,2,0,0,16,2,27
30,71.79411610129002,Thiago Carleto ,LAT,Coritiba,3,"5,99",13,"5,12","4,10","-0,19",15,2,3,4,11,4,10,0,0,0,0,0,2,1,0,10,0,52
30,71.79411610129002,Marcos Rocha ,LAT,Atlético-MG,3,"10,87",14,"5,38","3,90","-0,11",42,0,3,3,21,4,2,0,0,0,0,0,4,0,0,27,1,65
30,71.79411610129002,Hernanes ,MEI,São Paulo,3,"18,45",13,"7,88","6,20","0,14",19,7,1,0,37,10,11,0,0,0,0,0,2,0,0,11,1,58
30,71.79411610129002,Zé Rafael  ,MEI,Bahia,3,"20,36",28,"6,60","4,30","0,35",70,3,4,0,94,14,22,0,0,0,0,0,4,0,0,52,8,63
30,71.79411610129002,Amaral ,MEI,Chapecoense,3,"5,03",1,"6,00","6,00","0,03",4,0,0,0,0,0,0,0,0,0,0,0,0,0,0,1,0,1
30,71.79411610129002,Fernandinho ,ATA,Grêmio,3,"11,41",23,"5,02","1,80","0,47",22,6,1,0,67,13,13,0,0,0,0,0,1,0,0,27,3,45
30,71.79411610129002,Lucca ,ATA,Ponte Preta,3,"19,89",26,"6,03","0,60","-0,50",24,10,1,0,85,25,24,0,0,0,0,0,3,2,0,30,9,69
30,71.79411610129002,Henrique Dourado ,ATA,Fluminense,3,"22,26",23,"5,83","7,60","0,25",9,16,2,0,45,11,13,0,0,0,0,0,5,0,0,61,8,60
31,72.77268238896424,Carpegiani ,TEC,Bahia,3,"11,21",4,"5,04","5,12","0,66",0,0,0,0,0,0,0,0,0,0,0,0,0,0,0,0,0,0
31,72.77268238896424,Vanderlei ,GOL,Santos,3,"23,41",29,"8,94","10,20","0,62",0,0,0,16,5,0,0,0,68,3,0,0,2,0,20,2,0,10
31,72.77268238896424,Balbuena ,ZAG,Corinthians,3,"11,00",25,"5,29","3,00","-0,67",36,3,1,13,17,5,1,0,0,0,0,0,5,0,0,12,5,59
31,72.77268238896424,Pablo ,ZAG,Corinthians,3,"11,40",18,"4,67","0,00","0,00",19,0,0,11,8,10,2,0,0,0,0,0,2,0,0,11,0,23
31,72.77268238896424,Egídio ,LAT,Palmeiras,3,"8,07",18,"5,84","-0,20","-2,03",44,1,1,8,23,2,4,0,0,0,0,0,3,0,0,18,2,79
31,72.77268238896424,Marcos Rocha ,LAT,Atlético-MG,3,"12,07",15,"5,71","10,30","1,20",48,0,3,3,25,4,2,0,0,0,0,0,4,0,0,29,1,68
31,72.77268238896424,Hernanes ,MEI,São Paulo,3,"19,76",14,"8,20","12,30","1,31",22,8,1,0,37,10,11,0,0,0,0,0,2,0,0,12,1,59
31,72.77268238896424,Zé Rafael  ,MEI,Bahia,3,"20,67",29,"6,58","6,00","0,31",73,3,4,0,98,14,22,0,0,0,0,0,4,0,0,53,8,65
31,72.77268238896424,Renê Júnior ,MEI,Bahia,3,"12,33",23,"5,99","7,20","0,54",66,4,0,0,47,22,8,0,0,0,0,1,5,0,0,41,3,54
31,72.77268238896424,Bruno Henrique ,ATA,Santos,3,"14,80",21,"5,86","0,00","0,00",21,6,9,0,59,13,13,1,0,0,0,1,4,0,0,49,8,64
31,72.77268238896424,Lucca ,ATA,Ponte Preta,3,"19,57",27,"5,78","-0,70","-0,32",24,10,1,0,86,27,25,0,0,0,0,0,4,2,0,32,9,71
31,72.77268238896424,Henrique Dourado ,ATA,Fluminense,3,"22,26",23,"5,83","0,00","0,00",9,16,2,0,45,11,13,0,0,0,0,0,5,0,0,61,8,60
32,72.20800957814116,Daniel Paulista ,TEC,Sport,3,"4,01",2,"5,20","5,45","0,20",0,0,0,0,0,0,0,0,0,0,0,0,0,0,0,0,0,0
32,72.20800957814116,Vanderlei ,GOL,Santos,3,"21,32",30,"8,61","-1,00","-2,09",0,0,0,16,5,0,0,0,69,3,0,0,2,0,22,2,0,10
32,72.20800957814116,Balbuena ,ZAG,Corinthians,3,"10,75",26,"5,17","2,10","-0,25",37,3,1,13,19,5,1,0,0,0,0,0,5,0,0,12,5,61
32,72.20800957814116,Kanu ,ZAG,Vitória,3,"9,01",19,"4,51","0,00","0,00",22,4,1,6,10,10,3,1,0,0,1,0,4,0,0,15,5,44
32,72.20800957814116,Egídio ,LAT,Palmeiras,3,"8,21",19,"5,60","1,30","0,14",45,1,1,8,24,2,4,0,0,0,0,0,3,0,0,18,2,82
32,72.20800957814116,Marcos Rocha ,LAT,Atlético-MG,3,"11,79",16,"5,87","8,30","-0,28",51,0,3,4,26,4,2,0,0,0,0,0,4,0,0,30,1,74
32,72.20800957814116,Hernanes ,MEI,São Paulo,3,"20,62",15,"8,71","15,90","0,86",24,8,3,0,40,12,12,0,0,0,0,0,2,0,0,13,1,62
32,72.20800957814116,Zé Rafael  ,MEI,Bahia,3,"21,04",30,"6,66","9,00","0,37",76,3,5,0,101,14,22,0,0,0,0,0,4,0,0,56,9,67
32,72.20800957814116,Renê Júnior ,MEI,Bahia,3,"11,90",24,"5,94","4,80","-0,43",69,4,0,0,48,22,8,0,0,0,0,1,5,0,0,42,3,55
32,72.20800957814116,Bruno Henrique ,ATA,Santos,3,"12,68",22,"5,53","-1,30","-2,12",22,6,9,0,64,13,13,1,0,0,0,1,5,0,0,53,8,69
32,72.20800957814116,Lucca ,ATA,Ponte Preta,3,"20,57",28,"5,82","6,80","1,00",25,11,1,0,86,27,25,0,0,0,0,0,4,2,0,35,10,74
32,72.20800957814116,Henrique Dourado ,ATA,Fluminense,3,"20,74",24,"5,60","0,30","-1,52",9,16,2,0,48,12,14,0,0,0,0,0,5,0,0,65,8,63
33,73.4785666153061,Elano ,TEC,Santos,3,"9,50",3,"5,43","6,50","-0,85",0,0,0,0,0,0,0,0,0,0,0,0,0,0,0,0,0,0
33,73.4785666153061,Vanderlei ,GOL,Santos,3,"21,73",31,"8,38","1,50","0,41",0,0,0,16,6,0,0,0,70,3,0,0,2,0,23,2,0,10
33,73.4785666153061,Balbuena ,ZAG,Corinthians,3,"12,46",27,"5,40","11,50","1,71",39,4,1,13,20,6,2,0,0,0,0,0,5,0,0,15,5,63
33,73.4785666153061,Pablo ,ZAG,Corinthians,3,"10,36",20,"4,22","-0,50","-0,24",19,0,0,11,8,11,3,0,0,0,0,0,2,0,0,13,0,24
33,73.4785666153061,Thiago Carleto ,LAT,Coritiba,3,"9,09",16,"6,10","20,20","2,20",22,2,6,5,12,5,12,0,0,0,0,0,2,1,0,11,1,62
33,73.4785666153061,Marcos Rocha ,LAT,Atlético-MG,3,"11,54",17,"5,87","5,80","-0,25",55,0,3,4,28,4,2,0,0,0,0,0,4,0,0,31,1,79
33,73.4785666153061,Hernanes ,MEI,São Paulo,3,"20,76",16,"9,02","13,60","0,14",27,9,3,0,43,13,12,0,0,0,0,0,2,0,0,14,1,66
33,73.4785666153061,Zé Rafael  ,MEI,Bahia,3,"21,35",31,"6,75","9,60","0,31",81,3,5,0,104,15,23,0,0,0,0,0,4,0,0,58,10,69
33,73.4785666153061,Renê Júnior ,MEI,Bahia,3,"12,93",25,"6,10","10,00","1,03",74,4,0,0,51,23,9,0,0,0,0,1,5,0,0,43,3,59
33,73.4785666153061,Bruno Henrique ,ATA,Santos,3,"15,16",23,"5,85","12,90","2,48",23,6,11,0,67,14,15,1,0,0,0,1,5,0,0,56,8,74
33,73.4785666153061,Lucca ,ATA,Ponte Preta,3,"19,75",29,"5,66","1,30","-0,82",26,11,1,0,87,28,25,0,0,0,0,0,4,2,0,37,10,76
33,73.4785666153061,Henrique Dourado ,ATA,Fluminense,3,"21,73",25,"5,61","5,90","0,99",9,16,3,0,51,12,14,0,0,0,0,0,5,0,0,65,8,65
34,73.6635666153061,Elano ,TEC,Santos,3,"9,50",3,"5,43","6,50","-0,85",0,0,0,0,0,0,0,0,0,0,0,0,0,0,0,0,0,0
34,73.6635666153061,Vanderlei ,GOL,Santos,3,"21,73",31,"8,38","1,50","0,41",0,0,0,16,6,0,0,0,70,3,0,0,2,0,23,2,0,10
34,73.6635666153061,Balbuena ,ZAG,Corinthians,3,"12,46",27,"5,40","11,50","1,71",39,4,1,13,20,6,2,0,0,0,0,0,5,0,0,15,5,63
34,73.6635666153061,Wallace Reis  ,ZAG,Vitória,3,"9,37",17,"4,40","4,00","-0,16",27,2,0,4,23,2,5,1,0,0,0,0,4,0,0,23,0,30
34,73.6635666153061,Thiago Carleto ,LAT,Coritiba,3,"9,09",16,"6,10","20,20","2,20",22,2,6,5,12,5,12,0,0,0,0,0,2,1,0,11,1,62
34,73.6635666153061,Marcos Rocha ,LAT,Atlético-MG,3,"11,54",17,"5,87","5,80","-0,25",55,0,3,4,28,4,2,0,0,0,0,0,4,0,0,31,1,79
34,73.6635666153061,Hernanes ,MEI,São Paulo,3,"20,76",16,"9,02","13,60","0,14",27,9,3,0,43,13,12,0,0,0,0,0,2,0,0,14,1,66
34,73.6635666153061,Zé Rafael  ,MEI,Bahia,3,"21,35",31,"6,75","9,60","0,31",81,3,5,0,104,15,23,0,0,0,0,0,4,0,0,58,10,69
34,73.6635666153061,Renê Júnior ,MEI,Bahia,3,"12,93",25,"6,10","10,00","1,03",74,4,0,0,51,23,9,0,0,0,0,1,5,0,0,43,3,59
34,73.6635666153061,Bruno Henrique ,ATA,Santos,3,"15,16",23,"5,85","12,90","2,48",23,6,11,0,67,14,15,1,0,0,0,1,5,0,0,56,8,74
34,73.6635666153061,Lucca ,ATA,Ponte Preta,3,"19,75",29,"5,66","1,30","-0,82",26,11,1,0,87,28,25,0,0,0,0,0,4,2,0,37,10,76
34,73.6635666153061,Henrique Dourado ,ATA,Fluminense,3,"21,73",25,"5,61","5,90","0,99",9,16,3,0,51,12,14,0,0,0,0,0,5,0,0,65,8,65
35,70.70241686422997,Alberto Valentim ,TEC,Palmeiras,3,"15,56",7,"5,02","7,87","0,97",0,0,0,0,0,0,0,0,0,0,0,0,0,0,0,0,0,0
35,70.70241686422997,Vanderlei ,GOL,Santos,3,"20,95",33,"7,89","-1,30","-0,83",0,0,0,16,6,0,0,0,73,3,0,0,2,0,27,2,0,11
35,70.70241686422997,Balbuena ,ZAG,Corinthians,3,"11,44",29,"5,35","4,70","-0,02",40,4,1,15,21,6,2,0,0,0,0,0,6,0,0,17,5,63
35,70.70241686422997,Pablo ,ZAG,Corinthians,3,"12,30",22,"4,65","10,70","0,62",23,0,0,13,9,13,3,0,0,0,0,0,2,0,0,14,0,25
35,70.70241686422997,Thiago Carleto ,LAT,Coritiba,3,"6,87",18,"6,14","4,50","-0,61",28,2,7,5,13,5,13,0,0,0,0,0,2,1,0,13,1,71
35,70.70241686422997,Reinaldo ,LAT,Chapecoense,3,"14,10",29,"5,54","7,90","-1,03",52,5,6,9,22,13,8,0,0,0,0,0,6,0,0,43,1,123
35,70.70241686422997,Hernanes ,MEI,São Paulo,3,"18,64",18,"8,35","1,20","-0,83",29,9,3,0,50,16,13,0,0,0,0,0,2,0,0,15,1,78
35,70.70241686422997,Zé Rafael  ,MEI,Bahia,3,"20,10",33,"6,47","3,00","0,06",85,3,5,0,108,16,24,0,0,0,0,0,5,0,0,64,10,73
35,70.70241686422997,Renê Júnior ,MEI,Bahia,3,"13,55",27,"6,28","12,80","1,41",85,4,0,0,55,25,9,0,0,0,0,1,5,0,0,51,3,62
35,70.70241686422997,Mendoza ,ATA,Bahia,3,"6,44",27,"5,18","4,10","0,57",34,7,3,0,34,25,15,1,0,0,0,0,3,0,0,29,1,70
35,70.70241686422997,Lucca ,ATA,Ponte Preta,3,"20,80",31,"5,64","8,70","0,92",27,11,2,0,96,31,28,0,0,0,0,0,5,2,0,38,11,84
35,70.70241686422997,Dudu ,ATA,Palmeiras,3,"16,25",22,"5,22","1,30","-1,50",19,7,3,0,88,8,11,0,0,0,0,0,5,0,0,20,7,85
36,67.04787385161724,Alberto Valentim ,TEC,Palmeiras,3,"16,12",8,"5,46","8,51","0,56",0,0,0,0,0,0,0,0,0,0,0,0,0,0,0,0,0,0
36,67.04787385161724,Vanderlei ,GOL,Santos,3,"20,61",34,"7,57","-3,00","-0,34",0,0,0,16,6,0,0,0,74,3,0,0,2,0,30,2,0,11
36,67.04787385161724,Balbuena ,ZAG,Corinthians,3,"11,44",29,"5,35","0,00","0,00",40,4,1,15,21,6,2,0,0,0,0,0,6,0,0,17,5,63
36,67.04787385161724,Wallace Reis  ,ZAG,Vitória,3,"9,78",19,"4,84","3,80","-1,45",34,2,1,4,29,2,6,1,0,0,0,0,5,0,0,24,0,34
36,67.04787385161724,Marcos Rocha ,LAT,Atlético-MG,3,"11,16",19,"5,84","2,70","-0,95",61,0,4,4,30,5,2,0,0,0,0,0,5,0,0,35,1,85
36,67.04787385161724,Reinaldo ,LAT,Chapecoense,3,"14,38",30,"5,64","8,50","0,28",54,5,7,9,25,13,10,0,0,0,0,0,6,0,0,45,1,131
36,67.04787385161724,Moisés ,MEI,Palmeiras,3,"10,14",16,"5,36","6,40","-0,37",26,3,3,0,39,5,6,1,0,0,0,0,1,0,0,13,0,71
36,67.04787385161724,Zé Rafael  ,MEI,Bahia,3,"19,85",34,"6,32","1,30","-0,25",86,3,5,0,112,16,25,0,0,0,0,0,5,0,0,68,11,76
36,67.04787385161724,Edson ,MEI,Bahia,3,"13,86",18,"5,28","3,60","-1,21",53,1,2,0,23,12,3,0,0,0,0,1,3,0,0,29,3,30
36,67.04787385161724,Mendoza ,ATA,Bahia,3,"7,24",28,"5,28","8,10","0,80",34,8,3,0,35,26,15,1,0,0,0,0,3,0,0,30,1,72
36,67.04787385161724,Lucca ,ATA,Ponte Preta,3,"19,38",32,"5,45","-0,40","-1,42",27,11,2,0,97,31,29,0,0,0,0,0,5,2,0,40,11,87
36,67.04787385161724,Dudu ,ATA,Palmeiras,3,"19,65",23,"5,88","20,50","3,40",20,8,5,0,90,9,11,0,0,0,0,0,5,0,0,20,7,88
37,67.45082908610748,Alberto Valentim ,TEC,Palmeiras,3,"15,31",9,"5,23","3,39","-0,81",0,0,0,0,0,0,0,0,0,0,0,0,0,0,0,0,0,0
37,67.45082908610748,Vanderlei ,GOL,Santos,3,"22,93",35,"7,68","11,50","2,32",0,0,0,17,7,0,0,0,76,3,0,0,2,0,30,2,0,11
37,67.45082908610748,Balbuena ,ZAG,Corinthians,3,"10,48",30,"5,14","-1,00","-0,96",40,4,1,15,21,7,2,0,0,0,0,0,6,0,0,18,5,67
37,67.45082908610748,Wallace Reis  ,ZAG,Vitória,3,"9,64",20,"4,74","2,90","-0,14",36,2,1,4,29,2,6,1,0,0,0,0,5,0,0,25,0,34
37,67.45082908610748,Marcos Rocha ,LAT,Atlético-MG,3,"12,91",20,"6,19","12,80","1,75",64,0,5,5,30,5,2,0,0,0,0,0,5,0,0,36,1,91
37,67.45082908610748,Reinaldo ,LAT,Chapecoense,3,"13,92",31,"5,63","5,40","-0,46",55,5,8,9,26,13,11,0,0,0,0,0,6,0,0,45,3,137
37,67.45082908610748,Moisés ,MEI,Palmeiras,3,"10,00",17,"5,35","5,20","-0,14",29,3,3,0,39,6,6,1,0,0,0,0,1,0,0,13,0,73
37,67.45082908610748,Zé Rafael  ,MEI,Bahia,3,"20,12",35,"6,24","3,50","0,27",87,3,5,0,117,16,26,0,0,0,0,0,5,0,0,69,11,80
37,67.45082908610748,Edson ,MEI,Bahia,3,"13,96",19,"5,23","4,30","0,10",56,1,2,0,23,12,3,0,0,0,0,1,3,0,0,30,3,31
37,67.45082908610748,Bruno Henrique ,ATA,Santos,3,"14,40",26,"6,00","7,10","-1,42",33,7,11,0,78,16,18,1,0,0,0,1,6,0,0,67,10,90
37,67.45082908610748,Henrique Dourado ,ATA,Fluminense,3,"22,60",28,"5,53","12,70","2,92",10,18,3,0,60,14,17,0,0,0,0,0,7,0,0,80,9,66
37,67.45082908610748,Dudu ,ATA,Palmeiras,3,"16,94",24,"5,77","3,30","-2,71",21,8,5,0,91,9,13,0,0,0,0,0,5,0,0,20,7,91
38,66.42165985514214,Alberto Valentim ,TEC,Palmeiras,3,"15,89",10,"5,32","6,15","0,58",0,0,0,0,0,0,0,0,0,0,0,0,0,0,0,0,0,0
38,66.42165985514214,Vanderlei ,GOL,Santos,3,"22,31",36,"7,66","7,00","-0,62",0,0,0,17,7,0,0,0,79,3,0,0,2,0,31,2,0,11
38,66.42165985514214,Balbuena ,ZAG,Corinthians,3,"11,56",31,"5,15","5,50","1,08",44,4,1,15,21,7,2,0,0,0,0,0,6,0,0,20,5,68
38,66.42165985514214,Léo Duarte ,ZAG,Flamengo,3,"3,24",1,"4,20","0,00","0,00",0,0,0,1,1,0,0,0,0,0,0,0,0,0,0,2,0,1
38,66.42165985514214,Sander ,LAT,Sport,3,"8,82",21,"5,68","7,10","-0,06",63,0,2,7,26,1,1,0,0,0,0,0,3,0,0,40,0,72
38,66.42165985514214,Reinaldo ,LAT,Chapecoense,3,"14,00",32,"5,63","5,50","0,08",57,5,8,10,26,13,13,0,0,0,0,0,7,0,0,49,3,140
38,66.42165985514214,Thiago Neves ,MEI,Cruzeiro,3,"16,15",31,"5,18","-3,10","-2,73",26,9,6,0,44,20,40,2,0,0,0,0,6,1,0,32,7,112
38,66.42165985514214,Renê Júnior ,MEI,Bahia,3,"12,23",29,"6,04","4,20","0,37",90,4,0,0,59,25,9,0,0,0,0,1,6,0,0,54,3,66
38,66.42165985514214,Edson ,MEI,Bahia,3,"14,04",20,"5,19","4,50","0,08",59,1,2,0,24,12,3,0,0,0,0,1,3,0,0,31,3,33
38,66.42165985514214,Bruno Henrique ,ATA,Santos,3,"14,55",27,"6,05","7,40","0,15",33,8,11,0,82,16,18,1,0,0,0,1,6,0,0,71,10,92
38,66.42165985514214,Lucca ,ATA,Ponte Preta,3,"21,40",34,"5,53","12,20","1,86",27,12,2,0,107,33,30,0,0,0,0,0,5,2,0,43,11,88
38,66.42165985514214,Dudu ,ATA,Palmeiras,3,"18,01",25,"5,91","9,30","1,07",22,9,5,0,94,9,15,0,0,0,0,0,5,0,0,22,8,99
