name,position,team,situation,price,meatches,average,last_score,difference,disarms,goals,assists,no_goals,fouls_suffered,strikes_out,strikes_defended,strikes_post,difficult_defense,penalty_defense,own_goal,red_card,yellow_card,goal_suffered,penalty_lost,fouls_commited,offsides,wrong_pass
Douglas Friedrich ,GOL,Avaí,3,"7,15",1,"18,50","0,00","3,15",0,0,0,0,0,0,0,0,0,0,0,0,0,0,0,0,0,0
Luan ,ATA,Grêmio,2,"23,12",9,"10,15","0,00","-1,68",0,0,0,0,0,0,0,0,0,0,0,0,0,0,0,0,0,0
Machado ,MEI,Grêmio,2,"4,11",1,"9,70","0,00","0,00",0,0,0,0,0,0,0,0,0,0,0,0,0,0,0,0,0,0
Wanderson ,ZAG,Atlético-PR,3,"7,63",4,"9,60","0,00","0,14",0,0,0,0,0,0,0,0,0,0,0,0,0,0,0,0,0,0
Vanderlei ,GOL,Santos,3,"19,06",10,"9,46","0,00","-2,07",0,0,0,0,0,0,0,0,0,0,0,0,0,0,0,0,0,0
Henrique Dourado ,ATA,Fluminense,1,"23,83",9,"8,94","0,00","-1,98",0,0,0,0,0,0,0,0,0,0,0,0,0,0,0,0,0,0
Lucca ,ATA,Ponte Preta,3,"22,14",10,"8,66","0,00","0,88",0,0,0,0,0,0,0,0,0,0,0,0,0,0,0,0,0,0
Oswaldo Henríquez ,ZAG,Sport,1,"4,99",1,"8,60","0,00","0,99",0,0,0,0,0,0,0,0,0,0,0,0,0,0,0,0,0,0
Pedro Geromel ,ZAG,Grêmio,2,"13,78",8,"7,78","0,00","-0,09",0,0,0,0,0,0,0,0,0,0,0,0,0,0,0,0,0,0
Leandro Damião ,ATA,Flamengo,2,"13,22",5,"7,54","0,00","0,00",0,0,0,0,0,0,0,0,0,0,0,0,0,0,0,0,0,0
Mascarenhas ,LAT,Fluminense,2,"5,95",2,"7,30","0,00","0,00",0,0,0,0,0,0,0,0,0,0,0,0,0,0,0,0,0,0
Zé Rafael  ,MEI,Bahia,3,"20,70",10,"7,29","0,00","1,14",0,0,0,0,0,0,0,0,0,0,0,0,0,0,0,0,0,0
Luis Fabiano ,ATA,Vasco,4,"14,33",8,"7,21","0,00","-0,83",0,0,0,0,0,0,0,0,0,0,0,0,0,0,0,0,0,0
Thiago Carleto ,LAT,Coritiba,2,"4,73",1,"7,00","0,00","0,00",0,0,0,0,0,0,0,0,0,0,0,0,0,0,0,0,0,0
Buffarini ,LAT,São Paulo,2,"8,87",1,"6,90","0,00","0,00",0,0,0,0,0,0,0,0,0,0,0,0,0,0,0,0,0,0
Wilson ,GOL,Coritiba,3,"14,90",10,"6,78","0,00","0,48",0,0,0,0,0,0,0,0,0,0,0,0,0,0,0,0,0,0
Marcos Calazans ,ATA,Fluminense,3,"6,68",5,"6,66","0,00","-0,32",0,0,0,0,0,0,0,0,0,0,0,0,0,0,0,0,0,0
Bruno Silva ,MEI,Botafogo,3,"12,98",9,"6,60","0,00","-0,29",0,0,0,0,0,0,0,0,0,0,0,0,0,0,0,0,0,0
Everton ,ATA,Grêmio,3,"9,70",7,"6,40","0,00","0,03",0,0,0,0,0,0,0,0,0,0,0,0,0,0,0,0,0,0
Fernandinho ,ATA,Grêmio,3,"10,20",6,"6,38","0,00","-1,67",0,0,0,0,0,0,0,0,0,0,0,0,0,0,0,0,0,0
Régis ,MEI,Bahia,1,"15,67",3,"6,33","0,00","0,00",0,0,0,0,0,0,0,0,0,0,0,0,0,0,0,0,0,0
Rafael Sobis ,ATA,Cruzeiro,3,"13,03",4,"6,27","0,00","2,50",0,0,0,0,0,0,0,0,0,0,0,0,0,0,0,0,0,0
Thiago Neves ,MEI,Cruzeiro,3,"17,99",7,"6,23","0,00","-0,29",0,0,0,0,0,0,0,0,0,0,0,0,0,0,0,0,0,0
Diego ,MEI,Flamengo,3,"19,23",7,"6,20","0,00","-3,60",0,0,0,0,0,0,0,0,0,0,0,0,0,0,0,0,0,0
Igor ,ZAG,Sport,2,"5,80",1,"6,20","0,00","0,00",0,0,0,0,0,0,0,0,0,0,0,0,0,0,0,0,0,0
Sidcley ,LAT,Atlético-PR,2,"12,73",9,"6,19","0,00","-0,10",0,0,0,0,0,0,0,0,0,0,0,0,0,0,0,0,0,0
Patrick ,MEI,Sport,3,"9,09",6,"6,08","0,00","-0,02",0,0,0,0,0,0,0,0,0,0,0,0,0,0,0,0,0,0
Léo Moura ,LAT,Grêmio,2,"11,81",4,"6,02","0,00","0,00",0,0,0,0,0,0,0,0,0,0,0,0,0,0,0,0,0,0
Fagner ,LAT,Corinthians,3,"13,46",7,"6,01","0,00","0,27",0,0,0,0,0,0,0,0,0,0,0,0,0,0,0,0,0,0
Balbuena ,ZAG,Corinthians,3,"9,25",7,"6,00","0,00","-0,46",0,0,0,0,0,0,0,0,0,0,0,0,0,0,0,0,0,0
Wendel ,MEI,Fluminense,3,"13,50",8,"5,96","0,00","-0,10",0,0,0,0,0,0,0,0,0,0,0,0,0,0,0,0,0,0
Fernando Prass ,GOL,Palmeiras,3,"16,48",10,"5,93","0,00","-0,48",0,0,0,0,0,0,0,0,0,0,0,0,0,0,0,0,0,0
Victor Luis ,LAT,Botafogo,1,"12,40",8,"5,93","0,00","-0,72",0,0,0,0,0,0,0,0,0,0,0,0,0,0,0,0,0,0
Paolo Guerrero ,ATA,Flamengo,3,"11,13",6,"5,92","0,00","-5,10",0,0,0,0,0,0,0,0,0,0,0,0,0,0,0,0,0,0
Cássio ,GOL,Corinthians,3,"13,59",10,"5,90","0,00","2,26",0,0,0,0,0,0,0,0,0,0,0,0,0,0,0,0,0,0
Renê Júnior ,MEI,Bahia,3,"8,53",7,"5,78","0,00","0,00",0,0,0,0,0,0,0,0,0,0,0,0,0,0,0,0,0,0
Renato Gaúcho ,TEC,Grêmio,3,"15,87",10,"5,77","0,00","-0,50",0,0,0,0,0,0,0,0,0,0,0,0,0,0,0,0,0,0
Matheus Ribeiro ,LAT,Santos,2,"5,69",2,"5,75","0,00","0,00",0,0,0,0,0,0,0,0,0,0,0,0,0,0,0,0,0,0
Michel  ,MEI,Grêmio,2,"9,60",9,"5,73","0,00","1,16",0,0,0,0,0,0,0,0,0,0,0,0,0,0,0,0,0,0
Nino Paraíba ,LAT,Ponte Preta,3,"20,16",9,"5,68","0,00","-1,93",0,0,0,0,0,0,0,0,0,0,0,0,0,0,0,0,0,0
Kadu ,ZAG,Ponte Preta,3,"11,85",4,"5,57","0,00","0,00",0,0,0,0,0,0,0,0,0,0,0,0,0,0,0,0,0,0
Jucilei ,MEI,São Paulo,3,"15,44",10,"5,51","0,00","1,86",0,0,0,0,0,0,0,0,0,0,0,0,0,0,0,0,0,0
Bruno Cortez ,LAT,Grêmio,4,"10,86",9,"5,40","0,00","-0,50",0,0,0,0,0,0,0,0,0,0,0,0,0,0,0,0,0,0
Yerry Mina ,ZAG,Palmeiras,4,"15,15",6,"5,38","0,00","-0,81",0,0,0,0,0,0,0,0,0,0,0,0,0,0,0,0,0,0
Ángel Romero ,ATA,Corinthians,4,"12,79",9,"5,38","0,00","-0,77",0,0,0,0,0,0,0,0,0,0,0,0,0,0,0,0,0,0
Arthur  ,ATA,Chapecoense,3,"9,96",10,"5,35","0,00","-0,71",0,0,0,0,0,0,0,0,0,0,0,0,0,0,0,0,0,0
Gatito Fernández ,GOL,Botafogo,3,"19,20",9,"5,34","0,00","-0,96",0,0,0,0,0,0,0,0,0,0,0,0,0,0,0,0,0,0
André Lima ,ATA,Vitória,2,"7,55",3,"5,33","0,00","0,00",0,0,0,0,0,0,0,0,0,0,0,0,0,0,0,0,0,0
Egídio ,LAT,Palmeiras,3,"7,37",4,"5,32","0,00","0,00",0,0,0,0,0,0,0,0,0,0,0,0,0,0,0,0,0,0
Ramiro ,MEI,Grêmio,2,"16,76",8,"5,29","0,00","-1,69",0,0,0,0,0,0,0,0,0,0,0,0,0,0,0,0,0,0
Douglas ,MEI,Vasco,3,"16,57",10,"5,27","0,00","-0,02",0,0,0,0,0,0,0,0,0,0,0,0,0,0,0,0,0,0
Diogo Barbosa ,LAT,Cruzeiro,3,"14,67",9,"5,25","0,00","3,76",0,0,0,0,0,0,0,0,0,0,0,0,0,0,0,0,0,0
Richarlison  ,ATA,Fluminense,3,"12,36",8,"5,24","0,00","1,32",0,0,0,0,0,0,0,0,0,0,0,0,0,0,0,0,0,0
Rhodolfo ,ZAG,Flamengo,3,"8,68",2,"5,20","0,00","2,13",0,0,0,0,0,0,0,0,0,0,0,0,0,0,0,0,0,0
Jean ,MEI,Vasco,3,"10,75",10,"5,19","0,00","0,11",0,0,0,0,0,0,0,0,0,0,0,0,0,0,0,0,0,0
Gilberto  ,LAT,Vasco,3,"12,42",10,"5,17","0,00","1,26",0,0,0,0,0,0,0,0,0,0,0,0,0,0,0,0,0,0
Mancuello ,MEI,Flamengo,2,"7,81",3,"5,13","0,00","0,00",0,0,0,0,0,0,0,0,0,0,0,0,0,0,0,0,0,0
Naldo ,MEI,Ponte Preta,2,"7,59",4,"5,12","0,00","0,00",0,0,0,0,0,0,0,0,0,0,0,0,0,0,0,0,0,0
Marcelo Oliveira ,LAT,Grêmio,3,"9,97",1,"5,10","0,00","0,00",0,0,0,0,0,0,0,0,0,0,0,0,0,0,0,0,0,0
Borja ,ATA,Palmeiras,3,"17,28",5,"5,10","0,00","-1,58",0,0,0,0,0,0,0,0,0,0,0,0,0,0,0,0,0,0
Yago Pikachu ,LAT,Vasco,3,"10,34",7,"5,09","0,00","1,63",0,0,0,0,0,0,0,0,0,0,0,0,0,0,0,0,0,0
Rodinei ,LAT,Flamengo,2,"9,49",6,"5,07","0,00","0,37",0,0,0,0,0,0,0,0,0,0,0,0,0,0,0,0,0,0
Sornoza ,MEI,Fluminense,5,"15,81",2,"5,05","0,00","0,00",0,0,0,0,0,0,0,0,0,0,0,0,0,0,0,0,0,0
Léo Santos ,ZAG,Corinthians,2,"4,38",1,"5,00","0,00","0,00",0,0,0,0,0,0,0,0,0,0,0,0,0,0,0,0,0,0
Fernandinho ,LAT,Ponte Preta,3,"5,66",1,"5,00","0,00","0,00",0,0,0,0,0,0,0,0,0,0,0,0,0,0,0,0,0,0
Gabriel ,ZAG,Atlético-MG,3,"9,99",5,"5,00","0,00","0,00",0,0,0,0,0,0,0,0,0,0,0,0,0,0,0,0,0,0
Diego Souza ,MEI,Sport,3,"16,34",5,"4,98","0,00","-0,79",0,0,0,0,0,0,0,0,0,0,0,0,0,0,0,0,0,0
Sander ,LAT,Sport,3,"5,66",5,"4,96","0,00","1,20",0,0,0,0,0,0,0,0,0,0,0,0,0,0,0,0,0,0
Arnaldo ,LAT,Botafogo,3,"8,80",9,"4,94","0,00","0,15",0,0,0,0,0,0,0,0,0,0,0,0,0,0,0,0,0,0
Cleiton ,GOL,Atlético-MG,2,"1,85",1,"4,90","0,00","0,85",0,0,0,0,0,0,0,0,0,0,0,0,0,0,0,0,0,0
Alisson ,MEI,Cruzeiro,3,"13,94",9,"4,90","0,00","-0,70",0,0,0,0,0,0,0,0,0,0,0,0,0,0,0,0,0,0
David Braz ,ZAG,Santos,3,"11,83",8,"4,84","0,00","0,00",0,0,0,0,0,0,0,0,0,0,0,0,0,0,0,0,0,0
Lucas Pratto ,ATA,São Paulo,3,"15,89",10,"4,84","0,00","0,92",0,0,0,0,0,0,0,0,0,0,0,0,0,0,0,0,0,0
Everaldo ,ATA,Atlético-GO,3,"9,58",10,"4,83","0,00","0,08",0,0,0,0,0,0,0,0,0,0,0,0,0,0,0,0,0,0
Marquinhos Gabriel ,MEI,Corinthians,2,"9,32",7,"4,81","0,00","-1,93",0,0,0,0,0,0,0,0,0,0,0,0,0,0,0,0,0,0
Clayton ,ATA,Corinthians,2,"7,66",3,"4,80","0,00","0,00",0,0,0,0,0,0,0,0,0,0,0,0,0,0,0,0,0,0
Levir Culpi ,TEC,Santos,3,"9,56",4,"4,78","0,00","-0,41",0,0,0,0,0,0,0,0,0,0,0,0,0,0,0,0,0,0
Fabián Noguera ,ZAG,Santos,1,"3,76",2,"4,75","0,00","0,27",0,0,0,0,0,0,0,0,0,0,0,0,0,0,0,0,0,0
Edu Dracena ,ZAG,Palmeiras,2,"9,90",5,"4,72","0,00","0,00",0,0,0,0,0,0,0,0,0,0,0,0,0,0,0,0,0,0
Matheus Savio ,MEI,Flamengo,2,"11,19",4,"4,70","0,00","-1,34",0,0,0,0,0,0,0,0,0,0,0,0,0,0,0,0,0,0
Júnior Tavares ,LAT,São Paulo,3,"12,31",10,"4,69","0,00","-0,23",0,0,0,0,0,0,0,0,0,0,0,0,0,0,0,0,0,0
Cazares ,MEI,Atlético-MG,3,"9,15",6,"4,68","0,00","0,00",0,0,0,0,0,0,0,0,0,0,0,0,0,0,0,0,0,0
Alejandro Guerra ,MEI,Palmeiras,5,"15,03",8,"4,66","0,00","3,58",0,0,0,0,0,0,0,0,0,0,0,0,0,0,0,0,0,0
Felipe Garcia ,GOL,Atlético-GO,3,"8,45",9,"4,64","0,00","-0,52",0,0,0,0,0,0,0,0,0,0,0,0,0,0,0,0,0,0
Renan Ribeiro ,GOL,São Paulo,3,"11,96",10,"4,61","0,00","1,45",0,0,0,0,0,0,0,0,0,0,0,0,0,0,0,0,0,0
Arthur ,MEI,Grêmio,2,"9,04",9,"4,60","0,00","0,41",0,0,0,0,0,0,0,0,0,0,0,0,0,0,0,0,0,0
Roger ,ATA,Botafogo,2,"8,53",9,"4,59","0,00","-1,66",0,0,0,0,0,0,0,0,0,0,0,0,0,0,0,0,0,0
Fábio Carille ,TEC,Corinthians,3,"11,03",10,"4,57","0,00","0,00",0,0,0,0,0,0,0,0,0,0,0,0,0,0,0,0,0,0
Guilherme Arana ,LAT,Corinthians,3,"9,46",10,"4,57","0,00","0,52",0,0,0,0,0,0,0,0,0,0,0,0,0,0,0,0,0,0
Fábio ,GOL,Cruzeiro,3,"14,19",10,"4,52","0,00","2,53",0,0,0,0,0,0,0,0,0,0,0,0,0,0,0,0,0,0
Cléber ,ZAG,Santos,5,"6,49",1,"4,50","0,00","0,00",0,0,0,0,0,0,0,0,0,0,0,0,0,0,0,0,0,0
Douglas Grolli ,ZAG,Chapecoense,2,"6,53",2,"4,50","0,00","0,00",0,0,0,0,0,0,0,0,0,0,0,0,0,0,0,0,0,0
Marcio ,ZAG,Coritiba,3,"6,95",9,"4,45","0,00","-0,61",0,0,0,0,0,0,0,0,0,0,0,0,0,0,0,0,0,0
Nenê ,MEI,Vasco,3,"15,55",9,"4,44","0,00","2,94",0,0,0,0,0,0,0,0,0,0,0,0,0,0,0,0,0,0
Luan ,ZAG,Palmeiras,3,"7,20",3,"4,43","0,00","0,71",0,0,0,0,0,0,0,0,0,0,0,0,0,0,0,0,0,0
Alex Silva ,LAT,Atlético-MG,3,"5,26",5,"4,42","0,00","0,00",0,0,0,0,0,0,0,0,0,0,0,0,0,0,0,0,0,0
Bremer ,ZAG,Atlético-MG,2,"2,83",1,"4,40","0,00","1,83",0,0,0,0,0,0,0,0,0,0,0,0,0,0,0,0,0,0
Marllon ,ZAG,Ponte Preta,3,"11,45",10,"4,36","0,00","-0,06",0,0,0,0,0,0,0,0,0,0,0,0,0,0,0,0,0,0
Igor Rabello ,ZAG,Botafogo,1,"10,66",10,"4,36","0,00","-1,09",0,0,0,0,0,0,0,0,0,0,0,0,0,0,0,0,0,0
André ,ATA,Sport,3,"8,92",9,"4,34","0,00","-0,42",0,0,0,0,0,0,0,0,0,0,0,0,0,0,0,0,0,0
Geferson ,LAT,Vitória,3,"11,09",6,"4,33","0,00","-0,33",0,0,0,0,0,0,0,0,0,0,0,0,0,0,0,0,0,0
Everton ,MEI,Flamengo,3,"14,50",8,"4,30","0,00","0,00",0,0,0,0,0,0,0,0,0,0,0,0,0,0,0,0,0,0
Victor Ferraz ,LAT,Santos,2,"9,60",8,"4,23","0,00","-1,46",0,0,0,0,0,0,0,0,0,0,0,0,0,0,0,0,0,0
Matheus Mancini ,ZAG,Atlético-MG,2,"2,47",1,"4,20","0,00","0,47",0,0,0,0,0,0,0,0,0,0,0,0,0,0,0,0,0,0
Capa ,LAT,Avaí,3,"11,35",10,"4,20","0,00","0,96",0,0,0,0,0,0,0,0,0,0,0,0,0,0,0,0,0,0
Alex ,MEI,Cruzeiro,5,"3,30",1,"4,20","0,00","0,00",0,0,0,0,0,0,0,0,0,0,0,0,0,0,0,0,0,0
Reginaldo ,ZAG,Fluminense,3,"4,28",6,"4,18","0,00","-1,09",0,0,0,0,0,0,0,0,0,0,0,0,0,0,0,0,0,0
Rithely ,MEI,Sport,3,"10,51",8,"4,17","0,00","0,00",0,0,0,0,0,0,0,0,0,0,0,0,0,0,0,0,0,0
Otávio  ,MEI,Atlético-PR,2,"11,83",8,"4,15","0,00","1,83",0,0,0,0,0,0,0,0,0,0,0,0,0,0,0,0,0,0
Jô ,ATA,Corinthians,3,"11,05",10,"4,12","0,00","-1,87",0,0,0,0,0,0,0,0,0,0,0,0,0,0,0,0,0,0
Zé Ricardo ,TEC,Flamengo,3,"11,40",10,"4,12","0,00","-0,27",0,0,0,0,0,0,0,0,0,0,0,0,0,0,0,0,0,0
Edílson ,LAT,Grêmio,4,"10,88",7,"4,11","0,00","0,11",0,0,0,0,0,0,0,0,0,0,0,0,0,0,0,0,0,0
Caio Monteiro ,ATA,Vasco,2,"2,53",2,"4,10","0,00","0,00",0,0,0,0,0,0,0,0,0,0,0,0,0,0,0,0,0,0
Pedro Rocha ,ATA,Grêmio,2,"9,36",9,"4,09","0,00","-1,09",0,0,0,0,0,0,0,0,0,0,0,0,0,0,0,0,0,0
Réver ,ZAG,Flamengo,3,"10,31",9,"4,08","0,00","0,00",0,0,0,0,0,0,0,0,0,0,0,0,0,0,0,0,0,0
Jair Ventura ,TEC,Botafogo,3,"10,78",10,"4,08","0,00","-0,21",0,0,0,0,0,0,0,0,0,0,0,0,0,0,0,0,0,0
Raul Prata ,LAT,Sport,2,"4,68",3,"4,07","0,00","1,09",0,0,0,0,0,0,0,0,0,0,0,0,0,0,0,0,0,0
Henrique Almeida ,ATA,Coritiba,3,"14,07",10,"4,03","0,00","-0,02",0,0,0,0,0,0,0,0,0,0,0,0,0,0,0,0,0,0
Leandro Salino ,LAT,Vitória,1,"6,50",6,"4,02","0,00","0,00",0,0,0,0,0,0,0,0,0,0,0,0,0,0,0,0,0,0
Marcelo ,ZAG,Botafogo,2,"4,94",3,"4,00","0,00","0,86",0,0,0,0,0,0,0,0,0,0,0,0,0,0,0,0,0,0
Gilson ,LAT,Botafogo,1,"9,09",7,"3,99","0,00","0,00",0,0,0,0,0,0,0,0,0,0,0,0,0,0,0,0,0,0
Juan ,ZAG,Flamengo,2,"5,92",5,"3,98","0,00","0,00",0,0,0,0,0,0,0,0,0,0,0,0,0,0,0,0,0,0
Lucas Veríssimo ,ZAG,Santos,1,"6,76",10,"3,98","0,00","0,28",0,0,0,0,0,0,0,0,0,0,0,0,0,0,0,0,0,0
Jean ,LAT,Palmeiras,5,"15,59",6,"3,97","0,00","0,00",0,0,0,0,0,0,0,0,0,0,0,0,0,0,0,0,0,0
Vanderlei Luxemburgo ,TEC,Sport,3,"6,90",7,"3,96","0,00","0,77",0,0,0,0,0,0,0,0,0,0,0,0,0,0,0,0,0,0
Fernando Miguel ,GOL,Vitória,3,"11,30",10,"3,96","0,00","0,37",0,0,0,0,0,0,0,0,0,0,0,0,0,0,0,0,0,0
Kanu ,ZAG,Vitória,3,"7,41",5,"3,94","0,00","-0,22",0,0,0,0,0,0,0,0,0,0,0,0,0,0,0,0,0,0
Gilson Kleina ,TEC,Ponte Preta,3,"11,74",10,"3,92","0,00","-0,52",0,0,0,0,0,0,0,0,0,0,0,0,0,0,0,0,0,0
Nikão ,MEI,Atlético-PR,2,"10,70",9,"3,91","0,00","2,18",0,0,0,0,0,0,0,0,0,0,0,0,0,0,0,0,0,0
Reinaldo ,LAT,Chapecoense,3,"11,99",10,"3,90","0,00","0,27",0,0,0,0,0,0,0,0,0,0,0,0,0,0,0,0,0,0
Jeferson ,LAT,Ponte Preta,2,"5,03",2,"3,90","0,00","0,00",0,0,0,0,0,0,0,0,0,0,0,0,0,0,0,0,0,0
Arrascaeta ,MEI,Cruzeiro,5,"9,34",3,"3,90","0,00","0,00",0,0,0,0,0,0,0,0,0,0,0,0,0,0,0,0,0,0
Mano Menezes ,TEC,Cruzeiro,3,"13,05",10,"3,89","0,00","1,64",0,0,0,0,0,0,0,0,0,0,0,0,0,0,0,0,0,0
Aranha ,GOL,Ponte Preta,3,"10,13",10,"3,88","0,00","-2,23",0,0,0,0,0,0,0,0,0,0,0,0,0,0,0,0,0,0
Rafael Vaz ,ZAG,Flamengo,2,"7,78",5,"3,88","0,00","-0,01",0,0,0,0,0,0,0,0,0,0,0,0,0,0,0,0,0,0
Matheus Galdezani ,MEI,Coritiba,3,"8,40",9,"3,87","0,00","0,96",0,0,0,0,0,0,0,0,0,0,0,0,0,0,0,0,0,0
João Paulo ,ATA,Bahia,2,"3,05",3,"3,87","0,00","0,00",0,0,0,0,0,0,0,0,0,0,0,0,0,0,0,0,0,0
Rafael Thyere ,ZAG,Grêmio,3,"6,59",5,"3,86","0,00","0,00",0,0,0,0,0,0,0,0,0,0,0,0,0,0,0,0,0,0
Tomas Bastos ,MEI,Coritiba,2,"13,19",6,"3,85","0,00","0,22",0,0,0,0,0,0,0,0,0,0,0,0,0,0,0,0,0,0
Cuca ,TEC,Palmeiras,3,"13,45",10,"3,84","0,00","-0,50",0,0,0,0,0,0,0,0,0,0,0,0,0,0,0,0,0,0
Joel ,ATA,Avaí,3,"5,51",5,"3,84","0,00","3,15",0,0,0,0,0,0,0,0,0,0,0,0,0,0,0,0,0,0
Pablo ,ZAG,Corinthians,3,"10,91",9,"3,83","0,00","0,19",0,0,0,0,0,0,0,0,0,0,0,0,0,0,0,0,0,0
Rodrigo Lindoso ,MEI,Botafogo,3,"10,26",8,"3,82","0,00","1,02",0,0,0,0,0,0,0,0,0,0,0,0,0,0,0,0,0,0
Lucas Romero ,MEI,Cruzeiro,2,"7,46",9,"3,81","0,00","0,54",0,0,0,0,0,0,0,0,0,0,0,0,0,0,0,0,0,0
Milton Mendes ,TEC,Vasco,3,"9,30",10,"3,80","0,00","0,69",0,0,0,0,0,0,0,0,0,0,0,0,0,0,0,0,0,0
Bruno Henrique ,ATA,Santos,1,"12,33",9,"3,80","0,00","-1,30",0,0,0,0,0,0,0,0,0,0,0,0,0,0,0,0,0,0
Rogério Ceni ,TEC,São Paulo,3,"10,19",10,"3,78","0,00","0,43",0,0,0,0,0,0,0,0,0,0,0,0,0,0,0,0,0,0
Pedro Henrique ,ZAG,Corinthians,2,"8,16",5,"3,76","0,00","0,00",0,0,0,0,0,0,0,0,0,0,0,0,0,0,0,0,0,0
Dodô ,LAT,Coritiba,2,"9,64",9,"3,75","0,00","0,00",0,0,0,0,0,0,0,0,0,0,0,0,0,0,0,0,0,0
Henrique ,LAT,Vasco,3,"8,78",10,"3,75","0,00","1,06",0,0,0,0,0,0,0,0,0,0,0,0,0,0,0,0,0,0
Romulo ,ATA,Avaí,3,"10,71",10,"3,75","0,00","0,21",0,0,0,0,0,0,0,0,0,0,0,0,0,0,0,0,0,0
Clayson ,ATA,Corinthians,3,"15,87",8,"3,74","0,00","-0,70",0,0,0,0,0,0,0,0,0,0,0,0,0,0,0,0,0,0
Pachequinho ,TEC,Coritiba,3,"9,46",10,"3,71","0,00","-0,10",0,0,0,0,0,0,0,0,0,0,0,0,0,0,0,0,0,0
Jorginho ,TEC,Bahia,3,"11,04",7,"3,71","0,00","0,14",0,0,0,0,0,0,0,0,0,0,0,0,0,0,0,0,0,0
Edson ,MEI,Bahia,5,"14,09",5,"3,70","0,00","0,00",0,0,0,0,0,0,0,0,0,0,0,0,0,0,0,0,0,0
Felipe Santana ,ZAG,Atlético-MG,5,"9,11",8,"3,69","0,00","0,00",0,0,0,0,0,0,0,0,0,0,0,0,0,0,0,0,0,0
Rodriguinho ,MEI,Corinthians,3,"13,43",7,"3,61","0,00","-1,06",0,0,0,0,0,0,0,0,0,0,0,0,0,0,0,0,0,0
Éverton Ribeiro ,MEI,Flamengo,3,"12,56",1,"3,60","0,00","-2,44",0,0,0,0,0,0,0,0,0,0,0,0,0,0,0,0,0,0
Fred ,ATA,Atlético-MG,3,"15,80",7,"3,60","0,00","0,00",0,0,0,0,0,0,0,0,0,0,0,0,0,0,0,0,0,0
Victor ,GOL,Atlético-MG,3,"9,79",9,"3,60","0,00","0,00",0,0,0,0,0,0,0,0,0,0,0,0,0,0,0,0,0,0
Orejuela ,MEI,Fluminense,3,"10,75",7,"3,59","0,00","0,18",0,0,0,0,0,0,0,0,0,0,0,0,0,0,0,0,0,0
Anselmo ,MEI,Sport,5,"6,50",4,"3,55","0,00","0,00",0,0,0,0,0,0,0,0,0,0,0,0,0,0,0,0,0,0
Ábila ,ATA,Cruzeiro,2,"12,66",9,"3,54","0,00","0,00",0,0,0,0,0,0,0,0,0,0,0,0,0,0,0,0,0,0
Allione ,MEI,Bahia,3,"11,51",9,"3,53","0,00","0,69",0,0,0,0,0,0,0,0,0,0,0,0,0,0,0,0,0,0
Werley ,ZAG,Coritiba,3,"8,10",10,"3,52","0,00","-0,34",0,0,0,0,0,0,0,0,0,0,0,0,0,0,0,0,0,0
Osvaldo ,ATA,Sport,3,"6,47",10,"3,51","0,00","0,43",0,0,0,0,0,0,0,0,0,0,0,0,0,0,0,0,0,0
Abel Braga ,TEC,Fluminense,3,"11,95",9,"3,49","0,00","-0,75",0,0,0,0,0,0,0,0,0,0,0,0,0,0,0,0,0,0
Lucas Barrios ,ATA,Grêmio,2,"10,05",6,"3,45","0,00","0,05",0,0,0,0,0,0,0,0,0,0,0,0,0,0,0,0,0,0
Éderson ,ATA,Atlético-PR,1,"5,20",4,"3,45","0,00","1,74",0,0,0,0,0,0,0,0,0,0,0,0,0,0,0,0,0,0
Eduardo Baptista ,TEC,Atlético-PR,3,"10,80",7,"3,45","0,00","0,65",0,0,0,0,0,0,0,0,0,0,0,0,0,0,0,0,0,0
Alexandre Gallo ,TEC,Vitória,3,"7,37",6,"3,44","0,00","0,05",0,0,0,0,0,0,0,0,0,0,0,0,0,0,0,0,0,0
Trauco ,LAT,Flamengo,3,"6,48",6,"3,43","0,00","-0,15",0,0,0,0,0,0,0,0,0,0,0,0,0,0,0,0,0,0
Dedé ,ZAG,Cruzeiro,5,"8,86",3,"3,43","0,00","0,00",0,0,0,0,0,0,0,0,0,0,0,0,0,0,0,0,0,0
Fagner Alemão ,LAT,Avaí,5,"8,12",7,"3,43","0,00","0,00",0,0,0,0,0,0,0,0,0,0,0,0,0,0,0,0,0,0
Thiago Heleno ,ZAG,Atlético-PR,2,"8,65",8,"3,42","0,00","-0,20",0,0,0,0,0,0,0,0,0,0,0,0,0,0,0,0,0,0
Maicon ,ZAG,São Paulo,2,"9,90",7,"3,42","0,00","0,00",0,0,0,0,0,0,0,0,0,0,0,0,0,0,0,0,0,0
Matheus Fernandes ,MEI,Botafogo,5,"4,77",7,"3,40","0,00","0,00",0,0,0,0,0,0,0,0,0,0,0,0,0,0,0,0,0,0
William Matheus ,LAT,Coritiba,3,"7,45",9,"3,40","0,00","-0,67",0,0,0,0,0,0,0,0,0,0,0,0,0,0,0,0,0,0
Airton  ,ZAG,Avaí,3,"2,11",2,"3,40","0,00","1,11",0,0,0,0,0,0,0,0,0,0,0,0,0,0,0,0,0,0
Éder  ,ZAG,Bahia,2,"2,95",1,"3,40","0,00","0,00",0,0,0,0,0,0,0,0,0,0,0,0,0,0,0,0,0,0
João Lucas ,LAT,Ponte Preta,2,"11,26",10,"3,39","0,00","0,56",0,0,0,0,0,0,0,0,0,0,0,0,0,0,0,0,0,0
Durval ,ZAG,Sport,1,"5,94",8,"3,38","0,00","0,00",0,0,0,0,0,0,0,0,0,0,0,0,0,0,0,0,0,0
Lucão ,ZAG,São Paulo,2,"5,25",6,"3,38","0,00","0,00",0,0,0,0,0,0,0,0,0,0,0,0,0,0,0,0,0,0
Thiago Maia ,MEI,Santos,1,"7,99",9,"3,37","0,00","-0,14",0,0,0,0,0,0,0,0,0,0,0,0,0,0,0,0,0,0
Ezequiel  ,LAT,Cruzeiro,3,"6,23",5,"3,36","0,00","0,18",0,0,0,0,0,0,0,0,0,0,0,0,0,0,0,0,0,0
Marcos Rocha ,LAT,Atlético-MG,5,"11,33",2,"3,35","0,00","0,00",0,0,0,0,0,0,0,0,0,0,0,0,0,0,0,0,0,0
Santos ,GOL,Atlético-PR,2,"5,43",2,"3,35","0,00","0,00",0,0,0,0,0,0,0,0,0,0,0,0,0,0,0,0,0,0
Kannemann ,ZAG,Grêmio,2,"9,45",8,"3,35","0,00","-1,37",0,0,0,0,0,0,0,0,0,0,0,0,0,0,0,0,0,0
Thiago ,GOL,Flamengo,3,"4,73",5,"3,34","0,00","1,98",0,0,0,0,0,0,0,0,0,0,0,0,0,0,0,0,0,0
Juninho ,ZAG,Palmeiras,3,"9,02",7,"3,31","0,00","-0,76",0,0,0,0,0,0,0,0,0,0,0,0,0,0,0,0,0,0
Thiago Santos ,MEI,Palmeiras,2,"6,10",6,"3,28","0,00","0,00",0,0,0,0,0,0,0,0,0,0,0,0,0,0,0,0,0,0
Erik ,ATA,Palmeiras,3,"5,35",4,"3,25","0,00","1,03",0,0,0,0,0,0,0,0,0,0,0,0,0,0,0,0,0,0
Gustavo Scarpa ,MEI,Fluminense,3,"12,13",9,"3,24","0,00","0,74",0,0,0,0,0,0,0,0,0,0,0,0,0,0,0,0,0,0
Magrão ,GOL,Sport,3,"5,21",10,"3,24","0,00","1,61",0,0,0,0,0,0,0,0,0,0,0,0,0,0,0,0,0,0
Willian Farias ,MEI,Vitória,3,"8,41",8,"3,21","0,00","-1,36",0,0,0,0,0,0,0,0,0,0,0,0,0,0,0,0,0,0
Marcão ,ZAG,Atlético-GO,3,"4,39",1,"3,20","0,00","0,00",0,0,0,0,0,0,0,0,0,0,0,0,0,0,0,0,0,0
Wellington Paulista ,ATA,Chapecoense,3,"10,60",10,"3,19","0,00","0,18",0,0,0,0,0,0,0,0,0,0,0,0,0,0,0,0,0,0
Renê ,LAT,Flamengo,2,"6,79",5,"3,18","0,00","0,00",0,0,0,0,0,0,0,0,0,0,0,0,0,0,0,0,0,0
Jonathan ,LAT,Atlético-PR,2,"8,14",8,"3,17","0,00","0,00",0,0,0,0,0,0,0,0,0,0,0,0,0,0,0,0,0,0
Vinícius ,MEI,Bahia,1,"7,72",7,"3,17","0,00","-0,40",0,0,0,0,0,0,0,0,0,0,0,0,0,0,0,0,0,0
Lucas Fernandes ,MEI,São Paulo,2,"4,04",2,"3,15","0,00","0,46",0,0,0,0,0,0,0,0,0,0,0,0,0,0,0,0,0,0
Dudu ,ATA,Palmeiras,2,"16,49",4,"3,13","0,00","-1,02",0,0,0,0,0,0,0,0,0,0,0,0,0,0,0,0,0,0
Fernando Bob ,MEI,Ponte Preta,3,"8,38",4,"3,12","0,00","0,00",0,0,0,0,0,0,0,0,0,0,0,0,0,0,0,0,0,0
Marcão Silva ,MEI,Atlético-GO,3,"7,93",9,"3,11","0,00","0,83",0,0,0,0,0,0,0,0,0,0,0,0,0,0,0,0,0,0
Jhemerson ,MEI,Vitória,2,"4,28",1,"3,10","0,00","0,00",0,0,0,0,0,0,0,0,0,0,0,0,0,0,0,0,0,0
Mauricio Kozlinski ,GOL,Avaí,2,"8,10",9,"3,10","0,00","0,00",0,0,0,0,0,0,0,0,0,0,0,0,0,0,0,0,0,0
Fillipe Soutto ,MEI,Vitória,2,"4,00",1,"3,10","0,00","0,00",0,0,0,0,0,0,0,0,0,0,0,0,0,0,0,0,0,0
Léo ,GOL,Grêmio,2,"3,51",2,"3,10","0,00","0,00",0,0,0,0,0,0,0,0,0,0,0,0,0,0,0,0,0,0
Moisés ,MEI,Chapecoense,2,"2,32",1,"3,10","0,00","0,00",0,0,0,0,0,0,0,0,0,0,0,0,0,0,0,0,0,0
Victor Ramos ,ZAG,Chapecoense,5,"8,98",9,"3,09","0,00","0,00",0,0,0,0,0,0,0,0,0,0,0,0,0,0,0,0,0,0
Thomás ,MEI,Sport,5,"7,18",5,"3,08","0,00","0,00",0,0,0,0,0,0,0,0,0,0,0,0,0,0,0,0,0,0
Seijas ,MEI,Chapecoense,2,"7,21",8,"3,08","0,00","0,00",0,0,0,0,0,0,0,0,0,0,0,0,0,0,0,0,0,0
Marquinhos ,ATA,Sport,2,"5,05",3,"3,03","0,00","0,00",0,0,0,0,0,0,0,0,0,0,0,0,0,0,0,0,0,0
Rodrigo Caio ,ZAG,São Paulo,3,"9,14",6,"3,02","0,00","-0,68",0,0,0,0,0,0,0,0,0,0,0,0,0,0,0,0,0,0
Kieza ,ATA,Vitória,3,"9,24",7,"3,00","0,00","0,21",0,0,0,0,0,0,0,0,0,0,0,0,0,0,0,0,0,0
Mateus Vital ,MEI,Vasco,3,"8,17",10,"3,00","0,00","-0,46",0,0,0,0,0,0,0,0,0,0,0,0,0,0,0,0,0,0
Robinho ,ATA,Atlético-MG,3,"14,10",8,"2,99","0,00","0,00",0,0,0,0,0,0,0,0,0,0,0,0,0,0,0,0,0,0
Jean ,GOL,Bahia,3,"9,38",10,"2,98","0,00","0,35",0,0,0,0,0,0,0,0,0,0,0,0,0,0,0,0,0,0
Roger Machado  ,TEC,Atlético-MG,3,"10,80",10,"2,95","0,00","0,09",0,0,0,0,0,0,0,0,0,0,0,0,0,0,0,0,0,0
Thomaz ,MEI,São Paulo,2,"5,16",8,"2,94","0,00","-0,56",0,0,0,0,0,0,0,0,0,0,0,0,0,0,0,0,0,0
Manga Escobar ,ATA,Vasco,5,"5,27",6,"2,92","0,00","0,00",0,0,0,0,0,0,0,0,0,0,0,0,0,0,0,0,0,0
Róger Guedes ,ATA,Palmeiras,2,"6,62",10,"2,91","0,00","-1,17",0,0,0,0,0,0,0,0,0,0,0,0,0,0,0,0,0,0
Rodrigo ,ZAG,Ponte Preta,4,"7,73",7,"2,88","0,00","-2,00",0,0,0,0,0,0,0,0,0,0,0,0,0,0,0,0,0,0
Ariel Cabral ,MEI,Cruzeiro,3,"7,62",8,"2,87","0,00","1,15",0,0,0,0,0,0,0,0,0,0,0,0,0,0,0,0,0,0
Rildo ,ATA,Coritiba,3,"6,83",8,"2,85","0,00","-0,87",0,0,0,0,0,0,0,0,0,0,0,0,0,0,0,0,0,0
Jonas ,MEI,Coritiba,3,"7,49",9,"2,85","0,00","0,39",0,0,0,0,0,0,0,0,0,0,0,0,0,0,0,0,0,0
Vagner Mancini ,TEC,Chapecoense,3,"8,16",10,"2,80","0,00","-0,37",0,0,0,0,0,0,0,0,0,0,0,0,0,0,0,0,0,0
Nicolas ,LAT,Atlético-PR,3,"4,72",2,"2,80","0,00","0,00",0,0,0,0,0,0,0,0,0,0,0,0,0,0,0,0,0,0
Kaio ,MEI,Grêmio,3,"3,95",1,"2,80","0,00","0,00",0,0,0,0,0,0,0,0,0,0,0,0,0,0,0,0,0,0
Daniel Guedes  ,LAT,Santos,3,"3,00",1,"2,80","0,00","0,00",0,0,0,0,0,0,0,0,0,0,0,0,0,0,0,0,0,0
Rodrigão ,ZAG,Atlético-MG,5,"2,97",3,"2,80","0,00","1,03",0,0,0,0,0,0,0,0,0,0,0,0,0,0,0,0,0,0
Diego Tavares ,LAT,Avaí,2,"6,58",8,"2,77","0,00","0,43",0,0,0,0,0,0,0,0,0,0,0,0,0,0,0,0,0,0
Edigar Junio ,ATA,Bahia,3,"9,52",10,"2,75","0,00","0,06",0,0,0,0,0,0,0,0,0,0,0,0,0,0,0,0,0,0
Joel Carli ,ZAG,Botafogo,3,"9,19",7,"2,73","0,00","0,00",0,0,0,0,0,0,0,0,0,0,0,0,0,0,0,0,0,0
Lucas Fonseca ,ZAG,Bahia,4,"4,11",7,"2,71","0,00","-1,52",0,0,0,0,0,0,0,0,0,0,0,0,0,0,0,0,0,0
Alex Muralha ,GOL,Flamengo,2,"4,22",5,"2,70","0,00","0,00",0,0,0,0,0,0,0,0,0,0,0,0,0,0,0,0,0,0
Léo ,ZAG,Cruzeiro,3,"10,05",9,"2,69","0,00","1,99",0,0,0,0,0,0,0,0,0,0,0,0,0,0,0,0,0,0
Rafael Moura ,ATA,Atlético-MG,2,"5,27",8,"2,66","0,00","-1,81",0,0,0,0,0,0,0,0,0,0,0,0,0,0,0,0,0,0
Jean Mota ,MEI,Santos,2,"4,41",9,"2,66","0,00","0,65",0,0,0,0,0,0,0,0,0,0,0,0,0,0,0,0,0,0
Breno Lopes ,LAT,Atlético-GO,3,"3,66",6,"2,65","0,00","-0,63",0,0,0,0,0,0,0,0,0,0,0,0,0,0,0,0,0,0
Valdívia ,MEI,Atlético-MG,2,"8,49",5,"2,64","0,00","0,74",0,0,0,0,0,0,0,0,0,0,0,0,0,0,0,0,0,0
Élber ,MEI,Cruzeiro,2,"4,66",3,"2,63","0,00","0,00",0,0,0,0,0,0,0,0,0,0,0,0,0,0,0,0,0,0
Hudson ,MEI,Cruzeiro,2,"6,45",7,"2,62","0,00","-0,49",0,0,0,0,0,0,0,0,0,0,0,0,0,0,0,0,0,0
Tiago  ,ZAG,Bahia,3,"9,61",10,"2,61","0,00","-0,35",0,0,0,0,0,0,0,0,0,0,0,0,0,0,0,0,0,0
Bruno Pacheco ,LAT,Atlético-GO,3,"7,72",9,"2,61","0,00","0,00",0,0,0,0,0,0,0,0,0,0,0,0,0,0,0,0,0,0
Roger Carvalho ,ZAG,Atlético-GO,3,"6,84",10,"2,60","0,00","-0,49",0,0,0,0,0,0,0,0,0,0,0,0,0,0,0,0,0,0
Paulo Vitor ,ATA,Vasco,2,"2,25",2,"2,60","0,00","0,00",0,0,0,0,0,0,0,0,0,0,0,0,0,0,0,0,0,0
Claudinei Oliveira ,TEC,Avaí,3,"7,03",10,"2,60","0,00","1,40",0,0,0,0,0,0,0,0,0,0,0,0,0,0,0,0,0,0
Gustavo ,ATA,Bahia,2,"6,55",5,"2,56","0,00","0,00",0,0,0,0,0,0,0,0,0,0,0,0,0,0,0,0,0,0
Júnior Dutra ,ATA,Avaí,2,"6,15",4,"2,55","0,00","-0,27",0,0,0,0,0,0,0,0,0,0,0,0,0,0,0,0,0,0
Kayke ,ATA,Santos,3,"4,65",8,"2,53","0,00","0,19",0,0,0,0,0,0,0,0,0,0,0,0,0,0,0,0,0,0
Fred ,ZAG,Vitória,5,"5,50",9,"2,53","0,00","0,83",0,0,0,0,0,0,0,0,0,0,0,0,0,0,0,0,0,0
Cueva ,MEI,São Paulo,3,"10,28",6,"2,53","0,00","0,47",0,0,0,0,0,0,0,0,0,0,0,0,0,0,0,0,0,0
Juninho ,MEI,Bahia,3,"10,35",9,"2,51","0,00","-0,60",0,0,0,0,0,0,0,0,0,0,0,0,0,0,0,0,0,0
Gabriel ,MEI,Corinthians,3,"7,16",9,"2,51","0,00","0,00",0,0,0,0,0,0,0,0,0,0,0,0,0,0,0,0,0,0
Andrigo ,MEI,Atlético-GO,3,"4,91",10,"2,51","0,00","0,71",0,0,0,0,0,0,0,0,0,0,0,0,0,0,0,0,0,0
Luiz Antonio  ,MEI,Chapecoense,3,"8,22",10,"2,49","0,00","-0,77",0,0,0,0,0,0,0,0,0,0,0,0,0,0,0,0,0,0
Eduardo ,LAT,Bahia,3,"5,30",10,"2,47","0,00","-0,58",0,0,0,0,0,0,0,0,0,0,0,0,0,0,0,0,0,0
Jorginho ,MEI,Atlético-GO,3,"6,10",9,"2,45","0,00","0,36",0,0,0,0,0,0,0,0,0,0,0,0,0,0,0,0,0,0
Zeca ,LAT,Santos,5,"11,45",2,"2,45","0,00","0,00",0,0,0,0,0,0,0,0,0,0,0,0,0,0,0,0,0,0
Thallyson ,LAT,Vitória,2,"2,07",4,"2,42","0,00","0,00",0,0,0,0,0,0,0,0,0,0,0,0,0,0,0,0,0,0
Pará ,LAT,Flamengo,3,"8,98",7,"2,40","0,00","0,00",0,0,0,0,0,0,0,0,0,0,0,0,0,0,0,0,0,0
Matheus Rossetto ,MEI,Atlético-PR,3,"6,08",9,"2,39","0,00","1,82",0,0,0,0,0,0,0,0,0,0,0,0,0,0,0,0,0,0
Guilherme ,MEI,Atlético-PR,5,"10,33",3,"2,37","0,00","0,00",0,0,0,0,0,0,0,0,0,0,0,0,0,0,0,0,0,0
Ravanelli ,MEI,Ponte Preta,2,"8,16",3,"2,37","0,00","0,00",0,0,0,0,0,0,0,0,0,0,0,0,0,0,0,0,0,0
Luis Caicedo ,ZAG,Cruzeiro,3,"5,98",5,"2,36","0,00","1,51",0,0,0,0,0,0,0,0,0,0,0,0,0,0,0,0,0,0
Euller  ,LAT,Vitória,2,"6,31",2,"2,35","0,00","0,00",0,0,0,0,0,0,0,0,0,0,0,0,0,0,0,0,0,0
Willian Arão ,MEI,Flamengo,2,"8,51",9,"2,34","0,00","-1,07",0,0,0,0,0,0,0,0,0,0,0,0,0,0,0,0,0,0
Maycon ,MEI,Corinthians,3,"6,59",10,"2,32","0,00","-0,16",0,0,0,0,0,0,0,0,0,0,0,0,0,0,0,0,0,0
Paulo Roberto ,MEI,Corinthians,2,"3,53",5,"2,32","0,00","1,01",0,0,0,0,0,0,0,0,0,0,0,0,0,0,0,0,0,0
Maicosuel ,MEI,São Paulo,5,"6,88",5,"2,30","0,00","0,00",0,0,0,0,0,0,0,0,0,0,0,0,0,0,0,0,0,0
Leandro Pereira ,ATA,Sport,2,"5,86",2,"2,30","0,00","0,00",0,0,0,0,0,0,0,0,0,0,0,0,0,0,0,0,0,0
Ronaldo ,MEI,Sport,2,"3,20",1,"2,30","0,00","0,00",0,0,0,0,0,0,0,0,0,0,0,0,0,0,0,0,0,0
João Pedro  ,LAT,Chapecoense,5,"5,87",1,"2,30","0,00","0,00",0,0,0,0,0,0,0,0,0,0,0,0,0,0,0,0,0,0
Renato ,LAT,Fluminense,2,"3,75",5,"2,28","0,00","-1,60",0,0,0,0,0,0,0,0,0,0,0,0,0,0,0,0,0,0
Neto Berola ,ATA,Coritiba,2,"9,78",5,"2,28","0,00","0,00",0,0,0,0,0,0,0,0,0,0,0,0,0,0,0,0,0,0
Robinho ,MEI,Cruzeiro,3,"8,69",5,"2,26","0,00","-1,17",0,0,0,0,0,0,0,0,0,0,0,0,0,0,0,0,0,0
Márcio Araújo ,MEI,Flamengo,3,"8,08",10,"2,25","0,00","0,20",0,0,0,0,0,0,0,0,0,0,0,0,0,0,0,0,0,0
Doriva ,TEC,Atlético-GO,3,"5,87",5,"2,23","0,00","0,10",0,0,0,0,0,0,0,0,0,0,0,0,0,0,0,0,0,0
Gustavo Ferrareis ,MEI,Bahia,2,"6,43",4,"2,23","0,00","0,00",0,0,0,0,0,0,0,0,0,0,0,0,0,0,0,0,0,0
Rodrigo Pimpão ,ATA,Botafogo,1,"6,54",10,"2,21","0,00","0,14",0,0,0,0,0,0,0,0,0,0,0,0,0,0,0,0,0,0
Keno ,ATA,Palmeiras,3,"5,99",9,"2,21","0,00","0,00",0,0,0,0,0,0,0,0,0,0,0,0,0,0,0,0,0,0
Luan ,MEI,Avaí,3,"5,89",9,"2,20","0,00","-0,31",0,0,0,0,0,0,0,0,0,0,0,0,0,0,0,0,0,0
Beto da Silva ,ATA,Grêmio,2,"3,74",1,"2,20","0,00","0,00",0,0,0,0,0,0,0,0,0,0,0,0,0,0,0,0,0,0
Leonan ,LAT,Atlético-MG,2,"2,04",1,"2,20","0,00","0,04",0,0,0,0,0,0,0,0,0,0,0,0,0,0,0,0,0,0
Samuel Xavier ,LAT,Sport,3,"3,13",8,"2,19","0,00","0,62",0,0,0,0,0,0,0,0,0,0,0,0,0,0,0,0,0,0
Luiz Otávio  ,ZAG,Chapecoense,3,"5,89",8,"2,18","0,00","-0,11",0,0,0,0,0,0,0,0,0,0,0,0,0,0,0,0,0,0
Renato Cajá ,MEI,Ponte Preta,4,"7,45",6,"2,17","0,00","0,20",0,0,0,0,0,0,0,0,0,0,0,0,0,0,0,0,0,0
Alan Costa ,ZAG,Vitória,2,"7,75",5,"2,16","0,00","0,00",0,0,0,0,0,0,0,0,0,0,0,0,0,0,0,0,0,0
Rodrigo Becão ,ZAG,Bahia,3,"3,42",5,"2,16","0,00","0,82",0,0,0,0,0,0,0,0,0,0,0,0,0,0,0,0,0,0
Cleiton Xavier ,MEI,Vitória,2,"7,06",8,"2,15","0,00","0,00",0,0,0,0,0,0,0,0,0,0,0,0,0,0,0,0,0,0
Rodrigo ,MEI,Sport,2,"4,16",2,"2,15","0,00","0,06",0,0,0,0,0,0,0,0,0,0,0,0,0,0,0,0,0,0
Rossi ,ATA,Chapecoense,3,"8,02",9,"2,14","0,00","-0,25",0,0,0,0,0,0,0,0,0,0,0,0,0,0,0,0,0,0
Apodi ,LAT,Chapecoense,4,"6,93",10,"2,13","0,00","0,10",0,0,0,0,0,0,0,0,0,0,0,0,0,0,0,0,0,0
Jailson ,MEI,Grêmio,3,"4,96",3,"2,13","0,00","0,00",0,0,0,0,0,0,0,0,0,0,0,0,0,0,0,0,0,0
Eduardo da Silva ,ATA,Atlético-PR,2,"7,19",2,"2,10","0,00","0,00",0,0,0,0,0,0,0,0,0,0,0,0,0,0,0,0,0,0
Alison ,MEI,Santos,1,"3,75",2,"2,10","0,00","0,00",0,0,0,0,0,0,0,0,0,0,0,0,0,0,0,0,0,0
Mayke ,LAT,Palmeiras,3,"5,84",7,"2,10","0,00","-0,97",0,0,0,0,0,0,0,0,0,0,0,0,0,0,0,0,0,0
Walisson Maia ,ZAG,Coritiba,2,"5,31",3,"2,10","0,00","0,00",0,0,0,0,0,0,0,0,0,0,0,0,0,0,0,0,0,0
Betão ,ZAG,Avaí,3,"6,69",9,"2,06","0,00","0,92",0,0,0,0,0,0,0,0,0,0,0,0,0,0,0,0,0,0
René ,ZAG,Vitória,2,"2,15",4,"2,05","0,00","0,00",0,0,0,0,0,0,0,0,0,0,0,0,0,0,0,0,0,0
Marcinho ,ATA,São Paulo,3,"4,61",10,"2,04","0,00","-0,10",0,0,0,0,0,0,0,0,0,0,0,0,0,0,0,0,0,0
Marlone ,MEI,Atlético-MG,2,"7,77",4,"2,02","0,00","1,55",0,0,0,0,0,0,0,0,0,0,0,0,0,0,0,0,0,0
Matheus Reis ,LAT,Bahia,2,"4,49",9,"2,02","0,00","0,14",0,0,0,0,0,0,0,0,0,0,0,0,0,0,0,0,0,0
Patric ,LAT,Vitória,1,"6,50",7,"2,01","0,00","-0,59",0,0,0,0,0,0,0,0,0,0,0,0,0,0,0,0,0,0
Andrei Girotto ,MEI,Chapecoense,3,"4,83",9,"1,99","0,00","-0,22",0,0,0,0,0,0,0,0,0,0,0,0,0,0,0,0,0,0
Juan ,MEI,Avaí,3,"4,95",7,"1,96","0,00","0,14",0,0,0,0,0,0,0,0,0,0,0,0,0,0,0,0,0,0
Renato ,MEI,Santos,2,"7,54",9,"1,93","0,00","1,29",0,0,0,0,0,0,0,0,0,0,0,0,0,0,0,0,0,0
Alan Santos ,MEI,Coritiba,5,"4,80",8,"1,91","0,00","0,00",0,0,0,0,0,0,0,0,0,0,0,0,0,0,0,0,0,0
Leandrinho ,MEI,Botafogo,2,"2,75",1,"1,90","0,00","-0,25",0,0,0,0,0,0,0,0,0,0,0,0,0,0,0,0,0,0
Jadson ,MEI,Corinthians,3,"10,68",9,"1,88","0,00","2,12",0,0,0,0,0,0,0,0,0,0,0,0,0,0,0,0,0,0
Roger Bernardo ,MEI,Atlético-MG,2,"6,26",2,"1,85","0,00","-0,67",0,0,0,0,0,0,0,0,0,0,0,0,0,0,0,0,0,0
Elias ,MEI,Atlético-MG,3,"11,85",8,"1,85","0,00","0,00",0,0,0,0,0,0,0,0,0,0,0,0,0,0,0,0,0,0
Lucas Fernandes ,ATA,Fluminense,2,"4,21",2,"1,85","0,00","0,00",0,0,0,0,0,0,0,0,0,0,0,0,0,0,0,0,0,0
Kleber ,ATA,Coritiba,3,"10,49",7,"1,84","0,00","0,00",0,0,0,0,0,0,0,0,0,0,0,0,0,0,0,0,0,0
Éder Militão ,MEI,São Paulo,2,"2,46",7,"1,84","0,00","0,00",0,0,0,0,0,0,0,0,0,0,0,0,0,0,0,0,0,0
Wellington Nem ,ATA,São Paulo,2,"7,38",5,"1,84","0,00","0,00",0,0,0,0,0,0,0,0,0,0,0,0,0,0,0,0,0,0
Diego Rosa ,MEI,Atlético-GO,2,"7,31",6,"1,83","0,00","-0,18",0,0,0,0,0,0,0,0,0,0,0,0,0,0,0,0,0,0
Leandro Silva ,LAT,Avaí,3,"7,40",9,"1,81","0,00","1,24",0,0,0,0,0,0,0,0,0,0,0,0,0,0,0,0,0,0
Pedro ,ATA,Fluminense,1,"4,25",1,"1,80","0,00","0,00",0,0,0,0,0,0,0,0,0,0,0,0,0,0,0,0,0,0
Denilson ,ATA,São Paulo,3,"3,78",5,"1,80","0,00","1,44",0,0,0,0,0,0,0,0,0,0,0,0,0,0,0,0,0,0
Gabriel Xavier ,MEI,Vitória,3,"4,72",6,"1,80","0,00","0,13",0,0,0,0,0,0,0,0,0,0,0,0,0,0,0,0,0,0
Ronaldo Alves ,ZAG,Sport,3,"6,64",7,"1,79","0,00","0,74",0,0,0,0,0,0,0,0,0,0,0,0,0,0,0,0,0,0
Zé Roberto ,LAT,Palmeiras,2,"7,28",3,"1,77","0,00","0,00",0,0,0,0,0,0,0,0,0,0,0,0,0,0,0,0,0,0
Felipe Melo ,MEI,Palmeiras,5,"8,67",4,"1,75","0,00","0,00",0,0,0,0,0,0,0,0,0,0,0,0,0,0,0,0,0,0
Luan Peres  ,ZAG,Ponte Preta,2,"2,16",2,"1,75","0,00","0,00",0,0,0,0,0,0,0,0,0,0,0,0,0,0,0,0,0,0
Kelvin ,ATA,Vasco,5,"5,03",5,"1,72","0,00","0,00",0,0,0,0,0,0,0,0,0,0,0,0,0,0,0,0,0,0
Bruno Cosendey ,MEI,Vasco,2,"2,21",1,"1,70","0,00","0,00",0,0,0,0,0,0,0,0,0,0,0,0,0,0,0,0,0,0
Emerson Sheik ,ATA,Ponte Preta,4,"4,53",6,"1,67","0,00","-0,91",0,0,0,0,0,0,0,0,0,0,0,0,0,0,0,0,0,0
Vitor Bueno ,MEI,Santos,1,"9,43",7,"1,66","0,00","0,08",0,0,0,0,0,0,0,0,0,0,0,0,0,0,0,0,0,0
Fabiano ,LAT,Palmeiras,2,"5,09",4,"1,65","0,00","-0,26",0,0,0,0,0,0,0,0,0,0,0,0,0,0,0,0,0,0
Vladimir Hernández ,ATA,Santos,1,"8,75",8,"1,63","0,00","-0,13",0,0,0,0,0,0,0,0,0,0,0,0,0,0,0,0,0,0
Neilton ,ATA,Vitória,3,"4,67",7,"1,61","0,00","0,28",0,0,0,0,0,0,0,0,0,0,0,0,0,0,0,0,0,0
Marcelo Grohe ,GOL,Grêmio,2,"8,26",9,"1,60","0,00","-0,68",0,0,0,0,0,0,0,0,0,0,0,0,0,0,0,0,0,0
Willian ,ATA,Palmeiras,2,"5,69",9,"1,59","0,00","-1,05",0,0,0,0,0,0,0,0,0,0,0,0,0,0,0,0,0,0
Uillian Correia ,MEI,Vitória,3,"3,62",10,"1,59","0,00","0,57",0,0,0,0,0,0,0,0,0,0,0,0,0,0,0,0,0,0
Otero ,MEI,Atlético-MG,2,"6,65",8,"1,59","0,00","-0,55",0,0,0,0,0,0,0,0,0,0,0,0,0,0,0,0,0,0
Gilberto ,ATA,São Paulo,2,"4,20",5,"1,58","0,00","0,00",0,0,0,0,0,0,0,0,0,0,0,0,0,0,0,0,0,0
Camilo ,MEI,Botafogo,3,"9,66",4,"1,58","0,00","-1,41",0,0,0,0,0,0,0,0,0,0,0,0,0,0,0,0,0,0
Elton ,MEI,Ponte Preta,3,"5,84",9,"1,58","0,00","0,20",0,0,0,0,0,0,0,0,0,0,0,0,0,0,0,0,0,0
Pedro Castro ,MEI,Avaí,3,"2,86",5,"1,56","0,00","1,40",0,0,0,0,0,0,0,0,0,0,0,0,0,0,0,0,0,0
Carlos Alberto ,MEI,Atlético-PR,2,"5,72",2,"1,55","0,00","0,00",0,0,0,0,0,0,0,0,0,0,0,0,0,0,0,0,0,0
Paulão ,ZAG,Vasco,3,"5,49",9,"1,55","0,00","0,87",0,0,0,0,0,0,0,0,0,0,0,0,0,0,0,0,0,0
Conrado ,MEI,Grêmio,2,"2,16",1,"1,50","0,00","0,00",0,0,0,0,0,0,0,0,0,0,0,0,0,0,0,0,0,0
Guilherme ,ATA,Botafogo,3,"4,09",6,"1,48","0,00","0,00",0,0,0,0,0,0,0,0,0,0,0,0,0,0,0,0,0,0
Gastón Fernández ,MEI,Grêmio,2,"4,82",4,"1,47","0,00","-0,13",0,0,0,0,0,0,0,0,0,0,0,0,0,0,0,0,0,0
Arthur Gomes ,ATA,Santos,1,"1,87",2,"1,45","0,00","0,00",0,0,0,0,0,0,0,0,0,0,0,0,0,0,0,0,0,0
Silva ,MEI,Atlético-GO,3,"3,16",4,"1,45","0,00","1,20",0,0,0,0,0,0,0,0,0,0,0,0,0,0,0,0,0,0
Eduardo Gabriel ,ZAG,Atlético-GO,2,"2,37",6,"1,43","0,00","-0,07",0,0,0,0,0,0,0,0,0,0,0,0,0,0,0,0,0,0
Júlio César ,GOL,Fluminense,3,"4,87",6,"1,42","0,00","-1,83",0,0,0,0,0,0,0,0,0,0,0,0,0,0,0,0,0,0
David ,ATA,Vitória,1,"3,88",10,"1,42","0,00","0,85",0,0,0,0,0,0,0,0,0,0,0,0,0,0,0,0,0,0
Rafinha ,MEI,Cruzeiro,2,"5,96",7,"1,41","0,00","0,00",0,0,0,0,0,0,0,0,0,0,0,0,0,0,0,0,0,0
Felipe Saraiva ,MEI,Ponte Preta,2,"1,09",1,"1,40","0,00","0,09",0,0,0,0,0,0,0,0,0,0,0,0,0,0,0,0,0,0
Fellipe Bastos ,MEI,Corinthians,2,"4,25",1,"1,40","0,00","0,00",0,0,0,0,0,0,0,0,0,0,0,0,0,0,0,0,0,0
Henrique ,ZAG,Fluminense,3,"8,29",9,"1,38","0,00","-1,03",0,0,0,0,0,0,0,0,0,0,0,0,0,0,0,0,0,0
Nenén ,MEI,Chapecoense,2,"2,45",7,"1,37","0,00","-0,36",0,0,0,0,0,0,0,0,0,0,0,0,0,0,0,0,0,0
Hyoran ,MEI,Palmeiras,1,"2,64",2,"1,35","0,00","0,00",0,0,0,0,0,0,0,0,0,0,0,0,0,0,0,0,0,0
Tchê Tchê ,MEI,Palmeiras,4,"6,85",10,"1,35","0,00","-1,57",0,0,0,0,0,0,0,0,0,0,0,0,0,0,0,0,0,0
Todinho ,ATA,Vitória,2,"1,17",2,"1,35","0,00","0,00",0,0,0,0,0,0,0,0,0,0,0,0,0,0,0,0,0,0
Judson ,MEI,Avaí,3,"4,20",9,"1,34","0,00","0,38",0,0,0,0,0,0,0,0,0,0,0,0,0,0,0,0,0,0
Igor ,MEI,Atlético-GO,2,"3,61",7,"1,30","0,00","0,00",0,0,0,0,0,0,0,0,0,0,0,0,0,0,0,0,0,0
João Paulo ,MEI,Botafogo,3,"2,59",9,"1,29","0,00","0,00",0,0,0,0,0,0,0,0,0,0,0,0,0,0,0,0,0,0
Tiago Real ,MEI,Coritiba,3,"5,23",8,"1,29","0,00","0,41",0,0,0,0,0,0,0,0,0,0,0,0,0,0,0,0,0,0
Luan ,ATA,Atlético-MG,1,"6,32",3,"1,27","0,00","-0,14",0,0,0,0,0,0,0,0,0,0,0,0,0,0,0,0,0,0
Breno ,ZAG,Vasco,3,"3,79",9,"1,26","0,00","1,02",0,0,0,0,0,0,0,0,0,0,0,0,0,0,0,0,0,0
Ricardo Oliveira ,ATA,Santos,5,"11,40",4,"1,25","0,00","0,00",0,0,0,0,0,0,0,0,0,0,0,0,0,0,0,0,0,0
Cuéllar ,MEI,Flamengo,3,"3,06",5,"1,24","0,00","-0,86",0,0,0,0,0,0,0,0,0,0,0,0,0,0,0,0,0,0
Berrío  ,ATA,Flamengo,2,"5,07",4,"1,23","0,00","1,57",0,0,0,0,0,0,0,0,0,0,0,0,0,0,0,0,0,0
Osman ,ATA,Chapecoense,5,"2,99",7,"1,23","0,00","0,00",0,0,0,0,0,0,0,0,0,0,0,0,0,0,0,0,0,0
Wesley ,MEI,São Paulo,1,"4,10",1,"1,20","0,00","0,00",0,0,0,0,0,0,0,0,0,0,0,0,0,0,0,0,0,0
Cascardo ,LAT,Atlético-PR,3,"2,60",1,"1,20","0,00","-0,40",0,0,0,0,0,0,0,0,0,0,0,0,0,0,0,0,0,0
Léo Jabá ,ATA,Corinthians,2,"3,68",1,"1,20","0,00","0,00",0,0,0,0,0,0,0,0,0,0,0,0,0,0,0,0,0,0
Weverton ,GOL,Atlético-PR,3,"2,17",7,"1,20","0,00","-0,54",0,0,0,0,0,0,0,0,0,0,0,0,0,0,0,0,0,0
Rafael Carioca ,MEI,Atlético-MG,4,"5,61",10,"1,19","0,00","-0,36",0,0,0,0,0,0,0,0,0,0,0,0,0,0,0,0,0,0
Rafael Marques ,ATA,Cruzeiro,2,"4,04",7,"1,18","0,00","0,06",0,0,0,0,0,0,0,0,0,0,0,0,0,0,0,0,0,0
Copete ,ATA,Santos,1,"4,61",8,"1,18","0,00","-2,54",0,0,0,0,0,0,0,0,0,0,0,0,0,0,0,0,0,0
Airton ,MEI,Botafogo,5,"5,63",3,"1,17","0,00","0,00",0,0,0,0,0,0,0,0,0,0,0,0,0,0,0,0,0,0
Rogério ,ATA,Sport,1,"6,02",6,"1,12","0,00","0,00",0,0,0,0,0,0,0,0,0,0,0,0,0,0,0,0,0,0
Walter ,ATA,Atlético-GO,2,"7,84",6,"1,10","0,00","0,00",0,0,0,0,0,0,0,0,0,0,0,0,0,0,0,0,0,0
Luiz Fernando  ,MEI,Fluminense,5,"1,94",2,"1,10","0,00","0,00",0,0,0,0,0,0,0,0,0,0,0,0,0,0,0,0,0,0
Bruno ,LAT,São Paulo,2,"5,63",4,"1,07","0,00","0,00",0,0,0,0,0,0,0,0,0,0,0,0,0,0,0,0,0,0
Vinicius Junior ,ATA,Flamengo,2,"2,42",10,"1,05","0,00","-0,23",0,0,0,0,0,0,0,0,0,0,0,0,0,0,0,0,0,0
Leandro Donizete ,MEI,Santos,2,"4,97",3,"1,03","0,00","0,00",0,0,0,0,0,0,0,0,0,0,0,0,0,0,0,0,0,0
João Schmidt  ,MEI,São Paulo,2,"4,13",3,"1,00","0,00","0,00",0,0,0,0,0,0,0,0,0,0,0,0,0,0,0,0,0,0
Helton Leite ,GOL,Botafogo,2,"3,32",1,"1,00","0,00","0,00",0,0,0,0,0,0,0,0,0,0,0,0,0,0,0,0,0,0
Jadson ,MEI,Ponte Preta,1,"3,68",6,"0,98","0,00","0,00",0,0,0,0,0,0,0,0,0,0,0,0,0,0,0,0,0,0
Mendoza ,ATA,Bahia,2,"2,01",5,"0,96","0,00","0,21",0,0,0,0,0,0,0,0,0,0,0,0,0,0,0,0,0,0
Raphael Veiga ,MEI,Palmeiras,1,"4,58",4,"0,95","0,00","0,00",0,0,0,0,0,0,0,0,0,0,0,0,0,0,0,0,0,0
Zé Ivaldo ,ZAG,Atlético-PR,2,"1,65",2,"0,95","0,00","0,00",0,0,0,0,0,0,0,0,0,0,0,0,0,0,0,0,0,0
Ederson ,MEI,Flamengo,2,"4,25",5,"0,94","0,00","0,00",0,0,0,0,0,0,0,0,0,0,0,0,0,0,0,0,0,0
Luiz Fernando  ,MEI,Atlético-GO,2,"2,62",8,"0,93","0,00","-0,13",0,0,0,0,0,0,0,0,0,0,0,0,0,0,0,0,0,0
Lins ,ATA,Ponte Preta,3,"3,84",8,"0,92","0,00","-0,16",0,0,0,0,0,0,0,0,0,0,0,0,0,0,0,0,0,0
Fábio Santos ,LAT,Atlético-MG,3,"1,81",8,"0,91","0,00","0,00",0,0,0,0,0,0,0,0,0,0,0,0,0,0,0,0,0,0
Andrezinho ,MEI,Vasco,2,"5,59",2,"0,90","0,00","0,00",0,0,0,0,0,0,0,0,0,0,0,0,0,0,0,0,0,0
Matheus Alessandro ,ATA,Fluminense,2,"1,10",2,"0,90","0,00","0,00",0,0,0,0,0,0,0,0,0,0,0,0,0,0,0,0,0,0
Douglas ,ZAG,São Paulo,2,"3,28",1,"0,90","0,00","0,00",0,0,0,0,0,0,0,0,0,0,0,0,0,0,0,0,0,0
Douglas Coutinho  ,ATA,Atlético-PR,2,"2,84",9,"0,89","0,00","0,81",0,0,0,0,0,0,0,0,0,0,0,0,0,0,0,0,0,0
Paulo André ,ZAG,Atlético-PR,3,"4,08",4,"0,87","0,00","0,00",0,0,0,0,0,0,0,0,0,0,0,0,0,0,0,0,0,0
Martín Silva ,GOL,Vasco,3,"7,37",10,"0,87","0,00","1,87",0,0,0,0,0,0,0,0,0,0,0,0,0,0,0,0,0,0
Maicon ,MEI,Grêmio,5,"7,99",6,"0,80","0,00","0,00",0,0,0,0,0,0,0,0,0,0,0,0,0,0,0,0,0,0
Lenis ,ATA,Sport,1,"2,61",4,"0,80","0,00","-0,15",0,0,0,0,0,0,0,0,0,0,0,0,0,0,0,0,0,0
Wellington Silva ,ATA,Fluminense,2,"8,43",2,"0,75","0,00","-2,46",0,0,0,0,0,0,0,0,0,0,0,0,0,0,0,0,0,0
Wendel ,MEI,Ponte Preta,2,"3,71",8,"0,74","0,00","-0,59",0,0,0,0,0,0,0,0,0,0,0,0,0,0,0,0,0,0
Pachu ,ATA,Botafogo,2,"1,63",2,"0,70","0,00","-0,08",0,0,0,0,0,0,0,0,0,0,0,0,0,0,0,0,0,0
Deivid ,MEI,Atlético-PR,3,"5,23",4,"0,70","0,00","-0,33",0,0,0,0,0,0,0,0,0,0,0,0,0,0,0,0,0,0
Léo ,LAT,Fluminense,3,"3,32",9,"0,69","0,00","-0,96",0,0,0,0,0,0,0,0,0,0,0,0,0,0,0,0,0,0
Lucas Lima ,MEI,Santos,1,"3,13",5,"0,68","0,00","-0,60",0,0,0,0,0,0,0,0,0,0,0,0,0,0,0,0,0,0
André Castro ,MEI,Atlético-GO,3,"1,51",9,"0,67","0,00","0,38",0,0,0,0,0,0,0,0,0,0,0,0,0,0,0,0,0,0
Everton Felipe ,MEI,Sport,2,"3,86",6,"0,65","0,00","0,33",0,0,0,0,0,0,0,0,0,0,0,0,0,0,0,0,0,0
Léo Artur ,MEI,Ponte Preta,1,"2,42",7,"0,63","0,00","-0,15",0,0,0,0,0,0,0,0,0,0,0,0,0,0,0,0,0,0
Matheus Anjos ,MEI,Atlético-PR,2,"1,69",1,"0,60","0,00","-0,31",0,0,0,0,0,0,0,0,0,0,0,0,0,0,0,0,0,0
Rafaelson ,ATA,Vitória,2,"2,67",3,"0,60","0,00","0,00",0,0,0,0,0,0,0,0,0,0,0,0,0,0,0,0,0,0
Grafite ,ATA,Atlético-PR,1,"7,44",8,"0,58","0,00","0,63",0,0,0,0,0,0,0,0,0,0,0,0,0,0,0,0,0,0
Camacho ,MEI,Corinthians,2,"3,94",6,"0,58","0,00","-0,54",0,0,0,0,0,0,0,0,0,0,0,0,0,0,0,0,0,0
Xuxa ,MEI,Ponte Preta,2,"2,44",2,"0,55","0,00","0,00",0,0,0,0,0,0,0,0,0,0,0,0,0,0,0,0,0,0
Júnior Viçosa ,ATA,Atlético-GO,2,"3,85",7,"0,53","0,00","0,00",0,0,0,0,0,0,0,0,0,0,0,0,0,0,0,0,0,0
Lennon ,LAT,Cruzeiro,2,"4,03",3,"0,53","0,00","0,00",0,0,0,0,0,0,0,0,0,0,0,0,0,0,0,0,0,0
Adilson ,MEI,Atlético-MG,3,"5,18",3,"0,50","0,00","0,00",0,0,0,0,0,0,0,0,0,0,0,0,0,0,0,0,0,0
Matheus Iacovelli ,ATA,Palmeiras,2,"1,68",1,"0,50","0,00","0,00",0,0,0,0,0,0,0,0,0,0,0,0,0,0,0,0,0,0
Léo Natel ,ATA,São Paulo,2,"0,92",1,"0,50","0,00","0,00",0,0,0,0,0,0,0,0,0,0,0,0,0,0,0,0,0,0
Léo ,LAT,Coritiba,3,"4,47",2,"0,50","0,00","-0,65",0,0,0,0,0,0,0,0,0,0,0,0,0,0,0,0,0,0
Pepê ,ATA,Grêmio,2,"0,97",1,"0,50","0,00","0,00",0,0,0,0,0,0,0,0,0,0,0,0,0,0,0,0,0,0
Ramon ,ZAG,Vitória,3,"3,35",1,"0,50","0,00","-0,65",0,0,0,0,0,0,0,0,0,0,0,0,0,0,0,0,0,0
Guilherme Costa ,MEI,Vasco,2,"5,50",1,"0,50","0,00","0,00",0,0,0,0,0,0,0,0,0,0,0,0,0,0,0,0,0,0
Iury ,ATA,Avaí,2,"1,68",1,"0,50","0,00","0,00",0,0,0,0,0,0,0,0,0,0,0,0,0,0,0,0,0,0
Nogueira ,ZAG,Fluminense,2,"1,97",4,"0,47","0,00","0,00",0,0,0,0,0,0,0,0,0,0,0,0,0,0,0,0,0,0
Muriqui ,ATA,Vasco,2,"3,56",2,"0,45","0,00","0,00",0,0,0,0,0,0,0,0,0,0,0,0,0,0,0,0,0,0
Ralph ,MEI,Atlético-MG,2,"1,04",4,"0,45","0,00","0,00",0,0,0,0,0,0,0,0,0,0,0,0,0,0,0,0,0,0
Murilo ,ZAG,Cruzeiro,2,"0,77",4,"0,45","0,00","0,00",0,0,0,0,0,0,0,0,0,0,0,0,0,0,0,0,0,0
Michel Bastos ,MEI,Palmeiras,3,"5,01",5,"0,44","0,00","0,00",0,0,0,0,0,0,0,0,0,0,0,0,0,0,0,0,0,0
Capixaba ,ATA,Atlético-MG,2,"0,87",1,"0,40","0,00","0,00",0,0,0,0,0,0,0,0,0,0,0,0,0,0,0,0,0,0
Fabrício ,MEI,Sport,2,"1,39",6,"0,37","0,00","0,00",0,0,0,0,0,0,0,0,0,0,0,0,0,0,0,0,0,0
Jandrei ,GOL,Chapecoense,3,"3,90",10,"0,36","0,00","-0,50",0,0,0,0,0,0,0,0,0,0,0,0,0,0,0,0,0,0
Yuri ,ATA,Ponte Preta,2,"0,87",2,"0,35","0,00","0,00",0,0,0,0,0,0,0,0,0,0,0,0,0,0,0,0,0,0
Bryan ,LAT,Cruzeiro,2,"3,93",1,"0,30","0,00","0,00",0,0,0,0,0,0,0,0,0,0,0,0,0,0,0,0,0,0
Yago ,MEI,Atlético-MG,1,"1,79",5,"0,30","0,00","1,00",0,0,0,0,0,0,0,0,0,0,0,0,0,0,0,0,0,0
Ricardo Silva ,ZAG,Atlético-GO,2,"2,94",4,"0,28","0,00","0,00",0,0,0,0,0,0,0,0,0,0,0,0,0,0,0,0,0,0
Willians ,ATA,Avaí,2,"3,23",6,"0,23","0,00","0,00",0,0,0,0,0,0,0,0,0,0,0,0,0,0,0,0,0,0
Paulinho ,ATA,Vitória,2,"3,94",7,"0,21","0,00","0,43",0,0,0,0,0,0,0,0,0,0,0,0,0,0,0,0,0,0
Wellington Simião ,MEI,Avaí,2,"1,81",7,"0,21","0,00","0,21",0,0,0,0,0,0,0,0,0,0,0,0,0,0,0,0,0,0
Thalis  ,MEI,Atlético-MG,2,"0,81",1,"0,20","0,00","0,00",0,0,0,0,0,0,0,0,0,0,0,0,0,0,0,0,0,0
Araruna ,MEI,São Paulo,3,"1,60",1,"0,20","0,00","-0,40",0,0,0,0,0,0,0,0,0,0,0,0,0,0,0,0,0,0
Diego Renan ,LAT,Chapecoense,3,"5,12",2,"0,20","0,00","0,00",0,0,0,0,0,0,0,0,0,0,0,0,0,0,0,0,0,0
Brenner ,ATA,São Paulo,2,"0,86",1,"0,20","0,00","0,00",0,0,0,0,0,0,0,0,0,0,0,0,0,0,0,0,0,0
Pedrinho ,ATA,Corinthians,2,"0,77",2,"0,20","0,00","0,00",0,0,0,0,0,0,0,0,0,0,0,0,0,0,0,0,0,0
Lucas Silva ,MEI,Cruzeiro,2,"4,96",3,"0,17","0,00","0,00",0,0,0,0,0,0,0,0,0,0,0,0,0,0,0,0,0,0
Erazo ,ZAG,Atlético-MG,2,"3,98",2,"0,15","0,00","0,00",0,0,0,0,0,0,0,0,0,0,0,0,0,0,0,0,0,0
Perotti ,ATA,Chapecoense,2,"1,57",1,"0,10","0,00","0,00",0,0,0,0,0,0,0,0,0,0,0,0,0,0,0,0,0,0
Lincoln ,MEI,Grêmio,3,"2,82",2,"0,10","0,00","0,00",0,0,0,0,0,0,0,0,0,0,0,0,0,0,0,0,0,0
Túlio de Melo ,ATA,Chapecoense,2,"3,38",7,"0,06","0,00","-0,05",0,0,0,0,0,0,0,0,0,0,0,0,0,0,0,0,0,0
Feijão ,MEI,Bahia,2,"2,06",2,"0,05","0,00","0,00",0,0,0,0,0,0,0,0,0,0,0,0,0,0,0,0,0,0
Andrei Alba ,MEI,Chapecoense,5,"2,00",0,"0,00","0,00","0,00",0,0,0,0,0,0,0,0,0,0,0,0,0,0,0,0,0,0
Diego Gomes ,MEI,Santos,2,"1,00",0,"0,00","0,00","0,00",0,0,0,0,0,0,0,0,0,0,0,0,0,0,0,0,0,0
Cristian ,MEI,Corinthians,2,"4,00",0,"0,00","0,00","0,00",0,0,0,0,0,0,0,0,0,0,0,0,0,0,0,0,0,0
Marcelo Mattos ,MEI,Vasco,5,"4,00",0,"0,00","0,00","0,00",0,0,0,0,0,0,0,0,0,0,0,0,0,0,0,0,0,0
John Victor ,GOL,Santos,2,"1,00",0,"0,00","0,00","0,00",0,0,0,0,0,0,0,0,0,0,0,0,0,0,0,0,0,0
Wellington Silva ,LAT,Bahia,5,"7,00",0,"0,00","0,00","0,00",0,0,0,0,0,0,0,0,0,0,0,0,0,0,0,0,0,0
Arouca ,MEI,Palmeiras,5,"6,00",0,"0,00","0,00","0,00",0,0,0,0,0,0,0,0,0,0,0,0,0,0,0,0,0,0
Jefferson ,GOL,Botafogo,2,"9,00",0,"0,00","0,00","0,00",0,0,0,0,0,0,0,0,0,0,0,0,0,0,0,0,0,0
Danilo ,MEI,Corinthians,5,"5,00",0,"0,00","0,00","0,00",0,0,0,0,0,0,0,0,0,0,0,0,0,0,0,0,0,0
Artur Moraes ,GOL,Chapecoense,2,"6,00",0,"0,00","0,00","0,00",0,0,0,0,0,0,0,0,0,0,0,0,0,0,0,0,0,0
Matheus ,GOL,Avaí,2,"1,00",0,"0,00","0,00","0,00",0,0,0,0,0,0,0,0,0,0,0,0,0,0,0,0,0,0
Devid ,ATA,Avaí,2,"1,00",0,"0,00","0,00","0,00",0,0,0,0,0,0,0,0,0,0,0,0,0,0,0,0,0,0
Eder Luis ,ATA,Vasco,2,"3,00",0,"0,00","0,00","0,00",0,0,0,0,0,0,0,0,0,0,0,0,0,0,0,0,0,0
Fábio Ferreira ,ZAG,Ponte Preta,2,"5,00",0,"0,00","0,00","0,00",0,0,0,0,0,0,0,0,0,0,0,0,0,0,0,0,0,0
Lucas Ferreira ,GOL,Sport,2,"1,00",0,"0,00","0,00","0,00",0,0,0,0,0,0,0,0,0,0,0,0,0,0,0,0,0,0
Pierre ,MEI,Fluminense,5,"3,54",1,"0,00","0,00","0,00",0,0,0,0,0,0,0,0,0,0,0,0,0,0,0,0,0,0
Douglas ,MEI,Grêmio,5,"14,00",0,"0,00","0,00","0,00",0,0,0,0,0,0,0,0,0,0,0,0,0,0,0,0,0,0
Jonas ,LAT,Botafogo,5,"6,00",0,"0,00","0,00","0,00",0,0,0,0,0,0,0,0,0,0,0,0,0,0,0,0,0,0
Léo Duarte ,ZAG,Flamengo,2,"3,00",0,"0,00","0,00","0,00",0,0,0,0,0,0,0,0,0,0,0,0,0,0,0,0,0,0
Lima ,MEI,Chapecoense,2,"1,00",0,"0,00","0,00","0,00",0,0,0,0,0,0,0,0,0,0,0,0,0,0,0,0,0,0
Amaral ,MEI,Chapecoense,5,"5,00",0,"0,00","0,00","0,00",0,0,0,0,0,0,0,0,0,0,0,0,0,0,0,0,0,0
Léo Principe ,LAT,Corinthians,2,"3,00",0,"0,00","0,00","0,00",0,0,0,0,0,0,0,0,0,0,0,0,0,0,0,0,0,0
César ,LAT,Atlético-MG,2,"1,00",0,"0,00","0,00","0,00",0,0,0,0,0,0,0,0,0,0,0,0,0,0,0,0,0,0
Jonatan Gomez ,MEI,São Paulo,2,"6,00",0,"0,00","0,00","0,00",0,0,0,0,0,0,0,0,0,0,0,0,0,0,0,0,0,0
Fabrício ,LAT,Cruzeiro,2,"5,00",0,"0,00","0,00","0,00",0,0,0,0,0,0,0,0,0,0,0,0,0,0,0,0,0,0
Léo ,LAT,Avaí,2,"1,00",0,"0,00","0,00","0,00",0,0,0,0,0,0,0,0,0,0,0,0,0,0,0,0,0,0
Lucão ,GOL,Cruzeiro,2,"1,00",0,"0,00","0,00","0,00",0,0,0,0,0,0,0,0,0,0,0,0,0,0,0,0,0,0
Deijair  ,GOL,Bahia,2,"1,00",0,"0,00","0,00","0,00",0,0,0,0,0,0,0,0,0,0,0,0,0,0,0,0,0,0
Juninho Capixaba ,LAT,Bahia,2,"2,00",0,"0,00","0,00","0,00",0,0,0,0,0,0,0,0,0,0,0,0,0,0,0,0,0,0
Marco Antônio ,MEI,Bahia,2,"3,00",0,"0,00","0,00","0,00",0,0,0,0,0,0,0,0,0,0,0,0,0,0,0,0,0,0
Luís Fernando ,MEI,Bahia,2,"3,00",0,"0,00","0,00","0,00",0,0,0,0,0,0,0,0,0,0,0,0,0,0,0,0,0,0
Kaynan ,ATA,Bahia,2,"1,00",0,"0,00","0,00","0,00",0,0,0,0,0,0,0,0,0,0,0,0,0,0,0,0,0,0
Paulo Henrique ,ATA,Sport,2,"3,00",0,"0,00","0,00","0,00",0,0,0,0,0,0,0,0,0,0,0,0,0,0,0,0,0,0
Júnior Ramos ,MEI,Bahia,2,"1,00",0,"0,00","0,00","0,00",0,0,0,0,0,0,0,0,0,0,0,0,0,0,0,0,0,0
Carlos Eduardo ,MEI,Vitória,1,"3,00",0,"0,00","0,00","0,00",0,0,0,0,0,0,0,0,0,0,0,0,0,0,0,0,0,0
Luis Guilherme ,ATA,Atlético-MG,2,"2,00",0,"0,00","0,00","0,00",0,0,0,0,0,0,0,0,0,0,0,0,0,0,0,0,0,0
Moraes ,LAT,Flamengo,2,"1,00",0,"0,00","0,00","0,00",0,0,0,0,0,0,0,0,0,0,0,0,0,0,0,0,0,0
Vilson ,ZAG,Corinthians,5,"4,00",0,"0,00","0,00","0,00",0,0,0,0,0,0,0,0,0,0,0,0,0,0,0,0,0,0
Luquinhas ,MEI,Fluminense,2,"1,00",0,"0,00","0,00","0,00",0,0,0,0,0,0,0,0,0,0,0,0,0,0,0,0,0,0
Índio ,ATA,Sport,2,"2,00",0,"0,00","0,00","0,00",0,0,0,0,0,0,0,0,0,0,0,0,0,0,0,0,0,0
Índio ,ATA,Coritiba,2,"2,00",0,"0,00","0,00","0,00",0,0,0,0,0,0,0,0,0,0,0,0,0,0,0,0,0,0
Matheus Jesus ,MEI,Ponte Preta,2,"4,00",0,"0,00","0,00","0,00",0,0,0,0,0,0,0,0,0,0,0,0,0,0,0,0,0,0
Luiz Felipe ,GOL,Chapecoense,2,"2,00",0,"0,00","0,00","0,00",0,0,0,0,0,0,0,0,0,0,0,0,0,0,0,0,0,0
Denis ,GOL,São Paulo,5,"5,00",0,"0,00","0,00","0,00",0,0,0,0,0,0,0,0,0,0,0,0,0,0,0,0,0,0
Ty Sandows ,ATA,Grêmio,2,"1,00",0,"0,00","0,00","0,00",0,0,0,0,0,0,0,0,0,0,0,0,0,0,0,0,0,0
Emerson Silva ,ZAG,Botafogo,1,"6,00",0,"0,00","0,00","0,00",0,0,0,0,0,0,0,0,0,0,0,0,0,0,0,0,0,0
Filipinho ,ATA,Atlético-MG,2,"2,00",0,"0,00","0,00","0,00",0,0,0,0,0,0,0,0,0,0,0,0,0,0,0,0,0,0
Lucas Kal ,ZAG,São Paulo,2,"2,00",0,"0,00","0,00","0,00",0,0,0,0,0,0,0,0,0,0,0,0,0,0,0,0,0,0
Walter ,GOL,Corinthians,2,"6,00",0,"0,00","0,00","0,00",0,0,0,0,0,0,0,0,0,0,0,0,0,0,0,0,0,0
Vitinho ,MEI,Palmeiras,2,"3,00",0,"0,00","0,00","0,00",0,0,0,0,0,0,0,0,0,0,0,0,0,0,0,0,0,0
Caíque ,LAT,São Paulo,2,"1,00",0,"0,00","0,00","0,00",0,0,0,0,0,0,0,0,0,0,0,0,0,0,0,0,0,0
Gustavo Bochecha ,MEI,Botafogo,5,"2,00",0,"0,00","0,00","0,00",0,0,0,0,0,0,0,0,0,0,0,0,0,0,0,0,0,0
Felipe ,GOL,Bahia,2,"1,00",0,"0,00","0,00","0,00",0,0,0,0,0,0,0,0,0,0,0,0,0,0,0,0,0,0
Nathan ,ZAG,Atlético-MG,2,"1,00",0,"0,00","0,00","0,00",0,0,0,0,0,0,0,0,0,0,0,0,0,0,0,0,0,0
Ferdinando ,MEI,Avaí,2,"5,00",0,"0,00","0,00","0,00",0,0,0,0,0,0,0,0,0,0,0,0,0,0,0,0,0,0
Shaylon ,MEI,São Paulo,2,"1,00",0,"0,00","0,00","0,00",0,0,0,0,0,0,0,0,0,0,0,0,0,0,0,0,0,0
Luis Ricardo ,LAT,Botafogo,2,"8,00",0,"0,00","0,00","0,00",0,0,0,0,0,0,0,0,0,0,0,0,0,0,0,0,0,0
Daniel Fuzato ,GOL,Palmeiras,2,"1,00",0,"0,00","0,00","0,00",0,0,0,0,0,0,0,0,0,0,0,0,0,0,0,0,0,0
João Paulo ,MEI,Coritiba,2,"7,00",0,"0,00","0,00","0,00",0,0,0,0,0,0,0,0,0,0,0,0,0,0,0,0,0,0
Matheus Oliveira ,MEI,Santos,2,"2,00",0,"0,00","0,00","0,00",0,0,0,0,0,0,0,0,0,0,0,0,0,0,0,0,0,0
Yan ,MEI,Coritiba,2,"1,00",0,"0,00","0,00","0,00",0,0,0,0,0,0,0,0,0,0,0,0,0,0,0,0,0,0
Lima ,MEI,Grêmio,2,"2,00",0,"0,00","0,00","0,00",0,0,0,0,0,0,0,0,0,0,0,0,0,0,0,0,0,0
Cassiano ,GOL,Bahia,2,"1,00",0,"0,00","0,00","0,00",0,0,0,0,0,0,0,0,0,0,0,0,0,0,0,0,0,0
Geovane ,ZAG,Coritiba,2,"3,00",0,"0,00","0,00","0,00",0,0,0,0,0,0,0,0,0,0,0,0,0,0,0,0,0,0
Julio dos Santos ,MEI,Vasco,2,"5,00",0,"0,00","0,00","0,00",0,0,0,0,0,0,0,0,0,0,0,0,0,0,0,0,0,0
Renan Lodi ,LAT,Atlético-PR,2,"4,00",0,"0,00","0,00","0,00",0,0,0,0,0,0,0,0,0,0,0,0,0,0,0,0,0,0
Vitor ,ATA,Avaí,2,"2,00",0,"0,00","0,00","0,00",0,0,0,0,0,0,0,0,0,0,0,0,0,0,0,0,0,0
Carlinhos ,ATA,Corinthians,2,"2,00",0,"0,00","0,00","0,00",0,0,0,0,0,0,0,0,0,0,0,0,0,0,0,0,0,0
Mauricio ,ZAG,Avaí,2,"2,00",0,"0,00","0,00","0,00",0,0,0,0,0,0,0,0,0,0,0,0,0,0,0,0,0,0
Victor Lindenberg ,LAT,Botafogo,2,"1,00",0,"0,00","0,00","0,00",0,0,0,0,0,0,0,0,0,0,0,0,0,0,0,0,0,0
Jael ,ATA,Grêmio,5,"5,00",0,"0,00","0,00","0,00",0,0,0,0,0,0,0,0,0,0,0,0,0,0,0,0,0,0
Emerson ,LAT,Ponte Preta,2,"1,00",0,"0,00","0,00","0,00",0,0,0,0,0,0,0,0,0,0,0,0,0,0,0,0,0,0
Rodrigo Figueiredo ,MEI,Corinthians,2,"1,00",0,"0,00","0,00","0,00",0,0,0,0,0,0,0,0,0,0,0,0,0,0,0,0,0,0
Léo Lopes ,GOL,Avaí,2,"1,00",0,"0,00","0,00","0,00",0,0,0,0,0,0,0,0,0,0,0,0,0,0,0,0,0,0
Alan Ruschel ,LAT,Chapecoense,2,"3,00",0,"0,00","0,00","0,00",0,0,0,0,0,0,0,0,0,0,0,0,0,0,0,0,0,0
Santarém ,ATA,Avaí,2,"1,00",0,"0,00","0,00","0,00",0,0,0,0,0,0,0,0,0,0,0,0,0,0,0,0,0,0
Dida ,GOL,Grêmio,2,"1,00",0,"0,00","0,00","0,00",0,0,0,0,0,0,0,0,0,0,0,0,0,0,0,0,0,0
Edimar ,LAT,São Paulo,2,"5,00",0,"0,00","0,00","0,00",0,0,0,0,0,0,0,0,0,0,0,0,0,0,0,0,0,0
Mantuan ,MEI,Corinthians,5,"1,00",0,"0,00","0,00","0,00",0,0,0,0,0,0,0,0,0,0,0,0,0,0,0,0,0,0
Romercio ,ZAG,Coritiba,2,"2,00",0,"0,00","0,00","0,00",0,0,0,0,0,0,0,0,0,0,0,0,0,0,0,0,0,0
Daniel ,MEI,Atlético-MG,2,"1,00",0,"0,00","0,00","0,00",0,0,0,0,0,0,0,0,0,0,0,0,0,0,0,0,0,0
Julio Rusch ,MEI,Coritiba,2,"3,00",0,"0,00","0,00","0,00",0,0,0,0,0,0,0,0,0,0,0,0,0,0,0,0,0,0
Filigrana ,ATA,Coritiba,2,"2,00",0,"0,00","0,00","0,00",0,0,0,0,0,0,0,0,0,0,0,0,0,0,0,0,0,0
Hiago ,ZAG,Chapecoense,2,"1,00",0,"0,00","0,00","0,00",0,0,0,0,0,0,0,0,0,0,0,0,0,0,0,0,0,0
Moisés ,MEI,Palmeiras,5,"10,00",0,"0,00","0,00","0,00",0,0,0,0,0,0,0,0,0,0,0,0,0,0,0,0,0,0
Busanello ,LAT,Chapecoense,2,"1,00",0,"0,00","0,00","0,00",0,0,0,0,0,0,0,0,0,0,0,0,0,0,0,0,0,0
Bryan ,MEI,Chapecoense,2,"1,00",0,"0,00","0,00","0,00",0,0,0,0,0,0,0,0,0,0,0,0,0,0,0,0,0,0
João Paulo ,LAT,Avaí,2,"4,00",0,"0,00","0,00","0,00",0,0,0,0,0,0,0,0,0,0,0,0,0,0,0,0,0,0
Frazan ,ZAG,Fluminense,2,"2,00",0,"0,00","0,00","0,00",0,0,0,0,0,0,0,0,0,0,0,0,0,0,0,0,0,0
Vinícius Guarapuava ,ZAG,Chapecoense,2,"1,00",0,"0,00","0,00","0,00",0,0,0,0,0,0,0,0,0,0,0,0,0,0,0,0,0,0
Reynaldo ,ZAG,Ponte Preta,2,"2,00",0,"0,00","0,00","0,00",0,0,0,0,0,0,0,0,0,0,0,0,0,0,0,0,0,0
Yan ,MEI,Santos,2,"2,00",0,"0,00","0,00","0,00",0,0,0,0,0,0,0,0,0,0,0,0,0,0,0,0,0,0
Thiago Couto ,GOL,São Paulo,2,"1,00",0,"0,00","0,00","0,00",0,0,0,0,0,0,0,0,0,0,0,0,0,0,0,0,0,0
Thiaguinho ,ATA,Ponte Preta,2,"2,00",0,"0,00","0,00","0,00",0,0,0,0,0,0,0,0,0,0,0,0,0,0,0,0,0,0
Patrick Correia ,ATA,Sport,2,"1,00",0,"0,00","0,00","0,00",0,0,0,0,0,0,0,0,0,0,0,0,0,0,0,0,0,0
Nonoca ,MEI,Cruzeiro,2,"2,00",0,"0,00","0,00","0,00",0,0,0,0,0,0,0,0,0,0,0,0,0,0,0,0,0,0
Jacy ,ZAG,Atlético-PR,2,"1,00",0,"0,00","0,00","0,00",0,0,0,0,0,0,0,0,0,0,0,0,0,0,0,0,0,0
Marco Túlio ,ATA,Atlético-MG,2,"1,00",0,"0,00","0,00","0,00",0,0,0,0,0,0,0,0,0,0,0,0,0,0,0,0,0,0
Rafael ,ZAG,Flamengo,2,"1,00",0,"0,00","0,00","0,00",0,0,0,0,0,0,0,0,0,0,0,0,0,0,0,0,0,0
Caio ,LAT,Sport,2,"2,00",0,"0,00","0,00","0,00",0,0,0,0,0,0,0,0,0,0,0,0,0,0,0,0,0,0
Maílson ,GOL,Sport,2,"1,00",0,"0,00","0,00","0,00",0,0,0,0,0,0,0,0,0,0,0,0,0,0,0,0,0,0
Luiz Felipe ,MEI,Atlético-GO,2,"2,00",0,"0,00","0,00","0,00",0,0,0,0,0,0,0,0,0,0,0,0,0,0,0,0,0,0
Murillo ,ATA,Atlético-PR,2,"1,00",0,"0,00","0,00","0,00",0,0,0,0,0,0,0,0,0,0,0,0,0,0,0,0,0,0
Cedric ,LAT,Vitória,2,"2,00",0,"0,00","0,00","0,00",0,0,0,0,0,0,0,0,0,0,0,0,0,0,0,0,0,0
Rodrigo Pelezinho ,ATA,Chapecoense,2,"2,00",0,"0,00","0,00","0,00",0,0,0,0,0,0,0,0,0,0,0,0,0,0,0,0,0,0
Evanderson ,MEI,Atlético-GO,2,"1,00",0,"0,00","0,00","0,00",0,0,0,0,0,0,0,0,0,0,0,0,0,0,0,0,0,0
Gabriel Batista ,GOL,Flamengo,2,"1,00",0,"0,00","0,00","0,00",0,0,0,0,0,0,0,0,0,0,0,0,0,0,0,0,0,0
Patrick Luan ,ATA,Fluminense,2,"1,00",0,"0,00","0,00","0,00",0,0,0,0,0,0,0,0,0,0,0,0,0,0,0,0,0,0
Jean Lucas ,MEI,Flamengo,2,"2,00",0,"0,00","0,00","0,00",0,0,0,0,0,0,0,0,0,0,0,0,0,0,0,0,0,0
Lucas Silva ,ATA,Flamengo,2,"2,00",0,"0,00","0,00","0,00",0,0,0,0,0,0,0,0,0,0,0,0,0,0,0,0,0,0
Loran  ,ATA,Flamengo,2,"1,00",0,"0,00","0,00","0,00",0,0,0,0,0,0,0,0,0,0,0,0,0,0,0,0,0,0
Emanuel ,LAT,Atlético-MG,2,"1,00",0,"0,00","0,00","0,00",0,0,0,0,0,0,0,0,0,0,0,0,0,0,0,0,0,0
Marcelo ,ATA,Atlético-PR,2,"2,00",0,"0,00","0,00","0,00",0,0,0,0,0,0,0,0,0,0,0,0,0,0,0,0,0,0
Derlan ,ZAG,Fluminense,2,"1,00",0,"0,00","0,00","0,00",0,0,0,0,0,0,0,0,0,0,0,0,0,0,0,0,0,0
Flávio ,ATA,Atlético-MG,2,"1,00",0,"0,00","0,00","0,00",0,0,0,0,0,0,0,0,0,0,0,0,0,0,0,0,0,0
Riuler ,LAT,Atlético-PR,2,"2,00",0,"0,00","0,00","0,00",0,0,0,0,0,0,0,0,0,0,0,0,0,0,0,0,0,0
Gum ,ZAG,Fluminense,5,"7,00",0,"0,00","0,00","0,00",0,0,0,0,0,0,0,0,0,0,0,0,0,0,0,0,0,0
Rafael Santos ,GOL,Bahia,2,"3,00",0,"0,00","0,00","0,00",0,0,0,0,0,0,0,0,0,0,0,0,0,0,0,0,0,0
João Pedro ,ATA,Atlético-GO,2,"4,00",0,"0,00","0,00","0,00",0,0,0,0,0,0,0,0,0,0,0,0,0,0,0,0,0,0
João Victor ,MEI,Sport,2,"2,00",0,"0,00","0,00","0,00",0,0,0,0,0,0,0,0,0,0,0,0,0,0,0,0,0,0
Pedro Vitor ,ATA,Sport,2,"1,00",0,"0,00","0,00","0,00",0,0,0,0,0,0,0,0,0,0,0,0,0,0,0,0,0,0
Pedro Henryque ,ZAG,Sport,2,"2,00",0,"0,00","0,00","0,00",0,0,0,0,0,0,0,0,0,0,0,0,0,0,0,0,0,0
Elias ,LAT,Sport,2,"2,00",0,"0,00","0,00","0,00",0,0,0,0,0,0,0,0,0,0,0,0,0,0,0,0,0,0
Alesandro ,ZAG,Sport,2,"1,00",0,"0,00","0,00","0,00",0,0,0,0,0,0,0,0,0,0,0,0,0,0,0,0,0,0
Dayvid ,LAT,Sport,2,"1,00",0,"0,00","0,00","0,00",0,0,0,0,0,0,0,0,0,0,0,0,0,0,0,0,0,0
Ramon ,LAT,Vasco,2,"6,00",0,"0,00","0,00","0,00",0,0,0,0,0,0,0,0,0,0,0,0,0,0,0,0,0,0
Cláudio Vitor ,GOL,Avaí,2,"1,00",0,"0,00","0,00","0,00",0,0,0,0,0,0,0,0,0,0,0,0,0,0,0,0,0,0
João Erick ,MEI,Sport,2,"2,00",0,"0,00","0,00","0,00",0,0,0,0,0,0,0,0,0,0,0,0,0,0,0,0,0,0
Matheus Bezerra ,MEI,Sport,2,"1,00",0,"0,00","0,00","0,00",0,0,0,0,0,0,0,0,0,0,0,0,0,0,0,0,0,0
Lucas Índio ,ATA,Atlético-MG,2,"1,00",0,"0,00","0,00","0,00",0,0,0,0,0,0,0,0,0,0,0,0,0,0,0,0,0,0
Rafael ,GOL,Cruzeiro,2,"10,00",0,"0,00","0,00","0,00",0,0,0,0,0,0,0,0,0,0,0,0,0,0,0,0,0,0
Thiago Ribeiro ,ATA,Santos,2,"7,00",0,"0,00","0,00","0,00",0,0,0,0,0,0,0,0,0,0,0,0,0,0,0,0,0,0
Vinícius ,MEI,Sport,2,"2,00",0,"0,00","0,00","0,00",0,0,0,0,0,0,0,0,0,0,0,0,0,0,0,0,0,0
Henrique ,ZAG,Avaí,2,"3,00",0,"0,00","0,00","0,00",0,0,0,0,0,0,0,0,0,0,0,0,0,0,0,0,0,0
Borges ,MEI,Atlético-GO,2,"1,00",0,"0,00","0,00","0,00",0,0,0,0,0,0,0,0,0,0,0,0,0,0,0,0,0,0
Lucas Vinícius ,ATA,Atlético-GO,2,"1,00",0,"0,00","0,00","0,00",0,0,0,0,0,0,0,0,0,0,0,0,0,0,0,0,0,0
Giovanni ,GOL,Atlético-MG,2,"6,00",0,"0,00","0,00","0,00",0,0,0,0,0,0,0,0,0,0,0,0,0,0,0,0,0,0
Felipe ,ATA,Fluminense,2,"1,00",0,"0,00","0,00","0,00",0,0,0,0,0,0,0,0,0,0,0,0,0,0,0,0,0,0
Alexsander ,MEI,Atlético-PR,2,"1,00",0,"0,00","0,00","0,00",0,0,0,0,0,0,0,0,0,0,0,0,0,0,0,0,0,0
Daniel ,ZAG,Atlético-PR,2,"1,00",0,"0,00","0,00","0,00",0,0,0,0,0,0,0,0,0,0,0,0,0,0,0,0,0,0
Gustavo Santos ,LAT,Avaí,2,"1,00",0,"0,00","0,00","0,00",0,0,0,0,0,0,0,0,0,0,0,0,0,0,0,0,0,0
Pedro Bortoluzo ,ATA,São Paulo,2,"3,00",0,"0,00","0,00","0,00",0,0,0,0,0,0,0,0,0,0,0,0,0,0,0,0,0,0
Diego ,GOL,Botafogo,2,"1,00",0,"0,00","0,00","0,00",0,0,0,0,0,0,0,0,0,0,0,0,0,0,0,0,0,0
João Vitor ,MEI,Ponte Preta,2,"5,00",0,"0,00","0,00","0,00",0,0,0,0,0,0,0,0,0,0,0,0,0,0,0,0,0,0
Caio ,GOL,Atlético-PR,2,"1,00",0,"0,00","0,00","0,00",0,0,0,0,0,0,0,0,0,0,0,0,0,0,0,0,0,0
Neto ,ZAG,Chapecoense,5,"5,00",0,"0,00","0,00","0,00",0,0,0,0,0,0,0,0,0,0,0,0,0,0,0,0,0,0
João Carlos ,GOL,Ponte Preta,2,"5,00",0,"0,00","0,00","0,00",0,0,0,0,0,0,0,0,0,0,0,0,0,0,0,0,0,0
Wenderson ,MEI,Botafogo,2,"0,76",1,"0,00","0,00","0,00",0,0,0,0,0,0,0,0,0,0,0,0,0,0,0,0,0,0
Manoel ,ZAG,Cruzeiro,2,"10,00",0,"0,00","0,00","0,00",0,0,0,0,0,0,0,0,0,0,0,0,0,0,0,0,0,0
Fernando ,LAT,Botafogo,2,"1,00",0,"0,00","0,00","0,00",0,0,0,0,0,0,0,0,0,0,0,0,0,0,0,0,0,0
Esperon ,MEI,Grêmio,2,"1,00",0,"0,00","0,00","0,00",0,0,0,0,0,0,0,0,0,0,0,0,0,0,0,0,0,0
Arthur ,ZAG,Cruzeiro,2,"1,00",0,"0,00","0,00","0,00",0,0,0,0,0,0,0,0,0,0,0,0,0,0,0,0,0,0
Vladimir ,GOL,Santos,2,"4,00",0,"0,00","0,00","0,00",0,0,0,0,0,0,0,0,0,0,0,0,0,0,0,0,0,0
Jadson ,ATA,Grêmio,2,"1,00",0,"0,00","0,00","0,00",0,0,0,0,0,0,0,0,0,0,0,0,0,0,0,0,0,0
Igor Cássio ,ATA,Botafogo,2,"1,00",0,"0,00","0,00","0,00",0,0,0,0,0,0,0,0,0,0,0,0,0,0,0,0,0,0
Paulinho ,ATA,Vasco,2,"1,00",0,"0,00","0,00","0,00",0,0,0,0,0,0,0,0,0,0,0,0,0,0,0,0,0,0
Léo ,LAT,Atlético-PR,2,"1,00",0,"0,00","0,00","0,00",0,0,0,0,0,0,0,0,0,0,0,0,0,0,0,0,0,0
Douglas ,ATA,Bahia,2,"1,00",0,"0,00","0,00","0,00",0,0,0,0,0,0,0,0,0,0,0,0,0,0,0,0,0,0
Renan Fonseca ,ZAG,Botafogo,2,"3,00",0,"0,00","0,00","0,00",0,0,0,0,0,0,0,0,0,0,0,0,0,0,0,0,0,0
Jailson ,GOL,Palmeiras,2,"8,00",0,"0,00","0,00","0,00",0,0,0,0,0,0,0,0,0,0,0,0,0,0,0,0,0,0
Bruno Brígido ,GOL,Coritiba,2,"5,00",0,"0,00","0,00","0,00",0,0,0,0,0,0,0,0,0,0,0,0,0,0,0,0,0,0
Hernane ,ATA,Bahia,5,"10,00",0,"0,00","0,00","0,00",0,0,0,0,0,0,0,0,0,0,0,0,0,0,0,0,0,0
César ,GOL,Flamengo,2,"3,00",0,"0,00","0,00","0,00",0,0,0,0,0,0,0,0,0,0,0,0,0,0,0,0,0,0
William Menezes ,GOL,Coritiba,2,"2,00",0,"0,00","0,00","0,00",0,0,0,0,0,0,0,0,0,0,0,0,0,0,0,0,0,0
Gustavo Henrique ,ZAG,Santos,5,"6,00",0,"0,00","0,00","0,00",0,0,0,0,0,0,0,0,0,0,0,0,0,0,0,0,0,0
Cárdenas ,MEI,Vitória,2,"6,00",0,"0,00","0,00","0,00",0,0,0,0,0,0,0,0,0,0,0,0,0,0,0,0,0,0
Miller Bolaños ,ATA,Grêmio,3,"14,00",0,"0,00","0,00","0,00",0,0,0,0,0,0,0,0,0,0,0,0,0,0,0,0,0,0
Escudero ,MEI,Vasco,2,"3,89",1,"0,00","0,00","-1,11",0,0,0,0,0,0,0,0,0,0,0,0,0,0,0,0,0,0
Rafael Martins ,GOL,Coritiba,2,"2,00",0,"0,00","0,00","0,00",0,0,0,0,0,0,0,0,0,0,0,0,0,0,0,0,0,0
Marcos ,GOL,Atlético-GO,2,"1,00",0,"0,00","0,00","0,00",0,0,0,0,0,0,0,0,0,0,0,0,0,0,0,0,0,0
Maranhão ,ATA,Fluminense,2,"2,23",1,"0,00","0,00","0,00",0,0,0,0,0,0,0,0,0,0,0,0,0,0,0,0,0,0
Douglas Pires ,GOL,Bahia,2,"4,00",0,"0,00","0,00","0,00",0,0,0,0,0,0,0,0,0,0,0,0,0,0,0,0,0,0
Marcos Vinícius ,MEI,Botafogo,2,"6,00",0,"0,00","0,00","0,00",0,0,0,0,0,0,0,0,0,0,0,0,0,0,0,0,0,0
Matheus Vidotto ,GOL,Corinthians,2,"3,00",0,"0,00","0,00","0,00",0,0,0,0,0,0,0,0,0,0,0,0,0,0,0,0,0,0
Gabriel Gasparotto ,GOL,Santos,2,"2,00",0,"0,00","0,00","0,00",0,0,0,0,0,0,0,0,0,0,0,0,0,0,0,0,0,0
Wanderson ,LAT,Atlético-GO,2,"4,00",0,"0,00","0,00","0,00",0,0,0,0,0,0,0,0,0,0,0,0,0,0,0,0,0,0
Moisés Ribeiro ,MEI,Chapecoense,2,"4,00",0,"0,00","0,00","0,00",0,0,0,0,0,0,0,0,0,0,0,0,0,0,0,0,0,0
Petros ,MEI,São Paulo,2,"9,00",0,"0,00","0,00","0,00",0,0,0,0,0,0,0,0,0,0,0,0,0,0,0,0,0,0
Luiz Felipe ,ZAG,Santos,5,"5,00",0,"0,00","0,00","0,00",0,0,0,0,0,0,0,0,0,0,0,0,0,0,0,0,0,0
Abuda ,MEI,Atlético-GO,2,"6,00",0,"0,00","0,00","0,00",0,0,0,0,0,0,0,0,0,0,0,0,0,0,0,0,0,0
Elias ,GOL,Chapecoense,2,"4,00",0,"0,00","0,00","0,00",0,0,0,0,0,0,0,0,0,0,0,0,0,0,0,0,0,0
Wallace ,GOL,Vitória,2,"1,00",0,"0,00","0,00","0,00",0,0,0,0,0,0,0,0,0,0,0,0,0,0,0,0,0,0
Ronaldo ,GOL,Vitória,2,"1,00",0,"0,00","0,00","0,00",0,0,0,0,0,0,0,0,0,0,0,0,0,0,0,0,0,0
Alison ,ATA,Sport,2,"1,00",0,"0,00","0,00","0,00",0,0,0,0,0,0,0,0,0,0,0,0,0,0,0,0,0,0
Jesiel ,ZAG,Atlético-MG,2,"3,00",0,"0,00","0,00","0,00",0,0,0,0,0,0,0,0,0,0,0,0,0,0,0,0,0,0
Warleson ,GOL,Atlético-PR,2,"1,00",0,"0,00","0,00","0,00",0,0,0,0,0,0,0,0,0,0,0,0,0,0,0,0,0,0
Lucas Perri ,GOL,São Paulo,2,"2,00",0,"0,00","0,00","0,00",0,0,0,0,0,0,0,0,0,0,0,0,0,0,0,0,0,0
Bruno Bispo ,ZAG,Vitória,2,"2,00",0,"0,00","0,00","0,00",0,0,0,0,0,0,0,0,0,0,0,0,0,0,0,0,0,0
Rodrigo Ramos ,LAT,Coritiba,2,"4,00",0,"0,00","0,00","0,00",0,0,0,0,0,0,0,0,0,0,0,0,0,0,0,0,0,0
Adryelson ,ZAG,Sport,2,"2,00",0,"0,00","0,00","0,00",0,0,0,0,0,0,0,0,0,0,0,0,0,0,0,0,0,0
Arboleda ,ZAG,São Paulo,2,"7,00",0,"0,00","0,00","0,00",0,0,0,0,0,0,0,0,0,0,0,0,0,0,0,0,0,0
Flávio ,MEI,Vitória,2,"2,12",1,"0,00","0,00","0,00",0,0,0,0,0,0,0,0,0,0,0,0,0,0,0,0,0,0
Matheus Cassini ,MEI,Ponte Preta,2,"2,00",0,"0,00","0,00","0,00",0,0,0,0,0,0,0,0,0,0,0,0,0,0,0,0,0,0
Breno ,LAT,Atlético-PR,2,"1,00",0,"0,00","0,00","0,00",0,0,0,0,0,0,0,0,0,0,0,0,0,0,0,0,0,0
Marciel ,MEI,Corinthians,2,"3,00",0,"0,00","0,00","0,00",0,0,0,0,0,0,0,0,0,0,0,0,0,0,0,0,0,0
Caíque França ,GOL,Corinthians,2,"2,00",0,"0,00","0,00","0,00",0,0,0,0,0,0,0,0,0,0,0,0,0,0,0,0,0,0
Toshi ,ATA,Avaí,2,"3,00",0,"0,00","0,00","0,00",0,0,0,0,0,0,0,0,0,0,0,0,0,0,0,0,0,0
Lucas Marques ,MEI,Chapecoense,2,"1,00",0,"0,00","0,00","0,00",0,0,0,0,0,0,0,0,0,0,0,0,0,0,0,0,0,0
Mário ,ATA,Bahia,2,"1,00",0,"0,00","0,00","0,00",0,0,0,0,0,0,0,0,0,0,0,0,0,0,0,0,0,0
Gabriel Félix ,GOL,Vasco,2,"2,00",0,"0,00","0,00","0,00",0,0,0,0,0,0,0,0,0,0,0,0,0,0,0,0,0,0
Wallace ,ATA,Sport,2,"2,00",0,"0,00","0,00","0,00",0,0,0,0,0,0,0,0,0,0,0,0,0,0,0,0,0,0
Giovanny  ,ATA,Atlético-PR,2,"4,00",0,"0,00","0,00","0,00",0,0,0,0,0,0,0,0,0,0,0,0,0,0,0,0,0,0
Yuri ,MEI,Bahia,2,"2,00",0,"0,00","0,00","0,00",0,0,0,0,0,0,0,0,0,0,0,0,0,0,0,0,0,0
Fabrício Baiano ,MEI,Coritiba,2,"2,00",0,"0,00","0,00","0,00",0,0,0,0,0,0,0,0,0,0,0,0,0,0,0,0,0,0
Matheus Phillipe ,GOL,Fluminense,2,"1,00",0,"0,00","0,00","0,00",0,0,0,0,0,0,0,0,0,0,0,0,0,0,0,0,0,0
Thiago Martins ,ZAG,Palmeiras,5,"5,00",0,"0,00","0,00","0,00",0,0,0,0,0,0,0,0,0,0,0,0,0,0,0,0,0,0
Caíque ,GOL,Vitória,2,"5,00",0,"0,00","0,00","0,00",0,0,0,0,0,0,0,0,0,0,0,0,0,0,0,0,0,0
Lucas Lovat ,LAT,Avaí,2,"3,00",0,"0,00","0,00","0,00",0,0,0,0,0,0,0,0,0,0,0,0,0,0,0,0,0,0
Neris ,ZAG,Sport,2,"3,00",0,"0,00","0,00","0,00",0,0,0,0,0,0,0,0,0,0,0,0,0,0,0,0,0,0
Ronaldo ,MEI,Flamengo,2,"3,00",0,"0,00","0,00","0,00",0,0,0,0,0,0,0,0,0,0,0,0,0,0,0,0,0,0
Denilson ,ZAG,Grêmio,2,"1,00",0,"0,00","0,00","0,00",0,0,0,0,0,0,0,0,0,0,0,0,0,0,0,0,0,0
Diego Jardel ,MEI,Avaí,2,"6,00",0,"0,00","0,00","0,00",0,0,0,0,0,0,0,0,0,0,0,0,0,0,0,0,0,0
Yan ,MEI,Palmeiras,2,"1,00",0,"0,00","0,00","0,00",0,0,0,0,0,0,0,0,0,0,0,0,0,0,0,0,0,0
Thiago Santos ,ATA,Flamengo,5,"2,00",0,"0,00","0,00","0,00",0,0,0,0,0,0,0,0,0,0,0,0,0,0,0,0,0,0
Augusto ,ZAG,Palmeiras,2,"1,00",0,"0,00","0,00","0,00",0,0,0,0,0,0,0,0,0,0,0,0,0,0,0,0,0,0
Guilherme ,GOL,Ponte Preta,2,"2,00",0,"0,00","0,00","0,00",0,0,0,0,0,0,0,0,0,0,0,0,0,0,0,0,0,0
Peu ,ATA,Fluminense,2,"1,00",0,"0,00","0,00","0,00",0,0,0,0,0,0,0,0,0,0,0,0,0,0,0,0,0,0
Andrey ,MEI,Vasco,2,"1,00",0,"0,00","0,00","0,00",0,0,0,0,0,0,0,0,0,0,0,0,0,0,0,0,0,0
Lucas França ,GOL,Cruzeiro,2,"3,00",0,"0,00","0,00","0,00",0,0,0,0,0,0,0,0,0,0,0,0,0,0,0,0,0,0
Marcinho ,LAT,Botafogo,5,"3,00",0,"0,00","0,00","0,00",0,0,0,0,0,0,0,0,0,0,0,0,0,0,0,0,0,0
Rafael Fachin ,GOL,Coritiba,2,"1,00",0,"0,00","0,00","0,00",0,0,0,0,0,0,0,0,0,0,0,0,0,0,0,0,0,0
Salazar ,ZAG,Avaí,2,"3,00",0,"0,00","0,00","0,00",0,0,0,0,0,0,0,0,0,0,0,0,0,0,0,0,0,0
Fábio ,MEI,Sport,2,"3,00",0,"0,00","0,00","0,00",0,0,0,0,0,0,0,0,0,0,0,0,0,0,0,0,0,0
Maxi Rodríguez ,MEI,Grêmio,2,"6,00",0,"0,00","0,00","0,00",0,0,0,0,0,0,0,0,0,0,0,0,0,0,0,0,0,0
Jackson ,ZAG,Bahia,5,"7,00",0,"0,00","0,00","0,00",0,0,0,0,0,0,0,0,0,0,0,0,0,0,0,0,0,0
Lucas Cândido ,MEI,Atlético-MG,5,"4,00",0,"0,00","0,00","0,00",0,0,0,0,0,0,0,0,0,0,0,0,0,0,0,0,0,0
Marcos Felipe  ,GOL,Fluminense,2,"3,00",0,"0,00","0,00","0,00",0,0,0,0,0,0,0,0,0,0,0,0,0,0,0,0,0,0
Bruno Henrique ,MEI,Palmeiras,3,"11,00",0,"0,00","0,00","0,00",0,0,0,0,0,0,0,0,0,0,0,0,0,0,0,0,0,0
Gabriel ,ZAG,Grêmio,2,"1,00",0,"0,00","0,00","0,00",0,0,0,0,0,0,0,0,0,0,0,0,0,0,0,0,0,0
Elder Santana ,ATA,Atlético-MG,2,"0,76",1,"0,00","0,00","0,00",0,0,0,0,0,0,0,0,0,0,0,0,0,0,0,0,0,0
Yuri ,MEI,Botafogo,2,"1,00",0,"0,00","0,00","0,00",0,0,0,0,0,0,0,0,0,0,0,0,0,0,0,0,0,0
Agenor ,GOL,Sport,2,"4,00",0,"0,00","0,00","0,00",0,0,0,0,0,0,0,0,0,0,0,0,0,0,0,0,0,0
Dodô ,MEI,Chapecoense,2,"5,00",0,"0,00","0,00","0,00",0,0,0,0,0,0,0,0,0,0,0,0,0,0,0,0,0,0
Vinicius Silvestre ,GOL,Palmeiras,2,"2,00",0,"0,00","0,00","0,00",0,0,0,0,0,0,0,0,0,0,0,0,0,0,0,0,0,0
Uilson ,GOL,Atlético-MG,2,"4,00",0,"0,00","0,00","0,00",0,0,0,0,0,0,0,0,0,0,0,0,0,0,0,0,0,0
Robert  ,MEI,Fluminense,2,"4,00",0,"0,00","0,00","0,00",0,0,0,0,0,0,0,0,0,0,0,0,0,0,0,0,0,0
Bruno Grassi ,GOL,Grêmio,3,"4,00",0,"0,00","0,00","0,00",0,0,0,0,0,0,0,0,0,0,0,0,0,0,0,0,0,0
João Paulo ,GOL,Santos,2,"1,00",0,"0,00","0,00","0,00",0,0,0,0,0,0,0,0,0,0,0,0,0,0,0,0,0,0
Lucas Macanhan ,GOL,Atlético-PR,2,"2,00",0,"0,00","0,00","0,00",0,0,0,0,0,0,0,0,0,0,0,0,0,0,0,0,0,0
Jordi ,GOL,Vasco,2,"4,00",0,"0,00","0,00","0,00",0,0,0,0,0,0,0,0,0,0,0,0,0,0,0,0,0,0
Artur ,LAT,Ponte Preta,2,"4,00",0,"0,00","0,00","0,00",0,0,0,0,0,0,0,0,0,0,0,0,0,0,0,0,0,0
Henrique Gelain ,LAT,Coritiba,2,"1,00",0,"0,00","0,00","0,00",0,0,0,0,0,0,0,0,0,0,0,0,0,0,0,0,0,0
Vinicius ,ZAG,Vitória,2,"2,00",0,"0,00","0,00","0,00",0,0,0,0,0,0,0,0,0,0,0,0,0,0,0,0,0,0
Morato ,ATA,São Paulo,5,"3,00",0,"0,00","0,00","0,00",0,0,0,0,0,0,0,0,0,0,0,0,0,0,0,0,0,0
Daniel ,MEI,Coritiba,5,"6,00",0,"0,00","0,00","0,00",0,0,0,0,0,0,0,0,0,0,0,0,0,0,0,0,0,0
Jonathan ,LAT,Atlético-GO,2,"2,00",0,"0,00","0,00","0,00",0,0,0,0,0,0,0,0,0,0,0,0,0,0,0,0,0,0
Luizão ,ZAG,Coritiba,2,"2,00",0,"0,00","0,00","0,00",0,0,0,0,0,0,0,0,0,0,0,0,0,0,0,0,0,0
Caio César ,MEI,Avaí,2,"3,00",0,"0,00","0,00","0,00",0,0,0,0,0,0,0,0,0,0,0,0,0,0,0,0,0,0
Léo Gomes ,LAT,Grêmio,3,"2,00",0,"0,00","0,00","0,00",0,0,0,0,0,0,0,0,0,0,0,0,0,0,0,0,0,0
José Welison ,MEI,Vitória,5,"4,00",0,"0,00","0,00","0,00",0,0,0,0,0,0,0,0,0,0,0,0,0,0,0,0,0,0
Michael ,ATA,Fluminense,2,"2,00",0,"0,00","0,00","0,00",0,0,0,0,0,0,0,0,0,0,0,0,0,0,0,0,0,0
Cícero ,MEI,Atlético-MG,2,"2,00",0,"0,00","0,00","0,00",0,0,0,0,0,0,0,0,0,0,0,0,0,0,0,0,0,0
Geuvânio ,ATA,Flamengo,2,"12,00",0,"0,00","0,00","0,00",0,0,0,0,0,0,0,0,0,0,0,0,0,0,0,0,0,0
Vitor Prada ,GOL,Avaí,2,"1,00",0,"0,00","0,00","0,00",0,0,0,0,0,0,0,0,0,0,0,0,0,0,0,0,0,0
Scalon ,ZAG,Chapecoense,2,"2,00",0,"0,00","0,00","0,00",0,0,0,0,0,0,0,0,0,0,0,0,0,0,0,0,0,0
Serginho ,MEI,Santos,2,"2,00",0,"0,00","0,00","0,00",0,0,0,0,0,0,0,0,0,0,0,0,0,0,0,0,0,0
Ivan ,GOL,Ponte Preta,2,"2,00",0,"0,00","0,00","0,00",0,0,0,0,0,0,0,0,0,0,0,0,0,0,0,0,0,0
Matheus Peixoto ,ATA,Bahia,2,"1,00",0,"0,00","0,00","0,00",0,0,0,0,0,0,0,0,0,0,0,0,0,0,0,0,0,0
Warian Santos  ,MEI,Corinthians,2,"1,00",0,"0,00","0,00","0,00",0,0,0,0,0,0,0,0,0,0,0,0,0,0,0,0,0,0
Nathan ,ZAG,Chapecoense,2,"4,00",0,"0,00","0,00","0,00",0,0,0,0,0,0,0,0,0,0,0,0,0,0,0,0,0,0
Judivan  ,ATA,Cruzeiro,2,"4,00",0,"0,00","0,00","0,00",0,0,0,0,0,0,0,0,0,0,0,0,0,0,0,0,0,0
Andreazzi ,MEI,Botafogo,2,"2,00",0,"0,00","0,00","0,00",0,0,0,0,0,0,0,0,0,0,0,0,0,0,0,0,0,0
Balbino ,MEI,Grêmio,2,"1,00",0,"0,00","0,00","0,00",0,0,0,0,0,0,0,0,0,0,0,0,0,0,0,0,0,0
Caju ,LAT,Santos,3,"4,00",0,"0,00","0,00","0,00",0,0,0,0,0,0,0,0,0,0,0,0,0,0,0,0,0,0
Matheus Sales ,MEI,Bahia,2,"2,69",2,"0,00","0,00","-0,17",0,0,0,0,0,0,0,0,0,0,0,0,0,0,0,0,0,0
Saulo ,GOL,Botafogo,2,"2,00",0,"0,00","0,00","0,00",0,0,0,0,0,0,0,0,0,0,0,0,0,0,0,0,0,0
Adryan  ,MEI,Flamengo,2,"2,00",0,"0,00","0,00","0,00",0,0,0,0,0,0,0,0,0,0,0,0,0,0,0,0,0,0
Wallace Oliveira ,LAT,Grêmio,2,"5,00",0,"0,00","0,00","0,00",0,0,0,0,0,0,0,0,0,0,0,0,0,0,0,0,0,0
Nickson ,ATA,Cruzeiro,2,"3,00",0,"0,00","0,00","0,00",0,0,0,0,0,0,0,0,0,0,0,0,0,0,0,0,0,0
James Dean ,ATA,Sport,2,"1,00",0,"0,00","0,00","0,00",0,0,0,0,0,0,0,0,0,0,0,0,0,0,0,0,0,0
João Vitor  ,ATA,Atlético-GO,2,"1,00",0,"0,00","0,00","0,00",0,0,0,0,0,0,0,0,0,0,0,0,0,0,0,0,0,0
Vinícius Tanque ,ATA,Botafogo,2,"2,00",0,"0,00","0,00","0,00",0,0,0,0,0,0,0,0,0,0,0,0,0,0,0,0,0,0
Bruno Ramires ,MEI,Vitória,5,"5,00",0,"0,00","0,00","0,00",0,0,0,0,0,0,0,0,0,0,0,0,0,0,0,0,0,0
Bruno Paulista ,MEI,Vasco,2,"7,00",0,"0,00","0,00","0,00",0,0,0,0,0,0,0,0,0,0,0,0,0,0,0,0,0,0
Raul ,LAT,Grêmio,2,"1,00",0,"0,00","0,00","0,00",0,0,0,0,0,0,0,0,0,0,0,0,0,0,0,0,0,0
Moisés ,LAT,Corinthians,2,"3,00",0,"0,00","0,00","0,00",0,0,0,0,0,0,0,0,0,0,0,0,0,0,0,0,0,0
Thaciano ,MEI,Santos,2,"1,00",0,"0,00","0,00","0,00",0,0,0,0,0,0,0,0,0,0,0,0,0,0,0,0,0,0
Yago ,ZAG,Ponte Preta,5,"6,00",0,"0,00","0,00","0,00",0,0,0,0,0,0,0,0,0,0,0,0,0,0,0,0,0,0
Zeballos ,LAT,Chapecoense,2,"3,00",0,"0,00","0,00","0,00",0,0,0,0,0,0,0,0,0,0,0,0,0,0,0,0,0,0
Caíque Sá ,LAT,Vitória,2,"2,00",0,"0,00","0,00","0,00",0,0,0,0,0,0,0,0,0,0,0,0,0,0,0,0,0,0
Léo Santos ,ATA,Coritiba,2,"3,00",0,"0,00","0,00","0,00",0,0,0,0,0,0,0,0,0,0,0,0,0,0,0,0,0,0
Kazim ,ATA,Corinthians,2,"2,40",3,"-0,03","0,00","0,00",0,0,0,0,0,0,0,0,0,0,0,0,0,0,0,0,0,0
Marcos Junior ,ATA,Fluminense,2,"3,02",5,"-0,06","0,00","0,00",0,0,0,0,0,0,0,0,0,0,0,0,0,0,0,0,0,0
Nadson ,MEI,Chapecoense,5,"0,76",3,"-0,07","0,00","0,00",0,0,0,0,0,0,0,0,0,0,0,0,0,0,0,0,0,0
Marquinhos ,MEI,Avaí,2,"2,81",8,"-0,09","0,00","0,00",0,0,0,0,0,0,0,0,0,0,0,0,0,0,0,0,0,0
Anderson ,MEI,Coritiba,2,"4,88",1,"-0,10","0,00","0,00",0,0,0,0,0,0,0,0,0,0,0,0,0,0,0,0,0,0
Felipe Vizeu ,ATA,Flamengo,2,"3,46",3,"-0,13","0,00","0,00",0,0,0,0,0,0,0,0,0,0,0,0,0,0,0,0,0,0
Dudu Cearense ,MEI,Botafogo,1,"3,34",5,"-0,14","0,00","0,00",0,0,0,0,0,0,0,0,0,0,0,0,0,0,0,0,0,0
Vinícius Pacheco ,MEI,Avaí,2,"2,80",2,"-0,15","0,00","0,00",0,0,0,0,0,0,0,0,0,0,0,0,0,0,0,0,0,0
Lucas ,LAT,Fluminense,3,"1,40",8,"-0,15","0,00","-0,71",0,0,0,0,0,0,0,0,0,0,0,0,0,0,0,0,0,0
Giovanni Augusto ,MEI,Corinthians,2,"5,57",2,"-0,15","0,00","0,00",0,0,0,0,0,0,0,0,0,0,0,0,0,0,0,0,0,0
Thalles ,ATA,Vasco,3,"3,22",2,"-0,15","0,00","-0,81",0,0,0,0,0,0,0,0,0,0,0,0,0,0,0,0,0,0
Lourenço ,ATA,Avaí,2,"0,77",5,"-0,16","0,00","0,00",0,0,0,0,0,0,0,0,0,0,0,0,0,0,0,0,0,0
Iago ,ATA,Coritiba,2,"4,47",6,"-0,18","0,00","0,02",0,0,0,0,0,0,0,0,0,0,0,0,0,0,0,0,0,0
Jean Pineda ,ATA,Vitória,2,"2,38",2,"-0,20","0,00","0,00",0,0,0,0,0,0,0,0,0,0,0,0,0,0,0,0,0,0
Régis Souza ,LAT,Bahia,2,"2,15",3,"-0,20","0,00","-0,28",0,0,0,0,0,0,0,0,0,0,0,0,0,0,0,0,0,0
Danilo Barcelos ,MEI,Atlético-MG,2,"5,30",1,"-0,20","0,00","0,00",0,0,0,0,0,0,0,0,0,0,0,0,0,0,0,0,0,0
Claudinho ,ATA,Ponte Preta,3,"0,78",5,"-0,22","0,00","0,01",0,0,0,0,0,0,0,0,0,0,0,0,0,0,0,0,0,0
Lugano ,ZAG,São Paulo,3,"2,75",3,"-0,23","0,00","-1,52",0,0,0,0,0,0,0,0,0,0,0,0,0,0,0,0,0,0
Léo Cittadini ,MEI,Santos,2,"2,62",2,"-0,25","0,00","0,00",0,0,0,0,0,0,0,0,0,0,0,0,0,0,0,0,0,0
Walterson ,ATA,Atlético-GO,2,"1,63",6,"-0,25","0,00","-0,20",0,0,0,0,0,0,0,0,0,0,0,0,0,0,0,0,0,0
Getterson ,ATA,Coritiba,2,"0,78",3,"-0,27","0,00","0,05",0,0,0,0,0,0,0,0,0,0,0,0,0,0,0,0,0,0
Edinho ,MEI,Coritiba,2,"4,51",1,"-0,30","0,00","0,00",0,0,0,0,0,0,0,0,0,0,0,0,0,0,0,0,0,0
Bruno Rodrigo ,ZAG,Grêmio,3,"5,11",1,"-0,30","0,00","0,00",0,0,0,0,0,0,0,0,0,0,0,0,0,0,0,0,0,0
Madson ,LAT,Vasco,2,"3,02",1,"-0,30","0,00","0,00",0,0,0,0,0,0,0,0,0,0,0,0,0,0,0,0,0,0
Eduardo Henrique ,MEI,Atlético-PR,2,"2,62",1,"-0,30","0,00","0,00",0,0,0,0,0,0,0,0,0,0,0,0,0,0,0,0,0,0
Lucas Otávio  ,MEI,Avaí,2,"3,15",2,"-0,30","0,00","0,00",0,0,0,0,0,0,0,0,0,0,0,0,0,0,0,0,0,0
Fernandes ,MEI,Botafogo,2,"3,72",1,"-0,30","0,00","0,00",0,0,0,0,0,0,0,0,0,0,0,0,0,0,0,0,0,0
Evandro ,LAT,Sport,2,"0,76",3,"-0,33","0,00","0,00",0,0,0,0,0,0,0,0,0,0,0,0,0,0,0,0,0,0
Antônio Carlos  ,ZAG,Palmeiras,2,"2,66",3,"-0,37","0,00","0,00",0,0,0,0,0,0,0,0,0,0,0,0,0,0,0,0,0,0
Marquinho ,MEI,Fluminense,2,"2,98",4,"-0,40","0,00","-0,22",0,0,0,0,0,0,0,0,0,0,0,0,0,0,0,0,0,0
Eduardo ,LAT,Atlético-GO,2,"0,78",5,"-0,40","0,00","0,02",0,0,0,0,0,0,0,0,0,0,0,0,0,0,0,0,0,0
Niltinho ,ATA,Chapecoense,2,"3,54",2,"-0,40","0,00","0,00",0,0,0,0,0,0,0,0,0,0,0,0,0,0,0,0,0,0
Lucho González ,MEI,Atlético-PR,3,"6,35",6,"-0,40","0,00","-0,55",0,0,0,0,0,0,0,0,0,0,0,0,0,0,0,0,0,0
Fábio Braga ,MEI,Ponte Preta,2,"1,74",2,"-0,45","0,00","0,00",0,0,0,0,0,0,0,0,0,0,0,0,0,0,0,0,0,0
Henrique ,MEI,Cruzeiro,3,"3,77",6,"-0,50","0,00","0,00",0,0,0,0,0,0,0,0,0,0,0,0,0,0,0,0,0,0
Maikon Leite ,ATA,Bahia,5,"2,15",2,"-0,50","0,00","0,00",0,0,0,0,0,0,0,0,0,0,0,0,0,0,0,0,0,0
Everton Heleno ,MEI,Atlético-GO,2,"2,14",1,"-0,50","0,00","0,00",0,0,0,0,0,0,0,0,0,0,0,0,0,0,0,0,0,0
Nicolas Careca ,ATA,Grêmio,2,"0,74",1,"-0,50","0,00","0,00",0,0,0,0,0,0,0,0,0,0,0,0,0,0,0,0,0,0
Thallyson ,MEI,Sport,2,"0,78",7,"-0,53","0,00","0,01",0,0,0,0,0,0,0,0,0,0,0,0,0,0,0,0,0,0
Leonardo Silva ,ZAG,Atlético-MG,3,"9,50",3,"-0,53","0,00","0,00",0,0,0,0,0,0,0,0,0,0,0,0,0,0,0,0,0,0
Wagner ,MEI,Vasco,2,"4,38",2,"-0,55","0,00","-1,11",0,0,0,0,0,0,0,0,0,0,0,0,0,0,0,0,0,0
Sassá ,ATA,Cruzeiro,2,"5,94",2,"-0,55","0,00","-0,06",0,0,0,0,0,0,0,0,0,0,0,0,0,0,0,0,0,0
Pisculichi ,MEI,Vitória,2,"4,13",2,"-0,55","0,00","0,00",0,0,0,0,0,0,0,0,0,0,0,0,0,0,0,0,0,0
Gustavo ,ZAG,Avaí,2,"4,14",3,"-0,60","0,00","0,00",0,0,0,0,0,0,0,0,0,0,0,0,0,0,0,0,0,0
Juninho ,ATA,Sport,2,"0,77",4,"-0,60","0,00","0,00",0,0,0,0,0,0,0,0,0,0,0,0,0,0,0,0,0,0
Bruno Gallo ,MEI,Vasco,2,"1,70",1,"-0,60","0,00","0,00",0,0,0,0,0,0,0,0,0,0,0,0,0,0,0,0,0,0
Fabrício Bruno ,ZAG,Chapecoense,3,"2,98",1,"-0,60","0,00","-1,02",0,0,0,0,0,0,0,0,0,0,0,0,0,0,0,0,0,0
Negueba ,ATA,Ponte Preta,2,"3,97",2,"-0,60","0,00","0,00",0,0,0,0,0,0,0,0,0,0,0,0,0,0,0,0,0,0
Carlos Cesar ,LAT,Atlético-MG,5,"4,46",1,"-0,70","0,00","0,00",0,0,0,0,0,0,0,0,0,0,0,0,0,0,0,0,0,0
Rodrigão ,ATA,Santos,2,"3,88",2,"-0,75","0,00","0,00",0,0,0,0,0,0,0,0,0,0,0,0,0,0,0,0,0,0
Raniel ,ATA,Cruzeiro,5,"0,73",2,"-0,75","0,00","0,00",0,0,0,0,0,0,0,0,0,0,0,0,0,0,0,0,0,0
Lucas Paquetá ,MEI,Flamengo,2,"1,96",1,"-0,80","0,00","0,00",0,0,0,0,0,0,0,0,0,0,0,0,0,0,0,0,0,0
Marquinho ,MEI,Atlético-MG,2,"1,38",1,"-0,80","0,00","-0,62",0,0,0,0,0,0,0,0,0,0,0,0,0,0,0,0,0,0
Lucas Mineiro ,MEI,Chapecoense,3,"1,93",2,"-0,80","0,00","-0,39",0,0,0,0,0,0,0,0,0,0,0,0,0,0,0,0,0,0
Jomar ,ZAG,Vasco,2,"1,67",2,"-0,80","0,00","0,00",0,0,0,0,0,0,0,0,0,0,0,0,0,0,0,0,0,0
Cícero ,MEI,São Paulo,1,"4,87",8,"-0,85","0,00","0,00",0,0,0,0,0,0,0,0,0,0,0,0,0,0,0,0,0,0
Yago ,ATA,Atlético-PR,3,"1,31",1,"-0,90","0,00","0,00",0,0,0,0,0,0,0,0,0,0,0,0,0,0,0,0,0,0
Rafael Longuine ,MEI,Santos,2,"1,32",3,"-0,93","0,00","0,00",0,0,0,0,0,0,0,0,0,0,0,0,0,0,0,0,0,0
Conca ,MEI,Flamengo,2,"8,35",2,"-0,95","0,00","0,00",0,0,0,0,0,0,0,0,0,0,0,0,0,0,0,0,0,0
Diego Cavalieri ,GOL,Fluminense,2,"3,91",3,"-1,00","0,00","0,00",0,0,0,0,0,0,0,0,0,0,0,0,0,0,0,0,0,0
Douglas ,MEI,Fluminense,2,"3,78",2,"-1,00","0,00","0,00",0,0,0,0,0,0,0,0,0,0,0,0,0,0,0,0,0,0
Yuri ,MEI,Santos,3,"0,76",3,"-1,03","0,00","0,00",0,0,0,0,0,0,0,0,0,0,0,0,0,0,0,0,0,0
Yago ,MEI,Vitória,2,"0,78",3,"-1,03","0,00","0,01",0,0,0,0,0,0,0,0,0,0,0,0,0,0,0,0,0,0
Mateus Norton ,MEI,Fluminense,2,"0,77",3,"-1,13","0,00","0,00",0,0,0,0,0,0,0,0,0,0,0,0,0,0,0,0,0,0
Armero ,LAT,Bahia,3,"2,03",2,"-1,15","0,00","0,00",0,0,0,0,0,0,0,0,0,0,0,0,0,0,0,0,0,0
Rafael Marques ,ZAG,Vasco,2,"2,12",2,"-1,20","0,00","0,00",0,0,0,0,0,0,0,0,0,0,0,0,0,0,0,0,0,0
Cleberson ,ZAG,Atlético-PR,2,"2,69",1,"-1,20","0,00","0,00",0,0,0,0,0,0,0,0,0,0,0,0,0,0,0,0,0,0
Vecchio ,MEI,Santos,2,"1,69",1,"-1,30","0,00","0,00",0,0,0,0,0,0,0,0,0,0,0,0,0,0,0,0,0,0
Renato Chaves ,ZAG,Fluminense,5,"3,32",1,"-1,30","0,00","0,00",0,0,0,0,0,0,0,0,0,0,0,0,0,0,0,0,0,0
Romulo ,MEI,Flamengo,2,"5,89",1,"-1,30","0,00","0,00",0,0,0,0,0,0,0,0,0,0,0,0,0,0,0,0,0,0
Alan Cardoso ,LAT,Vasco,2,"1,21",1,"-1,30","0,00","0,00",0,0,0,0,0,0,0,0,0,0,0,0,0,0,0,0,0,0
Alecsandro ,ATA,Coritiba,2,"2,17",6,"-1,40","0,00","-0,82",0,0,0,0,0,0,0,0,0,0,0,0,0,0,0,0,0,0
Bressan ,ZAG,Grêmio,2,"2,49",1,"-1,40","0,00","0,00",0,0,0,0,0,0,0,0,0,0,0,0,0,0,0,0,0,0
Felipe Gedoz  ,MEI,Atlético-PR,2,"8,33",2,"-1,45","0,00","0,00",0,0,0,0,0,0,0,0,0,0,0,0,0,0,0,0,0,0
Gabriel Furtado ,MEI,Palmeiras,2,"0,78",1,"-1,50","0,00","-0,22",0,0,0,0,0,0,0,0,0,0,0,0,0,0,0,0,0,0
Evander ,MEI,Vasco,2,"0,80",2,"-1,65","0,00","0,00",0,0,0,0,0,0,0,0,0,0,0,0,0,0,0,0,0,0
Wellington ,MEI,Vasco,2,"0,86",4,"-1,70","0,00","0,00",0,0,0,0,0,0,0,0,0,0,0,0,0,0,0,0,0,0
Pablo ,ATA,Atlético-PR,3,"2,65",6,"-1,75","0,00","0,00",0,0,0,0,0,0,0,0,0,0,0,0,0,0,0,0,0,0
Anderson ,GOL,Bahia,2,"0,77",1,"-2,00","0,00","0,00",0,0,0,0,0,0,0,0,0,0,0,0,0,0,0,0,0,0
Gabriel ,ATA,Flamengo,5,"3,51",1,"-2,00","0,00","0,00",0,0,0,0,0,0,0,0,0,0,0,0,0,0,0,0,0,0
Sidão ,GOL,São Paulo,2,"6,25",0,"-2,00","0,00","0,00",0,0,0,0,0,0,0,0,0,0,0,0,0,0,0,0,0,0
Lourency ,ATA,Chapecoense,2,"1,73",1,"-2,80","0,00","-1,27",0,0,0,0,0,0,0,0,0,0,0,0,0,0,0,0,0,0
Bruno Guimarães ,MEI,Atlético-PR,2,"0,77",1,"-3,00","0,00","0,00",0,0,0,0,0,0,0,0,0,0,0,0,0,0,0,0,0,0
Renan Gorne ,ATA,Botafogo,2,"0,76",1,"-3,50","0,00","0,00",0,0,0,0,0,0,0,0,0,0,0,0,0,0,0,0,0,0
Emerson Santos ,ZAG,Botafogo,2,"0,71",1,"-5,60","0,00","0,00",0,0,0,0,0,0,0,0,0,0,0,0,0,0,0,0,0,0
Maicon ,LAT,Avaí,2,"4,72",1,"-6,00","0,00","0,00",0,0,0,0,0,0,0,0,0,0,0,0,0,0,0,0,0,0
Mena ,LAT,Sport,2,"2,88",1,"-6,70","0,00","0,00",0,0,0,0,0,0,0,0,0,0,0,0,0,0,0,0,0,0
Klever ,GOL,Atlético-GO,2,"0,71",1,"-8,30","0,00","0,00",0,0,0,0,0,0,0,0,0,0,0,0,0,0,0,0,0,0
