name,position,team,situation,price,meatches,average,last_score,difference,disarms,goals,assists,no_goals,fouls_suffered,strikes_out,strikes_defended,strikes_post,difficult_defense,penalty_defense,own_goal,red_card,yellow_card,goal_suffered,penalty_lost,fouls_commited,offsides,wrong_pass
Douglas Friedrich ,GOL,Avaí,3,"6,88",4,"15,87","-2,00","-5,35",0,0,0,3,1,0,0,0,15,1,0,0,1,0,0,0,0,0
Jefferson ,GOL,Botafogo,3,"9,67",2,"12,50","8,00","-0,97",0,0,0,0,0,0,0,0,4,1,0,0,0,0,1,0,0,0
Vanderlei ,GOL,Santos,3,"23,89",13,"10,06","24,00","4,43",0,0,0,6,1,0,0,0,28,2,0,0,0,0,10,1,0,4
Luan ,ATA,Grêmio,3,"24,53",11,"9,69","12,70","1,92",17,4,6,0,22,13,13,0,0,0,0,0,1,1,0,16,2,52
Oswaldo Henríquez ,ZAG,Sport,3,"5,41",2,"8,30","0,00","0,00",4,0,0,2,2,1,0,0,0,0,0,0,0,0,0,2,0,3
Henrique Dourado ,ATA,Fluminense,4,"23,53",10,"8,29","0,00","0,00",3,9,2,0,21,8,6,0,0,0,0,0,3,0,0,23,1,28
Agenor ,GOL,Sport,2,"4,80",1,"8,00","8,00","0,80",0,0,0,0,0,0,0,0,0,0,0,0,0,0,0,0,0,0
Lucca ,ATA,Ponte Preta,3,"21,37",13,"7,71","5,70","0,96",13,7,1,0,40,10,8,0,0,0,0,0,1,1,0,13,4,32
Mena ,LAT,Sport,1,"6,20",3,"7,63","13,20","0,26",2,1,1,1,2,0,0,0,0,0,0,1,1,0,0,8,1,4
Pedro Geromel ,ZAG,Grêmio,3,"14,58",10,"7,50","8,70","1,01",21,0,1,6,7,3,3,0,0,0,0,0,2,0,0,6,0,20
Diego ,MEI,Flamengo,3,"21,16",10,"6,83","6,40","0,35",10,4,2,0,26,7,4,0,0,0,0,0,0,0,0,12,3,38
Thiago Neves ,MEI,Cruzeiro,3,"17,77",10,"6,76","4,50","-0,77",6,5,1,0,19,7,12,0,0,0,0,0,1,0,0,10,2,35
Balbuena ,ZAG,Corinthians,3,"10,34",10,"6,59","5,50","-0,08",8,2,0,7,7,3,1,0,0,0,0,0,1,0,0,3,2,21
Renê Júnior ,MEI,Bahia,3,"12,69",10,"6,57","18,40","2,96",26,1,0,0,20,8,4,0,0,0,0,1,2,0,0,13,3,25
Luis Fabiano ,ATA,Vasco,5,"14,04",9,"6,56","0,00","0,00",3,5,2,0,19,15,5,0,0,0,0,0,4,0,0,15,5,10
Thiago Carleto ,LAT,Coritiba,3,"5,03",2,"6,55","6,10","0,30",1,0,0,1,2,0,1,0,0,0,0,0,0,0,0,1,0,4
Gatito Fernández ,GOL,Botafogo,2,"23,03",10,"6,51","0,00","0,00",0,0,0,4,2,0,0,0,20,1,0,0,1,0,10,0,0,3
Léo Principe ,LAT,Corinthians,2,"3,72",1,"6,50","0,00","0,00",2,0,0,1,2,0,0,0,0,0,0,0,0,0,0,4,0,3
Emerson Silva ,ZAG,Botafogo,3,"6,08",1,"6,50","0,00","0,00",3,0,0,0,4,1,0,0,0,0,0,0,0,0,0,2,0,1
Guilherme Costa ,MEI,Vasco,2,"7,21",2,"6,45","12,40","1,71",0,0,0,0,1,0,0,0,0,0,0,0,0,0,0,0,0,0
Cássio ,GOL,Corinthians,3,"12,90",13,"6,40","3,70","-1,60",0,0,0,9,2,0,0,0,11,2,0,0,1,0,5,0,0,5
Régis ,MEI,Bahia,3,"17,19",6,"6,33","8,80","0,39",4,2,1,0,4,2,2,0,0,0,0,0,0,0,0,1,1,10
Zé Rafael  ,MEI,Bahia,3,"18,93",13,"6,23","-1,50","-1,62",31,1,3,0,32,10,11,0,0,0,0,0,2,0,0,25,2,32
Igor ,ZAG,Sport,2,"5,80",1,"6,20","0,00","0,00",4,0,0,0,2,0,0,0,0,0,0,0,0,0,0,2,0,2
Paolo Guerrero ,ATA,Flamengo,4,"11,89",8,"6,17","0,00","0,00",9,4,1,0,24,8,9,0,0,0,0,0,3,0,0,32,6,15
Daniel Guedes  ,LAT,Santos,3,"5,19",3,"6,13","12,10","1,94",5,0,0,1,2,0,1,0,0,0,0,1,0,0,0,6,0,4
Jucilei ,MEI,São Paulo,3,"15,93",13,"6,11","9,10","0,27",38,1,0,0,30,4,1,0,0,0,0,0,0,0,0,20,0,37
Marcos Calazans ,ATA,Fluminense,3,"6,85",8,"6,05","2,00","-0,93",25,0,2,0,13,3,2,0,0,0,0,0,1,0,0,16,2,19
Léo Moura ,LAT,Grêmio,5,"11,81",4,"6,02","0,00","0,00",5,0,0,3,6,2,1,0,0,0,0,0,0,0,0,2,1,11
Sidcley ,LAT,Atlético-PR,3,"12,54",11,"5,97","1,60","-1,08",15,3,2,3,19,2,1,0,0,0,0,0,1,0,0,11,5,41
Bruno Silva ,MEI,Botafogo,3,"13,04",11,"5,83","0,00","0,00",21,4,2,0,19,7,3,0,0,0,0,0,5,0,0,18,0,40
Diego Souza ,MEI,Sport,1,"17,45",7,"5,80","7,60","0,04",4,4,0,0,18,4,2,0,0,0,0,0,2,0,0,12,0,32
Arthur  ,ATA,Chapecoense,3,"10,84",13,"5,80","0,00","-0,55",11,4,3,0,27,12,7,1,0,0,0,0,2,0,0,19,4,24
Matheus Ribeiro ,LAT,Santos,2,"5,69",2,"5,75","0,00","0,00",1,0,0,2,1,1,0,0,0,0,0,0,0,0,0,1,0,3
Fagner ,LAT,Corinthians,3,"13,11",9,"5,72","8,10","1,20",12,0,1,7,11,0,0,0,0,0,0,0,3,0,0,9,0,40
Arboleda ,ZAG,São Paulo,3,"7,95",2,"5,70","-1,10","-2,14",2,1,0,0,2,1,0,0,0,0,0,0,0,0,0,0,0,2
Wilson ,GOL,Coritiba,3,"13,42",13,"5,68","1,00","-0,42",0,0,0,5,3,0,0,0,25,0,0,0,0,0,13,0,0,9
Sander ,LAT,Sport,1,"6,84",8,"5,65","5,30","0,40",20,0,0,4,9,0,0,0,0,0,0,0,0,0,0,21,0,27
Wendel ,MEI,Fluminense,3,"12,36",10,"5,49","2,40","-0,46",12,2,1,0,25,2,6,1,0,0,0,0,0,0,0,11,1,21
Leandro Damião ,ATA,Flamengo,3,"11,03",7,"5,46","1,50","0,30",4,3,0,0,5,8,5,0,0,0,0,0,0,0,0,11,1,4
Alisson ,MEI,Cruzeiro,3,"14,91",12,"5,45","6,80","0,63",16,1,4,0,21,5,3,2,0,0,0,0,0,0,0,18,1,37
Richarlison  ,ATA,Fluminense,3,"12,30",10,"5,41","1,80","-1,33",15,3,2,0,19,5,5,0,0,0,0,0,2,0,0,21,10,19
Ángel Romero ,ATA,Corinthians,3,"13,70",11,"5,37","8,40","1,22",19,2,1,0,34,2,6,0,0,0,0,0,3,0,0,14,8,33
André ,ATA,Sport,3,"12,41",12,"5,36","18,30","3,15",8,4,1,0,15,9,4,1,0,0,0,0,2,0,0,23,7,23
Kadu ,ZAG,Ponte Preta,3,"11,65",6,"5,32","2,90","-0,60",14,0,0,2,5,1,0,0,0,0,0,0,1,0,0,9,0,5
Michel  ,MEI,Grêmio,3,"8,44",11,"5,25","-1,70","-1,62",26,3,0,0,12,6,1,0,0,0,0,0,1,0,0,21,0,25
Geuvânio ,ATA,Flamengo,2,"10,90",1,"5,10","5,10","-1,10",0,0,0,0,0,0,0,0,0,0,0,0,0,0,0,0,0,0
Petros ,MEI,São Paulo,3,"10,29",3,"5,07","3,20","-0,49",3,0,1,0,6,1,0,0,0,0,0,0,0,0,0,3,0,1
Sornoza ,MEI,Fluminense,5,"15,81",2,"5,05","0,00","0,00",2,1,0,0,2,1,1,0,0,0,0,0,1,0,0,1,0,5
Egídio ,LAT,Palmeiras,1,"7,17",7,"5,03","2,30","-0,44",14,0,0,3,10,0,1,0,0,0,0,0,0,0,0,6,1,28
Paulinho ,ATA,Vasco,2,"2,21",1,"5,00","5,00","1,21",0,0,0,0,0,0,0,0,0,0,0,0,0,0,0,0,0,0
Léo Santos ,ZAG,Corinthians,2,"4,38",1,"5,00","0,00","0,00",0,0,0,1,0,0,0,0,0,0,0,0,0,0,0,0,0,0
Renato Gaúcho ,TEC,Grêmio,3,"15,92",13,"4,95","4,85","0,44",0,0,0,0,0,0,0,0,0,0,0,0,0,0,0,0,0,0
João Paulo ,ATA,Bahia,2,"4,65",4,"4,95","0,00","0,00",0,2,0,0,5,2,1,0,0,0,0,0,0,0,0,1,0,2
Jean ,GOL,Bahia,3,"13,92",13,"4,94","17,00","3,64",0,0,0,4,1,0,0,0,20,0,0,0,0,0,15,0,0,11
Vanderlei Luxemburgo ,TEC,Sport,3,"8,66",10,"4,93","8,61","0,72",0,0,0,0,0,0,0,0,0,0,0,0,0,0,0,0,0,0
Victor Luis ,LAT,Botafogo,3,"12,36",11,"4,93","3,40","-0,02",20,1,0,4,9,2,0,0,0,0,0,0,2,0,0,13,0,22
Wanderson ,ZAG,Atlético-PR,3,"5,40",7,"4,91","-1,30","-0,13",5,2,0,3,2,0,3,0,0,0,0,0,1,0,0,4,1,11
Cleiton ,GOL,Atlético-MG,2,"1,85",1,"4,90","0,00","0,00",0,0,0,1,1,0,0,0,0,0,0,0,0,0,0,0,0,2
Ramon ,LAT,Vasco,3,"6,27",1,"4,90","4,90","0,27",0,0,0,0,0,0,0,0,0,0,0,0,0,0,0,0,0,0
Marlon Freitas ,MEI,Fluminense,1,"3,10",1,"4,90","0,00","0,00",4,0,0,0,0,0,0,0,0,0,0,0,0,0,0,2,0,3
Roger ,ATA,Botafogo,3,"10,56",12,"4,89","9,90","0,78",7,5,1,0,12,9,5,0,0,0,0,0,1,1,0,10,13,28
Rhodolfo ,ZAG,Flamengo,5,"8,70",4,"4,88","0,00","0,00",4,0,0,3,0,2,0,0,0,0,0,0,0,0,0,4,1,4
Cazares ,MEI,Atlético-MG,3,"9,06",9,"4,87","2,30","0,35",3,2,4,0,2,6,8,0,0,0,0,0,0,0,0,9,1,26
Rodinei ,LAT,Flamengo,3,"9,77",8,"4,86","2,50","-0,50",7,1,1,4,6,1,2,0,0,0,0,0,2,0,0,11,1,14
Nino Paraíba ,LAT,Ponte Preta,3,"19,65",11,"4,85","1,40","-0,12",21,1,1,3,22,3,5,0,0,0,0,0,3,0,0,15,2,51
Douglas ,MEI,Vasco,2,"15,94",11,"4,85","0,00","0,00",23,1,0,0,23,14,9,1,0,0,0,0,3,0,0,17,1,42
Fernandinho ,ATA,Grêmio,3,"10,05",9,"4,83","1,10","-0,44",6,3,0,0,22,3,5,0,0,0,0,0,1,0,0,8,0,13
Guilherme Arana ,LAT,Corinthians,3,"11,00",13,"4,82","11,60","1,99",6,0,2,9,14,0,1,0,0,0,0,0,2,0,0,9,3,40
Bruno Cortez ,LAT,Grêmio,3,"10,98",11,"4,80","4,10","0,69",15,1,0,6,10,0,0,0,0,0,0,0,3,0,0,14,1,21
Clayton ,ATA,Corinthians,2,"7,66",3,"4,80","0,00","0,00",0,2,0,0,0,0,0,0,0,0,0,0,0,0,0,2,0,2
Éder  ,ZAG,Bahia,2,"3,74",2,"4,80","0,00","0,00",2,0,0,1,1,1,1,0,0,0,0,0,0,0,0,2,0,0
Yerry Mina ,ZAG,Palmeiras,3,"15,14",8,"4,79","1,70","-0,51",14,1,0,3,9,3,2,0,0,0,0,0,3,0,0,14,2,16
Everton ,ATA,Grêmio,2,"9,33",10,"4,79","-0,80","-0,65",5,4,0,0,5,3,7,1,0,0,0,0,1,0,0,5,0,8
Fábio Carille ,TEC,Corinthians,3,"11,77",13,"4,77","5,79","0,09",0,0,0,0,0,0,0,0,0,0,0,0,0,0,0,0,0,0
Ramiro ,MEI,Grêmio,3,"16,21",10,"4,76","-0,10","-1,05",13,3,2,0,15,8,3,0,0,0,0,0,3,0,0,15,1,35
Gilberto  ,LAT,Vasco,4,"11,52",12,"4,73","0,00","0,00",35,0,1,2,16,4,1,1,0,0,0,0,3,0,0,17,1,60
Alex Silva ,LAT,Atlético-MG,2,"5,53",6,"4,72","0,00","0,00",11,0,2,2,10,1,0,0,0,0,0,0,2,0,0,14,0,17
Everton ,MEI,Flamengo,3,"14,81",11,"4,70","4,50","-0,86",17,2,2,0,20,5,6,0,0,0,0,0,4,0,0,15,3,34
Marllon ,ZAG,Ponte Preta,3,"12,10",13,"4,68","4,80","0,04",17,0,0,5,17,3,1,1,0,0,0,0,2,0,0,6,0,20
Jean ,MEI,Vasco,3,"10,88",12,"4,66","6,40","1,40",28,1,0,0,17,5,4,0,0,0,0,0,3,0,0,19,0,22
Henrique Almeida ,ATA,Coritiba,3,"15,81",13,"4,65","8,20","1,44",13,2,1,0,23,12,9,1,0,0,0,0,1,0,0,13,10,33
Fernando Prass ,GOL,Palmeiras,3,"14,74",13,"4,64","-4,00","-1,05",0,0,0,4,1,0,0,0,23,0,0,0,0,0,12,0,0,4
Alejandro Guerra ,MEI,Palmeiras,3,"13,45",9,"4,61","4,20","-1,58",6,4,1,0,15,4,7,0,0,0,0,0,3,0,0,19,0,39
Igor Rabello ,ZAG,Botafogo,2,"12,37",12,"4,58","7,40","0,72",20,0,0,4,6,3,3,0,0,0,0,0,2,0,0,11,0,17
Arnaldo ,LAT,Botafogo,3,"10,28",12,"4,56","10,60","2,06",20,0,1,4,15,0,1,0,0,0,0,0,2,0,0,16,0,38
Patrick ,MEI,Sport,1,"8,32",9,"4,55","-1,50","-1,00",30,0,0,0,10,2,1,0,0,0,0,0,0,0,0,15,0,28
Diogo Barbosa ,LAT,Cruzeiro,3,"12,65",12,"4,52","4,10","0,32",20,0,1,4,14,2,2,1,0,0,0,0,2,0,0,11,0,44
Cléber ,ZAG,Santos,5,"6,49",1,"4,50","0,00","0,00",0,0,0,1,0,0,0,0,0,0,0,0,0,0,0,1,0,0
Júnior Tavares ,LAT,São Paulo,3,"13,32",13,"4,49","7,00","1,52",14,0,3,4,25,5,1,0,0,0,0,0,2,0,0,14,0,45
Magrão ,GOL,Sport,3,"6,68",13,"4,47","5,00","-0,92",1,0,0,5,0,0,0,0,20,0,0,0,0,0,16,0,0,5
Pablo ,ZAG,Corinthians,3,"12,09",12,"4,46","8,40","0,72",6,0,0,8,4,6,2,0,0,0,0,0,2,0,0,9,0,16
Lucas Romero ,MEI,Cruzeiro,3,"9,43",12,"4,46","10,70","1,21",22,0,2,0,9,5,0,0,0,0,0,0,0,0,0,9,0,27
Reginaldo ,ZAG,Fluminense,3,"5,48",9,"4,45","4,90","0,09",24,0,0,1,5,1,0,0,0,0,0,0,0,0,0,12,0,26
Paulo Vitor ,ATA,Vasco,2,"3,23",3,"4,40","8,00","0,98",3,0,0,0,0,1,0,0,0,0,0,0,0,0,0,0,0,2
Levir Culpi ,TEC,Santos,3,"10,38",7,"4,40","4,73","0,39",0,0,0,0,0,0,0,0,0,0,0,0,0,0,0,0,0,0
Naldo ,MEI,Ponte Preta,2,"6,96",5,"4,40","0,00","0,00",12,1,0,0,5,1,1,0,0,0,0,0,1,0,0,10,0,12
Zé Ricardo ,TEC,Flamengo,3,"11,71",13,"4,40","2,00","-0,58",0,0,0,0,0,0,0,0,0,0,0,0,0,0,0,0,0,0
Capa ,LAT,Avaí,3,"11,49",13,"4,37","2,90","-0,48",23,0,1,5,30,4,1,0,0,0,0,0,2,0,0,13,4,72
Réver ,ZAG,Flamengo,3,"10,69",11,"4,36","1,90","-1,14",12,1,0,4,8,1,2,0,0,0,0,0,1,0,0,5,0,15
Everaldo ,ATA,Atlético-GO,2,"10,95",13,"4,35","9,00","1,49",2,4,1,0,18,11,13,1,0,0,0,0,1,2,0,15,4,25
Victor ,GOL,Atlético-MG,3,"11,85",12,"4,34","8,00","0,32",0,0,0,2,0,0,0,0,17,2,0,0,1,0,13,1,0,8
Rithely ,MEI,Sport,3,"10,88",11,"4,34","3,20","-0,11",24,0,1,0,14,10,4,0,0,0,0,0,1,0,0,17,0,29
Marquinhos Gabriel ,MEI,Corinthians,2,"9,98",9,"4,27","3,60","0,35",4,2,3,0,14,2,2,0,0,0,0,0,2,0,0,5,0,23
Gabriel ,ZAG,Atlético-MG,3,"9,18",7,"4,27","2,90","0,10",8,1,0,2,3,0,0,0,0,0,0,0,0,0,0,5,0,12
Lucas Pratto ,ATA,São Paulo,3,"16,39",13,"4,22","9,00","2,58",5,3,2,0,10,23,10,0,0,0,0,0,2,1,0,17,2,36
Thalles ,ATA,Vasco,3,"5,42",4,"4,22","7,00","-0,05",1,1,0,0,4,1,1,0,0,0,0,0,0,0,0,7,0,0
Léo Duarte ,ZAG,Flamengo,5,"3,24",1,"4,20","0,00","0,00",0,0,0,1,1,0,0,0,0,0,0,0,0,0,0,2,0,1
Alex ,MEI,Cruzeiro,2,"3,30",1,"4,20","0,00","0,00",2,0,0,0,2,1,0,0,0,0,0,0,0,0,0,0,0,3
Fagner Alemão ,LAT,Avaí,3,"8,65",10,"4,18","0,40","-1,42",19,0,0,4,3,2,1,0,0,0,0,0,1,0,0,4,3,31
Júnior Dutra ,ATA,Avaí,3,"6,82",7,"4,17","1,60","-1,67",2,1,1,0,9,4,2,2,0,0,0,0,0,0,0,3,0,12
Luan ,ZAG,Palmeiras,3,"6,82",5,"4,16","0,00","0,00",7,0,0,2,1,2,0,0,0,0,0,0,0,0,0,3,0,5
Jorginho ,TEC,Bahia,3,"12,62",10,"4,13","8,78","1,41",0,0,0,0,0,0,0,0,0,0,0,0,0,0,0,0,0,0
Edu Dracena ,ZAG,Palmeiras,2,"9,04",6,"4,12","1,10","-0,86",5,0,0,3,8,0,1,0,0,0,0,0,0,0,0,7,1,3
André Lima ,ATA,Vitória,3,"7,61",6,"4,12","1,30","-1,03",3,2,1,0,3,3,1,0,0,0,0,0,1,0,0,6,1,6
Mascarenhas ,LAT,Fluminense,3,"4,43",4,"4,10","-2,70","-1,41",4,1,0,1,6,1,0,0,0,0,0,0,0,0,0,4,0,8
Arthur ,MEI,Grêmio,3,"8,67",11,"4,10","1,90","0,01",27,0,0,0,14,0,1,0,0,0,0,0,1,0,0,6,0,19
Matheus Savio ,MEI,Flamengo,2,"10,99",5,"4,10","0,00","0,00",8,1,0,0,0,1,1,0,0,0,0,0,0,0,0,1,1,6
Caio Monteiro ,ATA,Vasco,2,"2,53",2,"4,10","0,00","0,00",0,1,0,0,1,0,0,0,0,0,0,0,0,0,0,0,0,1
Pedro Rocha ,ATA,Grêmio,2,"9,36",9,"4,09","0,00","0,00",12,1,1,0,10,4,7,0,0,0,0,0,0,0,0,8,4,18
Raul Prata ,LAT,Sport,2,"4,68",3,"4,07","0,00","0,00",4,0,0,2,4,1,0,0,0,0,0,0,1,0,0,4,0,11
Jair Ventura ,TEC,Botafogo,3,"11,67",13,"4,07","5,97","0,44",0,0,0,0,0,0,0,0,0,0,0,0,0,0,0,0,0,0
Lucas Veríssimo ,ZAG,Santos,3,"7,59",12,"4,03","8,40","1,64",10,0,0,6,2,3,3,0,0,0,0,0,2,0,0,7,0,19
Leandro Salino ,LAT,Vitória,2,"6,50",6,"4,02","0,00","0,00",15,0,0,1,16,2,0,0,0,0,0,0,1,0,0,15,0,21
Yago Pikachu ,LAT,Vasco,3,"9,46",10,"4,01","2,60","0,49",6,2,1,2,9,1,2,0,0,0,0,0,0,0,0,8,0,23
Juan ,ZAG,Flamengo,2,"5,92",5,"3,98","0,00","0,00",8,0,1,1,4,3,2,0,0,0,0,0,3,0,0,4,0,6
Jean ,LAT,Palmeiras,5,"15,59",6,"3,97","0,00","0,00",5,1,0,2,6,5,2,0,0,0,0,0,0,1,0,3,1,19
Pedro Henrique ,ZAG,Corinthians,2,"8,24",6,"3,97","5,00","0,08",4,0,0,3,1,0,0,0,0,0,0,0,0,0,0,1,0,10
Mano Menezes ,TEC,Cruzeiro,3,"12,98",13,"3,95","5,91","0,42",0,0,0,0,0,0,0,0,0,0,0,0,0,0,0,0,0,0
Rildo ,ATA,Coritiba,3,"9,92",11,"3,95","15,00","2,30",11,1,0,0,24,3,1,0,0,0,0,0,1,0,0,7,2,23
Jô ,ATA,Corinthians,3,"11,29",13,"3,94","-2,70","-2,03",2,7,2,0,16,4,7,0,0,0,0,0,2,1,0,24,12,26
Fábio ,GOL,Cruzeiro,3,"13,58",13,"3,92","8,00","1,81",0,0,0,4,1,0,0,0,17,0,0,0,0,0,13,1,0,7
Rafael Vaz ,ZAG,Flamengo,3,"7,72",7,"3,91","3,10","-0,18",6,0,0,4,1,2,0,0,0,0,0,0,0,0,0,3,0,21
Arrascaeta ,MEI,Cruzeiro,2,"9,34",3,"3,90","0,00","0,00",5,0,0,0,8,3,3,0,0,0,0,0,0,0,0,4,0,13
Fred ,ATA,Atlético-MG,3,"14,75",10,"3,88","-3,90","-0,85",2,4,1,0,22,6,2,1,0,0,0,0,1,0,0,17,4,20
Victor Ferraz ,LAT,Santos,5,"9,76",9,"3,88","0,00","0,00",6,2,0,4,9,1,0,0,0,0,0,0,2,0,0,7,0,30
Gilson ,LAT,Botafogo,2,"9,10",8,"3,87","0,00","0,00",7,0,0,3,16,0,0,1,0,0,0,0,1,0,0,4,1,10
Rodrigo Lindoso ,MEI,Botafogo,3,"10,37",10,"3,84","4,60","0,32",17,1,0,0,8,2,3,0,0,0,0,0,1,0,0,5,0,23
David Braz ,ZAG,Santos,3,"11,32",11,"3,83","4,60","1,21",9,1,0,6,4,3,1,0,0,0,0,0,4,0,0,8,1,28
Borja ,ATA,Palmeiras,2,"16,63",7,"3,83","-0,30","-0,73",1,3,0,0,9,6,2,0,0,0,0,0,1,0,0,8,3,6
Jeferson ,LAT,Ponte Preta,2,"5,18",3,"3,80","0,00","0,00",2,0,0,3,1,1,0,0,0,0,0,0,1,0,0,4,0,14
Kanu ,ZAG,Vitória,3,"7,69",8,"3,78","-0,60","-0,86",9,1,1,2,4,5,1,0,0,0,0,0,2,0,0,5,1,23
Reinaldo ,LAT,Chapecoense,3,"11,77",13,"3,77","-0,50","-0,57",16,2,1,3,10,4,3,0,0,0,0,0,1,0,0,12,0,55
Mancuello ,MEI,Flamengo,2,"6,84",4,"3,77","-0,30","-0,97",4,1,0,0,2,2,2,0,0,0,0,0,0,0,0,3,1,6
Dodô ,LAT,Coritiba,2,"9,64",9,"3,75","0,00","0,00",14,0,0,5,7,3,2,0,0,0,0,0,2,0,0,14,0,39
Kleber ,ATA,Coritiba,3,"12,46",10,"3,74","5,60","0,70",4,3,1,0,26,6,10,0,0,0,0,1,1,0,0,25,6,29
Élber ,MEI,Cruzeiro,2,"5,43",6,"3,72","4,70","-0,44",2,1,0,0,4,1,2,1,0,0,0,0,0,0,0,0,1,5
Edson ,MEI,Bahia,4,"14,09",5,"3,70","0,00","0,00",5,1,1,0,5,4,1,0,0,0,0,1,0,0,0,1,1,11
Felipe Santana ,ZAG,Atlético-MG,5,"9,11",8,"3,69","0,00","0,00",9,1,1,1,6,2,0,0,0,0,0,0,0,0,0,7,1,14
Matheus Galdezani ,MEI,Coritiba,3,"7,96",12,"3,67","2,00","-0,49",24,1,0,0,21,5,10,0,0,0,0,0,3,0,0,22,0,46
Durval ,ZAG,Sport,2,"7,26",10,"3,65","6,10","0,65",9,0,1,3,5,0,0,0,0,0,0,0,0,0,0,8,0,11
Gilson Kleina ,TEC,Ponte Preta,3,"11,98",13,"3,61","2,76","0,20",0,0,0,0,0,0,0,0,0,0,0,0,0,0,0,0,0,0
Lucas Fonseca ,ZAG,Bahia,3,"6,99",9,"3,61","13,30","2,65",6,0,0,3,11,0,1,0,0,0,0,1,1,0,0,5,0,10
Henrique ,LAT,Vasco,2,"8,17",12,"3,61","0,00","0,00",19,0,2,2,18,1,2,0,0,0,0,0,1,0,0,16,2,32
Thiago Maia ,MEI,Santos,3,"8,98",12,"3,61","6,20","1,33",26,1,1,0,10,5,2,0,0,0,0,0,4,0,0,21,0,40
Rodriguinho ,MEI,Corinthians,3,"13,84",10,"3,60","-0,80","-1,23",10,1,3,0,18,5,6,0,0,0,0,0,2,0,0,15,1,32
Copete ,ATA,Santos,4,"9,44",9,"3,60","0,00","0,00",4,5,0,0,8,6,3,0,0,0,0,0,3,0,0,15,3,35
Renê ,LAT,Flamengo,2,"6,81",6,"3,60","0,00","0,00",10,0,0,2,7,1,0,0,0,0,0,0,0,0,0,9,0,17
Shaylon ,MEI,São Paulo,2,"2,36",2,"3,60","0,00","0,00",0,1,0,0,0,0,0,0,0,0,0,0,0,0,0,1,0,1
Anselmo ,MEI,Sport,2,"6,50",4,"3,55","0,00","0,00",14,0,0,0,4,2,0,0,0,0,0,0,2,0,0,12,0,10
Nikão ,MEI,Atlético-PR,3,"8,92",11,"3,55","0,50","-0,51",7,1,2,0,21,4,9,1,0,0,0,0,1,0,0,12,1,29
Geferson ,LAT,Vitória,3,"10,26",8,"3,55","-3,40","-1,78",20,0,0,2,5,1,1,0,0,0,0,0,3,0,0,11,2,13
Pachequinho ,TEC,Coritiba,3,"10,03",13,"3,53","4,59","0,79",0,0,0,0,0,0,0,0,0,0,0,0,0,0,0,0,0,0
Juninho ,ZAG,Palmeiras,1,"9,98",8,"3,52","0,00","0,00",17,0,2,1,3,2,1,0,0,0,0,0,3,0,0,14,0,22
Edílson ,LAT,Grêmio,3,"11,16",9,"3,51","6,20","1,63",9,1,0,4,4,1,1,0,0,0,0,0,3,1,0,13,1,17
Abel Braga ,TEC,Fluminense,3,"12,13",12,"3,51","2,67","-0,26",0,0,0,0,0,0,0,0,0,0,0,0,0,0,0,0,0,0
Nenê ,MEI,Vasco,4,"12,69",11,"3,50","0,00","0,00",7,2,3,0,28,7,3,0,0,0,0,0,3,0,0,10,2,48
Otávio  ,MEI,Atlético-PR,3,"9,63",10,"3,50","0,20","-0,33",21,0,1,0,6,3,1,0,0,0,0,0,1,0,0,8,0,20
Rodrigão ,ATA,Bahia,3,"6,64",4,"3,50","15,70","3,21",0,0,0,0,0,2,1,0,0,0,0,0,0,0,0,3,1,7
Marcio ,ZAG,Coritiba,3,"6,50",12,"3,50","-2,80","-1,13",10,1,1,5,6,3,2,0,0,0,0,0,2,0,0,13,1,21
Milton Mendes ,TEC,Vasco,3,"9,31",13,"3,49","4,64","0,83",0,0,0,0,0,0,0,0,0,0,0,0,0,0,0,0,0,0
Aranha ,GOL,Ponte Preta,3,"9,79",13,"3,48","-6,30","-1,70",0,0,0,5,2,0,0,0,19,0,0,0,0,0,15,0,0,5
Werley ,ZAG,Coritiba,2,"8,58",11,"3,48","0,00","0,00",11,0,0,5,4,5,1,0,0,0,0,0,0,0,0,7,0,28
Ronaldo Alves ,ZAG,Sport,3,"8,28",10,"3,48","6,60","-0,12",3,0,1,5,14,0,3,0,0,0,0,0,2,0,0,11,1,23
Tomas Bastos ,MEI,Coritiba,2,"12,44",8,"3,48","0,00","0,00",8,2,0,0,6,6,4,0,0,0,0,0,1,0,0,10,0,20
Andrigo ,MEI,Atlético-GO,3,"5,67",13,"3,48","1,40","-1,08",16,2,2,0,9,6,6,0,0,0,0,0,2,0,0,11,1,47
Cuca ,TEC,Palmeiras,3,"13,15",13,"3,47","1,45","-0,10",0,0,0,0,0,0,0,0,0,0,0,0,0,0,0,0,0,0
Kannemann ,ZAG,Grêmio,3,"10,56",10,"3,47","5,30","0,57",9,0,0,5,5,1,0,1,0,0,0,0,2,0,0,13,1,22
Clayson ,ATA,Corinthians,2,"15,81",9,"3,45","0,00","0,00",9,2,1,0,3,2,2,0,0,0,0,0,1,0,0,6,2,14
Bruno Henrique ,ATA,Santos,3,"11,72",10,"3,45","0,30","-0,61",10,0,5,0,27,3,6,1,0,0,0,1,2,0,0,24,4,33
Pedro ,ATA,Fluminense,1,"4,62",4,"3,43","1,20","0,00",2,1,0,0,3,1,1,0,0,0,0,0,0,0,0,3,0,2
Dedé ,ZAG,Cruzeiro,5,"8,86",3,"3,43","0,00","0,00",2,0,0,2,2,0,0,0,0,0,0,0,0,0,0,1,0,12
Maicon ,ZAG,São Paulo,2,"9,90",7,"3,42","0,00","0,00",8,0,0,3,2,2,2,0,0,0,0,0,1,0,0,1,0,22
Thiago ,GOL,Flamengo,3,"3,84",8,"3,42","-2,00","-1,64",0,0,0,4,0,0,0,0,6,0,0,0,0,0,4,0,0,2
Rafael Thyere ,ZAG,Grêmio,2,"6,50",7,"3,41","5,00","0,94",2,1,0,2,2,1,1,0,0,0,0,0,0,0,0,5,0,9
Airton  ,ZAG,Avaí,2,"2,11",2,"3,40","0,00","0,00",2,0,0,1,0,2,0,0,0,0,0,0,0,0,0,3,0,5
Rodrigo Caio ,ZAG,São Paulo,3,"9,86",9,"3,39","3,60","-0,54",18,0,0,2,5,0,0,0,0,0,0,0,3,0,0,8,0,21
João Lucas ,LAT,Ponte Preta,2,"11,26",10,"3,39","0,00","0,00",14,0,1,4,6,0,1,0,0,0,0,0,1,0,0,7,1,43
Lucão ,ZAG,São Paulo,2,"5,25",6,"3,38","0,00","0,00",5,0,0,3,5,2,1,0,0,0,0,0,0,0,0,6,0,17
Éverton Ribeiro ,MEI,Flamengo,3,"12,11",4,"3,37","0,20","-1,09",3,0,3,0,3,0,0,0,0,0,0,0,1,0,0,6,0,11
Santos ,GOL,Atlético-PR,2,"5,43",2,"3,35","0,00","0,00",0,0,0,1,0,0,0,0,2,0,0,0,0,0,2,0,0,1
Diego Tavares ,LAT,Avaí,2,"7,58",9,"3,33","0,00","0,00",6,0,0,4,12,4,0,0,0,0,0,0,0,0,0,8,1,15
Hudson ,MEI,Cruzeiro,5,"7,51",8,"3,31","0,00","0,00",15,1,0,0,7,2,1,0,0,0,0,0,1,0,0,13,0,15
Abuda ,MEI,Atlético-GO,2,"5,39",1,"3,30","0,00","0,00",2,0,0,0,1,0,0,0,0,0,0,0,0,0,0,0,0,2
Eduardo ,LAT,Bahia,3,"7,00",13,"3,30","5,60","0,84",22,0,1,4,10,2,0,0,0,0,0,0,1,0,0,18,2,65
Caju ,LAT,Santos,5,"3,83",1,"3,30","0,00","0,00",3,0,0,0,1,0,0,0,0,0,0,0,0,0,0,1,0,6
Fabián Noguera ,ZAG,Santos,2,"3,14",3,"3,30","0,00","0,00",3,0,0,1,1,1,0,0,0,0,0,0,0,0,0,1,0,3
Gustavo Scarpa ,MEI,Fluminense,1,"11,52",12,"3,29","1,40","-0,41",13,0,3,0,19,7,7,1,0,0,0,0,0,0,0,10,0,63
Márcio Araújo ,MEI,Flamengo,3,"8,92",13,"3,28","3,10","-0,58",25,0,0,0,19,3,0,0,0,0,0,0,1,0,0,12,0,22
Samuel Xavier ,LAT,Sport,3,"4,47",11,"3,28","6,70","0,55",9,0,0,5,10,1,2,0,0,0,0,0,1,0,0,7,1,42
Rafael Sobis ,ATA,Cruzeiro,3,"10,62",7,"3,26","-0,70","-0,20",0,2,1,0,9,5,6,0,0,0,0,0,2,0,0,8,1,10
Jean Mota ,MEI,Santos,3,"4,68",11,"3,25","1,40","-1,30",15,0,2,0,10,5,3,0,0,0,0,0,1,0,0,5,0,27
Rodrigo ,ZAG,Ponte Preta,4,"9,04",8,"3,17","0,00","0,00",8,0,0,3,15,5,2,0,0,0,0,1,2,0,0,5,1,14
Wellington Silva ,ATA,Fluminense,1,"9,16",5,"3,16","0,60","-1,23",2,1,1,0,8,1,0,0,0,0,0,0,0,0,0,3,4,8
Lucas Barrios ,ATA,Grêmio,3,"9,74",8,"3,16","0,80","-0,54",4,2,1,0,11,2,4,0,0,0,0,0,2,0,0,9,6,9
Lucas Marques ,MEI,Chapecoense,3,"0,88",3,"3,13","-3,30","-2,18",2,1,0,0,1,2,0,1,0,0,0,0,0,0,0,4,0,7
Claudinei Oliveira ,TEC,Avaí,3,"6,83",13,"3,12","0,81","-1,15",0,0,0,0,0,0,0,0,0,0,0,0,0,0,0,0,0,0
Willian Farias ,MEI,Vitória,5,"9,33",10,"3,11","0,00","0,00",27,0,0,0,8,3,0,1,0,0,0,0,4,0,0,16,0,28
Jhemerson ,MEI,Vitória,2,"4,28",1,"3,10","0,00","0,00",1,0,0,0,0,2,0,0,0,0,0,0,0,0,0,0,0,0
Mauricio Kozlinski ,GOL,Avaí,2,"8,10",9,"3,10","0,00","0,00",0,0,0,2,0,0,0,0,15,0,0,0,0,0,13,0,0,4
Fillipe Soutto ,MEI,Vitória,5,"4,00",1,"3,10","0,00","0,00",2,0,0,0,0,0,0,0,0,0,0,0,0,0,0,0,0,1
Moisés ,MEI,Chapecoense,2,"2,32",1,"3,10","0,00","0,00",2,0,0,0,0,0,0,0,0,0,0,0,0,0,0,0,0,1
Ábila ,ATA,Cruzeiro,2,"12,22",10,"3,09","0,00","0,00",2,3,1,0,13,4,4,0,0,0,0,0,2,0,0,5,10,11
Thomás ,MEI,Sport,2,"7,18",5,"3,08","0,00","0,00",4,1,0,0,9,1,1,0,0,0,0,0,0,0,0,6,1,7
Fernando Miguel ,GOL,Vitória,3,"9,55",13,"3,08","-5,60","-1,45",0,0,0,3,3,0,0,0,22,0,0,0,1,0,16,0,0,10
Ezequiel  ,LAT,Cruzeiro,1,"5,86",6,"3,08","0,00","0,00",11,0,0,2,6,1,1,0,0,0,0,0,2,0,0,14,0,13
Marquinhos ,ATA,Sport,2,"5,05",3,"3,03","0,00","0,00",0,0,2,0,2,0,0,0,0,0,0,0,0,0,0,2,0,3
Marcelo ,ZAG,Botafogo,2,"3,80",4,"3,02","0,00","0,00",6,0,0,1,1,3,1,0,0,0,0,0,1,0,0,4,0,9
Marcão Silva ,MEI,Atlético-GO,3,"7,23",12,"2,99","1,50","-0,04",32,0,0,0,8,3,0,0,0,0,0,0,5,0,0,19,0,22
Alexandre Gallo ,TEC,Vitória,3,"7,20",9,"2,98","-0,35","-0,67",0,0,0,0,0,0,0,0,0,0,0,0,0,0,0,0,0,0
Thiago Santos ,MEI,Palmeiras,3,"5,45",7,"2,97","1,10","-0,65",19,0,0,0,10,1,0,0,0,0,0,0,2,0,0,18,1,16
Osvaldo ,ATA,Sport,3,"5,22",13,"2,96","-0,30","-0,50",8,3,1,0,18,4,4,0,0,0,0,0,2,0,0,8,1,37
Roger Carvalho ,ZAG,Atlético-GO,3,"7,43",13,"2,95","-0,10","-1,66",16,0,1,1,23,5,0,1,0,0,0,0,0,0,0,19,0,26
Robinho ,ATA,Atlético-MG,3,"13,65",11,"2,94","0,00","-1,38",15,1,2,0,12,4,2,0,0,0,0,0,2,0,0,8,7,35
Thomaz ,MEI,São Paulo,2,"5,16",8,"2,94","0,00","0,00",8,1,1,0,7,2,1,0,0,0,0,0,1,0,0,9,2,5
Roger Machado  ,TEC,Atlético-MG,3,"10,71",13,"2,94","1,84","-0,17",0,0,0,0,0,0,0,0,0,0,0,0,0,0,0,0,0,0
Allione ,MEI,Bahia,1,"10,28",10,"2,92","0,00","0,00",13,0,4,0,14,0,1,0,0,0,0,0,3,0,0,7,3,33
Andrei Girotto ,MEI,Chapecoense,3,"5,91",12,"2,91","3,50","0,70",16,1,2,0,12,9,3,0,0,0,0,0,4,0,0,29,1,20
Mateus Vital ,MEI,Vasco,2,"8,40",12,"2,89","0,00","0,00",9,0,2,0,22,3,7,0,0,0,0,0,1,0,0,10,0,13
Renan Ribeiro ,GOL,São Paulo,3,"8,94",13,"2,88","-4,30","-0,10",0,0,0,4,1,0,0,0,18,0,0,0,1,0,14,0,0,9
Trauco ,LAT,Flamengo,3,"5,68",9,"2,88","-2,80","-1,16",6,1,0,5,4,4,3,0,0,0,0,0,2,0,0,15,0,36
Neto Berola ,ATA,Coritiba,2,"10,61",7,"2,87","7,10","0,99",3,1,1,0,4,2,0,0,0,0,0,0,1,0,0,5,2,10
Fernando Bob ,MEI,Ponte Preta,3,"9,20",7,"2,83","5,40","0,66",16,0,0,0,7,0,0,0,0,0,0,0,2,0,0,11,1,21
Felipe Garcia ,GOL,Atlético-GO,3,"6,80",12,"2,83","-4,60","-0,87",0,0,0,1,1,0,0,0,23,0,0,0,1,0,16,0,0,7
Bruno Henrique ,MEI,Palmeiras,3,"9,34",3,"2,83","2,10","-0,44",4,0,0,0,3,2,0,0,0,0,0,0,0,0,0,6,0,1
Romulo ,ATA,Avaí,3,"9,46",13,"2,83","-1,60","-0,90",12,2,0,0,24,8,7,0,0,0,0,0,1,0,0,16,3,37
Betão ,ZAG,Avaí,3,"7,00",12,"2,82","2,20","-1,12",10,0,0,5,13,1,1,0,0,0,0,0,3,0,0,7,0,30
Bruno Pacheco ,LAT,Atlético-GO,3,"9,25",12,"2,81","11,00","1,71",10,0,1,1,26,1,1,0,0,0,0,0,2,0,0,14,0,26
Rodrigão ,ZAG,Atlético-MG,5,"2,97",3,"2,80","0,00","0,00",0,0,0,2,0,0,0,0,0,0,0,0,0,0,0,2,0,2
Matheus Alessandro ,ATA,Fluminense,2,"2,28",3,"2,80","6,60","1,18",1,0,0,0,2,0,0,0,0,0,0,0,0,0,0,0,0,3
Éderson ,ATA,Atlético-PR,3,"4,26",6,"2,78","2,40","0,36",2,1,0,0,4,4,6,0,0,0,0,0,0,0,0,3,5,13
Maycon ,MEI,Corinthians,3,"7,40",13,"2,77","1,50","-0,44",19,1,0,0,4,7,3,0,0,0,0,0,0,0,0,7,0,41
Kieza ,ATA,Vitória,5,"9,53",8,"2,77","0,00","0,00",2,3,0,0,17,3,4,0,0,0,0,0,1,1,0,13,6,16
Edigar Junio ,ATA,Bahia,5,"9,52",10,"2,75","0,00","0,00",4,2,0,0,16,2,5,1,0,0,0,0,0,0,0,14,1,19
Orejuela ,MEI,Fluminense,1,"10,29",10,"2,75","2,80","0,02",16,0,0,0,19,0,0,0,0,0,0,0,1,0,0,8,0,20
Rogério ,ATA,Sport,2,"7,91",9,"2,73","9,20","0,74",2,1,0,0,10,3,4,0,0,0,0,0,0,0,0,3,0,19
Gabriel ,MEI,Corinthians,3,"8,32",12,"2,72","4,70","0,17",22,1,0,0,8,0,2,0,0,0,0,1,2,0,0,17,0,20
Léo ,ZAG,Cruzeiro,3,"9,67",12,"2,72","6,40","0,90",8,0,1,4,10,2,1,0,0,0,0,0,3,0,0,10,0,29
Alex Muralha ,GOL,Flamengo,2,"4,22",5,"2,70","0,00","0,00",0,0,0,2,3,0,0,0,4,0,0,0,0,0,4,1,0,5
Thiago Heleno ,ZAG,Atlético-PR,3,"7,39",9,"2,68","-3,20","-1,26",8,1,0,3,5,2,0,0,0,0,0,0,2,0,0,8,0,17
Pará ,LAT,Flamengo,2,"8,93",8,"2,67","0,00","0,00",3,0,1,4,5,1,0,0,0,0,0,0,0,0,0,12,1,18
Seijas ,MEI,Chapecoense,2,"7,00",10,"2,66","3,40","0,82",11,0,2,0,12,3,1,0,0,0,0,0,0,0,0,12,1,27
Mayke ,LAT,Palmeiras,2,"5,91",9,"2,63","0,00","0,00",12,0,0,3,6,1,0,0,0,0,0,0,1,0,0,13,3,18
Róger Guedes ,ATA,Palmeiras,3,"7,04",13,"2,62","2,50","0,06",4,2,3,0,15,5,2,1,0,0,0,0,2,0,0,16,3,31
Kaio ,MEI,Grêmio,2,"3,76",2,"2,60","0,00","0,00",1,0,0,0,8,1,2,0,0,0,0,0,0,0,0,4,0,4
Victor Ramos ,ZAG,Chapecoense,3,"7,81",11,"2,56","0,80","0,11",10,1,0,3,2,3,2,0,0,0,0,0,2,0,0,15,0,21
Valdívia ,MEI,Atlético-MG,2,"7,85",6,"2,55","2,10","-0,64",3,0,1,0,10,2,3,0,0,0,0,0,0,0,0,5,1,11
Wellington Paulista ,ATA,Chapecoense,3,"9,85",13,"2,54","-1,60","-0,69",2,3,0,0,15,9,10,1,0,0,0,0,2,0,0,15,3,24
Matheus Fernandes ,MEI,Botafogo,3,"3,39",9,"2,52","-0,40","-0,01",15,0,0,0,5,3,0,0,0,0,0,0,0,0,0,10,0,7
Joel ,ATA,Avaí,4,"2,68",7,"2,51","0,00","0,00",4,2,0,0,7,3,2,0,0,0,0,1,0,0,0,10,2,6
Douglas Grolli ,ZAG,Chapecoense,3,"6,73",5,"2,50","0,10","-0,45",3,1,0,1,0,1,0,0,0,0,0,0,0,0,0,7,1,8
Cuéllar ,MEI,Flamengo,3,"3,87",8,"2,48","-0,10","-0,69",18,0,0,0,2,0,1,0,0,0,0,0,2,0,0,9,0,14
Jonathan ,LAT,Atlético-PR,3,"6,71",10,"2,47","-1,70","-0,60",10,0,1,3,9,2,0,0,0,0,0,0,3,0,0,6,0,25
Manga Escobar ,ATA,Vasco,2,"4,75",7,"2,46","0,00","0,00",1,1,1,0,5,3,2,0,0,0,0,0,0,0,0,3,1,7
Leandro Silva ,LAT,Avaí,3,"7,20",12,"2,45","0,30","-1,23",15,0,1,4,9,4,3,0,0,0,0,1,1,0,0,13,1,59
Zeca ,LAT,Santos,5,"11,45",2,"2,45","0,00","0,00",0,0,0,1,1,1,0,0,0,0,0,0,0,0,0,2,0,1
Marcão ,ZAG,Atlético-PR,2,"3,97",2,"2,45","0,00","0,00",1,1,0,0,0,0,2,0,0,0,0,1,0,0,0,3,0,1
Fernandinho ,LAT,Ponte Preta,3,"5,26",4,"2,43","2,60","0,73",0,0,0,2,0,0,0,0,0,0,0,0,0,0,0,2,2,3
Buffarini ,LAT,São Paulo,3,"7,05",3,"2,43","-0,90","-0,49",2,0,0,1,2,0,0,0,0,0,0,0,0,0,0,0,0,4
Dorival Júnior ,TEC,São Paulo,3,"9,46",5,"2,42","3,77","-0,65",0,0,0,0,0,0,0,0,0,0,0,0,0,0,0,0,0,0
Uillian Correia ,MEI,Vitória,1,"5,33",11,"2,41","0,00","0,00",12,2,0,0,3,6,0,0,0,0,0,0,1,0,0,17,0,17
Marcos Rocha ,LAT,Atlético-MG,3,"9,35",4,"2,40","-0,20","-0,64",7,0,1,0,4,1,0,0,0,0,0,0,0,0,0,7,0,21
Jonas ,MEI,Coritiba,3,"6,81",11,"2,40","0,20","-0,21",26,0,0,0,8,6,0,0,0,0,0,0,3,0,0,23,0,29
Tiago  ,ZAG,Bahia,3,"9,75",13,"2,39","1,90","0,15",10,1,0,4,14,0,1,0,0,0,0,0,2,0,0,17,5,29
Guilherme ,MEI,Atlético-PR,2,"10,33",3,"2,37","0,00","0,00",0,1,0,0,4,0,0,0,0,0,0,0,0,0,0,1,0,8
Carlos Eduardo ,MEI,Vitória,3,"2,25",3,"2,37","-3,30","-1,93",5,0,0,0,4,2,2,0,0,0,0,0,0,0,0,4,0,5
Ravanelli ,MEI,Ponte Preta,2,"8,16",3,"2,37","0,00","0,00",2,0,1,0,7,1,0,0,0,0,0,0,0,0,0,1,1,15
Juninho ,MEI,Bahia,2,"10,57",11,"2,35","4,00","0,67",12,0,1,0,7,7,7,1,0,0,0,0,1,0,0,20,0,35
Euller  ,LAT,Vitória,2,"6,31",2,"2,35","0,00","0,00",0,0,0,1,1,0,0,0,0,0,0,0,0,0,0,1,0,1
Mendoza ,ATA,Bahia,1,"3,68",8,"2,35","7,70","1,08",4,0,0,0,8,6,3,0,0,0,0,0,0,0,0,6,0,13
Willian Arão ,MEI,Flamengo,2,"8,51",9,"2,34","0,00","0,00",14,0,1,0,7,1,3,0,0,0,0,0,0,0,0,10,0,33
Cleiton Xavier ,MEI,Vitória,3,"6,54",11,"2,33","2,30","-0,19",6,0,3,0,5,7,4,0,0,0,0,0,0,0,0,10,1,26
Paulo Roberto ,MEI,Corinthians,2,"3,53",5,"2,32","0,00","0,00",3,0,2,0,3,0,1,0,0,0,0,0,0,0,0,3,0,15
Ariel Cabral ,MEI,Cruzeiro,4,"6,33",10,"2,32","0,00","0,00",18,0,0,0,21,7,0,0,0,0,0,0,3,0,0,10,0,39
Erik ,ATA,Palmeiras,2,"3,93",5,"2,32","0,00","0,00",5,0,1,0,2,2,0,0,0,0,0,0,0,0,0,4,1,6
Maicosuel ,MEI,São Paulo,5,"6,88",5,"2,30","0,00","0,00",3,0,0,0,7,1,3,0,0,0,0,0,0,0,0,1,0,1
Leandro Pereira ,ATA,Sport,2,"5,86",2,"2,30","0,00","0,00",2,0,0,0,1,0,1,0,0,0,0,0,0,0,0,0,0,1
Ronaldo ,MEI,Sport,2,"3,20",1,"2,30","0,00","0,00",2,0,0,0,1,0,0,0,0,0,0,0,0,0,0,2,0,2
João Pedro  ,LAT,Chapecoense,5,"5,87",1,"2,30","0,00","0,00",1,0,0,0,1,1,0,0,0,0,0,0,0,0,0,0,0,2
Renato ,LAT,Fluminense,2,"3,75",5,"2,28","0,00","0,00",3,0,0,1,7,5,1,0,0,0,0,0,1,0,0,4,0,9
Matheus Reis ,LAT,Bahia,1,"5,12",10,"2,28","4,60","0,63",7,0,0,3,14,1,0,0,0,0,0,0,1,0,0,12,0,28
Rossi ,ATA,Chapecoense,3,"8,61",10,"2,26","0,00","0,00",7,2,1,0,14,4,2,2,0,0,0,1,3,0,0,14,5,29
Cueva ,MEI,São Paulo,3,"9,83",8,"2,25","4,00","0,73",12,0,0,0,11,3,3,0,0,0,0,0,2,0,0,6,2,30
Jadson ,MEI,Corinthians,3,"10,65",12,"2,24","7,00","0,44",5,3,1,0,4,6,3,0,0,0,0,0,1,0,0,10,3,61
Beto da Silva ,ATA,Grêmio,2,"3,74",1,"2,20","0,00","0,00",1,0,0,0,1,0,0,0,0,0,0,0,0,0,0,0,0,0
Leonan ,LAT,Atlético-MG,2,"2,04",1,"2,20","0,00","0,00",0,0,0,1,1,0,0,0,0,0,0,0,1,0,0,2,0,1
Joel Carli ,ZAG,Botafogo,3,"9,11",9,"2,20","0,70","0,01",9,1,0,3,5,2,0,0,0,0,0,0,4,0,0,13,1,27
Léo ,GOL,Grêmio,3,"4,77",5,"2,18","11,00","2,82",0,0,0,1,1,0,0,0,3,0,0,0,0,0,7,0,0,2
Rodrigo Pimpão ,ATA,Botafogo,3,"7,01",13,"2,17","4,30","0,49",12,1,2,0,17,4,3,0,0,0,0,0,1,0,0,18,2,56
Alan Costa ,ZAG,Vitória,2,"7,75",5,"2,16","0,00","0,00",4,0,0,1,3,1,0,0,0,0,0,0,0,0,0,3,1,4
Rodrigo Becão ,ZAG,Bahia,2,"3,42",5,"2,16","0,00","0,00",5,0,0,1,4,1,1,0,0,0,0,0,1,0,0,4,0,8
Doriva ,TEC,Atlético-GO,3,"6,11",8,"2,15","2,25","0,00",0,0,0,0,0,0,0,0,0,0,0,0,0,0,0,0,0,0
Marcelo Oliveira ,LAT,Grêmio,2,"7,90",2,"2,15","0,00","0,00",1,0,0,1,4,0,0,0,0,0,0,0,1,0,0,3,0,3
Kayke ,ATA,Santos,3,"4,42",11,"2,15","-1,70","-1,44",1,3,1,0,4,6,5,0,0,0,0,0,0,0,0,9,5,32
Elias ,MEI,Atlético-MG,3,"12,55",11,"2,14","5,00","0,62",13,1,0,0,8,1,3,0,0,0,0,0,1,0,0,14,2,31
Marcinho ,ATA,São Paulo,2,"5,75",13,"2,14","8,10","1,52",8,1,2,0,11,7,4,0,0,0,0,0,1,0,0,17,1,51
Robinho ,MEI,Cruzeiro,2,"8,73",6,"2,13","0,00","0,00",8,1,0,0,4,7,3,0,0,0,0,0,2,0,0,5,1,39
Luiz Antonio  ,MEI,Chapecoense,2,"8,29",12,"2,13","0,20","-0,16",5,2,1,0,4,2,6,1,0,0,0,0,2,0,0,13,1,20
Renato Cajá ,MEI,Ponte Preta,4,"7,42",7,"2,07","0,00","0,00",6,1,1,0,7,7,1,0,0,0,0,1,1,0,0,8,1,22
Breno Lopes ,LAT,Atlético-GO,3,"3,52",8,"2,07","0,00","0,00",10,0,0,1,5,4,5,0,0,0,0,0,0,0,0,11,6,24
Rafael Marques ,ATA,Cruzeiro,2,"5,56",8,"2,06","8,20","1,52",3,0,0,0,7,5,2,0,0,0,0,0,0,0,0,2,0,16
Niltinho ,ATA,Atlético-GO,2,"5,19",4,"2,05","9,60","2,02",0,0,0,0,4,0,0,0,0,0,0,0,0,0,0,5,0,3
David ,ATA,Vitória,3,"4,25",13,"2,03","1,80","-0,71",6,0,3,0,8,10,4,2,0,0,0,0,2,0,0,11,7,32
William Matheus ,LAT,Coritiba,4,"6,11",11,"2,02","0,00","0,00",10,0,0,4,23,1,4,0,0,0,0,1,3,0,0,16,1,38
Willian ,ATA,Palmeiras,3,"6,40",12,"2,00","3,60","-0,16",8,2,1,0,16,3,4,0,0,0,0,0,4,1,0,20,4,16
Vladimir Hernández ,ATA,Santos,2,"8,74",11,"1,96","-0,60","-0,41",5,1,0,0,17,3,3,0,0,0,0,0,1,0,0,5,2,8
Keno ,ATA,Palmeiras,2,"5,72",12,"1,95","-0,20","-0,14",8,2,0,0,8,4,1,1,0,0,0,0,1,0,0,11,2,29
Machado ,MEI,Grêmio,2,"2,04",2,"1,95","0,00","0,00",7,0,0,0,1,0,0,0,0,0,1,0,0,0,0,2,0,5
Luiz Otávio  ,ZAG,Chapecoense,2,"5,66",9,"1,94","0,00","0,00",10,0,1,2,0,3,3,0,0,0,0,1,2,0,0,10,0,19
Patric ,LAT,Vitória,3,"7,19",10,"1,93","4,20","0,93",13,0,0,2,8,6,3,0,0,0,0,0,2,0,0,17,3,47
Wellington Nem ,ATA,São Paulo,3,"7,95",7,"1,93","2,60","0,11",2,1,0,0,9,2,0,0,0,0,0,0,1,0,0,5,2,3
Marlone ,MEI,Atlético-MG,2,"6,52",7,"1,93","0,10","-1,15",2,2,0,0,4,2,2,0,0,0,0,0,1,0,0,5,3,18
Luan ,MEI,Avaí,4,"5,62",11,"1,92","0,00","0,00",22,0,0,0,27,1,1,0,0,0,0,0,6,0,0,29,0,17
Alan Santos ,MEI,Coritiba,5,"4,80",8,"1,91","0,00","0,00",15,0,0,0,2,1,2,0,0,0,0,0,1,0,0,9,1,23
Leandrinho ,MEI,Botafogo,2,"2,75",1,"1,90","0,00","0,00",1,0,0,0,1,0,0,0,0,0,0,0,0,0,0,0,0,1
Juan ,MEI,Avaí,3,"4,42",10,"1,88","-3,20","-1,12",11,1,0,0,16,6,2,0,0,0,0,0,2,0,0,12,0,30
Guilherme ,ATA,Botafogo,2,"4,99",9,"1,87","4,00","0,19",3,0,1,0,14,1,3,0,0,0,0,0,0,0,0,7,0,15
Eduardo Bauermann ,ZAG,Atlético-GO,2,"3,19",7,"1,85","0,00","0,00",5,0,0,1,5,1,0,0,0,0,0,0,0,0,0,4,1,4
Fred ,ZAG,Vitória,2,"3,95",11,"1,85","-1,90","-0,38",11,1,0,1,2,5,3,0,0,0,0,0,2,0,0,9,0,28
Éder Militão ,MEI,São Paulo,2,"2,46",7,"1,84","0,00","0,00",8,0,0,0,8,3,0,0,0,0,0,0,0,0,0,3,1,16
Vinícius ,MEI,Bahia,2,"6,62",10,"1,84","-2,10","-0,61",5,2,0,0,7,4,1,0,0,0,0,0,1,0,0,6,0,21
Weverton ,GOL,Atlético-PR,3,"2,83",10,"1,81","1,70","-0,70",0,0,0,2,2,0,0,0,12,0,0,0,1,0,13,0,0,9
Eduardo da Silva ,ATA,Atlético-PR,3,"6,15",3,"1,80","1,20","-1,04",3,0,0,0,1,1,0,0,0,0,0,0,0,0,0,2,1,2
Felipe Melo ,MEI,Palmeiras,2,"8,67",4,"1,75","0,00","0,00",7,0,0,0,5,2,1,0,0,0,0,0,2,0,0,8,0,6
João Paulo ,MEI,Botafogo,3,"3,79",12,"1,75","8,60","1,66",10,0,2,0,15,5,5,0,0,0,0,0,3,0,0,23,1,42
Luan Peres  ,ZAG,Ponte Preta,2,"2,16",2,"1,75","0,00","0,00",1,0,0,1,1,0,0,0,0,0,0,0,1,0,0,1,0,4
Kelvin ,ATA,Vasco,5,"5,03",5,"1,72","0,00","0,00",4,0,0,0,8,0,3,0,0,0,0,0,0,0,0,3,2,9
Apodi ,LAT,Chapecoense,3,"6,16",12,"1,72","-1,70","-0,59",11,0,0,3,16,3,2,0,0,0,0,0,3,0,0,21,2,20
Bruno Cosendey ,MEI,Vasco,2,"2,21",1,"1,70","0,00","0,00",1,0,0,0,0,0,0,0,0,0,0,0,0,0,0,0,0,0
Matheus Rossetto ,MEI,Atlético-PR,2,"4,61",11,"1,70","0,00","0,00",7,1,1,0,9,0,2,0,0,0,0,0,1,0,0,9,1,19
Renato ,MEI,Santos,5,"6,39",10,"1,65","0,00","0,00",11,0,0,0,14,1,0,0,0,0,0,0,0,0,0,6,0,23
Fabiano ,LAT,Palmeiras,2,"5,09",4,"1,65","0,00","0,00",1,0,0,1,1,2,1,0,0,0,0,0,0,0,0,3,0,5
Luis Caicedo ,ZAG,Cruzeiro,2,"4,75",6,"1,65","0,00","0,00",5,0,0,2,4,1,1,0,0,0,0,0,2,0,0,10,0,11
Diego Rosa ,MEI,Atlético-GO,2,"7,32",7,"1,64","0,00","0,00",4,0,1,0,5,1,2,0,0,0,0,0,0,0,0,7,1,5
Silva ,MEI,Atlético-GO,2,"3,22",5,"1,64","0,00","0,00",9,0,0,0,6,1,0,0,0,0,0,0,1,0,0,14,0,6
Marcelo Grohe ,GOL,Grêmio,2,"8,26",9,"1,60","0,00","0,00",0,0,0,6,0,0,0,0,2,0,0,1,1,0,7,0,0,2
Denilson ,ATA,São Paulo,2,"3,03",7,"1,60","0,00","0,00",3,0,1,0,7,3,4,0,0,0,0,0,0,0,0,4,1,20
Jailson ,MEI,Grêmio,2,"3,95",5,"1,60","-0,80","-0,60",2,0,1,0,3,0,0,0,0,0,0,0,0,0,0,1,0,2
Otero ,MEI,Atlético-MG,2,"6,65",8,"1,59","0,00","0,00",5,0,0,0,11,6,2,0,0,0,0,0,2,0,0,4,0,5
Igor ,MEI,Atlético-GO,3,"3,84",8,"1,59","3,60","0,23",13,0,0,0,11,2,4,0,0,0,0,0,3,0,0,23,2,18
Lucas Fernandes ,MEI,São Paulo,2,"3,51",4,"1,55","1,20","0,39",2,0,0,0,2,2,2,0,0,0,0,0,1,0,0,1,0,1
Jorginho ,MEI,Atlético-GO,3,"5,16",11,"1,53","0,00","0,57",14,1,0,0,18,2,1,0,0,0,0,1,1,0,0,15,1,38
Rafael Moura ,ATA,Atlético-MG,2,"5,04",11,"1,52","0,20","0,75",2,2,0,0,15,5,3,1,0,0,0,0,1,1,0,16,9,8
Rafael Carioca ,MEI,Atlético-MG,3,"6,31",12,"1,52","2,70","-0,06",16,0,0,0,16,0,0,0,0,0,0,0,4,0,0,12,0,19
Emerson Sheik ,ATA,Ponte Preta,3,"4,82",8,"1,52","1,00","-0,04",4,0,1,0,26,4,2,0,0,0,0,0,4,0,0,10,0,18
Vitor Bueno ,MEI,Santos,5,"9,29",8,"1,51","0,00","0,00",9,0,0,0,12,4,1,0,0,0,0,0,2,0,0,6,0,20
Conrado ,MEI,Grêmio,2,"2,16",1,"1,50","0,00","0,00",1,0,0,0,2,1,0,0,0,0,0,0,0,0,0,1,1,3
Júlio César ,GOL,Fluminense,3,"5,34",9,"1,50","3,70","0,11",0,0,0,1,5,0,0,0,10,0,0,0,0,0,13,0,0,6
Wesley ,MEI,São Paulo,2,"3,86",3,"1,50","0,00","0,00",3,0,0,0,2,0,0,0,0,0,0,0,0,0,0,2,0,2
Gabriel Xavier ,MEI,Vitória,2,"4,34",7,"1,50","0,00","0,00",6,1,0,0,7,1,2,0,0,0,0,1,0,0,0,9,1,13
Everton Felipe ,MEI,Sport,3,"5,05",9,"1,50","7,30","1,55",7,0,0,0,7,4,8,0,0,0,0,0,1,0,0,11,1,40
Gastón Fernández ,MEI,Grêmio,2,"4,82",4,"1,47","0,00","0,00",0,0,1,0,1,0,1,0,0,0,0,0,0,0,0,0,0,2
Bremer ,ZAG,Atlético-MG,3,"2,67",4,"1,45","3,00","0,72",2,0,0,1,2,0,0,0,0,0,0,0,1,0,0,8,0,2
Alison ,MEI,Santos,2,"3,37",4,"1,45","-0,10","-0,37",4,0,0,0,2,0,0,0,0,0,0,0,0,0,0,2,0,3
Gustavo Ferrareis ,MEI,Bahia,2,"5,70",6,"1,45","0,70","0,18",1,1,0,0,3,3,0,0,0,0,0,0,1,0,0,3,0,6
Thallyson ,LAT,Vitória,2,"1,25",5,"1,44","0,00","0,00",5,0,0,1,2,1,0,0,0,0,0,0,0,0,0,4,0,20
Rafinha ,MEI,Cruzeiro,5,"5,96",7,"1,41","0,00","0,00",7,0,0,0,14,1,0,0,0,0,0,0,0,0,0,8,0,19
Roger Bernardo ,MEI,Atlético-MG,2,"5,99",3,"1,40","0,00","0,00",7,0,0,0,7,0,0,0,0,0,0,0,1,0,0,9,1,14
Fellipe Bastos ,MEI,Corinthians,2,"4,25",1,"1,40","0,00","0,00",0,0,0,0,0,1,1,0,0,0,0,0,0,0,0,0,0,1
Neilton ,ATA,Vitória,2,"4,70",9,"1,40","0,10","-0,26",3,1,1,0,6,2,1,0,0,0,0,0,1,0,0,9,0,15
Bruno Paulista ,MEI,Vasco,5,"6,02",1,"1,40","0,00","0,00",1,0,0,0,1,0,0,0,0,0,0,0,0,0,0,1,0,1
Tiago Real ,MEI,Coritiba,5,"4,95",10,"1,38","0,00","0,00",6,0,2,0,5,2,5,1,0,0,0,0,2,0,0,13,1,26
Berrío  ,ATA,Flamengo,2,"4,32",5,"1,38","0,00","0,00",3,1,0,0,2,1,0,0,0,0,0,0,1,0,0,4,0,13
Nenén ,MEI,Chapecoense,5,"2,45",7,"1,37","0,00","0,00",4,0,0,0,4,1,2,0,0,0,0,0,0,0,0,2,0,3
Matheus Sales ,MEI,Bahia,3,"3,41",5,"1,36","4,50","1,23",5,0,0,0,6,1,0,0,0,0,0,0,2,0,0,7,0,8
Lenis ,ATA,Sport,2,"3,23",5,"1,36","0,00","0,00",4,0,0,0,5,3,2,0,0,0,0,0,1,0,0,5,0,7
Zé Roberto ,LAT,Palmeiras,2,"6,80",6,"1,35","0,00","0,01",4,0,0,2,4,0,0,0,0,0,0,0,1,0,0,12,0,9
Paulão ,ZAG,Vasco,4,"4,39",11,"1,35","0,00","0,00",9,0,1,2,7,6,1,0,0,0,0,0,3,0,0,21,0,25
Hyoran ,MEI,Palmeiras,2,"2,64",2,"1,35","0,00","0,00",2,0,0,0,1,0,1,0,0,0,0,0,0,0,0,2,0,4
Júnior ,ATA,Vitória,2,"1,17",2,"1,35","0,00","0,00",1,0,0,0,3,0,0,0,0,0,0,0,0,0,0,1,0,0
Marcos Vinícius ,MEI,Botafogo,2,"5,57",3,"1,33","5,40","1,09",0,0,0,0,1,0,0,0,0,0,0,0,0,0,0,2,0,3
René ,ZAG,Vitória,1,"2,25",6,"1,33","1,80","0,63",3,0,0,2,3,0,0,0,0,0,0,0,2,0,0,8,0,8
Gilberto ,ATA,São Paulo,2,"3,96",6,"1,32","0,00","-0,24",1,1,0,0,1,3,2,0,0,0,0,0,1,0,0,4,3,3
Willians ,ATA,Avaí,2,"3,73",8,"1,29","0,90","-1,06",6,0,1,0,6,0,1,0,0,0,0,0,0,0,0,14,0,9
Elton ,MEI,Ponte Preta,2,"5,19",10,"1,29","0,00","0,00",15,0,0,0,8,3,1,0,0,0,0,1,0,0,0,14,1,24
Luan ,ATA,Atlético-MG,5,"6,32",3,"1,27","0,00","0,00",2,0,0,0,2,0,1,0,0,0,0,0,0,0,0,2,0,2
Ricardo Oliveira ,ATA,Santos,5,"11,40",4,"1,25","0,00","0,00",0,0,0,0,5,6,2,1,0,0,0,0,1,0,0,7,1,4
Dudu ,ATA,Palmeiras,3,"15,14",6,"1,25","-2,50","-0,40",5,0,0,0,17,1,1,0,0,0,0,0,1,0,0,2,3,14
Henrique ,ZAG,Fluminense,3,"8,31",12,"1,24","1,60","0,04",8,0,0,1,16,1,1,1,0,0,0,0,2,0,0,14,0,25
Tchê Tchê ,MEI,Palmeiras,3,"7,70",12,"1,24","4,30","1,21",11,0,2,0,11,3,3,0,0,0,0,1,2,0,0,21,1,29
Osman ,ATA,Chapecoense,5,"2,99",7,"1,23","0,00","0,00",0,1,1,0,1,4,0,0,0,0,0,0,2,0,0,5,0,4
Douglas Coutinho  ,ATA,Atlético-PR,2,"2,76",11,"1,23","0,00","0,00",5,0,1,0,7,2,5,0,0,0,0,0,0,0,0,7,2,18
Léo Jabá ,ATA,Corinthians,2,"3,68",1,"1,20","0,00","0,00",1,0,0,0,1,0,0,0,0,0,0,0,0,0,0,2,0,0
Airton ,MEI,Botafogo,5,"5,63",3,"1,17","0,00","0,00",3,0,0,0,4,0,0,0,0,0,0,0,0,0,0,3,0,7
Rodrigo ,MEI,Sport,1,"3,54",4,"1,15","0,00","0,00",6,0,0,0,3,0,0,0,0,0,0,0,1,0,0,6,0,7
Wendel ,MEI,Ponte Preta,3,"4,78",10,"1,13","4,50","0,73",2,0,1,0,8,4,0,0,0,0,0,0,2,0,0,6,1,3
Pedrinho ,ATA,Corinthians,2,"1,36",4,"1,12","0,00","0,00",2,0,0,0,0,0,2,0,0,0,0,0,0,0,0,0,0,3
Walisson Maia ,ZAG,Coritiba,3,"5,14",5,"1,12","5,90","2,12",1,0,0,1,1,0,1,0,0,0,1,0,0,0,0,2,0,5
Sassá ,ATA,Cruzeiro,2,"6,53",5,"1,10","2,90","0,21",1,0,0,0,4,0,2,0,0,0,0,0,0,0,0,5,0,2
Luiz Fernando  ,MEI,Fluminense,5,"1,94",2,"1,10","0,00","0,00",1,0,0,0,1,0,0,0,0,0,0,0,0,0,0,0,0,0
Judson ,MEI,Avaí,3,"3,89",12,"1,08","-0,80","-0,24",14,0,1,0,7,5,2,0,0,0,0,0,2,0,0,23,0,29
Murilo ,ZAG,Cruzeiro,3,"1,64",6,"1,08","3,30","0,46",2,0,0,1,2,2,0,0,0,0,0,0,1,0,0,4,0,12
Bruno ,LAT,São Paulo,2,"5,63",4,"1,07","0,00","0,00",3,0,0,1,5,0,0,0,0,0,0,0,1,0,0,3,0,16
Vinicius Junior ,ATA,Flamengo,2,"2,42",10,"1,05","0,00","0,00",2,0,1,0,4,3,6,1,0,0,0,0,1,0,0,5,2,20
Breno ,ZAG,Vasco,5,"2,95",10,"1,04","0,00","0,00",6,0,0,2,6,2,1,0,0,0,0,0,2,0,0,9,0,22
Matheus Mancini ,ZAG,Atlético-MG,2,"1,40",2,"1,00","0,00","0,00",2,0,0,1,0,0,0,0,0,0,0,0,1,0,0,7,0,3
Helton Leite ,GOL,Botafogo,2,"3,32",1,"1,00","0,00","0,00",0,0,0,0,0,0,0,0,1,0,0,0,0,0,1,0,0,0
Zé Ivaldo ,ZAG,Atlético-PR,2,"1,65",2,"0,95","0,00","0,00",0,0,0,1,0,0,0,0,0,0,0,0,1,0,0,1,0,2
Arthur Gomes ,ATA,Santos,2,"1,84",4,"0,95","0,00","0,00",1,0,0,0,5,0,1,0,0,0,0,0,0,0,0,1,0,3
Ederson ,MEI,Flamengo,2,"4,25",5,"0,94","0,00","0,00",2,0,0,0,9,1,1,0,0,0,0,0,0,0,0,5,0,8
Pedro Castro ,MEI,Avaí,1,"1,86",8,"0,94","0,90","0,59",4,0,1,0,10,1,1,0,0,0,0,0,2,0,0,8,0,13
Vinícius Eutrópio ,TEC,Chapecoense,3,"6,95",2,"0,93","-0,14","-0,93",0,0,0,0,0,0,0,0,0,0,0,0,0,0,0,0,0,0
Eduardo Henrique ,MEI,Atlético-PR,3,"2,78",3,"0,93","4,00","0,93",0,0,0,0,2,0,0,0,0,0,0,0,0,0,0,2,0,4
Cascardo ,LAT,Atlético-PR,2,"2,44",3,"0,93","0,00","-0,28",2,0,0,0,4,0,0,0,0,0,0,0,0,0,0,1,0,7
Luiz Fernando  ,MEI,Atlético-GO,2,"2,59",11,"0,93","0,00","0,00",4,1,0,0,11,2,4,0,0,0,0,0,1,0,0,11,4,20
Douglas ,ZAG,São Paulo,2,"3,28",1,"0,90","0,00","0,00",1,0,0,0,0,0,0,0,0,0,0,0,0,0,0,1,0,1
Negueba ,ATA,Ponte Preta,2,"4,73",3,"0,90","0,00","0,00",4,0,0,0,3,0,0,0,0,0,0,0,1,0,0,3,0,7
Paulo André ,ZAG,Atlético-PR,2,"3,37",6,"0,85","0,00","0,00",8,0,0,0,6,0,0,0,0,0,0,0,2,0,0,6,0,15
Jonathan ,LAT,Atlético-GO,2,"1,94",2,"0,85","0,00","0,00",1,0,0,0,1,0,1,0,0,0,0,0,0,0,0,0,0,5
Andrey ,MEI,Vasco,2,"0,79",2,"0,85","-2,00","-0,77",1,0,0,0,4,2,0,0,0,0,0,0,0,0,0,1,0,3
Maicon ,MEI,Grêmio,5,"7,99",6,"0,80","0,00","0,00",4,0,0,0,5,0,0,0,0,0,0,0,0,0,0,3,0,10
Henrique ,MEI,Cruzeiro,3,"4,64",8,"0,80","3,40","-0,24",9,0,0,0,6,1,1,0,0,0,0,1,2,0,0,7,0,15
Xuxa ,MEI,Ponte Preta,2,"2,25",3,"0,80","1,30","-0,19",1,0,0,0,0,0,0,0,0,0,0,0,0,0,0,0,0,2
Ramon ,ZAG,Vitória,3,"3,49",4,"0,80","-0,30","0,15",1,0,0,1,2,0,0,0,0,0,0,0,1,0,0,2,0,4
Fábio Santos ,LAT,Atlético-MG,3,"1,35",11,"0,78","-2,70","-1,15",10,0,0,2,21,4,0,0,0,0,0,0,5,0,0,15,2,35
Lucas Fernandes ,ATA,Fluminense,1,"3,81",4,"0,78","0,50","0,15",2,0,0,0,1,1,0,0,0,0,0,0,0,0,0,1,0,5
Martín Silva ,GOL,Vasco,3,"7,28",13,"0,77","6,30","1,06",0,0,0,2,1,0,0,0,15,0,0,0,2,0,23,0,0,6
Nicolas ,LAT,Atlético-PR,1,"3,55",5,"0,76","-2,30","-0,45",2,0,0,2,0,0,0,0,0,0,0,0,1,0,0,4,0,11
Lucas Lima ,MEI,Santos,4,"2,79",7,"0,75","0,00","0,00",6,0,1,0,13,3,2,0,0,0,0,0,3,0,0,13,0,27
Léo ,LAT,Fluminense,2,"3,67",10,"0,74","0,00","0,00",7,0,1,1,5,0,1,0,0,0,0,0,1,0,0,18,2,20
Michel Bastos ,MEI,Palmeiras,2,"4,75",7,"0,72","0,00","0,00",6,0,0,0,4,8,2,0,0,0,0,0,2,0,0,4,2,26
Wellington Simião ,MEI,Avaí,3,"1,98",10,"0,72","-0,70","-1,04",3,1,0,0,11,3,0,0,0,0,0,0,1,0,0,11,1,16
Jadson ,MEI,Ponte Preta,3,"3,92",9,"0,71","1,90","0,36",7,0,0,0,6,2,0,0,0,0,0,0,2,0,0,6,0,16
Lugano ,ZAG,São Paulo,2,"4,17",4,"0,70","0,00","0,00",4,0,0,1,2,3,1,0,0,0,0,0,2,0,0,11,0,12
Douglas ,ATA,Bahia,2,"1,11",1,"0,70","0,00","0,00",0,0,0,0,2,0,0,0,0,0,0,0,0,0,0,0,0,1
Pachu ,ATA,Botafogo,2,"1,63",2,"0,70","0,00","0,00",0,0,0,0,0,2,0,0,0,0,0,0,0,0,0,0,0,0
Yuri ,ATA,Ponte Preta,2,"1,05",3,"0,70","1,40","0,18",0,0,0,0,1,1,1,0,0,0,0,0,0,0,0,3,0,0
Marquinhos ,MEI,Avaí,1,"3,78",9,"0,68","6,80","0,97",3,0,0,0,9,3,4,0,0,0,0,1,0,0,0,3,0,33
Camilo ,MEI,Botafogo,2,"8,72",7,"0,66","-0,80","-0,39",1,0,0,0,6,5,2,0,0,0,0,0,0,0,0,3,0,11
Yago ,MEI,Atlético-MG,1,"1,62",8,"0,66","0,70","-0,16",10,0,0,0,5,1,2,0,0,0,0,0,3,0,0,13,0,17
Wagner ,MEI,Vasco,3,"4,02",5,"0,64","-3,40","-0,73",0,1,0,0,0,0,0,0,0,0,0,0,0,0,0,1,0,3
Walter ,ATA,Atlético-GO,3,"7,02",8,"0,64","-0,90","-0,21",1,1,0,0,10,5,3,0,0,0,0,0,1,0,0,10,2,24
Adilson ,MEI,Atlético-MG,1,"4,54",5,"0,62","0,00","0,00",5,0,0,0,1,1,0,0,0,0,0,0,0,0,0,9,0,7
Escudero ,MEI,Vasco,3,"3,97",2,"0,60","1,20","0,08",0,0,0,0,0,0,0,0,0,0,0,0,0,0,0,0,0,0
Camacho ,MEI,Corinthians,2,"3,87",9,"0,60","-0,30","-0,38",4,0,0,0,2,1,0,0,0,0,0,0,0,0,0,2,0,6
Araruna ,MEI,São Paulo,2,"1,73",2,"0,55","0,00","0,00",2,0,0,0,2,0,0,0,0,0,0,0,0,0,0,3,0,6
Felipe Saraiva ,MEI,Ponte Preta,2,"0,89",3,"0,53","0,20","0,01",1,0,0,0,1,0,1,0,0,0,0,0,0,0,0,3,0,1
Júnior Viçosa ,ATA,Atlético-GO,2,"3,85",7,"0,53","0,00","0,00",0,0,0,0,4,4,4,0,0,0,0,0,0,0,0,2,4,7
Lennon ,LAT,Cruzeiro,1,"4,03",3,"0,53","0,00","0,00",2,0,0,1,1,0,0,0,0,0,0,0,1,0,0,4,0,11
Léo Natel ,ATA,São Paulo,2,"0,92",1,"0,50","0,00","0,00",0,0,0,0,1,0,0,0,0,0,0,0,0,0,0,0,0,0
Iury ,ATA,Avaí,2,"1,68",1,"0,50","0,00","0,00",0,0,0,0,1,0,0,0,0,0,0,0,0,0,0,0,0,0
Pepê ,ATA,Grêmio,2,"0,97",1,"0,50","0,00","0,00",0,0,0,0,1,0,0,0,0,0,0,0,0,0,0,0,0,0
Nonoca ,MEI,Cruzeiro,2,"1,68",1,"0,50","0,50","-0,32",0,0,0,0,0,0,0,0,0,0,0,0,0,0,0,0,0,0
Matheus Iacovelli ,ATA,Palmeiras,2,"1,68",1,"0,50","0,00","0,00",0,0,0,0,1,0,0,0,0,0,0,0,0,0,0,0,0,0
Anderson ,MEI,Coritiba,3,"4,09",4,"0,48","1,90","0,29",2,0,0,0,5,0,2,0,0,0,0,0,1,0,0,4,0,13
Deivid ,MEI,Atlético-PR,2,"5,04",5,"0,48","0,00","0,00",2,0,0,0,5,0,0,1,0,0,0,0,2,0,0,3,0,5
André Castro ,MEI,Atlético-GO,3,"1,17",10,"0,48","-1,20","-0,34",10,0,0,0,5,1,1,0,0,0,0,0,2,0,0,11,1,17
Thiago Ribeiro ,ATA,Santos,3,"5,27",3,"0,47","-0,90","-0,49",2,0,0,0,2,1,1,0,0,0,0,0,0,0,0,3,1,6
Marcos Junior ,ATA,Fluminense,4,"2,42",7,"0,47","0,00","0,00",1,1,0,0,5,1,1,0,0,0,0,0,3,0,0,3,2,7
Nogueira ,ZAG,Fluminense,2,"1,97",4,"0,47","0,00","0,00",1,0,0,0,3,0,2,1,0,0,0,0,2,0,0,2,0,6
Muriqui ,ATA,Vasco,2,"3,56",2,"0,45","0,00","0,00",0,0,0,0,3,0,0,0,0,0,0,0,0,0,0,0,0,2
Lins ,ATA,Ponte Preta,2,"3,56",10,"0,45","0,00","0,00",4,0,1,0,9,2,2,0,0,0,0,0,0,0,0,16,1,22
Ralph ,MEI,Atlético-MG,2,"1,04",4,"0,45","0,00","0,00",5,0,0,0,4,0,0,0,0,0,0,0,3,0,0,3,0,4
Lucas Silva ,MEI,Cruzeiro,3,"5,13",5,"0,44","2,20","0,45",1,0,0,0,4,0,0,0,0,0,0,0,0,0,0,5,0,4
Capixaba ,ATA,Atlético-MG,2,"0,87",1,"0,40","0,00","0,00",0,0,0,0,1,0,1,0,0,0,0,0,0,0,0,1,0,2
Fabrício ,MEI,Sport,2,"1,39",6,"0,37","0,00","0,00",1,0,1,0,2,2,2,0,0,0,0,0,1,0,0,2,1,18
Léo ,LAT,Coritiba,2,"4,55",3,"0,33","0,00","0,00",4,0,0,0,2,0,0,0,0,0,0,0,1,0,0,6,0,6
Léo Artur ,MEI,Ponte Preta,1,"2,04",8,"0,31","0,00","0,00",1,0,1,0,4,4,3,0,0,0,0,0,0,0,0,10,2,20
Rafael Marques ,ZAG,Vasco,3,"2,47",5,"0,30","4,20","0,88",2,0,0,0,1,0,0,0,0,0,0,0,0,0,0,6,0,12
Bryan ,LAT,Cruzeiro,2,"3,93",1,"0,30","0,00","0,00",1,0,0,0,1,0,0,0,0,0,0,0,0,0,0,2,0,3
Claudinho ,ATA,Ponte Preta,1,"1,35",8,"0,29","3,60","0,56",0,0,0,0,3,4,1,0,0,0,0,0,0,0,0,8,1,7
Ricardo Silva ,ZAG,Atlético-GO,2,"2,94",4,"0,28","0,00","0,00",5,0,0,0,1,2,0,0,0,0,0,0,1,0,0,8,0,11
Leandro Donizete ,MEI,Santos,3,"4,15",5,"0,28","-0,90","-0,14",3,0,0,0,3,1,0,0,0,0,0,0,1,0,0,3,0,5
Thalis  ,MEI,Atlético-MG,2,"0,81",1,"0,20","0,00","0,00",0,0,0,0,1,0,0,0,0,0,0,0,0,0,0,0,0,1
Brenner ,ATA,São Paulo,2,"0,86",1,"0,20","0,00","0,00",0,0,0,0,1,0,0,0,0,0,0,0,0,0,0,0,0,1
Lucas Otávio  ,MEI,Avaí,2,"3,02",3,"0,20","1,20","-0,13",0,0,0,0,0,0,0,0,0,0,0,0,0,0,0,0,0,2
Lucas ,LAT,Fluminense,3,"2,37",11,"0,18","2,60","-0,08",10,0,0,0,7,4,0,0,0,0,0,0,1,0,0,24,3,28
Lincoln ,MEI,Grêmio,2,"2,75",4,"0,17","0,00","0,00",0,0,0,0,7,0,0,0,0,0,0,0,0,0,0,2,0,6
Iago ,ATA,Coritiba,2,"4,72",7,"0,16","2,20","0,25",0,0,0,0,3,1,0,0,0,0,0,0,0,0,0,2,1,6
Paulinho ,ATA,Vitória,2,"3,44",8,"0,15","-0,30","-0,50",3,0,0,0,3,5,4,1,0,0,0,0,3,0,0,6,1,22
Erazo ,ZAG,Atlético-MG,5,"3,98",2,"0,15","0,00","0,00",0,0,0,1,0,0,0,0,0,0,0,0,1,0,0,3,0,4
Jandrei ,GOL,Chapecoense,3,"3,80",13,"0,11","-0,60","-0,24",0,0,0,3,5,0,0,0,12,0,0,0,1,0,23,0,0,12
Perotti ,ATA,Chapecoense,2,"1,57",1,"0,10","0,00","0,00",0,0,0,0,2,1,0,0,0,0,0,0,0,0,0,2,0,2
Jonatan Gomez ,MEI,São Paulo,3,"4,55",2,"0,10","0,00","-0,22",0,0,0,0,4,1,0,0,0,0,0,0,0,0,0,2,0,5
Kelly ,TEC,Atlético-PR,3,"7,78",1,"0,09","0,09","-2,04",0,0,0,0,0,0,0,0,0,0,0,0,0,0,0,0,0,0
Raphael Veiga ,MEI,Palmeiras,2,"4,09",6,"0,08","0,00","0,00",0,0,0,0,5,2,1,0,0,0,0,0,1,0,0,3,0,3
Túlio de Melo ,ATA,Chapecoense,5,"3,38",7,"0,06","0,00","0,00",0,0,0,0,2,2,1,0,0,0,0,0,0,0,0,3,0,5
Salazar ,ZAG,Avaí,2,"3,00",0,"0,00","0,00","0,00",0,0,0,0,0,0,0,0,0,0,0,0,0,0,0,0,0,0
Andrei Alba ,MEI,Chapecoense,5,"2,00",0,"0,00","0,00","0,00",0,0,0,0,0,0,0,0,0,0,0,0,0,0,0,0,0,0
Cristian ,MEI,Corinthians,2,"4,00",0,"0,00","0,00","0,00",0,0,0,0,0,0,0,0,0,0,0,0,0,0,0,0,0,0
John Victor ,GOL,Santos,2,"1,00",0,"0,00","0,00","0,00",0,0,0,0,0,0,0,0,0,0,0,0,0,0,0,0,0,0
Lucas França ,GOL,Cruzeiro,2,"3,00",0,"0,00","0,00","0,00",0,0,0,0,0,0,0,0,0,0,0,0,0,0,0,0,0,0
Scalon ,ZAG,Chapecoense,2,"2,00",0,"0,00","0,00","0,00",0,0,0,0,0,0,0,0,0,0,0,0,0,0,0,0,0,0
Marcelo Mattos ,MEI,Vasco,5,"4,00",0,"0,00","0,00","0,00",0,0,0,0,0,0,0,0,0,0,0,0,0,0,0,0,0,0
Diego Gomes ,MEI,Santos,2,"1,00",0,"0,00","0,00","0,00",0,0,0,0,0,0,0,0,0,0,0,0,0,0,0,0,0,0
Nilmar ,ATA,Santos,2,"8,00",0,"0,00","0,00","0,00",0,0,0,0,0,0,0,0,0,0,0,0,0,0,0,0,0,0
Luis Guilherme ,ATA,Atlético-MG,2,"2,00",0,"0,00","0,00","0,00",0,0,0,0,0,0,0,0,0,0,0,0,0,0,0,0,0,0
Danilo ,MEI,Corinthians,2,"5,00",0,"0,00","0,00","0,00",0,0,0,0,0,0,0,0,0,0,0,0,0,0,0,0,0,0
Arouca ,MEI,Palmeiras,5,"6,00",0,"0,00","0,00","0,00",0,0,0,0,0,0,0,0,0,0,0,0,0,0,0,0,0,0
Artur Moraes ,GOL,Chapecoense,2,"6,00",0,"0,00","0,00","0,00",0,0,0,0,0,0,0,0,0,0,0,0,0,0,0,0,0,0
Pierre ,MEI,Fluminense,5,"3,54",1,"0,00","0,00","0,00",0,0,0,0,0,0,0,0,0,0,0,0,0,0,0,0,0,0
Fábio Ferreira ,ZAG,Ponte Preta,2,"5,00",0,"0,00","0,00","0,00",0,0,0,0,0,0,0,0,0,0,0,0,0,0,0,0,0,0
Eder Luis ,ATA,Vasco,2,"2,34",1,"0,00","0,00","0,00",0,0,0,0,0,0,0,0,0,0,0,0,0,0,0,0,0,0
Matheus ,GOL,Avaí,2,"1,00",0,"0,00","0,00","0,00",0,0,0,0,0,0,0,0,0,0,0,0,0,0,0,0,0,0
Lucas Rocha ,ZAG,Vasco,2,"2,00",0,"0,00","0,00","0,00",0,0,0,0,0,0,0,0,0,0,0,0,0,0,0,0,0,0
Lucas Ferreira ,GOL,Sport,2,"1,00",0,"0,00","0,00","0,00",0,0,0,0,0,0,0,0,0,0,0,0,0,0,0,0,0,0
Devid ,ATA,Avaí,2,"1,00",0,"0,00","0,00","0,00",0,0,0,0,0,0,0,0,0,0,0,0,0,0,0,0,0,0
Bruno Grassi ,GOL,Grêmio,2,"4,00",0,"0,00","0,00","0,00",0,0,0,0,0,0,0,0,0,0,0,0,0,0,0,0,0,0
Lima ,MEI,Chapecoense,2,"1,00",0,"0,00","0,00","0,00",0,0,0,0,0,0,0,0,0,0,0,0,0,0,0,0,0,0
César ,LAT,Atlético-MG,2,"1,00",0,"0,00","0,00","0,00",0,0,0,0,0,0,0,0,0,0,0,0,0,0,0,0,0,0
Léo ,LAT,Avaí,2,"1,00",0,"0,00","0,00","0,00",0,0,0,0,0,0,0,0,0,0,0,0,0,0,0,0,0,0
Deijair  ,GOL,Bahia,2,"1,00",0,"0,00","0,00","0,00",0,0,0,0,0,0,0,0,0,0,0,0,0,0,0,0,0,0
Lucão ,GOL,Cruzeiro,2,"1,00",0,"0,00","0,00","0,00",0,0,0,0,0,0,0,0,0,0,0,0,0,0,0,0,0,0
Juninho Capixaba ,LAT,Bahia,1,"2,00",0,"0,00","0,00","0,00",0,0,0,0,0,0,0,0,0,0,0,0,0,0,0,0,0,0
Douglas ,MEI,Grêmio,5,"14,00",0,"0,00","0,00","0,00",0,0,0,0,0,0,0,0,0,0,0,0,0,0,0,0,0,0
Marco Antônio ,MEI,Bahia,2,"3,00",0,"0,00","0,00","0,00",0,0,0,0,0,0,0,0,0,0,0,0,0,0,0,0,0,0
Kaynan ,ATA,Bahia,2,"1,00",0,"0,00","0,00","0,00",0,0,0,0,0,0,0,0,0,0,0,0,0,0,0,0,0,0
Caio César ,MEI,Avaí,2,"3,00",0,"0,00","0,00","0,00",0,0,0,0,0,0,0,0,0,0,0,0,0,0,0,0,0,0
Jacy ,ZAG,Atlético-PR,2,"1,00",0,"0,00","0,00","0,00",0,0,0,0,0,0,0,0,0,0,0,0,0,0,0,0,0,0
Rafael ,ZAG,Flamengo,2,"1,00",0,"0,00","0,00","0,00",0,0,0,0,0,0,0,0,0,0,0,0,0,0,0,0,0,0
Murillo ,ATA,Atlético-PR,2,"1,00",0,"0,00","0,00","0,00",0,0,0,0,0,0,0,0,0,0,0,0,0,0,0,0,0,0
Maílson ,GOL,Sport,2,"1,00",0,"0,00","0,00","0,00",0,0,0,0,0,0,0,0,0,0,0,0,0,0,0,0,0,0
Luiz Felipe ,MEI,Atlético-GO,2,"2,00",0,"0,00","0,00","0,00",0,0,0,0,0,0,0,0,0,0,0,0,0,0,0,0,0,0
Caio ,LAT,Sport,2,"2,00",0,"0,00","0,00","0,00",0,0,0,0,0,0,0,0,0,0,0,0,0,0,0,0,0,0
Rodrigo Pelezinho ,ATA,Chapecoense,2,"2,00",0,"0,00","0,00","0,00",0,0,0,0,0,0,0,0,0,0,0,0,0,0,0,0,0,0
Cedric ,LAT,Vitória,2,"2,00",0,"0,00","0,00","0,00",0,0,0,0,0,0,0,0,0,0,0,0,0,0,0,0,0,0
Evanderson ,MEI,Atlético-GO,2,"1,00",0,"0,00","0,00","0,00",0,0,0,0,0,0,0,0,0,0,0,0,0,0,0,0,0,0
Lucas Silva ,ATA,Flamengo,2,"2,00",0,"0,00","0,00","0,00",0,0,0,0,0,0,0,0,0,0,0,0,0,0,0,0,0,0
Patrick Luan ,ATA,Fluminense,2,"1,00",0,"0,00","0,00","0,00",0,0,0,0,0,0,0,0,0,0,0,0,0,0,0,0,0,0
Loran  ,ATA,Flamengo,2,"1,00",0,"0,00","0,00","0,00",0,0,0,0,0,0,0,0,0,0,0,0,0,0,0,0,0,0
Patrick Correia ,ATA,Sport,2,"1,00",0,"0,00","0,00","0,00",0,0,0,0,0,0,0,0,0,0,0,0,0,0,0,0,0,0
Gabriel Batista ,GOL,Flamengo,2,"1,00",0,"0,00","0,00","0,00",0,0,0,0,0,0,0,0,0,0,0,0,0,0,0,0,0,0
Emanuel ,LAT,Atlético-MG,2,"1,00",0,"0,00","0,00","0,00",0,0,0,0,0,0,0,0,0,0,0,0,0,0,0,0,0,0
João Pedro ,ATA,Atlético-GO,2,"4,00",0,"0,00","0,00","0,00",0,0,0,0,0,0,0,0,0,0,0,0,0,0,0,0,0,0
Cláudio Vitor ,GOL,Avaí,2,"1,00",0,"0,00","0,00","0,00",0,0,0,0,0,0,0,0,0,0,0,0,0,0,0,0,0,0
Flávio ,ATA,Atlético-MG,2,"1,00",0,"0,00","0,00","0,00",0,0,0,0,0,0,0,0,0,0,0,0,0,0,0,0,0,0
Marcelo ,ATA,Atlético-PR,2,"2,00",0,"0,00","0,00","0,00",0,0,0,0,0,0,0,0,0,0,0,0,0,0,0,0,0,0
Luís Fernando ,MEI,Bahia,2,"3,00",0,"0,00","0,00","0,00",0,0,0,0,0,0,0,0,0,0,0,0,0,0,0,0,0,0
Derlan ,ZAG,Fluminense,2,"1,00",0,"0,00","0,00","0,00",0,0,0,0,0,0,0,0,0,0,0,0,0,0,0,0,0,0
João Victor ,MEI,Sport,2,"2,00",0,"0,00","0,00","0,00",0,0,0,0,0,0,0,0,0,0,0,0,0,0,0,0,0,0
Riuler ,LAT,Atlético-PR,2,"2,00",0,"0,00","0,00","0,00",0,0,0,0,0,0,0,0,0,0,0,0,0,0,0,0,0,0
João Erick ,MEI,Sport,2,"2,00",0,"0,00","0,00","0,00",0,0,0,0,0,0,0,0,0,0,0,0,0,0,0,0,0,0
Pedro Henryque ,ZAG,Sport,2,"2,00",0,"0,00","0,00","0,00",0,0,0,0,0,0,0,0,0,0,0,0,0,0,0,0,0,0
Dayvid ,LAT,Sport,2,"1,00",0,"0,00","0,00","0,00",0,0,0,0,0,0,0,0,0,0,0,0,0,0,0,0,0,0
Pedro Bortoluzo ,ATA,São Paulo,2,"3,00",0,"0,00","0,00","0,00",0,0,0,0,0,0,0,0,0,0,0,0,0,0,0,0,0,0
Elias ,LAT,Sport,2,"2,00",0,"0,00","0,00","0,00",0,0,0,0,0,0,0,0,0,0,0,0,0,0,0,0,0,0
Pedro Vitor ,ATA,Sport,2,"1,00",0,"0,00","0,00","0,00",0,0,0,0,0,0,0,0,0,0,0,0,0,0,0,0,0,0
Alesandro ,ZAG,Sport,2,"1,00",0,"0,00","0,00","0,00",0,0,0,0,0,0,0,0,0,0,0,0,0,0,0,0,0,0
Henrique ,ZAG,Avaí,2,"3,00",0,"0,00","0,00","0,00",0,0,0,0,0,0,0,0,0,0,0,0,0,0,0,0,0,0
Matheus Bezerra ,MEI,Sport,2,"1,00",0,"0,00","0,00","0,00",0,0,0,0,0,0,0,0,0,0,0,0,0,0,0,0,0,0
Lucas Índio ,ATA,Atlético-MG,2,"1,00",0,"0,00","0,00","0,00",0,0,0,0,0,0,0,0,0,0,0,0,0,0,0,0,0,0
Lucas Vinícius ,ATA,Atlético-GO,2,"1,00",0,"0,00","0,00","0,00",0,0,0,0,0,0,0,0,0,0,0,0,0,0,0,0,0,0
Vinícius ,MEI,Sport,2,"2,00",0,"0,00","0,00","0,00",0,0,0,0,0,0,0,0,0,0,0,0,0,0,0,0,0,0
Borges ,MEI,Atlético-GO,2,"1,00",0,"0,00","0,00","0,00",0,0,0,0,0,0,0,0,0,0,0,0,0,0,0,0,0,0
Alexsander ,MEI,Atlético-PR,2,"1,00",0,"0,00","0,00","0,00",0,0,0,0,0,0,0,0,0,0,0,0,0,0,0,0,0,0
Felipe ,ATA,Fluminense,2,"1,00",0,"0,00","0,00","0,00",0,0,0,0,0,0,0,0,0,0,0,0,0,0,0,0,0,0
Daniel ,ZAG,Atlético-PR,2,"1,00",0,"0,00","0,00","0,00",0,0,0,0,0,0,0,0,0,0,0,0,0,0,0,0,0,0
Caio ,GOL,Atlético-PR,2,"1,00",0,"0,00","0,00","0,00",0,0,0,0,0,0,0,0,0,0,0,0,0,0,0,0,0,0
Diego ,GOL,Botafogo,2,"1,00",0,"0,00","0,00","0,00",0,0,0,0,0,0,0,0,0,0,0,0,0,0,0,0,0,0
Fernando ,LAT,Botafogo,2,"1,00",0,"0,00","0,00","0,00",0,0,0,0,0,0,0,0,0,0,0,0,0,0,0,0,0,0
Wenderson ,MEI,Botafogo,2,"0,76",1,"0,00","0,00","0,00",0,0,0,0,0,0,0,0,0,0,0,0,0,0,0,0,0,0
Jadson ,ATA,Grêmio,2,"1,00",0,"0,00","0,00","0,00",0,0,0,0,0,0,0,0,0,0,0,0,0,0,0,0,0,0
Esperon ,MEI,Grêmio,2,"1,00",0,"0,00","0,00","0,00",0,0,0,0,0,0,0,0,0,0,0,0,0,0,0,0,0,0
Vinicius ,ZAG,Vitória,2,"2,00",0,"0,00","0,00","0,00",0,0,0,0,0,0,0,0,0,0,0,0,0,0,0,0,0,0
Igor Cássio ,ATA,Botafogo,2,"1,00",0,"0,00","0,00","0,00",0,0,0,0,0,0,0,0,0,0,0,0,0,0,0,0,0,0
Arthur ,ZAG,Cruzeiro,2,"1,00",0,"0,00","0,00","0,00",0,0,0,0,0,0,0,0,0,0,0,0,0,0,0,0,0,0
José Welison ,MEI,Vitória,5,"4,00",0,"0,00","0,00","0,00",0,0,0,0,0,0,0,0,0,0,0,0,0,0,0,0,0,0
Jonas ,LAT,Botafogo,5,"6,00",0,"0,00","0,00","0,00",0,0,0,0,0,0,0,0,0,0,0,0,0,0,0,0,0,0
Júnior Ramos ,MEI,Bahia,2,"1,00",0,"0,00","0,00","0,00",0,0,0,0,0,0,0,0,0,0,0,0,0,0,0,0,0,0
Amaral ,MEI,Chapecoense,5,"5,00",0,"0,00","0,00","0,00",0,0,0,0,0,0,0,0,0,0,0,0,0,0,0,0,0,0
Fabrício ,LAT,Cruzeiro,2,"5,00",0,"0,00","0,00","0,00",0,0,0,0,0,0,0,0,0,0,0,0,0,0,0,0,0,0
Luis Ricardo ,LAT,Botafogo,2,"8,00",0,"0,00","0,00","0,00",0,0,0,0,0,0,0,0,0,0,0,0,0,0,0,0,0,0
Ferdinando ,MEI,Avaí,2,"5,00",0,"0,00","0,00","0,00",0,0,0,0,0,0,0,0,0,0,0,0,0,0,0,0,0,0
João Paulo ,MEI,Coritiba,2,"7,00",0,"0,00","0,00","0,00",0,0,0,0,0,0,0,0,0,0,0,0,0,0,0,0,0,0
Julio dos Santos ,MEI,Vasco,2,"5,00",0,"0,00","0,00","0,00",0,0,0,0,0,0,0,0,0,0,0,0,0,0,0,0,0,0
Jael ,ATA,Grêmio,5,"5,00",0,"0,00","0,00","0,00",0,0,0,0,0,0,0,0,0,0,0,0,0,0,0,0,0,0
Edimar ,LAT,São Paulo,2,"5,00",0,"0,00","0,00","0,00",0,0,0,0,0,0,0,0,0,0,0,0,0,0,0,0,0,0
Léo ,LAT,Atlético-PR,2,"1,00",0,"0,00","0,00","0,00",0,0,0,0,0,0,0,0,0,0,0,0,0,0,0,0,0,0
Dionathã ,ATA,Grêmio,2,"1,00",0,"0,00","0,00","0,00",0,0,0,0,0,0,0,0,0,0,0,0,0,0,0,0,0,0
Ricardo ,ZAG,Vasco,2,"2,00",0,"0,00","0,00","0,00",0,0,0,0,0,0,0,0,0,0,0,0,0,0,0,0,0,0
Léo Passos ,ATA,Palmeiras,2,"2,00",0,"0,00","0,00","0,00",0,0,0,0,0,0,0,0,0,0,0,0,0,0,0,0,0,0
Gum ,ZAG,Fluminense,5,"7,00",0,"0,00","0,00","0,00",0,0,0,0,0,0,0,0,0,0,0,0,0,0,0,0,0,0
Wellington Silva ,LAT,Bahia,5,"7,00",0,"0,00","0,00","0,00",0,0,0,0,0,0,0,0,0,0,0,0,0,0,0,0,0,0
João Paulo ,LAT,Avaí,2,"4,00",0,"0,00","0,00","0,00",0,0,0,0,0,0,0,0,0,0,0,0,0,0,0,0,0,0
Renan Fonseca ,ZAG,Botafogo,2,"3,00",0,"0,00","0,00","0,00",0,0,0,0,0,0,0,0,0,0,0,0,0,0,0,0,0,0
Alan Ruschel ,LAT,Chapecoense,2,"3,00",0,"0,00","0,00","0,00",0,0,0,0,0,0,0,0,0,0,0,0,0,0,0,0,0,0
Jailson ,GOL,Palmeiras,2,"8,00",0,"0,00","0,00","0,00",0,0,0,0,0,0,0,0,0,0,0,0,0,0,0,0,0,0
Moisés ,MEI,Palmeiras,5,"10,00",0,"0,00","0,00","0,00",0,0,0,0,0,0,0,0,0,0,0,0,0,0,0,0,0,0
Hernane ,ATA,Bahia,5,"10,00",0,"0,00","0,00","0,00",0,0,0,0,0,0,0,0,0,0,0,0,0,0,0,0,0,0
William Menezes ,GOL,Coritiba,2,"2,00",0,"0,00","0,00","0,00",0,0,0,0,0,0,0,0,0,0,0,0,0,0,0,0,0,0
Cárdenas ,MEI,Vitória,2,"6,00",0,"0,00","0,00","0,00",0,0,0,0,0,0,0,0,0,0,0,0,0,0,0,0,0,0
Rafael Martins ,GOL,Coritiba,2,"2,00",0,"0,00","0,00","0,00",0,0,0,0,0,0,0,0,0,0,0,0,0,0,0,0,0,0
Rafael Santos ,GOL,Bahia,2,"3,00",0,"0,00","0,00","0,00",0,0,0,0,0,0,0,0,0,0,0,0,0,0,0,0,0,0
Douglas Pires ,GOL,Bahia,2,"4,00",0,"0,00","0,00","0,00",0,0,0,0,0,0,0,0,0,0,0,0,0,0,0,0,0,0
Rafael ,GOL,Cruzeiro,2,"10,00",0,"0,00","0,00","0,00",0,0,0,0,0,0,0,0,0,0,0,0,0,0,0,0,0,0
Giovanni ,GOL,Atlético-MG,2,"6,00",0,"0,00","0,00","0,00",0,0,0,0,0,0,0,0,0,0,0,0,0,0,0,0,0,0
Gustavo Santos ,LAT,Avaí,2,"1,00",0,"0,00","0,00","0,00",0,0,0,0,0,0,0,0,0,0,0,0,0,0,0,0,0,0
João Vitor ,MEI,Ponte Preta,5,"5,00",0,"0,00","0,00","0,00",0,0,0,0,0,0,0,0,0,0,0,0,0,0,0,0,0,0
João Carlos ,GOL,Ponte Preta,2,"5,00",0,"0,00","0,00","0,00",0,0,0,0,0,0,0,0,0,0,0,0,0,0,0,0,0,0
Yago ,ZAG,Ponte Preta,5,"6,00",0,"0,00","0,00","0,00",0,0,0,0,0,0,0,0,0,0,0,0,0,0,0,0,0,0
Neto ,ZAG,Chapecoense,5,"5,00",0,"0,00","0,00","0,00",0,0,0,0,0,0,0,0,0,0,0,0,0,0,0,0,0,0
Manoel ,ZAG,Cruzeiro,2,"10,00",0,"0,00","0,00","0,00",0,0,0,0,0,0,0,0,0,0,0,0,0,0,0,0,0,0
Vladimir ,GOL,Santos,2,"4,00",0,"0,00","0,00","0,00",0,0,0,0,0,0,0,0,0,0,0,0,0,0,0,0,0,0
César ,GOL,Flamengo,2,"3,00",0,"0,00","0,00","0,00",0,0,0,0,0,0,0,0,0,0,0,0,0,0,0,0,0,0
Gustavo Henrique ,ZAG,Santos,5,"6,00",0,"0,00","0,00","0,00",0,0,0,0,0,0,0,0,0,0,0,0,0,0,0,0,0,0
Marcos ,GOL,Atlético-GO,2,"1,00",0,"0,00","0,00","0,00",0,0,0,0,0,0,0,0,0,0,0,0,0,0,0,0,0,0
Gabriel Gasparotto ,GOL,Santos,2,"2,00",0,"0,00","0,00","0,00",0,0,0,0,0,0,0,0,0,0,0,0,0,0,0,0,0,0
Jackson ,ZAG,Bahia,5,"7,00",0,"0,00","0,00","0,00",0,0,0,0,0,0,0,0,0,0,0,0,0,0,0,0,0,0
Moisés Ribeiro ,MEI,Chapecoense,2,"3,14",1,"0,00","0,00","0,00",0,0,0,0,0,0,0,0,0,0,0,0,0,0,0,0,0,0
Luiz Felipe ,ZAG,Santos,5,"5,00",0,"0,00","0,00","0,00",0,0,0,0,0,0,0,0,0,0,0,0,0,0,0,0,0,0
Baumjohann ,MEI,Coritiba,2,"5,00",0,"0,00","0,00","0,00",0,0,0,0,0,0,0,0,0,0,0,0,0,0,0,0,0,0
Gabriel ,ZAG,Grêmio,2,"1,00",0,"0,00","0,00","0,00",0,0,0,0,0,0,0,0,0,0,0,0,0,0,0,0,0,0
Matheus Vidotto ,GOL,Corinthians,2,"3,00",0,"0,00","0,00","0,00",0,0,0,0,0,0,0,0,0,0,0,0,0,0,0,0,0,0
Paulo Henrique ,ATA,Sport,2,"3,00",0,"0,00","0,00","0,00",0,0,0,0,0,0,0,0,0,0,0,0,0,0,0,0,0,0
Wanderson ,LAT,Atlético-GO,2,"4,00",0,"0,00","0,00","0,00",0,0,0,0,0,0,0,0,0,0,0,0,0,0,0,0,0,0
Michael ,ATA,Fluminense,2,"2,00",0,"0,00","0,00","0,00",0,0,0,0,0,0,0,0,0,0,0,0,0,0,0,0,0,0
Vilson ,ZAG,Corinthians,2,"4,00",0,"0,00","0,00","0,00",0,0,0,0,0,0,0,0,0,0,0,0,0,0,0,0,0,0
Keirrison ,ATA,Coritiba,2,"3,00",0,"0,00","0,00","0,00",0,0,0,0,0,0,0,0,0,0,0,0,0,0,0,0,0,0
Denis ,GOL,São Paulo,5,"5,00",0,"0,00","0,00","0,00",0,0,0,0,0,0,0,0,0,0,0,0,0,0,0,0,0,0
Vitor Prada ,GOL,Avaí,2,"1,00",0,"0,00","0,00","0,00",0,0,0,0,0,0,0,0,0,0,0,0,0,0,0,0,0,0
Yuri ,MEI,Botafogo,2,"1,00",0,"0,00","0,00","0,00",0,0,0,0,0,0,0,0,0,0,0,0,0,0,0,0,0,0
Andrés Ríos ,ATA,Vasco,2,"4,00",0,"0,00","0,00","0,00",0,0,0,0,0,0,0,0,0,0,0,0,0,0,0,0,0,0
Walter ,GOL,Corinthians,2,"6,00",0,"0,00","0,00","0,00",0,0,0,0,0,0,0,0,0,0,0,0,0,0,0,0,0,0
Toshi ,ATA,Avaí,2,"3,00",0,"0,00","0,00","0,00",0,0,0,0,0,0,0,0,0,0,0,0,0,0,0,0,0,0
Yuri ,MEI,Bahia,2,"2,00",0,"0,00","0,00","0,00",0,0,0,0,0,0,0,0,0,0,0,0,0,0,0,0,0,0
Dodô ,MEI,Chapecoense,2,"3,94",1,"0,00","0,00","-1,06",0,0,0,0,0,0,0,0,0,0,0,0,0,0,0,0,0,0
Elder Santana ,ATA,Atlético-MG,2,"0,76",1,"0,00","0,00","0,00",0,0,0,0,0,0,0,0,0,0,0,0,0,0,0,0,0,0
Fabrício Baiano ,MEI,Coritiba,2,"2,00",0,"0,00","0,00","0,00",0,0,0,0,0,0,0,0,0,0,0,0,0,0,0,0,0,0
Thiago Martins ,ZAG,Palmeiras,5,"5,00",0,"0,00","0,00","0,00",0,0,0,0,0,0,0,0,0,0,0,0,0,0,0,0,0,0
Marcos Felipe  ,GOL,Fluminense,2,"3,00",0,"0,00","0,00","0,00",0,0,0,0,0,0,0,0,0,0,0,0,0,0,0,0,0,0
Morato ,ATA,São Paulo,5,"3,00",0,"0,00","0,00","0,00",0,0,0,0,0,0,0,0,0,0,0,0,0,0,0,0,0,0
Neris ,ZAG,Sport,5,"3,00",0,"0,00","0,00","0,00",0,0,0,0,0,0,0,0,0,0,0,0,0,0,0,0,0,0
Vinicius Silvestre ,GOL,Palmeiras,2,"2,00",0,"0,00","0,00","0,00",0,0,0,0,0,0,0,0,0,0,0,0,0,0,0,0,0,0
Robert  ,MEI,Fluminense,2,"4,00",0,"0,00","0,00","0,00",0,0,0,0,0,0,0,0,0,0,0,0,0,0,0,0,0,0
Uilson ,GOL,Atlético-MG,2,"4,00",0,"0,00","0,00","0,00",0,0,0,0,0,0,0,0,0,0,0,0,0,0,0,0,0,0
Maxi Rodríguez ,MEI,Grêmio,2,"6,00",0,"0,00","0,00","0,00",0,0,0,0,0,0,0,0,0,0,0,0,0,0,0,0,0,0
João Paulo ,GOL,Santos,2,"1,00",0,"0,00","0,00","0,00",0,0,0,0,0,0,0,0,0,0,0,0,0,0,0,0,0,0
Artur ,LAT,Ponte Preta,2,"4,00",0,"0,00","0,00","0,00",0,0,0,0,0,0,0,0,0,0,0,0,0,0,0,0,0,0
Daniel ,MEI,Coritiba,5,"6,00",0,"0,00","0,00","0,00",0,0,0,0,0,0,0,0,0,0,0,0,0,0,0,0,0,0
Matheus Peixoto ,ATA,Bahia,2,"1,00",0,"0,00","0,00","0,00",0,0,0,0,0,0,0,0,0,0,0,0,0,0,0,0,0,0
Cícero ,MEI,Atlético-MG,2,"2,00",0,"0,00","0,00","0,00",0,0,0,0,0,0,0,0,0,0,0,0,0,0,0,0,0,0
Lucas Cândido ,MEI,Atlético-MG,5,"4,00",0,"0,00","0,00","0,00",0,0,0,0,0,0,0,0,0,0,0,0,0,0,0,0,0,0
Luizão ,ZAG,Coritiba,2,"2,00",0,"0,00","0,00","0,00",0,0,0,0,0,0,0,0,0,0,0,0,0,0,0,0,0,0
Léo Santos ,ATA,Coritiba,2,"3,00",0,"0,00","0,00","0,00",0,0,0,0,0,0,0,0,0,0,0,0,0,0,0,0,0,0
Caíque Sá ,LAT,Vitória,2,"2,00",0,"0,00","0,00","0,00",0,0,0,0,0,0,0,0,0,0,0,0,0,0,0,0,0,0
Zeballos ,LAT,Chapecoense,2,"3,00",0,"0,00","0,00","0,00",0,0,0,0,0,0,0,0,0,0,0,0,0,0,0,0,0,0
Lucas Macanhan ,GOL,Atlético-PR,2,"2,00",0,"0,00","0,00","0,00",0,0,0,0,0,0,0,0,0,0,0,0,0,0,0,0,0,0
Henrique Gelain ,LAT,Coritiba,2,"1,00",0,"0,00","0,00","0,00",0,0,0,0,0,0,0,0,0,0,0,0,0,0,0,0,0,0
Jordi ,GOL,Vasco,2,"4,00",0,"0,00","0,00","0,00",0,0,0,0,0,0,0,0,0,0,0,0,0,0,0,0,0,0
Warian Santos  ,MEI,Corinthians,2,"1,00",0,"0,00","0,00","0,00",0,0,0,0,0,0,0,0,0,0,0,0,0,0,0,0,0,0
Rafael Fachin ,GOL,Coritiba,2,"1,00",0,"0,00","0,00","0,00",0,0,0,0,0,0,0,0,0,0,0,0,0,0,0,0,0,0
Ivan ,GOL,Ponte Preta,2,"2,00",0,"0,00","0,00","0,00",0,0,0,0,0,0,0,0,0,0,0,0,0,0,0,0,0,0
Serginho ,MEI,Santos,2,"1,58",1,"0,00","0,00","-0,42",0,0,0,0,0,0,0,0,0,0,0,0,0,0,0,0,0,0
Jean Patrick ,LAT,Ponte Preta,2,"3,00",0,"0,00","0,00","0,00",0,0,0,0,0,0,0,0,0,0,0,0,0,0,0,0,0,0
Vinícius Tanque ,ATA,Botafogo,2,"2,00",0,"0,00","0,00","0,00",0,0,0,0,0,0,0,0,0,0,0,0,0,0,0,0,0,0
João Vitor  ,ATA,Atlético-GO,2,"1,00",0,"0,00","0,00","0,00",0,0,0,0,0,0,0,0,0,0,0,0,0,0,0,0,0,0
Bruno Bispo ,ZAG,Vitória,2,"2,00",0,"0,00","0,00","0,00",0,0,0,0,0,0,0,0,0,0,0,0,0,0,0,0,0,0
Lucas Crispim ,MEI,Santos,2,"3,00",0,"0,00","0,00","0,00",0,0,0,0,0,0,0,0,0,0,0,0,0,0,0,0,0,0
Judivan  ,ATA,Cruzeiro,2,"4,00",0,"0,00","0,00","0,00",0,0,0,0,0,0,0,0,0,0,0,0,0,0,0,0,0,0
Balbino ,MEI,Grêmio,2,"1,00",0,"0,00","0,00","0,00",0,0,0,0,0,0,0,0,0,0,0,0,0,0,0,0,0,0
Andreazzi ,MEI,Botafogo,2,"2,00",0,"0,00","0,00","0,00",0,0,0,0,0,0,0,0,0,0,0,0,0,0,0,0,0,0
Saulo ,GOL,Botafogo,2,"2,00",0,"0,00","0,00","0,00",0,0,0,0,0,0,0,0,0,0,0,0,0,0,0,0,0,0
James Dean ,ATA,Sport,2,"1,00",0,"0,00","0,00","0,00",0,0,0,0,0,0,0,0,0,0,0,0,0,0,0,0,0,0
Nickson ,ATA,Cruzeiro,2,"3,00",0,"0,00","0,00","0,00",0,0,0,0,0,0,0,0,0,0,0,0,0,0,0,0,0,0
Jeferson Negueba ,MEI,Grêmio,2,"2,00",0,"0,00","0,00","0,00",0,0,0,0,0,0,0,0,0,0,0,0,0,0,0,0,0,0
Bruno Ramires ,MEI,Vitória,5,"5,00",0,"0,00","0,00","0,00",0,0,0,0,0,0,0,0,0,0,0,0,0,0,0,0,0,0
Jefferson Nem ,ATA,Atlético-GO,2,"1,00",0,"0,00","0,00","0,00",0,0,0,0,0,0,0,0,0,0,0,0,0,0,0,0,0,0
Moisés ,LAT,Corinthians,2,"3,00",0,"0,00","0,00","0,00",0,0,0,0,0,0,0,0,0,0,0,0,0,0,0,0,0,0
Raul ,LAT,Grêmio,2,"1,00",0,"0,00","0,00","0,00",0,0,0,0,0,0,0,0,0,0,0,0,0,0,0,0,0,0
Elias ,GOL,Chapecoense,2,"4,00",0,"0,00","0,00","0,00",0,0,0,0,0,0,0,0,0,0,0,0,0,0,0,0,0,0
Wallace ,GOL,Vitória,2,"1,00",0,"0,00","0,00","0,00",0,0,0,0,0,0,0,0,0,0,0,0,0,0,0,0,0,0
Jesiel ,ZAG,Atlético-MG,2,"3,00",0,"0,00","0,00","0,00",0,0,0,0,0,0,0,0,0,0,0,0,0,0,0,0,0,0
Flávio ,MEI,Vitória,2,"2,12",1,"0,00","0,00","0,00",0,0,0,0,0,0,0,0,0,0,0,0,0,0,0,0,0,0
Alison ,ATA,Sport,2,"1,00",0,"0,00","0,00","0,00",0,0,0,0,0,0,0,0,0,0,0,0,0,0,0,0,0,0
Ronaldo ,GOL,Vitória,2,"1,00",0,"0,00","0,00","0,00",0,0,0,0,0,0,0,0,0,0,0,0,0,0,0,0,0,0
Gustavo Blanco ,MEI,Atlético-MG,2,"3,00",0,"0,00","0,00","0,00",0,0,0,0,0,0,0,0,0,0,0,0,0,0,0,0,0,0
Lucas Perri ,GOL,São Paulo,2,"2,00",0,"0,00","0,00","0,00",0,0,0,0,0,0,0,0,0,0,0,0,0,0,0,0,0,0
Leonardo Valencia ,MEI,Botafogo,2,"7,00",0,"0,00","0,00","0,00",0,0,0,0,0,0,0,0,0,0,0,0,0,0,0,0,0,0
Warleson ,GOL,Atlético-PR,2,"1,00",0,"0,00","0,00","0,00",0,0,0,0,0,0,0,0,0,0,0,0,0,0,0,0,0,0
Marlon ,LAT,Fluminense,2,"5,00",0,"0,00","0,00","0,00",0,0,0,0,0,0,0,0,0,0,0,0,0,0,0,0,0,0
Matheus Cassini ,MEI,Ponte Preta,2,"2,00",0,"0,00","0,00","0,00",0,0,0,0,0,0,0,0,0,0,0,0,0,0,0,0,0,0
Adryelson ,ZAG,Sport,2,"2,00",0,"0,00","0,00","0,00",0,0,0,0,0,0,0,0,0,0,0,0,0,0,0,0,0,0
Caíque França ,GOL,Corinthians,2,"2,00",0,"0,00","0,00","0,00",0,0,0,0,0,0,0,0,0,0,0,0,0,0,0,0,0,0
Marciel ,MEI,Corinthians,2,"3,00",0,"0,00","0,00","0,00",0,0,0,0,0,0,0,0,0,0,0,0,0,0,0,0,0,0
Everson ,ZAG,Bahia,2,"2,00",0,"0,00","0,00","0,00",0,0,0,0,0,0,0,0,0,0,0,0,0,0,0,0,0,0
Gabriel Félix ,GOL,Vasco,2,"2,00",0,"0,00","0,00","0,00",0,0,0,0,0,0,0,0,0,0,0,0,0,0,0,0,0,0
Breno ,LAT,Atlético-PR,2,"1,00",0,"0,00","0,00","0,00",0,0,0,0,0,0,0,0,0,0,0,0,0,0,0,0,0,0
Mário ,ATA,Bahia,2,"1,00",0,"0,00","0,00","0,00",0,0,0,0,0,0,0,0,0,0,0,0,0,0,0,0,0,0
Giovanny  ,ATA,Atlético-PR,2,"4,00",0,"0,00","0,00","0,00",0,0,0,0,0,0,0,0,0,0,0,0,0,0,0,0,0,0
Matheus Phillipe ,GOL,Fluminense,2,"1,00",0,"0,00","0,00","0,00",0,0,0,0,0,0,0,0,0,0,0,0,0,0,0,0,0,0
Wallace ,ATA,Sport,2,"2,00",0,"0,00","0,00","0,00",0,0,0,0,0,0,0,0,0,0,0,0,0,0,0,0,0,0
Caíque ,GOL,Vitória,2,"5,00",0,"0,00","0,00","0,00",0,0,0,0,0,0,0,0,0,0,0,0,0,0,0,0,0,0
Lucas Lovat ,LAT,Avaí,2,"3,00",0,"0,00","0,00","0,00",0,0,0,0,0,0,0,0,0,0,0,0,0,0,0,0,0,0
Ronaldo ,MEI,Flamengo,2,"3,00",0,"0,00","0,00","0,00",0,0,0,0,0,0,0,0,0,0,0,0,0,0,0,0,0,0
Denilson ,ZAG,Grêmio,2,"1,00",0,"0,00","0,00","0,00",0,0,0,0,0,0,0,0,0,0,0,0,0,0,0,0,0,0
Augusto ,ZAG,Palmeiras,2,"1,00",0,"0,00","0,00","0,00",0,0,0,0,0,0,0,0,0,0,0,0,0,0,0,0,0,0
Thiago Santos ,ATA,Flamengo,2,"2,00",0,"0,00","0,00","0,00",0,0,0,0,0,0,0,0,0,0,0,0,0,0,0,0,0,0
Yan ,MEI,Palmeiras,2,"1,00",0,"0,00","0,00","0,00",0,0,0,0,0,0,0,0,0,0,0,0,0,0,0,0,0,0
Aderllan Santos ,ZAG,São Paulo,2,"6,00",0,"0,00","0,00","0,00",0,0,0,0,0,0,0,0,0,0,0,0,0,0,0,0,0,0
Guilherme ,GOL,Ponte Preta,2,"2,00",0,"0,00","0,00","0,00",0,0,0,0,0,0,0,0,0,0,0,0,0,0,0,0,0,0
Peu ,ATA,Fluminense,2,"1,00",0,"0,00","0,00","0,00",0,0,0,0,0,0,0,0,0,0,0,0,0,0,0,0,0,0
Marcinho ,LAT,Botafogo,5,"3,00",0,"0,00","0,00","0,00",0,0,0,0,0,0,0,0,0,0,0,0,0,0,0,0,0,0
Moraes ,LAT,Flamengo,2,"1,00",0,"0,00","0,00","0,00",0,0,0,0,0,0,0,0,0,0,0,0,0,0,0,0,0,0
Jean Lucas ,MEI,Flamengo,2,"2,00",0,"0,00","0,00","0,00",0,0,0,0,0,0,0,0,0,0,0,0,0,0,0,0,0,0
Luquinhas ,MEI,Fluminense,2,"1,00",0,"0,00","0,00","0,00",0,0,0,0,0,0,0,0,0,0,0,0,0,0,0,0,0,0
Índio ,ATA,Sport,2,"2,00",0,"0,00","0,00","0,00",0,0,0,0,0,0,0,0,0,0,0,0,0,0,0,0,0,0
Índio ,ATA,Coritiba,2,"2,00",0,"0,00","0,00","0,00",0,0,0,0,0,0,0,0,0,0,0,0,0,0,0,0,0,0
Lucas Kal ,ZAG,São Paulo,2,"2,00",0,"0,00","0,00","0,00",0,0,0,0,0,0,0,0,0,0,0,0,0,0,0,0,0,0
Matheus Jesus ,MEI,Ponte Preta,2,"4,00",0,"0,00","0,00","0,00",0,0,0,0,0,0,0,0,0,0,0,0,0,0,0,0,0,0
Ourinho ,LAT,Santos,2,"2,00",0,"0,00","0,00","0,00",0,0,0,0,0,0,0,0,0,0,0,0,0,0,0,0,0,0
Luiz Felipe ,GOL,Chapecoense,2,"2,00",0,"0,00","0,00","0,00",0,0,0,0,0,0,0,0,0,0,0,0,0,0,0,0,0,0
Vitinho ,MEI,Palmeiras,2,"3,00",0,"0,00","0,00","0,00",0,0,0,0,0,0,0,0,0,0,0,0,0,0,0,0,0,0
Filipinho ,ATA,Atlético-MG,2,"2,00",0,"0,00","0,00","0,00",0,0,0,0,0,0,0,0,0,0,0,0,0,0,0,0,0,0
Nathan ,ZAG,Atlético-MG,2,"1,00",0,"0,00","0,00","0,00",0,0,0,0,0,0,0,0,0,0,0,0,0,0,0,0,0,0
Gustavo Bochecha ,MEI,Botafogo,5,"2,00",0,"0,00","0,00","0,00",0,0,0,0,0,0,0,0,0,0,0,0,0,0,0,0,0,0
Caíque ,LAT,São Paulo,2,"1,00",0,"0,00","0,00","0,00",0,0,0,0,0,0,0,0,0,0,0,0,0,0,0,0,0,0
Felipe ,GOL,Bahia,2,"1,00",0,"0,00","0,00","0,00",0,0,0,0,0,0,0,0,0,0,0,0,0,0,0,0,0,0
Daniel Fuzato ,GOL,Palmeiras,2,"1,00",0,"0,00","0,00","0,00",0,0,0,0,0,0,0,0,0,0,0,0,0,0,0,0,0,0
Ty Sandows ,ATA,Grêmio,2,"1,00",0,"0,00","0,00","0,00",0,0,0,0,0,0,0,0,0,0,0,0,0,0,0,0,0,0
Matheus Oliveira ,MEI,Santos,2,"2,00",0,"0,00","0,00","0,00",0,0,0,0,0,0,0,0,0,0,0,0,0,0,0,0,0,0
Yan ,MEI,Coritiba,2,"1,00",0,"0,00","0,00","0,00",0,0,0,0,0,0,0,0,0,0,0,0,0,0,0,0,0,0
Geovane ,ZAG,Coritiba,2,"3,00",0,"0,00","0,00","0,00",0,0,0,0,0,0,0,0,0,0,0,0,0,0,0,0,0,0
Cassiano ,GOL,Bahia,2,"1,00",0,"0,00","0,00","0,00",0,0,0,0,0,0,0,0,0,0,0,0,0,0,0,0,0,0
Emerson ,LAT,Ponte Preta,2,"1,00",0,"0,00","0,00","0,00",0,0,0,0,0,0,0,0,0,0,0,0,0,0,0,0,0,0
Victor Lindenberg ,LAT,Botafogo,2,"1,00",0,"0,00","0,00","0,00",0,0,0,0,0,0,0,0,0,0,0,0,0,0,0,0,0,0
Rodrigo Figueiredo ,MEI,Corinthians,2,"1,00",0,"0,00","0,00","0,00",0,0,0,0,0,0,0,0,0,0,0,0,0,0,0,0,0,0
Léo Lopes ,GOL,Avaí,2,"1,00",0,"0,00","0,00","0,00",0,0,0,0,0,0,0,0,0,0,0,0,0,0,0,0,0,0
Carlinhos ,ATA,Corinthians,2,"2,00",0,"0,00","0,00","0,00",0,0,0,0,0,0,0,0,0,0,0,0,0,0,0,0,0,0
Renan Lodi ,LAT,Atlético-PR,2,"4,00",0,"0,00","0,00","0,00",0,0,0,0,0,0,0,0,0,0,0,0,0,0,0,0,0,0
Vitor ,ATA,Avaí,2,"2,00",0,"0,00","0,00","0,00",0,0,0,0,0,0,0,0,0,0,0,0,0,0,0,0,0,0
Mauricio ,ZAG,Avaí,2,"2,00",0,"0,00","0,00","0,00",0,0,0,0,0,0,0,0,0,0,0,0,0,0,0,0,0,0
Dida ,GOL,Grêmio,2,"1,00",0,"0,00","0,00","0,00",0,0,0,0,0,0,0,0,0,0,0,0,0,0,0,0,0,0
Daniel ,MEI,Atlético-MG,2,"1,00",0,"0,00","0,00","0,00",0,0,0,0,0,0,0,0,0,0,0,0,0,0,0,0,0,0
Santarém ,ATA,Avaí,2,"1,00",0,"0,00","0,00","0,00",0,0,0,0,0,0,0,0,0,0,0,0,0,0,0,0,0,0
Mantuan ,MEI,Corinthians,2,"1,00",0,"0,00","0,00","0,00",0,0,0,0,0,0,0,0,0,0,0,0,0,0,0,0,0,0
Julio Rusch ,MEI,Coritiba,2,"3,00",0,"0,00","0,00","0,00",0,0,0,0,0,0,0,0,0,0,0,0,0,0,0,0,0,0
Romercio ,ZAG,Coritiba,2,"2,00",0,"0,00","0,00","0,00",0,0,0,0,0,0,0,0,0,0,0,0,0,0,0,0,0,0
Hiago ,ZAG,Chapecoense,2,"1,00",0,"0,00","0,00","0,00",0,0,0,0,0,0,0,0,0,0,0,0,0,0,0,0,0,0
Frazan ,ZAG,Fluminense,2,"2,00",0,"0,00","0,00","0,00",0,0,0,0,0,0,0,0,0,0,0,0,0,0,0,0,0,0
Busanello ,LAT,Chapecoense,2,"1,00",0,"0,00","0,00","0,00",0,0,0,0,0,0,0,0,0,0,0,0,0,0,0,0,0,0
Vinícius Guarapuava ,ZAG,Chapecoense,2,"1,00",0,"0,00","0,00","0,00",0,0,0,0,0,0,0,0,0,0,0,0,0,0,0,0,0,0
Carvalho ,MEI,Coritiba,2,"1,00",0,"0,00","0,00","0,00",0,0,0,0,0,0,0,0,0,0,0,0,0,0,0,0,0,0
Bryan ,MEI,Chapecoense,2,"1,00",0,"0,00","0,00","0,00",0,0,0,0,0,0,0,0,0,0,0,0,0,0,0,0,0,0
Filigrana ,ATA,Coritiba,2,"2,00",0,"0,00","0,00","0,00",0,0,0,0,0,0,0,0,0,0,0,0,0,0,0,0,0,0
Marco Túlio ,ATA,Atlético-MG,2,"1,00",0,"0,00","0,00","0,00",0,0,0,0,0,0,0,0,0,0,0,0,0,0,0,0,0,0
Reynaldo ,ZAG,Ponte Preta,2,"2,00",0,"0,00","0,00","0,00",0,0,0,0,0,0,0,0,0,0,0,0,0,0,0,0,0,0
Thiago Couto ,GOL,São Paulo,2,"1,00",0,"0,00","0,00","0,00",0,0,0,0,0,0,0,0,0,0,0,0,0,0,0,0,0,0
Yan ,MEI,Santos,2,"2,00",0,"0,00","0,00","0,00",0,0,0,0,0,0,0,0,0,0,0,0,0,0,0,0,0,0
Thiaguinho ,ATA,Ponte Preta,2,"2,00",0,"0,00","0,00","0,00",0,0,0,0,0,0,0,0,0,0,0,0,0,0,0,0,0,0
Nadson ,MEI,Chapecoense,5,"0,76",3,"-0,07","0,00","0,00",0,0,0,0,1,1,0,0,0,0,0,0,0,0,0,1,0,3
Lourency ,ATA,Chapecoense,2,"2,09",4,"-0,15","-0,50","-0,43",1,0,0,0,2,2,1,0,0,0,0,0,1,0,0,4,0,4
Giovanni Augusto ,MEI,Corinthians,2,"5,57",2,"-0,15","0,00","0,00",0,0,0,0,0,0,0,0,0,0,0,0,0,0,0,0,0,1
Fernandes ,MEI,Botafogo,2,"3,25",2,"-0,15","0,00","-0,47",0,0,0,0,1,1,0,0,0,0,0,0,0,0,0,0,0,5
Lourenço ,ATA,Avaí,2,"0,77",5,"-0,16","0,00","0,00",1,0,0,0,5,3,1,0,0,0,0,0,2,0,0,4,0,7
Régis Souza ,LAT,Bahia,2,"2,15",3,"-0,20","0,00","0,00",1,0,0,0,3,0,0,0,0,0,0,0,1,0,0,0,0,6
Danilo Barcelos ,MEI,Atlético-MG,2,"5,30",1,"-0,20","0,00","0,00",0,0,0,0,0,0,1,0,0,0,0,0,0,0,0,0,0,4
Yago ,ATA,Atlético-PR,2,"1,44",3,"-0,20","1,20","0,34",0,0,0,0,1,1,0,0,0,0,0,0,0,0,0,3,0,5
Jean Pineda ,ATA,Vitória,2,"2,38",2,"-0,20","0,00","0,00",0,0,0,0,1,0,0,0,0,0,0,0,0,0,0,0,0,3
Léo Cittadini ,MEI,Santos,2,"2,62",2,"-0,25","0,00","0,00",0,0,0,0,0,0,0,0,0,0,0,0,0,0,0,1,0,0
Getterson ,ATA,Coritiba,2,"0,78",3,"-0,27","0,00","0,00",2,0,0,0,2,0,0,0,0,0,0,0,1,0,0,4,0,4
Miller Bolaños ,ATA,Grêmio,2,"10,62",2,"-0,30","0,00","0,00",1,0,0,0,1,0,0,0,0,0,0,0,0,0,0,2,0,6
Bruno Rodrigo ,ZAG,Grêmio,2,"5,11",1,"-0,30","0,00","0,00",0,0,0,0,0,0,0,0,0,0,0,0,0,0,0,0,0,1
Nathan ,ZAG,Chapecoense,2,"3,06",1,"-0,30","0,00","0,00",0,0,0,0,0,0,0,0,0,0,0,0,0,0,0,0,0,1
Lima ,MEI,Grêmio,2,"1,50",1,"-0,30","0,00","0,00",0,0,0,0,0,0,0,0,0,0,0,0,0,0,0,0,0,1
Yago ,MEI,Vitória,3,"0,79",6,"-0,32","0,10","0,00",1,0,0,0,8,2,2,0,0,0,0,0,1,0,0,10,1,12
Evandro ,LAT,Sport,2,"0,76",3,"-0,33","0,00","0,00",3,0,0,0,2,0,1,0,0,0,0,0,0,0,0,9,0,12
Dudu Cearense ,MEI,Botafogo,2,"3,24",6,"-0,35","0,00","0,00",2,0,0,0,1,0,0,0,0,0,0,0,1,0,0,5,0,5
Felipe Vizeu ,ATA,Flamengo,2,"2,92",4,"-0,37","-1,10","-0,54",0,0,0,0,1,1,0,0,0,0,0,0,0,0,0,2,0,2
Antônio Carlos  ,ZAG,Palmeiras,2,"2,66",3,"-0,37","0,00","0,00",1,0,0,0,4,0,0,0,0,0,0,0,1,0,0,2,0,6
Léo Gomes ,LAT,Grêmio,2,"1,48",1,"-0,40","0,00","0,00",1,0,0,0,0,0,0,0,0,0,0,0,0,0,0,3,0,2
Leonardo Silva ,ZAG,Atlético-MG,5,"8,93",4,"-0,40","0,00","0,00",2,0,0,0,6,0,0,0,0,0,0,0,1,0,0,6,0,10
Marquinho ,MEI,Fluminense,5,"2,98",4,"-0,40","0,00","0,00",1,0,0,0,0,0,0,0,0,0,0,0,1,0,0,2,0,1
Kazim ,ATA,Corinthians,2,"1,85",4,"-0,42","0,00","0,00",0,0,0,0,1,2,0,0,0,0,0,0,0,0,0,6,0,2
Rafaelson ,ATA,Vitória,2,"1,54",4,"-0,43","0,00","0,00",1,0,0,0,2,3,2,0,0,0,0,0,1,0,0,10,0,5
Fábio Braga ,MEI,Ponte Preta,2,"1,74",2,"-0,45","0,00","0,00",1,0,0,0,0,0,0,0,0,0,0,0,1,0,0,0,0,2
Thallyson ,MEI,Sport,2,"0,79",8,"-0,46","0,00","0,00",3,0,0,0,7,0,0,0,0,0,0,0,2,0,0,9,1,11
Lucas Mineiro ,MEI,Chapecoense,3,"1,81",5,"-0,48","-1,30","-0,54",2,0,0,0,4,2,0,0,0,0,0,0,1,0,0,10,0,3
Maikon Leite ,ATA,Bahia,5,"2,15",2,"-0,50","0,00","0,00",0,0,0,0,1,0,0,0,0,0,0,0,0,0,0,2,1,0
Everton Heleno ,MEI,Atlético-GO,2,"2,14",1,"-0,50","0,00","0,00",0,0,0,0,0,0,0,0,0,0,0,0,0,0,0,1,0,0
Madson ,LAT,Vasco,3,"2,73",2,"-0,50","-0,70","-0,29",0,0,0,0,0,0,0,0,0,0,0,0,0,0,0,0,0,1
Maranhão ,ATA,Fluminense,2,"1,63",2,"-0,55","0,00","0,00",0,0,0,0,0,0,0,0,0,0,0,0,0,0,0,1,0,2
Pisculichi ,MEI,Vitória,2,"4,13",2,"-0,55","0,00","0,00",0,0,0,0,1,1,0,0,0,0,0,0,0,0,0,1,0,6
Gustavo ,ZAG,Avaí,2,"4,14",3,"-0,60","0,00","0,00",1,0,0,0,2,1,0,0,0,0,0,0,1,0,0,2,2,4
Juninho ,ATA,Sport,2,"0,77",4,"-0,60","0,00","0,00",0,0,0,0,2,1,0,0,0,0,0,0,0,0,0,3,1,7
Bruno Gallo ,MEI,Vasco,2,"1,70",1,"-0,60","0,00","0,00",0,0,0,0,1,0,0,0,0,0,0,0,0,0,0,1,0,2
Paulinho ,MEI,Atlético-GO,2,"2,14",1,"-0,60","-0,60","-0,86",0,0,0,0,0,0,0,0,0,0,0,0,0,0,0,0,0,0
Feijão ,MEI,Bahia,2,"1,52",3,"-0,63","-2,00","-0,54",1,0,0,0,0,0,0,0,0,0,0,0,0,0,0,2,0,2
Romulo ,MEI,Flamengo,2,"5,77",2,"-0,65","0,00","0,00",1,0,0,0,0,0,0,0,0,0,0,0,1,0,0,2,0,0
Eduardo ,LAT,Atlético-GO,2,"0,79",7,"-0,66","0,00","0,00",3,0,0,0,3,0,0,0,0,0,0,0,1,0,0,9,1,14
Jomar ,ZAG,Vasco,3,"1,40",3,"-0,67","-0,40","-0,27",1,0,0,0,2,0,0,0,0,0,0,0,1,0,0,4,0,1
Edinho ,MEI,Coritiba,2,"3,84",3,"-0,70","-0,30","0,09",0,0,0,0,1,0,0,0,0,0,0,0,1,0,0,0,0,1
Carlos Cesar ,LAT,Atlético-MG,5,"4,46",1,"-0,70","0,00","0,00",0,0,0,0,1,0,0,0,0,0,0,0,0,0,0,0,0,4
Raniel ,ATA,Cruzeiro,5,"0,73",2,"-0,75","0,00","0,00",0,0,0,0,1,0,0,0,0,0,0,0,1,0,0,0,0,0
Rodrigo Ramos ,LAT,Coritiba,3,"2,77",2,"-0,75","-1,60","-0,39",1,0,0,0,0,0,0,0,0,0,0,0,0,0,0,2,0,2
Diego Renan ,LAT,Chapecoense,2,"4,21",3,"-0,77","0,00","0,00",0,0,0,0,3,0,1,0,0,0,0,0,1,0,0,2,0,6
Lucas Paquetá ,MEI,Flamengo,2,"1,96",1,"-0,80","0,00","0,00",0,0,0,0,0,0,0,0,0,0,0,0,0,0,0,1,0,1
Marquinho ,MEI,Atlético-MG,2,"1,38",1,"-0,80","0,00","0,00",0,0,0,0,0,0,0,0,0,0,0,0,0,0,0,1,0,1
Lucho González ,MEI,Atlético-PR,2,"5,38",8,"-0,83","0,00","0,00",5,0,0,0,7,4,0,0,0,0,0,1,1,0,0,10,2,28
Cícero ,MEI,São Paulo,2,"4,87",8,"-0,85","0,00","0,00",1,0,0,0,7,3,0,0,0,0,0,0,2,0,0,11,2,12
Rafael Longuine ,MEI,Santos,2,"1,32",3,"-0,93","0,00","0,00",1,0,0,0,1,0,1,0,0,0,0,0,1,0,0,4,1,5
Conca ,MEI,Flamengo,2,"8,35",2,"-0,95","0,00","0,00",0,0,0,0,1,0,1,0,0,0,0,0,1,0,0,1,0,3
Diego Cavalieri ,GOL,Fluminense,2,"3,91",3,"-1,00","0,00","0,00",0,0,0,0,0,0,0,0,3,0,0,0,0,0,6,0,0,0
Douglas ,MEI,Fluminense,2,"3,78",2,"-1,00","0,00","0,00",3,0,0,0,1,0,0,0,0,0,0,0,2,0,0,3,0,7
Vecchio ,MEI,Santos,3,"1,19",2,"-1,05","-0,80","-0,50",0,0,0,0,0,0,1,0,0,0,0,0,0,0,0,0,1,6
Nicolas Careca ,ATA,Grêmio,2,"0,78",2,"-1,05","0,00","0,00",0,0,0,0,2,0,0,0,0,0,0,0,0,0,0,4,1,2
Mateus Norton ,MEI,Fluminense,2,"0,77",3,"-1,13","0,00","0,00",3,0,0,0,1,0,0,0,0,0,0,0,3,0,0,3,0,5
Cleberson ,ZAG,Atlético-PR,2,"2,69",1,"-1,20","0,00","0,00",0,0,0,0,0,0,0,0,0,0,0,0,0,0,0,0,0,4
Renato Chaves ,ZAG,Fluminense,5,"3,32",1,"-1,30","0,00","0,00",0,0,0,0,0,0,0,0,0,0,0,0,0,0,0,2,0,1
Alan Cardoso ,LAT,Vasco,2,"1,21",1,"-1,30","0,00","0,00",1,0,0,0,0,0,0,0,0,0,0,0,1,0,0,2,0,0
Matheus Anjos ,MEI,Atlético-PR,1,"0,79",3,"-1,37","-3,30","-0,48",1,0,0,0,2,1,0,0,0,0,0,0,0,0,0,3,0,9
Felipe Gedoz  ,MEI,Atlético-PR,2,"8,33",2,"-1,45","0,00","0,00",0,0,0,0,0,0,0,0,0,0,0,0,0,0,0,4,0,3
Gabriel Furtado ,MEI,Palmeiras,2,"0,78",1,"-1,50","0,00","0,00",1,0,0,0,1,0,0,0,0,0,0,0,1,0,0,1,0,4
Alecsandro ,ATA,Coritiba,2,"2,14",7,"-1,60","0,00","0,00",3,0,0,0,4,1,1,0,0,0,0,0,2,1,0,12,4,15
Bressan ,ZAG,Grêmio,2,"1,72",2,"-1,60","0,00","0,00",3,0,0,0,3,0,0,0,0,0,0,0,2,0,0,4,1,11
Armero ,LAT,Bahia,5,"0,91",4,"-1,60","0,00","0,00",3,0,0,1,0,1,2,0,0,0,0,1,1,0,0,11,2,19
Yuri ,MEI,Santos,2,"0,78",4,"-1,60","0,00","0,00",0,0,0,0,0,0,0,0,0,0,0,0,1,0,0,4,0,8
Fabrício Bruno ,ZAG,Chapecoense,2,"2,46",2,"-1,60","0,00","0,00",2,0,0,0,1,0,0,0,0,0,0,0,2,0,0,5,0,2
Evander ,MEI,Vasco,2,"0,80",2,"-1,65","0,00","0,00",0,0,0,0,0,0,0,0,0,0,0,0,1,0,0,2,0,1
Pablo ,ATA,Atlético-PR,2,"2,65",6,"-1,75","0,00","0,00",1,0,0,0,8,3,0,0,0,0,0,0,3,0,0,7,5,21
Wellington ,MEI,Vasco,3,"0,79",6,"-1,95","-0,50","0,00",1,0,0,0,3,0,0,0,0,0,0,0,1,0,0,16,1,13
Anderson ,GOL,Bahia,2,"0,79",2,"-2,00","0,00","0,00",0,0,0,0,0,0,0,0,0,0,0,0,2,0,0,0,0,0
Gabriel ,ATA,Flamengo,2,"3,51",1,"-2,00","0,00","0,00",0,0,0,0,1,0,0,0,0,0,0,0,1,0,0,1,0,0
Bruno Brígido ,GOL,Coritiba,2,"3,48",1,"-2,00","0,00","0,00",0,0,0,0,0,0,0,0,0,0,0,0,1,0,0,0,0,0
Sidão ,GOL,São Paulo,2,"6,25",0,"-2,00","0,00","0,00",0,0,0,0,0,0,0,0,0,0,0,0,1,0,0,0,0,0
Bruno Guimarães ,MEI,Atlético-PR,2,"0,79",3,"-2,27","0,00","0,00",0,0,0,0,0,0,0,0,0,0,0,0,2,0,0,5,0,1
Renan Gorne ,ATA,Botafogo,2,"0,76",1,"-3,50","0,00","0,00",0,0,0,0,0,0,0,0,0,0,0,0,1,0,0,3,0,0
Gilvan ,ZAG,Atlético-GO,3,"0,79",1,"-3,90","-3,90","-2,21",0,0,0,0,0,0,0,0,0,0,0,0,0,0,0,0,0,0
Emerson Santos ,ZAG,Botafogo,2,"0,71",1,"-5,60","0,00","0,00",0,0,0,0,1,0,0,0,0,0,0,0,1,0,0,4,0,7
Maicon ,LAT,Avaí,2,"4,72",1,"-6,00","0,00","0,00",0,0,0,0,2,1,0,0,0,0,1,0,0,0,0,1,0,4
Klever ,GOL,Atlético-GO,2,"0,71",1,"-8,30","0,00","0,00",0,0,0,0,0,0,0,0,0,0,0,0,0,0,4,0,0,1
