name,position,team,situation,price,meatches,average,last_score,difference,disarms,goals,assists,no_goals,fouls_suffered,strikes_out,strikes_defended,strikes_post,difficult_defense,penalty_defense,own_goal,red_card,yellow_card,goal_suffered,penalty_lost,fouls_commited,offsides,wrong_pass
Paulo Victor ,GOL,Grêmio,3,"6,97",1,"12,40","12,40","1,97",0,0,0,1,0,0,0,0,1,1,0,0,1,0,0,0,0,2
João Paulo ,GOL,Santos,2,"2,97",1,"10,70","0,00","0,00",0,0,0,1,0,0,0,0,2,0,0,0,0,0,0,0,0,1
Vanderlei ,GOL,Santos,3,"22,47",18,"10,21","8,00","0,64",0,0,0,10,3,0,0,0,48,3,0,0,2,0,13,1,0,7
Douglas Friedrich ,GOL,Avaí,3,"9,36",10,"9,66","8,00","2,39",0,0,0,6,3,0,0,0,28,1,0,0,1,0,12,0,0,0
Hernanes ,MEI,São Paulo,3,"15,08",3,"8,33","8,90","1,09",4,2,0,0,6,2,2,0,0,0,0,0,0,0,0,3,0,9
Jefferson ,GOL,Botafogo,1,"9,33",5,"8,04","0,00","0,00",0,0,0,2,0,0,0,0,11,1,0,0,1,0,3,0,0,6
Lucca ,ATA,Ponte Preta,3,"21,36",18,"7,94","2,60","-0,24",18,10,1,0,64,16,18,0,0,0,0,0,1,1,0,20,6,52
Luan ,ATA,Grêmio,2,"20,87",15,"7,37","-1,00","-0,79",21,5,6,0,36,14,15,0,0,0,0,0,1,1,0,17,3,75
Henrique Dourado ,ATA,Fluminense,3,"22,77",13,"7,06","8,60","1,07",6,10,2,0,26,8,6,0,0,0,0,0,3,0,0,30,1,39
Balbuena ,ZAG,Corinthians,2,"11,89",16,"6,98","7,30","0,34",21,3,1,11,14,3,1,0,0,0,0,0,2,0,0,6,2,34
Pedro Geromel ,ZAG,Grêmio,2,"13,74",13,"6,74","0,00","0,00",31,0,2,7,8,3,3,0,0,0,0,0,3,0,0,8,0,31
Juninho ,LAT,Vitória,3,"8,62",2,"6,65","0,00","0,00",2,0,1,1,3,0,0,0,0,0,0,0,0,0,0,2,0,2
Luis Fabiano ,ATA,Vasco,3,"14,04",9,"6,56","0,00","0,00",3,5,2,0,19,15,5,0,0,0,0,0,4,0,0,15,5,10
Zé Rafael  ,MEI,Bahia,3,"19,77",18,"6,55","3,90","-0,51",47,1,3,0,59,11,17,0,0,0,0,0,3,0,0,38,5,39
Fernandinho ,ATA,Grêmio,3,"13,69",15,"6,52","14,90","1,71",17,6,1,0,37,4,11,0,0,0,0,0,1,0,0,14,0,25
Thiago Carleto ,LAT,Coritiba,3,"6,03",5,"6,22","9,80","0,45",5,1,1,2,5,1,4,0,0,0,0,0,0,0,0,5,0,17
Paulinho ,MEI,Atlético-GO,3,"8,49",7,"6,20","16,40","3,08",17,2,0,0,12,7,2,1,0,0,0,0,2,0,0,14,0,23
Igor ,ZAG,Sport,2,"5,80",1,"6,20","0,00","0,00",4,0,0,0,2,0,0,0,0,0,0,0,0,0,0,2,0,2
Renê Júnior ,MEI,Bahia,3,"10,56",15,"6,20","-0,30","-0,80",45,3,0,0,32,15,7,0,0,0,0,1,3,0,0,30,3,45
Mena ,LAT,Sport,3,"5,12",8,"6,13","0,00","0,00",16,1,4,3,8,1,1,0,0,0,0,1,3,0,0,18,3,18
Moisés ,LAT,Corinthians,2,"3,61",1,"6,10","0,00","0,00",1,0,1,0,0,0,0,0,0,0,0,0,0,0,0,0,0,2
Thiago Neves ,MEI,Cruzeiro,2,"17,21",16,"6,06","1,20","-1,02",14,6,2,0,31,9,25,1,0,0,0,0,2,0,0,18,4,67
Agenor ,GOL,Sport,2,"4,57",4,"6,05","0,00","0,00",0,0,0,2,0,0,0,0,8,0,0,0,0,0,4,0,0,6
Patrick ,MEI,Sport,3,"10,96",15,"5,97","3,70","-1,72",52,2,0,0,22,3,2,0,0,0,0,0,2,0,0,26,0,43
Moisés ,MEI,Palmeiras,2,"8,95",1,"5,90","5,90","-1,05",3,0,0,0,4,0,0,0,0,0,0,0,0,0,0,0,0,4
Wendel ,MEI,Fluminense,3,"14,35",15,"5,89","11,70","1,61",22,3,2,0,40,6,6,1,0,0,0,0,0,0,0,12,1,34
Gatito Fernández ,GOL,Botafogo,1,"20,88",13,"5,88","8,50","0,97",0,0,0,5,3,0,0,0,24,2,0,0,1,0,16,0,0,7
Sidcley ,LAT,Atlético-PR,3,"13,61",17,"5,87","5,10","-0,31",24,3,3,7,29,4,3,0,0,0,0,0,1,0,0,20,9,63
Cássio ,GOL,Corinthians,2,"13,58",19,"5,87","6,70","-0,24",0,0,0,13,5,0,0,0,18,2,0,0,2,0,9,0,0,7
Guilherme ,MEI,Atlético-PR,3,"10,44",6,"5,83","7,80","-1,88",5,3,2,0,6,1,2,0,0,0,0,0,1,0,0,9,2,19
Paulinho ,ATA,Vasco,3,"3,79",6,"5,82","-1,70","-1,46",11,2,1,0,7,1,0,0,0,0,0,0,1,0,0,2,0,20
Emerson Silva ,ZAG,Botafogo,3,"6,38",3,"5,77","7,30","0,70",7,0,0,1,6,2,0,0,0,0,0,0,0,0,0,2,0,10
Jailson ,GOL,Palmeiras,5,"7,45",4,"5,73","0,00","0,00",0,0,0,2,1,0,0,0,6,1,0,0,3,0,3,0,0,2
Fagner ,LAT,Corinthians,2,"13,67",15,"5,72","8,60","-0,55",26,0,2,11,24,1,1,0,0,0,0,0,4,0,0,16,2,67
Sander ,LAT,Sport,2,"9,26",13,"5,68","14,90","2,23",35,0,1,6,13,1,1,0,0,0,0,0,1,0,0,28,0,43
André ,ATA,Sport,3,"10,77",17,"5,67","2,40","-0,96",16,9,1,0,31,14,8,1,0,0,0,0,3,0,0,39,13,42
Arthur  ,ATA,Chapecoense,2,"11,82",18,"5,58","5,10","-0,39",18,4,5,0,43,16,13,1,0,0,0,0,3,0,0,31,5,41
Diego ,MEI,Flamengo,4,"19,85",15,"5,42","4,80","0,02",22,4,2,0,54,12,7,0,0,0,0,0,3,1,0,18,6,63
Rodrigão ,ATA,Bahia,3,"6,01",7,"5,40","4,70","-1,06",2,4,1,0,5,6,3,0,0,0,0,0,1,0,0,6,5,16
Fabián Noguera ,ZAG,Santos,2,"4,43",5,"5,38","4,90","-0,86",5,0,1,3,1,2,0,0,0,0,0,0,0,0,0,4,0,5
Marcos Guilherme  ,MEI,São Paulo,3,"9,42",3,"5,37","-0,30","-0,65",0,2,0,0,0,0,1,0,0,0,0,0,0,0,0,0,0,3
Michel  ,MEI,Grêmio,2,"10,45",14,"5,33","0,00","0,00",38,4,0,0,16,8,2,0,0,0,0,0,4,0,0,36,0,39
Jean ,LAT,Palmeiras,3,"15,27",9,"5,31","7,90","-0,27",11,1,0,4,10,12,2,0,0,0,0,0,0,1,0,5,1,26
Alisson ,MEI,Cruzeiro,3,"14,33",14,"5,30","7,00","0,21",17,1,5,0,27,9,6,3,0,0,0,0,0,0,0,19,2,45
Alejandro Guerra ,MEI,Palmeiras,3,"14,18",11,"5,29","0,00","0,00",12,4,3,0,17,7,7,0,0,0,0,0,3,0,0,21,1,42
Manoel ,ZAG,Cruzeiro,2,"8,77",1,"5,20","0,00","0,00",0,0,0,1,2,0,0,0,0,0,0,0,0,0,0,0,1,1
Matheus Ribeiro ,LAT,Santos,2,"5,76",4,"5,20","0,00","0,00",2,0,0,4,1,1,1,0,0,0,0,0,1,0,0,2,0,6
Léo Moura ,LAT,Grêmio,2,"10,28",6,"5,20","1,70","-0,74",5,0,0,5,7,3,1,0,0,0,0,0,0,0,0,4,3,18
Bruno Henrique ,ATA,Santos,3,"13,10",15,"5,17","3,50","-1,11",14,4,6,0,44,7,8,1,0,0,0,1,3,0,0,39,4,47
Egídio ,LAT,Palmeiras,3,"7,15",11,"5,11","0,00","0,00",23,0,1,5,16,0,3,0,0,0,0,0,1,0,0,10,2,53
Gilberto  ,LAT,Vasco,3,"12,22",16,"5,11","6,90","1,02",51,0,1,3,24,7,1,1,0,0,0,0,5,0,0,24,2,78
Diego Souza ,MEI,Sport,3,"15,89",12,"5,10","-0,50","-0,79",6,6,1,0,34,10,3,2,0,0,0,0,4,0,0,22,1,55
Roberto ,LAT,Chapecoense,2,"4,39",1,"5,10","5,10","0,39",3,0,0,0,2,0,0,0,0,0,0,0,0,0,0,2,0,0
Sornoza ,MEI,Fluminense,2,"15,81",2,"5,05","0,00","0,00",2,1,0,0,2,1,1,0,0,0,0,0,1,0,0,1,0,5
Léo Santos ,ZAG,Corinthians,2,"4,38",1,"5,00","0,00","0,00",0,0,0,1,0,0,0,0,0,0,0,0,0,0,0,0,0,0
Renan Fonseca ,ZAG,Botafogo,2,"3,30",1,"5,00","5,00","0,30",0,0,0,1,0,0,0,0,0,0,0,0,0,0,0,0,0,0
Guilherme Arana ,LAT,Corinthians,2,"11,24",18,"4,99","9,50","0,97",9,2,2,13,23,2,2,0,0,0,0,0,3,0,0,12,4,58
Wilson ,GOL,Coritiba,3,"14,14",19,"4,99","7,40","-0,57",0,0,0,6,3,0,0,0,38,1,0,0,2,0,25,0,0,12
Éverton Ribeiro ,MEI,Flamengo,3,"12,85",10,"4,98","0,30","-1,79",11,2,4,0,22,4,3,0,0,0,0,0,1,0,0,7,0,54
Vanderlei Luxemburgo ,TEC,Sport,3,"8,79",16,"4,96","3,27","0,00",0,0,0,0,0,0,0,0,0,0,0,0,0,0,0,0,0,0
Fabrício ,LAT,Atlético-PR,2,"5,14",2,"4,95","5,80","0,38",2,0,0,2,2,0,0,0,0,0,0,0,1,0,0,2,0,5
Cleiton ,GOL,Atlético-MG,2,"1,85",1,"4,90","0,00","0,00",0,0,0,1,1,0,0,0,0,0,0,0,0,0,0,0,0,2
Nino Paraíba ,LAT,Ponte Preta,2,"19,65",15,"4,89","5,00","0,49",26,1,2,5,26,4,5,0,0,0,0,0,3,0,0,16,3,64
Pedro Henrique ,ZAG,Corinthians,2,"9,61",12,"4,88","8,00","0,38",10,1,0,7,4,2,2,0,0,0,0,0,0,0,0,4,0,16
Oswaldo Henríquez ,ZAG,Sport,1,"4,89",6,"4,88","2,30","0,04",14,0,0,3,3,1,0,0,0,0,0,0,2,0,0,10,0,9
Fabiano Soares ,TEC,Atlético-PR,3,"10,11",5,"4,83","5,44","-0,39",0,0,0,0,0,0,0,0,0,0,0,0,0,0,0,0,0,0
Fábio Carille ,TEC,Corinthians,2,"12,42",19,"4,82","7,23","0,10",0,0,0,0,0,0,0,0,0,0,0,0,0,0,0,0,0,0
Clayton ,ATA,Corinthians,2,"7,66",3,"4,80","0,00","0,00",0,2,0,0,0,0,0,0,0,0,0,0,0,0,0,2,0,2
Bruno Henrique ,MEI,Palmeiras,3,"11,07",7,"4,80","0,00","0,00",15,1,1,0,10,6,0,0,0,0,0,0,1,0,0,17,0,12
Bruno Silva ,MEI,Botafogo,2,"11,93",15,"4,79","1,10","-0,05",30,4,2,0,25,9,3,0,0,0,0,0,6,0,0,31,0,52
Renato Gaúcho ,TEC,Grêmio,3,"15,81",19,"4,68","5,13","-0,21",0,0,0,0,0,0,0,0,0,0,0,0,0,0,0,0,0,0
Paolo Guerrero ,ATA,Flamengo,5,"11,48",13,"4,66","0,00","0,00",11,5,2,0,32,14,10,0,0,0,0,0,3,0,0,49,10,28
Jucilei ,MEI,São Paulo,2,"14,28",19,"4,65","3,40","-0,26",50,1,0,0,36,7,1,0,0,0,0,0,0,0,0,27,0,50
Pablo ,ZAG,Corinthians,5,"11,84",13,"4,65","0,00","0,00",9,0,0,10,5,6,2,0,0,0,0,0,2,0,0,9,0,17
Everton ,ATA,Grêmio,3,"10,68",16,"4,65","5,40","0,30",8,5,2,0,7,9,8,1,0,0,0,0,1,0,0,7,1,15
Fagner Alemão ,LAT,Avaí,3,"10,50",16,"4,64","7,80","1,09",32,0,0,7,12,4,1,0,0,0,0,0,2,0,0,10,4,46
Jô ,ATA,Corinthians,2,"12,75",19,"4,63","2,00","-0,98",6,11,2,0,23,10,11,0,0,0,0,0,2,1,0,36,21,45
Ramon ,LAT,Vasco,3,"7,35",5,"4,62","0,00","0,00",7,0,1,1,15,2,0,0,0,0,0,0,0,0,0,7,0,14
Wanderson ,ZAG,Atlético-PR,3,"6,98",10,"4,62","0,00","0,00",6,2,0,5,3,0,4,0,0,0,0,0,1,0,0,7,1,15
Jeferson ,LAT,Ponte Preta,3,"6,61",8,"4,61","8,00","1,32",10,0,1,6,4,2,0,0,0,0,0,0,2,0,0,8,0,35
Pedro Rocha ,ATA,Grêmio,2,"10,99",15,"4,61","9,40","1,80",16,3,2,0,18,5,12,1,0,0,0,0,0,0,0,13,5,37
Rildo ,ATA,Coritiba,3,"9,97",17,"4,61","9,20","-0,39",17,4,2,0,55,5,3,0,0,0,0,0,2,0,0,17,5,39
Aranha ,GOL,Ponte Preta,3,"12,47",18,"4,60","5,00","1,13",0,0,0,8,3,0,0,0,31,0,0,0,1,0,24,0,0,6
Marllon ,ZAG,Ponte Preta,4,"12,43",18,"4,59","6,40","0,41",26,0,0,8,20,3,1,1,0,0,0,0,2,0,0,7,0,36
Ribamar ,ATA,Atlético-PR,3,"6,17",3,"4,50","0,00","0,00",2,1,0,0,7,4,0,0,0,0,0,0,0,0,0,4,2,4
Cléber ,ZAG,Santos,2,"6,49",1,"4,50","0,00","0,00",0,0,0,1,0,0,0,0,0,0,0,0,0,0,0,1,0,0
Daniel Guedes  ,LAT,Santos,2,"4,71",7,"4,50","0,00","0,00",11,1,1,4,7,1,1,0,0,0,0,2,2,0,0,15,0,13
Rithely ,MEI,Sport,3,"11,09",16,"4,48","2,50","-0,30",39,1,2,0,17,14,5,0,0,0,0,0,4,0,0,23,1,53
Ángel Romero ,ATA,Corinthians,2,"11,87",15,"4,48","-0,20","-1,01",27,2,2,0,49,5,6,0,0,0,0,0,5,0,0,15,10,54
Levir Culpi ,TEC,Santos,3,"11,06",13,"4,48","5,33","0,24",0,0,0,0,0,0,0,0,0,0,0,0,0,0,0,0,0,0
Diogo Barbosa ,LAT,Cruzeiro,2,"13,01",17,"4,45","6,40","0,85",29,0,2,7,21,3,2,1,0,0,0,0,4,0,0,15,2,67
Régis ,MEI,Bahia,3,"16,46",11,"4,45","9,50","1,69",7,3,4,0,7,2,3,0,0,0,0,0,1,0,0,8,2,26
Edson ,MEI,Bahia,3,"13,95",7,"4,44","7,40","0,30",12,1,1,0,9,6,1,0,0,0,0,1,0,0,0,3,2,15
David Braz ,ZAG,Santos,3,"12,13",16,"4,41","0,00","0,00",16,2,1,10,8,5,1,0,0,0,0,1,5,0,0,15,2,42
Júnior Dutra ,ATA,Avaí,3,"7,52",13,"4,37","1,20","-0,57",11,3,1,0,19,13,7,2,0,0,0,0,1,0,0,20,2,35
Marcelo Oliveira ,TEC,Coritiba,3,"9,43",3,"4,34","5,85","0,82",0,0,0,0,0,0,0,0,0,0,0,0,0,0,0,0,0,0
Neilton ,ATA,Vitória,3,"8,28",13,"4,34","13,00","0,36",8,4,3,0,19,5,2,0,0,0,0,0,1,0,0,18,0,27
Victor Luis ,LAT,Botafogo,2,"12,45",15,"4,34","0,00","0,00",25,1,0,6,14,3,0,0,0,0,0,0,3,0,0,16,0,35
Rhodolfo ,ZAG,Flamengo,3,"7,85",5,"4,34","2,20","-0,85",5,0,0,3,1,2,0,0,0,0,0,0,0,0,0,4,1,4
Arnaldo ,LAT,Botafogo,2,"8,90",13,"4,32","0,00","0,00",24,0,1,5,17,0,1,0,0,0,0,0,2,0,0,17,0,39
Capa ,LAT,Avaí,3,"12,24",18,"4,31","7,60","1,64",40,0,1,7,44,6,2,0,0,0,1,0,3,0,0,29,4,101
Jean ,GOL,Bahia,3,"11,09",19,"4,31","-1,50","-0,26",0,0,0,6,1,0,0,0,36,0,0,0,2,0,24,1,0,14
Dudu ,ATA,Palmeiras,5,"16,89",10,"4,30","0,00","0,00",11,3,0,0,45,3,1,0,0,0,0,0,3,0,0,10,4,41
Jesiel ,ZAG,Atlético-MG,2,"3,21",1,"4,30","0,00","0,00",1,0,0,0,1,2,1,0,0,0,0,0,0,0,0,0,0,1
Júnior Tavares ,LAT,São Paulo,5,"12,18",15,"4,29","3,10","-0,56",19,0,4,4,31,6,1,0,0,0,0,0,2,0,0,17,0,54
Arthur ,MEI,Grêmio,2,"8,85",16,"4,29","-0,10","-0,81",38,1,0,0,33,0,1,0,0,0,0,0,3,0,0,11,0,33
Henrique Almeida ,ATA,Coritiba,2,"14,46",17,"4,25","0,00","0,00",16,5,1,0,32,14,11,1,0,0,0,0,3,1,0,22,14,43
Juan ,ZAG,Flamengo,2,"6,65",8,"4,23","0,00","0,00",11,0,2,1,5,5,3,1,0,0,0,0,3,0,0,6,0,11
Yago Pikachu ,LAT,Vasco,2,"9,41",12,"4,20","0,00","0,00",9,2,1,3,12,4,4,0,0,0,0,0,0,0,0,9,1,29
Léo Duarte ,ZAG,Flamengo,2,"3,24",1,"4,20","0,00","0,00",0,0,0,1,1,0,0,0,0,0,0,0,0,0,0,2,0,1
Alex ,MEI,Cruzeiro,2,"3,30",1,"4,20","0,00","0,00",2,0,0,0,2,1,0,0,0,0,0,0,0,0,0,0,0,3
Rodinei ,LAT,Flamengo,2,"9,05",10,"4,19","0,00","0,00",10,1,3,4,8,2,2,0,0,0,0,1,2,0,0,17,1,25
Luan ,ZAG,Palmeiras,3,"7,08",9,"4,19","0,00","0,00",11,0,0,4,9,5,1,0,0,0,0,0,1,0,0,10,0,10
Kanu ,ZAG,Vitória,3,"9,38",13,"4,18","8,00","1,34",18,2,1,4,8,9,2,0,0,0,1,0,3,0,0,12,4,32
Ronaldo Alves ,ZAG,Sport,3,"8,28",14,"4,16","0,00","0,00",11,1,1,7,26,2,4,0,0,0,0,0,4,0,0,17,1,33
Renê ,LAT,Flamengo,3,"7,20",8,"4,15","0,00","0,00",18,0,0,2,9,1,0,0,0,0,0,0,0,0,0,12,0,22
Yerry Mina ,ZAG,Palmeiras,5,"14,96",11,"4,14","0,00","0,00",17,1,1,4,10,4,3,0,0,0,0,0,4,0,0,19,2,29
Lucas Veríssimo ,ZAG,Santos,3,"7,64",17,"4,14","5,10","0,78",20,0,0,10,8,3,4,0,0,0,0,0,4,0,0,12,1,31
Victor ,GOL,Atlético-MG,3,"10,90",17,"4,13","2,00","-0,18",0,0,0,3,2,0,0,0,28,3,0,0,3,0,21,1,0,8
Léo Principe ,LAT,Corinthians,2,"3,10",2,"4,10","1,70","-0,62",3,0,0,1,2,0,0,0,0,0,0,0,0,0,0,4,0,3
Matheus Savio ,MEI,Flamengo,2,"10,99",5,"4,10","0,00","0,00",8,1,0,0,0,1,1,0,0,0,0,0,0,0,0,1,1,6
Caio Monteiro ,ATA,Vasco,2,"2,53",2,"4,10","0,00","0,00",0,1,0,0,1,0,0,0,0,0,0,0,0,0,0,0,0,1
Mascarenhas ,LAT,Fluminense,2,"4,43",4,"4,10","0,00","0,00",4,1,0,1,6,2,0,0,0,0,0,0,1,0,0,5,0,11
Fernando Prass ,GOL,Palmeiras,3,"14,66",15,"4,06","4,00","0,22",0,0,0,4,2,0,0,0,25,0,0,0,0,0,17,0,0,4
Roger ,ATA,Botafogo,2,"8,98",16,"4,06","0,00","0,00",8,6,2,0,20,13,9,0,0,0,0,0,2,1,0,19,15,34
Jean ,MEI,Vasco,3,"10,20",18,"4,04","2,30","-0,52",45,1,0,0,27,7,5,0,0,0,0,0,4,0,0,31,0,39
Thiago Heleno ,ZAG,Atlético-PR,3,"10,43",13,"4,04","13,70","1,10",13,2,0,6,9,5,0,0,0,0,0,0,4,0,0,15,0,27
Wallace Reis  ,ZAG,Vitória,4,"7,74",5,"4,02","4,40","0,34",8,0,0,2,10,0,0,1,0,0,0,0,3,0,0,6,0,10
Jonathan ,LAT,Atlético-PR,3,"9,12",13,"4,02","8,60","0,38",16,1,1,5,14,2,0,0,0,0,0,0,3,0,0,9,0,36
Rodriguinho ,MEI,Corinthians,2,"15,54",15,"4,01","11,80","0,00",14,3,3,0,29,9,10,1,0,0,0,0,4,0,0,25,1,53
Gustavo Scarpa ,MEI,Fluminense,3,"11,94",17,"3,98","1,70","-1,62",17,1,4,0,33,12,15,2,0,0,0,0,0,0,0,16,0,94
Lucas Pratto ,ATA,São Paulo,3,"14,85",19,"3,98","0,60","-0,94",9,5,2,0,23,29,18,0,0,0,0,0,2,1,0,24,4,60
Everton ,MEI,Flamengo,4,"13,88",16,"3,98","1,90","0,31",24,3,2,0,29,8,10,1,0,0,0,0,6,0,0,29,7,49
Ramiro ,MEI,Grêmio,2,"15,73",15,"3,98","0,00","0,00",18,4,3,0,26,9,7,0,0,0,0,0,4,0,0,32,2,64
Reinaldo ,LAT,Chapecoense,2,"12,62",16,"3,97","0,00","0,00",27,3,1,3,13,4,3,0,0,0,0,0,3,0,0,19,1,76
João Paulo Sanches ,TEC,Atlético-GO,3,"5,62",5,"3,96","2,30","-0,18",0,0,0,0,0,0,0,0,0,0,0,0,0,0,0,0,0,0
Lucas Rocha ,ZAG,Vasco,2,"2,99",2,"3,95","4,90","0,66",2,0,0,1,3,0,0,0,0,0,0,0,0,0,0,1,0,5
Gilson ,LAT,Botafogo,3,"9,66",12,"3,95","7,20","0,54",11,0,1,5,20,1,0,1,0,0,0,0,3,0,0,7,1,19
Fábio ,GOL,Cruzeiro,1,"13,04",19,"3,95","4,40","-0,67",0,0,0,8,2,0,0,0,23,0,0,0,0,0,16,1,0,9
Gilson Kleina ,TEC,Ponte Preta,3,"12,42",18,"3,93","4,35","0,23",0,0,0,0,0,0,0,0,0,0,0,0,0,0,0,0,0,0
Reginaldo ,ZAG,Fluminense,5,"4,52",10,"3,92","0,00","0,00",27,0,0,1,7,1,0,0,0,0,0,0,0,0,0,12,0,33
Victor Ferraz ,LAT,Santos,3,"10,18",11,"3,91","7,20","1,09",9,2,0,5,10,1,0,0,0,0,0,0,2,0,0,9,0,35
Edimar ,LAT,São Paulo,3,"4,96",5,"3,90","2,50","0,19",9,0,0,1,10,1,2,0,0,0,0,0,0,0,0,5,0,20
Gabriel ,ZAG,Atlético-MG,3,"9,00",11,"3,90","0,00","0,00",15,1,0,3,9,3,1,0,0,0,0,0,0,0,0,12,0,24
Rodrigo Lindoso ,MEI,Botafogo,2,"9,80",15,"3,90","-0,60","0,07",30,2,1,0,13,2,3,0,0,0,0,0,2,0,0,15,0,43
Cuca ,TEC,Palmeiras,3,"13,67",19,"3,89","3,52","-0,12",0,0,0,0,0,0,0,0,0,0,0,0,0,0,0,0,0,0
Lucas Barrios ,ATA,Grêmio,2,"9,41",10,"3,88","0,00","0,00",6,4,1,0,13,2,5,0,0,0,0,0,3,0,0,15,6,16
Deyverson ,ATA,Palmeiras,3,"6,96",4,"3,88","2,40","-1,18",3,2,0,0,9,3,2,0,0,0,0,0,1,0,0,15,1,14
Esteban Pavez ,MEI,Atlético-PR,3,"4,28",3,"3,87","1,80","-0,58",8,0,0,0,1,1,1,0,0,0,0,0,0,0,0,3,0,9
Marcos Calazans ,ATA,Fluminense,5,"5,76",11,"3,87","0,00","0,31",28,0,2,0,14,3,2,0,0,0,0,0,4,0,0,20,3,22
Anselmo ,MEI,Sport,2,"6,34",5,"3,86","5,10","-0,16",17,0,0,0,4,2,0,0,0,0,0,0,2,0,0,12,0,10
Jair Ventura ,TEC,Botafogo,3,"11,38",19,"3,86","3,62","0,51",0,0,0,0,0,0,0,0,0,0,0,0,0,0,0,0,0,0
Rodrigo ,ZAG,Ponte Preta,3,"9,65",13,"3,86","6,80","0,04",13,0,0,6,21,7,6,0,0,0,0,1,3,0,0,7,2,26
Lucas Romero ,MEI,Cruzeiro,2,"8,29",18,"3,85","2,80","-1,18",39,1,2,0,21,5,0,0,0,0,0,0,2,0,0,21,0,48
Bruno Cortez ,LAT,Grêmio,2,"10,95",16,"3,80","0,00","0,00",21,1,0,8,12,0,0,0,0,0,0,0,3,0,0,24,2,33
Mano Menezes ,TEC,Cruzeiro,3,"12,49",19,"3,79","3,15","-0,69",0,0,0,0,0,0,0,0,0,0,0,0,0,0,0,0,0,0
Marcos Rocha ,LAT,Atlético-MG,3,"8,91",7,"3,77","0,00","0,00",18,0,2,1,8,3,1,0,0,0,0,0,2,0,0,20,0,41
Lucas Marques ,MEI,Chapecoense,2,"3,80",9,"3,76","9,70","1,60",14,2,1,0,6,4,1,1,0,0,0,0,2,0,0,17,0,29
Caíque Sá ,LAT,Vitória,3,"3,05",5,"3,74","4,80","0,17",11,0,0,2,6,1,0,0,0,0,0,0,1,0,0,9,0,24
Réver ,ZAG,Flamengo,3,"9,93",16,"3,74","-1,10","-0,45",16,2,0,4,13,2,4,0,0,0,0,0,2,0,0,10,1,19
Kleber ,ATA,Coritiba,4,"12,46",10,"3,74","0,00","0,00",4,4,1,0,26,6,10,0,0,0,0,1,1,0,0,28,6,32
Wellington Silva ,ATA,Fluminense,3,"10,28",7,"3,73","9,90","1,61",4,2,1,0,12,2,0,0,0,0,0,0,0,0,0,4,4,17
Zeca ,LAT,Santos,3,"10,96",4,"3,70","8,50","1,16",1,0,0,2,3,1,1,1,0,0,0,0,0,0,0,3,0,7
Índio ,ATA,Sport,2,"2,26",1,"3,70","0,00","0,00",1,0,0,0,2,0,1,0,0,0,0,0,0,0,0,0,0,0
Naldo ,MEI,Ponte Preta,3,"6,86",10,"3,70","0,20","0,16",25,1,0,0,8,2,1,0,0,0,0,0,2,0,0,17,1,23
Mayke ,LAT,Palmeiras,5,"7,38",14,"3,70","0,00","0,00",21,1,0,5,8,2,0,0,0,0,0,0,1,0,0,21,3,28
Felipe Santana ,ZAG,Atlético-MG,2,"9,11",8,"3,69","0,00","0,00",9,1,1,1,6,2,0,0,0,0,0,0,0,0,0,7,1,14
Weverton ,GOL,Atlético-PR,3,"5,85",16,"3,67","11,20","0,87",1,0,0,6,5,0,0,0,23,0,0,0,1,0,19,0,0,15
Magrão ,GOL,Sport,3,"5,17",16,"3,64","-3,00","-0,56",1,0,0,6,0,0,0,0,24,0,0,0,0,0,22,0,0,5
Marcão Silva ,MEI,Atlético-GO,2,"8,40",14,"3,63","0,00","0,00",44,0,0,0,10,4,0,0,0,0,0,0,5,0,0,26,0,29
Shaylon ,MEI,São Paulo,2,"2,36",2,"3,60","0,00","0,00",0,1,0,0,0,0,0,0,0,0,0,0,0,0,0,1,0,1
Thiago ,GOL,Flamengo,2,"4,24",11,"3,59","0,00","0,00",0,0,1,4,1,0,0,0,11,0,0,0,0,0,9,0,0,3
Alex Silva ,LAT,Atlético-MG,2,"4,91",9,"3,58","3,10","0,80",14,0,3,2,12,2,0,0,0,0,0,0,3,0,0,21,0,25
Rafael Vaz ,ZAG,Flamengo,2,"8,14",10,"3,56","0,00","0,00",11,0,0,4,4,4,4,0,0,0,0,0,0,0,0,4,0,33
Cazares ,MEI,Atlético-MG,3,"9,08",14,"3,56","0,00","0,00",3,2,5,0,8,14,15,0,0,0,0,0,0,1,0,13,1,49
Clayson ,ATA,Corinthians,2,"16,36",14,"3,55","10,50","0,33",13,2,3,0,8,5,3,0,0,0,0,0,1,0,0,6,3,24
Nenê ,MEI,Vasco,2,"13,63",12,"3,53","0,00","0,00",9,2,3,0,31,7,5,0,0,0,0,0,3,0,0,13,2,53
Fred ,ATA,Atlético-MG,3,"14,99",13,"3,49","0,00","0,00",3,5,1,0,27,7,4,1,0,0,0,0,2,1,0,22,9,26
Werley ,ZAG,Coritiba,2,"8,58",11,"3,48","0,00","0,00",11,0,0,5,4,5,1,0,0,0,0,0,0,0,0,7,0,28
Vagner Mancini ,TEC,Vitória,3,"9,25",14,"3,47","6,35","0,22",0,0,0,0,0,0,0,0,0,0,0,0,0,0,0,0,0,0
Vinícius Tanque ,ATA,Botafogo,2,"1,91",2,"3,45","0,00","-1,02",0,1,0,0,1,0,0,0,0,0,0,0,0,0,0,2,0,2
Matheus Fernandes ,MEI,Botafogo,3,"4,35",13,"3,45","0,00","0,00",32,0,0,0,9,6,0,0,0,0,0,0,1,0,0,19,0,23
Jean Mota ,MEI,Santos,1,"6,37",17,"3,45","8,40","1,07",30,0,2,0,20,5,4,0,0,0,0,0,1,0,0,7,0,48
Márcio Araújo ,MEI,Flamengo,3,"9,29",17,"3,44","0,00","0,00",38,0,0,0,25,5,0,0,0,0,0,0,2,0,0,20,0,27
Dedé ,ZAG,Cruzeiro,5,"8,86",3,"3,43","0,00","0,00",2,0,0,2,2,0,0,0,0,0,0,0,0,0,0,1,0,12
Jonas ,MEI,Coritiba,3,"8,22",17,"3,43","3,90","0,60",48,0,0,0,18,8,0,0,0,0,0,0,4,0,0,31,0,48
Marcelo ,ZAG,Botafogo,3,"4,88",7,"3,42","6,40","1,01",9,0,0,3,1,3,1,0,0,0,0,0,1,0,0,7,0,15
Juninho ,MEI,Bahia,2,"10,66",16,"3,42","0,80","-0,38",20,2,2,0,10,12,11,1,0,0,0,0,1,0,0,29,0,55
Airton  ,ZAG,Avaí,2,"2,11",2,"3,40","0,00","0,00",2,0,0,1,0,2,0,0,0,0,0,0,0,0,0,3,0,5
Leandro Salino ,LAT,Vitória,2,"5,87",7,"3,40","0,00","0,00",15,0,0,1,16,2,0,0,0,0,0,0,1,0,0,15,0,22
Milton Mendes ,TEC,Vasco,3,"9,30",19,"3,39","3,46","0,28",0,0,0,0,0,0,0,0,0,0,0,0,0,0,0,0,0,0
João Lucas ,LAT,Ponte Preta,2,"11,26",10,"3,39","0,00","0,00",14,0,1,4,6,0,1,0,0,0,0,0,1,0,0,7,1,43
Uillian Correia ,MEI,Vitória,3,"5,30",16,"3,39","0,00","0,00",27,3,0,0,7,8,1,0,0,0,0,0,3,0,0,25,1,22
Edu Dracena ,ZAG,Palmeiras,3,"8,65",9,"3,39","1,70","-0,63",6,0,0,4,12,4,1,0,0,0,0,0,1,0,0,10,2,5
Lucão ,ZAG,São Paulo,2,"5,25",6,"3,38","0,00","0,00",5,0,0,3,5,2,1,0,0,0,0,0,0,0,0,6,0,17
Mateus Vital ,MEI,Vasco,3,"9,06",15,"3,38","4,90","0,08",16,0,2,0,31,4,9,0,0,0,0,0,1,0,0,11,1,20
Samuel Xavier ,LAT,Sport,4,"3,68",16,"3,38","-3,00","-0,94",22,0,0,7,21,1,4,0,0,0,0,0,3,0,0,16,1,63
Marcos Vinícius ,MEI,Botafogo,3,"5,41",7,"3,37","0,20","-2,30",3,2,0,0,7,2,3,1,0,0,0,0,0,0,0,10,0,13
Santos ,GOL,Atlético-PR,2,"5,43",2,"3,35","0,00","0,00",0,0,0,1,0,0,0,0,2,0,0,0,0,0,2,0,0,1
Henrique ,LAT,Vasco,2,"8,37",15,"3,35","4,90","0,81",20,0,2,3,23,1,3,0,0,0,0,0,1,0,0,19,2,38
Dodô ,LAT,Coritiba,2,"9,34",11,"3,33","0,00","0,00",18,0,0,5,7,3,2,0,0,0,0,0,2,0,0,17,0,47
Igor Rabello ,ZAG,Botafogo,2,"9,32",16,"3,32","0,00","0,00",25,0,0,6,8,4,3,0,0,0,1,0,4,0,0,15,1,24
Hudson ,MEI,Cruzeiro,3,"7,51",8,"3,31","0,00","0,00",15,1,0,0,7,2,1,0,0,0,0,0,1,0,0,13,0,15
Arrascaeta ,MEI,Cruzeiro,5,"8,08",4,"3,30","0,00","0,00",5,0,0,0,10,3,5,0,0,0,0,0,0,0,0,4,0,18
Abuda ,MEI,Atlético-GO,2,"5,39",1,"3,30","0,00","0,00",2,0,0,0,1,0,0,0,0,0,0,0,0,0,0,0,0,2
Maycon ,MEI,Corinthians,2,"8,73",19,"3,29","6,40","0,15",28,1,3,0,8,9,5,0,0,0,0,0,0,0,0,11,0,60
Raul Prata ,LAT,Sport,3,"3,71",4,"3,28","0,00","0,00",5,0,0,2,5,2,0,0,0,0,0,0,1,0,0,5,0,16
Abel Braga ,TEC,Fluminense,3,"11,96",17,"3,27","3,80","0,10",0,0,0,0,0,0,0,0,0,0,0,0,0,0,0,0,0,0
Lenis ,ATA,Sport,1,"4,03",9,"3,26","0,00","0,00",7,1,3,0,9,5,3,0,0,0,0,0,3,0,0,11,0,17
Fernando Miguel ,GOL,Vitória,3,"11,74",17,"3,22","11,00","-0,20",0,0,0,5,3,0,0,0,30,0,0,0,2,0,27,0,0,13
Lucas Fonseca ,ZAG,Bahia,4,"5,47",15,"3,22","1,10","-0,21",15,0,1,5,17,1,1,0,0,0,0,1,1,0,0,6,0,25
Andrigo ,MEI,Atlético-GO,4,"6,09",19,"3,22","2,20","0,30",28,2,2,0,12,10,8,1,0,0,0,0,3,0,0,17,1,73
Preto Casagrande ,TEC,Bahia,3,"8,37",2,"3,22","3,24","-0,06",0,0,0,0,0,0,0,0,0,0,0,0,0,0,0,0,0,0
Mendoza ,ATA,Bahia,3,"4,72",14,"3,21","8,50","0,38",15,1,0,0,19,15,7,0,0,0,0,0,0,0,0,11,1,32
Leonan ,LAT,Atlético-MG,2,"2,69",3,"3,17","4,90","0,51",4,0,0,1,7,0,0,0,0,0,0,0,1,0,0,4,0,6
Geferson ,LAT,Vitória,2,"11,19",12,"3,12","6,10","0,62",26,0,0,3,9,1,1,0,0,0,0,0,5,0,0,19,2,25
Willian Farias ,MEI,Vitória,2,"9,33",10,"3,11","0,00","0,00",27,0,0,0,8,3,0,1,0,0,0,0,4,0,0,16,0,28
Marquinhos Gabriel ,MEI,Corinthians,2,"8,74",12,"3,10","0,00","0,00",7,2,3,0,17,3,4,0,0,0,0,0,3,0,0,9,1,31
Claudinei Oliveira ,TEC,Avaí,3,"7,72",19,"3,10","4,85","0,74",0,0,0,0,0,0,0,0,0,0,0,0,0,0,0,0,0,0
Mauricio Kozlinski ,GOL,Avaí,2,"8,10",9,"3,10","0,00","0,00",0,0,0,2,0,0,0,0,15,0,0,0,0,0,13,0,0,4
Leandro Silva ,LAT,Avaí,3,"8,78",18,"3,10","6,90","1,19",23,0,2,7,18,7,4,0,0,0,0,1,1,0,0,27,2,82
Eduardo Henrique ,MEI,Atlético-PR,1,"2,96",8,"3,10","0,40","-3,41",10,2,0,0,8,1,2,0,0,0,0,0,1,0,0,15,0,18
Willian Arão ,MEI,Flamengo,3,"8,93",13,"3,09","4,20","-0,32",25,0,2,0,12,1,3,0,0,0,0,0,1,0,0,15,1,40
Cueva ,MEI,São Paulo,4,"9,36",14,"3,07","-1,60","-0,89",20,1,2,0,25,8,6,1,0,0,0,0,3,1,0,13,3,64
Marquinhos ,ATA,Sport,2,"5,05",3,"3,03","0,00","0,00",0,0,2,0,2,0,0,0,0,0,0,0,0,0,0,2,0,3
Diego Tavares ,LAT,Avaí,2,"6,20",10,"3,00","0,00","0,00",6,0,0,4,13,4,0,0,0,0,0,0,0,0,0,9,1,15
Alison ,MEI,Santos,3,"5,34",10,"3,00","7,20","0,11",14,1,0,0,11,0,0,0,0,0,0,0,0,0,0,8,0,11
Cascardo ,LAT,Atlético-PR,2,"4,01",8,"2,99","0,00","0,00",7,0,0,3,11,0,1,0,0,0,0,0,0,0,0,7,0,20
Durval ,ZAG,Sport,1,"6,81",14,"2,97","4,90","0,94",13,0,1,4,9,0,4,0,0,0,0,0,1,0,0,11,1,20
Guilherme ,ATA,Botafogo,3,"5,77",15,"2,95","3,20","0,27",6,2,1,0,25,9,5,1,0,0,0,0,0,0,0,11,0,29
Arboleda ,ZAG,São Paulo,3,"8,39",8,"2,95","3,60","0,76",6,1,1,1,8,5,1,0,0,0,0,0,1,0,0,9,0,22
Guilherme Costa ,MEI,Vasco,2,"5,21",6,"2,95","0,00","0,00",1,1,2,0,7,0,0,0,0,0,0,0,1,0,0,4,0,5
Élber ,MEI,Cruzeiro,2,"6,01",11,"2,95","0,00","0,00",5,1,0,0,21,7,6,1,0,0,0,0,0,0,0,3,1,23
Thomaz ,MEI,São Paulo,2,"5,16",8,"2,94","0,00","0,00",8,1,1,0,7,2,1,0,0,0,0,0,1,0,0,9,2,5
Neto Berola ,ATA,Coritiba,2,"9,69",11,"2,91","2,10","-0,50",8,1,2,0,12,8,2,0,0,0,0,0,1,0,0,7,4,19
Alan Costa ,ZAG,Vitória,2,"8,16",7,"2,91","0,00","0,00",8,0,1,1,3,2,0,0,0,0,0,0,0,0,0,4,1,12
João Paulo ,ATA,Bahia,2,"3,15",8,"2,87","0,00","0,00",0,2,0,0,12,5,3,0,0,0,0,0,1,0,0,4,0,5
Felipe Vizeu ,ATA,Flamengo,3,"4,67",7,"2,86","6,40","-0,80",3,1,0,0,6,3,3,1,0,0,0,0,0,0,0,7,0,4
João Paulo ,LAT,Avaí,2,"4,18",2,"2,85","0,00","0,00",1,0,0,1,1,0,0,0,0,0,0,0,0,0,0,0,0,5
Petros ,MEI,São Paulo,3,"9,54",9,"2,83","3,90","0,17",18,0,1,0,16,1,0,0,0,0,0,0,2,0,0,19,1,16
Copete ,ATA,Santos,3,"6,43",15,"2,82","2,10","0,02",10,5,0,0,21,11,4,0,0,0,0,0,3,0,0,23,7,53
Nikão ,MEI,Atlético-PR,3,"8,44",17,"2,80","-0,30","-0,49",14,1,2,0,29,5,13,1,0,0,0,0,2,0,0,18,1,51
Rodrigão ,ZAG,Atlético-MG,2,"2,97",3,"2,80","0,00","0,00",0,0,0,2,0,0,0,0,0,0,0,0,0,0,0,2,0,2
Thomás ,MEI,Sport,2,"6,71",8,"2,80","0,00","0,00",9,1,0,0,15,2,1,0,0,0,0,0,1,0,0,10,1,11
Trauco ,LAT,Flamengo,2,"6,26",13,"2,78","1,40","-0,36",13,1,0,5,7,6,3,1,0,0,0,0,3,0,0,22,0,54
Kieza ,ATA,Vitória,5,"9,53",8,"2,77","0,00","0,00",2,3,0,0,17,3,4,0,0,0,0,0,1,1,0,13,6,16
Marcio ,ZAG,Coritiba,3,"7,08",17,"2,76","3,60","0,57",13,1,1,6,8,3,2,0,0,0,0,0,3,0,0,21,1,31
Willian ,ATA,Palmeiras,5,"7,65",14,"2,76","0,00","0,00",11,3,1,0,21,6,6,1,0,0,0,0,4,1,0,23,5,26
Edigar Junio ,ATA,Bahia,5,"9,52",10,"2,75","0,00","0,00",4,2,0,0,16,2,5,1,0,0,0,0,0,0,0,14,1,19
Borja ,ATA,Palmeiras,2,"15,67",11,"2,73","1,60","0,01",4,3,0,0,12,12,6,0,0,0,0,0,3,0,0,16,3,19
Tomas Bastos ,MEI,Coritiba,2,"11,60",11,"2,72","0,00","0,00",8,2,1,0,8,8,6,0,0,0,0,0,2,0,0,15,1,28
Thiago Santos ,MEI,Palmeiras,3,"5,61",10,"2,72","0,00","0,00",29,0,0,0,17,1,0,0,0,0,0,0,4,0,0,33,1,21
Juninho ,ZAG,Palmeiras,5,"8,49",11,"2,71","-0,60","-0,34",17,0,2,2,6,2,1,0,0,0,0,0,4,0,0,16,0,28
Léo ,ZAG,Cruzeiro,3,"9,31",18,"2,71","4,10","0,04",13,0,1,8,11,3,2,0,0,0,0,0,4,0,0,12,0,46
Gabriel ,MEI,Corinthians,2,"8,66",18,"2,71","6,50","0,28",36,1,0,0,18,0,3,0,0,0,0,1,2,0,0,25,0,36
Allione ,MEI,Bahia,5,"10,13",13,"2,70","2,00","-0,12",16,0,4,0,15,1,2,1,0,0,0,0,3,0,0,9,4,44
Kannemann ,ZAG,Grêmio,2,"9,94",14,"2,70","0,00","0,00",14,0,0,7,8,2,0,1,0,0,0,0,5,0,0,20,1,31
Andrey ,MEI,Vasco,2,"2,02",3,"2,70","6,40","1,23",4,0,0,0,5,4,0,0,0,0,0,0,1,0,0,1,0,5
Edílson ,LAT,Grêmio,2,"9,32",13,"2,70","0,00","0,00",17,1,0,5,10,6,3,0,0,0,0,1,4,1,0,23,1,35
Alex Muralha ,GOL,Flamengo,2,"4,22",5,"2,70","0,00","0,00",0,0,0,2,3,0,0,0,4,0,0,0,0,0,4,1,0,5
Elias ,MEI,Atlético-MG,3,"12,31",15,"2,68","0,00","0,00",23,2,0,0,12,2,5,0,0,0,0,0,1,0,0,19,2,49
Rogério Micale ,TEC,Atlético-MG,3,"8,46",3,"2,68","1,49","-0,21",0,0,0,0,0,0,0,0,0,0,0,0,0,0,0,0,0,0
Cuéllar ,MEI,Flamengo,2,"4,69",11,"2,67","0,00","0,00",24,0,0,0,4,0,2,0,0,0,0,0,2,0,0,12,0,18
André Lima ,ATA,Vitória,5,"7,10",10,"2,65","0,00","0,00",4,2,2,0,9,5,3,0,0,0,0,0,1,0,0,16,4,18
Bruno Rodrigo ,ZAG,Grêmio,3,"5,22",2,"2,65","5,60","0,11",1,0,0,1,0,0,0,0,0,0,0,0,0,0,0,1,0,3
Rodrigo Pimpão ,ATA,Botafogo,2,"8,04",17,"2,64","0,00","0,00",19,2,3,0,22,7,10,0,0,0,0,0,3,0,0,26,5,76
Murilo ,ZAG,Cruzeiro,2,"3,49",12,"2,64","9,30","0,76",10,0,0,5,5,5,0,0,0,0,0,0,1,0,0,13,1,25
Rodrigo Caio ,ZAG,São Paulo,3,"9,52",14,"2,64","0,00","0,00",22,0,0,3,8,3,1,1,0,0,0,0,6,0,0,11,1,27
Eduardo ,LAT,Bahia,3,"5,90",18,"2,64","0,20","-0,51",32,0,1,6,15,3,1,0,0,0,0,0,4,0,0,28,2,99
Roger Carvalho ,ZAG,Atlético-GO,5,"7,51",19,"2,63","0,90","-0,03",24,0,1,1,31,10,0,1,0,0,0,0,0,0,0,29,0,41
Rafael Thyere ,ZAG,Grêmio,2,"5,79",9,"2,60","0,00","0,00",6,1,0,3,7,1,1,0,0,0,1,0,1,0,0,6,0,13
Kaio ,MEI,Grêmio,3,"3,76",2,"2,60","0,00","0,00",1,0,0,0,8,1,2,0,0,0,0,0,0,0,0,4,0,4
Fernando Bob ,MEI,Ponte Preta,2,"8,36",9,"2,60","0,00","0,00",24,0,0,0,12,1,0,0,0,0,0,0,2,0,0,20,1,32
Pará ,LAT,Flamengo,3,"8,46",13,"2,59","2,70","0,10",6,1,1,4,11,4,0,0,0,0,0,0,0,0,0,16,1,31
Dorival Júnior ,TEC,São Paulo,3,"9,24",11,"2,59","2,50","-0,06",0,0,0,0,0,0,0,0,0,0,0,0,0,0,0,0,0,0
Matheus Alessandro ,ATA,Fluminense,2,"2,11",5,"2,56","4,20","0,71",3,0,1,0,3,0,1,1,0,0,0,0,0,0,0,2,1,6
Fábio Santos ,LAT,Atlético-MG,3,"3,85",15,"2,56","0,00","0,00",21,1,0,3,34,5,1,0,0,0,0,0,6,0,0,23,2,58
Róger Guedes ,ATA,Palmeiras,3,"6,78",18,"2,55","0,00","0,00",6,4,3,0,24,8,3,1,0,0,0,0,2,0,0,29,4,50
David ,ATA,Vitória,3,"4,37",18,"2,54","-1,70","-1,16",10,2,4,0,10,16,6,2,0,0,0,0,4,0,0,20,7,50
Bruno Paulista ,MEI,Vasco,3,"5,79",6,"2,53","-1,70","-0,73",9,0,0,0,12,6,3,0,0,0,0,0,2,0,0,9,0,16
Bryan ,LAT,Cruzeiro,3,"4,97",3,"2,53","0,00","0,00",2,0,0,1,3,0,1,0,0,0,0,0,0,0,0,3,0,6
Osvaldo ,ATA,Sport,1,"4,68",15,"2,49","-1,00","-0,29",8,3,1,0,19,5,4,0,0,0,0,0,2,0,0,8,2,44
Keno ,ATA,Palmeiras,3,"6,57",16,"2,48","0,00","0,00",12,3,0,0,13,5,4,1,0,0,0,0,2,0,0,12,2,37
Valdívia ,MEI,Atlético-MG,3,"7,76",8,"2,48","4,40","0,51",4,0,1,0,16,3,8,0,0,0,0,0,0,0,0,6,1,22
William Matheus ,LAT,Coritiba,3,"8,08",16,"2,45","7,00","0,69",18,0,0,5,34,2,5,0,0,0,0,1,4,0,0,21,1,52
Robinho ,MEI,Cruzeiro,3,"7,98",8,"2,44","-0,40","-1,36",8,2,0,0,6,7,3,0,0,0,0,0,2,0,0,6,2,43
Buffarini ,LAT,São Paulo,3,"7,05",3,"2,43","0,00","0,00",3,0,0,1,4,1,0,0,0,0,0,0,0,0,0,5,0,10
Fernandinho ,LAT,Ponte Preta,2,"5,26",4,"2,43","0,00","0,00",2,0,0,2,0,0,0,1,0,0,0,0,1,0,0,3,2,9
Lucas Fernandes ,MEI,São Paulo,5,"4,97",6,"2,42","0,00","0,00",3,1,0,0,4,3,2,0,0,0,0,0,1,0,0,3,0,4
Apodi ,LAT,Chapecoense,2,"6,90",17,"2,42","0,00","0,00",21,0,0,4,35,10,4,0,0,0,0,0,6,0,0,38,2,37
Betão ,ZAG,Avaí,3,"7,62",18,"2,41","7,20","1,73",13,0,0,8,16,1,1,0,0,0,0,0,5,0,0,13,0,39
Geuvânio ,ATA,Flamengo,3,"9,68",5,"2,40","3,70","-0,29",6,0,0,0,9,1,3,0,0,0,0,0,1,0,0,3,1,8
Paulo Vitor ,ATA,Vasco,2,"2,12",8,"2,40","-0,20","0,02",5,1,0,0,10,4,3,1,0,0,0,0,1,0,0,11,1,12
Matheus Galdezani ,MEI,Coritiba,3,"6,78",18,"2,39","-1,50","-0,26",27,1,1,0,34,9,12,0,0,0,0,0,5,0,0,38,1,73
Luiz Otávio  ,ZAG,Chapecoense,2,"6,40",10,"2,38","0,00","0,00",10,1,1,2,0,4,3,0,0,0,0,1,2,0,0,13,0,22
Ravanelli ,MEI,Ponte Preta,2,"8,16",3,"2,37","0,00","0,00",2,0,1,0,7,1,0,0,0,0,0,0,0,0,0,1,1,15
Euller  ,LAT,Vitória,2,"6,31",2,"2,35","0,00","0,00",0,0,0,1,1,0,0,0,0,0,0,0,0,0,0,1,0,1
Diego Rosa ,MEI,Atlético-GO,3,"7,27",11,"2,35","0,90","-0,03",6,1,2,0,6,1,4,0,0,0,0,0,1,0,0,9,3,7
Ezequiel  ,LAT,Cruzeiro,3,"4,91",7,"2,35","0,00","0,00",11,0,0,2,6,1,1,0,0,0,0,0,3,0,0,14,0,13
Erik ,ATA,Palmeiras,2,"4,34",7,"2,34","2,90","0,14",7,0,1,0,7,2,1,0,0,0,0,0,0,0,0,7,1,8
Paulo Roberto ,MEI,Corinthians,2,"3,53",5,"2,32","0,00","0,00",3,0,2,0,3,0,1,0,0,0,0,0,0,0,0,3,0,15
Ronaldo ,MEI,Sport,2,"3,20",1,"2,30","0,00","0,00",2,0,0,0,1,0,0,0,0,0,0,0,0,0,0,2,0,2
João Pedro  ,LAT,Chapecoense,5,"5,87",1,"2,30","0,00","0,00",1,0,0,0,1,1,0,0,0,0,0,0,0,0,0,0,0,2
Leandro Pereira ,ATA,Sport,5,"5,86",2,"2,30","0,00","0,00",2,0,0,0,1,0,1,0,0,0,0,0,0,0,0,0,0,1
Maicosuel ,MEI,São Paulo,2,"6,88",5,"2,30","0,00","0,00",3,0,0,0,7,1,3,0,0,0,0,0,0,0,0,1,0,1
Matheus Reis ,LAT,Bahia,3,"5,41",15,"2,29","0,00","0,00",14,0,1,5,21,1,1,0,0,0,0,0,3,0,0,23,0,47
Joel ,ATA,Avaí,5,"3,51",13,"2,28","1,20","0,12",11,2,0,0,13,7,4,1,0,0,0,1,1,0,0,22,4,13
Seijas ,MEI,Chapecoense,2,"6,63",16,"2,27","1,30","0,09",14,0,2,0,23,11,2,2,0,0,0,0,0,0,0,25,1,42
Victor Ramos ,ZAG,Chapecoense,2,"7,19",12,"2,26","0,00","0,00",11,1,0,3,2,4,2,0,0,0,0,0,2,0,0,19,0,23
Sassá ,ATA,Cruzeiro,3,"6,13",11,"2,26","-2,60","-1,47",6,3,0,0,16,4,3,0,0,0,0,0,2,0,0,26,7,9
Matheus Sales ,MEI,Bahia,2,"4,86",8,"2,25","0,00","0,00",14,0,1,0,10,2,1,0,0,0,0,0,3,0,0,12,1,19
Elton ,MEI,Ponte Preta,2,"5,96",14,"2,24","1,90","-1,06",21,1,1,0,14,3,1,0,0,0,0,1,0,0,0,23,2,33
Bruno Pacheco ,LAT,Atlético-GO,3,"7,13",17,"2,24","-0,40","-0,70",18,0,2,1,42,3,1,0,0,0,0,0,4,0,0,24,0,38
Éderson ,ATA,Atlético-PR,2,"4,08",10,"2,23","1,70","-0,49",3,1,1,0,5,6,7,0,0,0,0,0,0,0,0,4,6,15
Rogério ,ATA,Sport,5,"6,21",11,"2,23","0,00","0,00",3,1,1,0,22,3,5,0,0,0,0,0,0,0,0,5,0,31
Vinícius Eutrópio ,TEC,Chapecoense,2,"7,75",8,"2,22","1,68","-0,09",0,0,0,0,0,0,0,0,0,0,0,0,0,0,0,0,0,0
Renan Ribeiro ,GOL,São Paulo,3,"8,40",19,"2,20","-4,30","-0,85",0,0,0,5,1,0,0,0,25,0,0,0,1,0,26,0,0,15
Robert  ,MEI,Fluminense,2,"3,56",1,"2,20","2,20","-0,44",1,0,0,0,1,0,0,0,0,0,0,0,0,0,0,0,0,0
Léo Gomes ,LAT,Grêmio,3,"2,33",2,"2,20","0,00","0,00",2,0,0,1,1,0,0,0,0,0,0,0,0,0,0,6,0,5
Beto da Silva ,ATA,Grêmio,2,"3,74",1,"2,20","0,00","0,00",1,0,0,0,1,0,0,0,0,0,0,0,0,0,0,0,0,0
Joel Carli ,ZAG,Botafogo,2,"8,29",13,"2,19","0,00","0,00",14,1,1,5,6,2,0,0,0,0,0,0,7,0,0,26,1,34
Éder Militão ,MEI,São Paulo,3,"2,74",8,"2,19","4,60","0,28",11,0,0,0,8,3,0,0,0,0,0,0,0,0,0,4,1,16
Léo ,GOL,Grêmio,2,"4,77",5,"2,18","0,00","0,00",0,0,0,2,1,0,0,0,5,0,0,0,0,0,7,0,0,2
Ramon ,ZAG,Vitória,3,"4,51",7,"2,17","4,00","0,73",4,0,0,3,6,0,0,0,0,0,0,0,1,0,0,8,0,12
Gustavo Blanco ,MEI,Atlético-MG,5,"2,37",3,"2,17","0,00","0,00",6,0,0,0,1,0,0,0,0,0,0,0,0,0,0,4,2,4
Wellington Paulista ,ATA,Chapecoense,2,"9,54",15,"2,17","0,00","0,00",3,3,0,0,15,11,10,1,0,0,0,0,3,0,0,18,4,28
Rodrigo Becão ,ZAG,Bahia,2,"3,42",5,"2,16","0,00","0,00",5,0,0,1,4,1,1,0,0,0,0,0,1,0,0,4,0,8
Tiago  ,ZAG,Bahia,3,"8,53",18,"2,15","-3,60","-0,91",15,1,0,6,21,0,1,0,0,0,0,0,4,0,0,27,6,39
Mancuello ,MEI,Flamengo,2,"6,11",6,"2,13","0,00","0,00",5,1,0,0,3,2,2,0,0,0,0,0,2,0,0,4,1,7
Zé Roberto ,LAT,Palmeiras,2,"7,33",11,"2,13","2,70","-0,37",5,0,2,3,6,0,0,0,0,0,0,0,1,0,0,15,0,12
Breno Lopes ,LAT,Atlético-GO,2,"3,86",9,"2,12","0,00","0,00",12,0,0,1,7,4,5,0,0,0,0,0,0,0,0,13,6,27
Pedro ,ATA,Fluminense,2,"4,38",6,"2,12","0,00","0,00",3,1,0,0,8,2,2,0,0,0,0,0,1,0,0,7,1,6
Madson ,LAT,Vasco,2,"3,34",4,"2,12","0,00","0,00",2,0,0,1,7,1,0,0,0,0,0,0,0,0,0,1,0,12
Emerson Sheik ,ATA,Ponte Preta,2,"5,18",12,"2,11","0,90","-0,35",5,2,1,0,37,5,5,0,0,0,0,0,6,0,0,17,2,32
Fillipe Soutto ,MEI,Vitória,2,"3,58",3,"2,10","1,70","-0,03",5,0,0,0,2,0,0,0,0,0,0,0,0,0,0,1,0,9
Denilson ,ATA,São Paulo,2,"3,92",9,"2,09","0,00","0,00",3,1,1,0,9,3,4,0,0,0,0,0,0,0,0,5,1,23
Romulo ,ATA,Avaí,3,"9,11",19,"2,09","0,70","-0,56",15,2,0,0,28,10,7,0,0,0,0,0,1,0,0,25,4,44
Henrique ,MEI,Cruzeiro,2,"5,68",12,"2,09","0,00","0,00",22,0,0,0,17,2,3,0,0,0,0,1,3,0,0,11,0,29
Rafael Sobis ,ATA,Cruzeiro,3,"9,69",12,"2,08","-1,40","-0,51",4,2,1,0,11,9,8,0,0,0,0,0,3,0,0,16,1,27
Léo ,LAT,Coritiba,3,"5,48",7,"2,04","5,70","0,51",13,0,0,1,9,0,0,0,0,0,0,0,2,0,0,14,0,21
Everton Felipe ,MEI,Sport,3,"4,16",15,"2,04","-1,70","-0,21",16,1,2,0,21,7,12,0,0,0,0,0,2,0,0,23,2,85
Felipe Melo ,MEI,Palmeiras,2,"8,27",5,"2,04","0,00","0,00",9,0,0,0,9,2,1,0,0,0,0,0,2,0,0,10,0,10
Patric ,LAT,Vitória,3,"7,10",16,"2,00","3,70","0,37",19,0,1,4,8,8,4,0,0,0,0,0,2,0,0,23,5,69
Rodrigo ,MEI,Sport,2,"3,85",6,"2,00","0,00","0,00",11,0,0,0,4,0,0,0,0,0,0,0,1,0,0,8,0,9
Marlon ,LAT,Fluminense,3,"4,93",2,"2,00","5,50","1,34",1,0,1,0,0,1,1,0,0,0,0,0,0,0,0,4,0,8
Igor ,MEI,Atlético-GO,3,"4,13",13,"2,00","0,00","0,00",23,1,0,0,24,8,6,0,0,0,0,0,6,0,0,45,3,29
Diego Renan ,LAT,Chapecoense,2,"4,82",6,"1,98","-0,10","-0,65",2,0,1,1,6,3,3,0,0,0,0,0,1,0,0,5,0,17
Felipe Garcia ,GOL,Atlético-GO,3,"6,69",16,"1,98","0,00","-0,31",0,0,0,1,1,0,0,0,27,0,0,0,1,0,25,0,0,10
Jadson ,MEI,Corinthians,5,"9,20",14,"1,97","0,00","0,00",7,4,1,0,5,8,3,0,0,0,0,0,2,0,0,13,3,68
René ,ZAG,Vitória,2,"3,27",10,"1,97","6,20","0,54",8,0,0,4,7,1,1,0,0,0,0,0,3,0,0,16,0,17
Vladimir Hernández ,ATA,Santos,2,"8,74",11,"1,96","0,00","0,00",5,1,0,0,17,3,3,0,0,0,0,0,1,0,0,5,2,10
Elder Santana ,ATA,Atlético-MG,2,"1,40",2,"1,95","3,90","0,64",2,0,0,0,1,0,0,0,0,0,0,0,0,0,0,0,0,0
Lourency ,ATA,Chapecoense,2,"3,22",9,"1,95","0,00","0,00",4,1,1,0,6,3,3,0,0,0,0,0,2,0,0,8,0,8
Machado ,MEI,Grêmio,2,"2,04",2,"1,95","0,00","0,00",7,0,0,0,1,0,0,0,0,0,1,0,0,0,0,2,0,5
Thalles ,ATA,Vasco,2,"4,07",9,"1,93","0,40","-0,34",2,2,0,0,11,7,3,0,0,0,0,0,3,0,0,12,1,10
Rafael Carioca ,MEI,Atlético-MG,3,"7,07",17,"1,92","0,00","0,00",28,0,0,0,27,3,1,0,0,0,0,0,5,0,0,20,0,38
Luan ,MEI,Avaí,3,"5,62",11,"1,92","0,00","0,00",22,0,0,0,27,1,1,0,0,0,0,0,6,0,0,29,0,17
Niltinho ,ATA,Atlético-GO,3,"4,13",10,"1,90","1,40","-0,79",6,1,0,0,22,3,2,0,0,0,0,0,0,0,0,15,2,19
Tréllez ,ATA,Vitória,3,"2,48",5,"1,90","1,10","-1,56",1,2,0,0,3,3,1,1,0,0,0,0,1,0,0,16,3,16
Luiz Antonio  ,MEI,Chapecoense,2,"8,38",17,"1,90","3,40","0,88",8,2,1,0,7,2,10,2,0,0,0,0,3,0,0,16,1,32
Lucas Lima ,MEI,Santos,3,"3,65",12,"1,87","0,00","0,00",13,0,3,0,28,4,7,0,0,0,0,0,6,0,0,23,0,50
Eduardo Bauermann ,ZAG,Atlético-GO,2,"3,19",7,"1,85","0,00","0,00",5,0,0,1,5,1,0,0,0,0,0,0,0,0,0,4,1,4
Fred ,ZAG,Vitória,5,"3,95",11,"1,85","0,00","0,00",12,1,0,1,2,5,3,0,0,0,0,0,3,0,0,11,0,30
Manga Escobar ,ATA,Vasco,2,"4,53",10,"1,83","0,90","0,06",2,1,1,0,8,3,2,0,0,0,0,0,0,0,0,5,1,11
Renato Cajá ,MEI,Ponte Preta,2,"7,68",12,"1,82","5,40","1,27",12,1,2,0,12,7,1,0,0,0,0,1,1,0,0,14,1,46
Cleiton Xavier ,MEI,Vitória,5,"5,18",14,"1,80","0,00","0,00",12,0,3,0,8,10,6,0,0,0,0,0,2,0,0,18,1,46
Lucas Fernandes ,ATA,Atlético-PR,3,"4,01",7,"1,77","1,20","-0,62",7,0,0,0,9,2,0,0,0,0,0,0,0,0,0,5,1,8
Robinho ,ATA,Atlético-MG,2,"11,90",15,"1,77","-2,30","-0,75",16,1,2,0,14,7,3,0,0,0,0,0,3,1,0,13,12,39
Luan Peres  ,ZAG,Ponte Preta,3,"2,16",2,"1,75","0,00","0,00",1,0,0,1,1,0,0,0,0,0,0,0,1,0,0,1,0,4
Caíque ,GOL,Vitória,2,"5,04",2,"1,75","0,00","0,00",0,0,0,0,0,0,0,0,4,0,0,0,1,0,3,1,0,0
Ricardo Oliveira ,ATA,Santos,3,"9,76",7,"1,73","1,30","-1,15",0,1,0,0,6,9,2,1,0,0,0,0,1,0,0,11,1,9
Kelvin ,ATA,Vasco,5,"5,03",5,"1,72","0,00","0,00",4,0,0,0,8,0,3,0,0,0,0,0,0,0,0,3,2,9
Vinícius ,MEI,Bahia,5,"6,38",14,"1,71","0,00","0,00",6,2,1,0,8,8,3,0,0,0,0,0,3,0,0,11,0,28
Bruno Cosendey ,MEI,Vasco,2,"2,21",1,"1,70","0,00","0,00",1,0,0,0,0,0,0,0,0,0,0,0,0,0,0,0,0,0
Ariel Cabral ,MEI,Cruzeiro,5,"5,29",13,"1,69","0,00","0,00",22,0,0,0,23,8,0,0,0,0,0,0,4,0,0,16,0,55
Luis Ricardo ,LAT,Botafogo,2,"6,11",4,"1,68","0,00","0,00",3,0,1,0,0,0,0,0,0,0,0,0,0,0,0,2,0,8
Rafinha ,MEI,Cruzeiro,2,"5,89",10,"1,68","2,70","0,38",9,0,0,0,21,3,2,1,0,0,0,0,0,0,0,11,1,35
Júlio César ,GOL,Fluminense,3,"4,99",14,"1,66","1,00","-0,23",0,0,0,1,7,0,0,0,19,0,0,0,0,0,20,0,0,8
Walter ,ATA,Atlético-GO,3,"7,42",13,"1,65","0,60","-0,64",5,1,0,0,31,11,10,1,0,0,0,0,3,0,0,18,4,49
Bressan ,ZAG,Grêmio,3,"2,77",4,"1,65","4,40","-0,03",3,0,0,2,4,1,0,0,0,0,0,0,2,0,0,5,1,14
Renato Chaves ,ZAG,Fluminense,3,"2,66",3,"1,60","-0,80","-1,27",1,1,0,0,1,0,1,0,0,0,0,0,1,0,0,6,1,3
Henrique ,ZAG,Fluminense,3,"7,83",16,"1,58","-0,50","-1,32",15,0,0,1,22,1,1,2,0,0,0,0,3,0,0,19,0,31
Marcinho ,ATA,São Paulo,3,"4,23",19,"1,57","-0,20","-0,34",10,2,2,0,21,11,6,0,0,0,0,0,2,0,0,24,1,70
Orejuela ,MEI,Fluminense,3,"8,14",14,"1,56","0,00","0,00",20,0,0,0,22,0,0,0,0,0,0,1,2,0,0,15,0,22
Jadson ,MEI,Ponte Preta,3,"4,41",12,"1,55","0,00","0,00",15,0,0,0,12,3,1,0,0,0,0,0,2,0,0,12,0,20
Kayke ,ATA,Santos,2,"4,43",16,"1,53","0,60","0,08",3,3,1,0,6,11,7,0,0,0,0,0,0,1,0,17,8,38
Wellington Nem ,ATA,São Paulo,5,"7,13",10,"1,52","0,00","0,00",5,1,0,0,20,2,1,0,0,0,0,0,2,0,0,10,4,9
Vitor Bueno ,MEI,Santos,5,"9,29",8,"1,51","0,00","0,00",9,0,0,0,12,4,1,0,0,0,0,0,2,0,0,6,0,20
Wesley ,MEI,São Paulo,2,"3,86",3,"1,50","0,00","0,00",3,0,0,0,2,0,0,0,0,0,0,0,0,0,0,2,0,2
Conrado ,MEI,Grêmio,2,"2,16",1,"1,50","0,00","0,00",1,0,0,0,2,1,0,0,0,0,0,0,0,0,0,1,1,3
Paulo André ,ZAG,Atlético-PR,4,"4,25",11,"1,49","2,20","-0,35",8,0,0,3,8,0,1,0,0,0,0,0,3,0,0,8,0,24
Léo ,LAT,Fluminense,2,"3,21",13,"1,48","0,00","0,00",12,1,1,1,7,1,2,0,0,0,0,0,2,0,0,24,2,28
Renato ,MEI,Santos,5,"6,31",12,"1,48","2,30","0,45",13,0,0,0,14,1,0,0,0,0,0,0,0,0,0,8,0,27
Luan ,ATA,Atlético-MG,3,"5,85",6,"1,47","0,00","0,00",3,0,0,0,4,2,3,0,0,0,0,0,0,0,0,3,0,4
Rafael Marques ,ATA,Cruzeiro,2,"4,14",11,"1,46","0,00","0,00",4,1,0,0,9,5,2,0,0,0,0,0,0,0,0,3,1,22
Thallyson ,LAT,Vitória,2,"1,25",5,"1,44","0,00","0,00",5,0,0,1,2,1,0,0,0,0,0,0,0,0,0,4,0,20
Martín Silva ,GOL,Vasco,3,"8,08",19,"1,43","10,10","1,76",0,0,0,4,2,0,0,0,25,0,0,0,2,0,30,0,0,16
Gilvan ,ZAG,Atlético-GO,3,"2,40",7,"1,43","1,60","-0,34",4,1,0,0,4,4,0,1,0,0,0,0,2,0,0,10,1,12
Alan Santos ,MEI,Coritiba,3,"4,55",11,"1,42","1,80","0,37",18,0,0,0,4,2,2,0,0,0,0,0,2,0,0,15,1,28
Filigrana ,ATA,Coritiba,2,"1,73",5,"1,42","-0,30","-1,65",1,1,0,0,1,1,1,0,0,0,0,0,1,0,0,5,0,1
Giovanni Augusto ,MEI,Corinthians,2,"5,16",5,"1,40","0,00","0,00",4,0,1,0,2,1,0,0,0,0,0,0,1,0,0,2,1,10
Moisés ,MEI,Chapecoense,2,"1,80",2,"1,40","0,00","0,00",2,0,0,0,1,0,0,0,0,0,0,0,0,0,0,1,0,2
Jean Patrick ,LAT,Ponte Preta,3,"2,72",1,"1,40","0,00","0,00",1,0,0,0,0,0,0,0,0,0,0,0,0,0,0,0,0,1
Eduardo da Silva ,ATA,Atlético-PR,2,"5,87",5,"1,40","0,00","0,00",4,0,0,0,1,1,4,0,0,0,0,0,0,0,0,6,1,5
Penilla ,ATA,Chapecoense,2,"3,79",2,"1,40","-0,10","-0,67",0,0,0,0,1,1,0,1,0,0,0,0,0,0,0,2,0,3
Marcelo Grohe ,GOL,Grêmio,2,"8,74",14,"1,40","0,00","0,00",0,0,0,7,0,0,0,0,5,0,0,1,1,0,11,0,0,5
Matheus Rossetto ,MEI,Atlético-PR,1,"4,14",14,"1,39","0,00","0,00",13,1,1,0,12,0,3,0,0,0,0,0,3,0,0,17,1,32
Éder  ,ZAG,Bahia,3,"2,28",6,"1,38","0,00","0,00",2,0,0,2,3,3,1,0,0,0,0,0,2,0,0,8,1,4
Jorginho ,MEI,Atlético-GO,3,"5,03",17,"1,38","0,20","-0,89",19,1,0,0,36,5,1,0,0,0,0,1,1,0,0,27,2,60
Pedro Castro ,MEI,Avaí,3,"2,90",14,"1,38","4,70","0,64",9,0,1,0,22,7,2,0,0,0,0,0,2,0,0,11,1,30
Nenén ,MEI,Chapecoense,2,"2,45",7,"1,37","0,00","0,00",4,0,0,0,4,1,2,0,0,0,0,0,0,0,0,2,0,3
Lincoln ,MEI,Grêmio,3,"2,91",6,"1,37","0,60","-1,00",2,0,1,0,9,0,0,0,0,0,0,0,0,0,0,4,0,9
Yago ,MEI,Vitória,4,"2,67",12,"1,36","6,40","1,03",8,1,0,0,21,4,4,0,0,0,0,0,3,0,0,16,1,27
Hyoran ,MEI,Palmeiras,2,"2,64",2,"1,35","0,00","0,00",2,0,0,0,1,0,1,0,0,0,0,0,0,0,0,2,0,4
Rafael Moura ,ATA,Atlético-MG,2,"4,65",15,"1,34","0,00","0,00",2,3,0,0,18,9,6,1,0,0,0,0,1,1,0,28,13,20
Otero ,MEI,Atlético-MG,2,"6,30",11,"1,32","1,60","0,32",7,0,0,0,21,9,2,0,0,0,0,0,4,0,0,11,0,9
Marcelo Oliveira ,LAT,Grêmio,3,"7,71",5,"1,32","3,30","0,38",2,0,0,2,4,0,0,0,0,0,0,0,1,0,0,9,1,6
Túlio de Melo ,ATA,Chapecoense,2,"3,68",12,"1,31","0,00","-1,01",0,2,0,0,5,5,3,0,0,0,0,0,1,0,0,10,0,8
Tiago Real ,MEI,Coritiba,2,"4,63",11,"1,30","0,00","0,00",7,0,2,0,6,2,5,1,0,0,0,0,2,0,0,13,2,30
Breno ,ZAG,Vasco,3,"3,39",12,"1,29","2,10","-0,18",6,0,0,4,7,2,1,0,0,0,0,0,4,0,0,10,0,25
Júnior ,ATA,Vitória,2,"1,22",3,"1,27","1,10","0,05",2,0,0,0,3,0,0,0,0,0,0,0,0,0,0,1,0,2
João Paulo ,MEI,Botafogo,2,"1,74",16,"1,27","0,00","0,00",16,0,3,0,24,5,5,1,0,0,0,0,5,0,0,34,1,62
Danilo Barcelos ,MEI,Ponte Preta,3,"5,08",5,"1,26","2,80","0,03",7,0,0,0,6,0,2,0,0,0,0,0,0,0,0,9,2,17
Silva ,MEI,Atlético-GO,2,"3,18",9,"1,26","2,90","0,30",12,0,0,0,7,1,0,0,0,0,0,0,1,0,0,19,0,6
Juan ,MEI,Avaí,4,"4,99",14,"1,25","4,70","1,47",14,1,0,0,21,9,3,1,0,0,0,1,4,0,0,23,1,42
Osman ,ATA,Chapecoense,5,"2,99",7,"1,23","0,00","0,00",0,1,1,0,1,4,0,0,0,0,0,0,2,0,0,5,0,4
Michel Bastos ,MEI,Palmeiras,2,"4,87",10,"1,22","1,20","0,09",11,0,1,0,6,9,2,0,0,0,0,0,4,0,0,7,3,33
Gilberto ,ATA,São Paulo,2,"3,90",9,"1,21","0,00","0,00",3,1,0,0,3,3,2,0,0,0,0,0,1,0,0,5,3,6
Gustavo Ferrareis ,MEI,Bahia,2,"5,25",10,"1,21","0,00","0,00",2,1,0,0,6,3,2,1,0,0,0,0,1,0,0,8,0,13
Douglas Grolli ,ZAG,Chapecoense,2,"5,92",10,"1,19","-1,40","-0,36",9,1,0,2,1,1,0,0,0,0,0,0,3,0,0,21,2,17
Airton ,MEI,Botafogo,5,"5,63",3,"1,17","0,00","0,00",3,0,0,0,4,0,0,0,0,0,0,0,0,0,0,3,0,7
Jailson ,MEI,Grêmio,3,"3,85",8,"1,17","0,50","-0,17",3,0,1,0,4,0,0,0,0,0,0,0,0,0,0,3,0,4
Araruna ,MEI,São Paulo,5,"1,95",3,"1,17","2,40","0,22",4,0,0,0,3,0,0,0,0,0,0,0,0,0,0,3,0,11
André Castro ,MEI,Atlético-GO,2,"1,85",16,"1,16","0,10","-1,14",21,0,0,0,10,3,1,0,0,0,0,0,2,0,0,20,1,36
João Paulo ,MEI,Coritiba,2,"5,32",2,"1,15","-1,30","-0,93",2,0,0,0,1,0,0,0,0,0,0,0,0,0,0,2,0,2
Roger Bernardo ,MEI,Atlético-MG,2,"5,15",4,"1,15","0,40","-0,84",8,0,0,0,8,0,0,0,0,0,0,0,1,0,0,12,1,15
Fabiano ,LAT,Palmeiras,2,"4,32",5,"1,14","-0,90","-0,77",1,0,0,1,1,2,1,0,0,0,0,0,0,0,0,3,0,8
Wendel ,MEI,Ponte Preta,2,"4,78",10,"1,13","0,00","0,00",5,0,1,0,9,4,0,0,0,0,0,0,2,0,0,7,1,5
Wellington Simião ,MEI,Avaí,3,"2,61",16,"1,12","1,20","0,13",8,1,0,0,18,6,2,1,0,0,0,0,2,0,0,17,2,29
Douglas Coutinho  ,ATA,Atlético-PR,2,"2,49",14,"1,11","0,00","0,00",5,0,1,0,11,5,7,0,0,0,0,0,0,0,0,9,3,27
Luiz Fernando  ,MEI,Fluminense,5,"1,94",2,"1,10","0,00","0,00",1,0,0,0,1,0,0,0,0,0,0,0,0,0,0,0,0,0
Lucas Paquetá ,MEI,Flamengo,2,"2,04",3,"1,10","1,90","-0,01",2,0,0,0,2,0,0,0,0,0,0,0,0,0,0,1,0,2
Nonoca ,MEI,Cruzeiro,3,"1,82",3,"1,10","1,10","-0,11",2,0,0,0,2,0,0,0,0,0,0,0,0,0,0,1,0,2
Paulão ,ZAG,Vasco,2,"4,38",14,"1,07","0,00","0,00",10,0,1,3,8,6,1,0,0,0,0,0,4,0,0,26,2,30
Wagner ,MEI,Vasco,1,"4,62",8,"1,06","0,00","0,00",4,1,0,0,8,0,1,0,0,0,0,0,0,0,0,10,3,16
Renato ,LAT,Fluminense,2,"3,07",7,"1,05","0,00","0,00",4,0,0,1,7,6,1,0,0,0,0,0,2,0,0,10,0,14
Marlone ,MEI,Atlético-MG,2,"5,83",11,"1,03","0,20","0,47",4,2,0,0,8,4,3,0,0,0,0,0,2,0,0,9,4,36
Judson ,MEI,Avaí,4,"3,99",17,"1,02","1,00","-0,63",26,0,1,0,11,6,2,0,0,0,0,0,6,0,0,40,0,39
Yago ,MEI,Atlético-MG,2,"1,50",11,"1,02","-1,20","-0,26",11,1,0,0,6,3,3,0,0,0,0,0,4,0,0,15,0,27
Vinicius Junior ,ATA,Flamengo,2,"2,54",13,"1,02","1,20","-0,05",3,0,1,0,7,3,7,1,0,0,0,0,1,0,0,6,2,23
Helton Leite ,GOL,Botafogo,2,"3,32",1,"1,00","0,00","0,00",0,0,0,0,0,0,0,0,1,0,0,0,0,0,1,0,0,0
Escudero ,MEI,Vasco,2,"3,75",5,"1,00","0,00","0,00",3,0,1,0,3,1,0,0,0,0,0,0,1,0,0,4,0,11
Maicon ,MEI,Grêmio,4,"7,26",11,"1,00","0,10","-0,16",12,0,0,0,10,3,1,0,0,0,0,0,3,0,0,11,0,20
Lucas Silva ,MEI,Cruzeiro,4,"4,75",10,"0,99","0,10","-0,78",12,0,1,0,10,3,1,0,0,0,0,0,3,0,0,19,0,27
Zé Ivaldo ,ZAG,Atlético-PR,2,"1,65",2,"0,95","0,00","0,00",0,0,0,1,0,0,0,0,0,0,0,0,1,0,0,1,0,2
Pedrinho ,ATA,Corinthians,2,"1,08",8,"0,95","-0,30","-0,05",3,0,0,0,1,2,3,0,0,0,0,0,0,0,0,0,0,8
Ederson ,MEI,Flamengo,5,"4,25",5,"0,94","0,00","0,00",2,0,0,0,9,1,1,0,0,0,0,0,0,0,0,5,0,8
Tchê Tchê ,MEI,Palmeiras,2,"6,96",15,"0,94","4,10","0,87",17,0,2,0,14,3,3,0,0,0,0,1,3,0,0,28,1,38
Antônio Carlos  ,ZAG,Palmeiras,2,"3,05",4,"0,92","4,80","0,39",3,0,0,0,4,1,1,0,0,0,0,0,1,0,0,2,0,7
Willians ,ATA,Avaí,3,"3,53",12,"0,90","1,40","0,23",8,0,1,0,6,0,1,0,0,0,0,0,0,0,0,16,0,12
Douglas ,ZAG,São Paulo,2,"3,28",1,"0,90","0,00","0,00",1,0,0,0,0,0,0,0,0,0,0,0,0,0,0,1,0,1
Perotti ,ATA,Chapecoense,2,"1,80",2,"0,90","0,00","0,00",1,0,0,0,2,1,0,0,0,0,0,0,0,0,0,2,0,2
Jhemerson ,MEI,Vitória,2,"3,37",3,"0,90","0,00","0,00",1,0,0,0,1,2,0,0,0,0,0,0,0,0,0,0,0,3
Lucas Otávio  ,MEI,Avaí,2,"3,21",6,"0,90","0,00","0,00",4,0,0,0,1,0,0,0,0,0,0,0,0,0,0,2,0,3
Arthur Gomes ,ATA,Santos,2,"1,84",5,"0,86","0,00","0,00",1,0,0,0,6,0,1,0,0,0,0,0,0,0,0,1,0,3
Luiz Fernando  ,MEI,Atlético-GO,2,"2,15",16,"0,85","-2,60","-0,18",4,1,1,0,15,3,4,1,0,0,0,0,3,0,0,15,5,24
Walisson Maia ,ZAG,Coritiba,2,"4,10",6,"0,83","0,00","0,00",5,0,0,1,1,0,1,0,0,0,1,0,0,0,0,2,0,10
Anderson ,MEI,Coritiba,5,"4,21",5,"0,82","0,00","0,00",6,0,0,0,7,0,3,0,0,0,0,0,2,0,0,7,0,17
Xuxa ,MEI,Ponte Preta,2,"2,25",3,"0,80","0,00","0,00",2,0,0,0,1,0,0,0,0,0,0,0,0,0,0,0,0,5
Peu ,ATA,Fluminense,2,"0,93",3,"0,80","0,00","0,10",0,0,0,0,1,1,2,0,0,0,0,0,0,0,0,1,0,1
Berrío  ,ATA,Flamengo,3,"3,22",11,"0,77","-3,30","-0,72",3,2,0,0,5,1,1,0,0,0,0,0,2,0,0,14,1,18
Nicolas ,LAT,Atlético-PR,2,"3,55",5,"0,76","0,00","0,00",2,0,0,2,0,0,0,0,0,0,0,0,1,0,0,5,0,17
Júlio César  ,ATA,Chapecoense,2,"2,65",2,"0,75","1,70","0,37",1,0,0,0,1,1,0,0,0,0,0,0,0,0,0,1,0,3
Lucas ,LAT,Fluminense,3,"3,31",14,"0,74","0,00","0,00",20,0,1,0,10,4,0,0,0,0,0,0,3,0,0,32,3,43
Leonardo Silva ,ZAG,Atlético-MG,3,"8,54",6,"0,73","0,00","0,00",5,0,0,1,10,1,0,0,0,0,0,0,3,0,0,11,0,11
Marlon Freitas ,MEI,Fluminense,3,"2,22",6,"0,73","-1,00","-0,09",10,0,0,0,6,1,1,0,0,0,0,0,3,0,0,12,1,16
Fellipe Bastos ,MEI,Corinthians,2,"3,53",2,"0,70","0,00","0,00",0,0,0,0,0,1,1,0,0,0,0,0,0,0,0,0,0,1
Yuri ,ATA,Ponte Preta,2,"1,05",3,"0,70","0,00","0,00",0,0,0,0,1,2,3,0,0,0,0,0,0,0,0,5,0,1
Douglas ,ATA,Bahia,2,"1,11",1,"0,70","0,00","0,00",0,0,0,0,2,0,0,0,0,0,0,0,0,0,0,0,0,1
Léo Artur ,MEI,Ponte Preta,3,"2,19",11,"0,68","-0,30","0,23",2,1,1,0,5,4,3,0,0,0,0,0,1,0,0,13,3,24
Thallyson ,MEI,Sport,2,"2,38",11,"0,63","9,70","1,59",5,1,0,0,7,0,0,0,0,0,0,0,2,0,0,10,1,12
Raphael Veiga ,MEI,Palmeiras,2,"4,09",10,"0,63","1,00","0,21",1,0,1,0,10,4,1,0,0,0,0,0,2,0,0,8,0,4
Lugano ,ZAG,São Paulo,2,"3,24",6,"0,63","0,00","0,00",4,0,0,2,2,3,1,0,0,0,0,0,4,0,0,11,0,12
Carlos Eduardo ,MEI,Vitória,5,"2,11",6,"0,63","0,00","0,00",7,0,0,0,10,2,3,0,0,0,0,0,1,0,0,8,2,35
Marquinhos ,MEI,Avaí,5,"2,72",10,"0,61","0,00","0,00",3,1,0,0,10,3,4,0,0,0,0,1,0,0,0,4,0,37
Vecchio ,MEI,Santos,5,"1,51",5,"0,60","0,00","0,00",1,1,0,0,6,1,1,0,0,0,0,0,2,0,0,3,1,18
Romulo ,MEI,Flamengo,2,"6,06",3,"0,60","0,00","0,00",3,0,0,0,1,0,1,0,0,0,0,0,1,0,0,5,0,1
Negueba ,ATA,Ponte Preta,2,"4,01",4,"0,60","0,00","0,00",4,0,0,0,4,0,0,0,0,0,0,0,1,0,0,4,0,8
Felipe Saraiva ,MEI,Ponte Preta,2,"0,87",6,"0,60","-0,30","-0,25",1,0,0,0,3,2,3,0,0,0,0,0,0,0,0,5,0,5
Jandrei ,GOL,Chapecoense,2,"3,47",19,"0,58","-4,00","-1,09",0,0,0,4,8,0,0,0,20,0,0,0,1,0,33,0,0,17
Rafael Marques ,ZAG,Vasco,3,"1,87",10,"0,57","0,00","0,00",8,0,0,1,5,1,1,1,0,0,0,0,3,0,0,11,2,27
Brenner ,ATA,São Paulo,2,"0,88",2,"0,55","0,90","0,02",1,0,0,0,1,0,0,0,0,0,0,0,0,0,0,1,0,2
Camacho ,MEI,Corinthians,2,"3,81",13,"0,54","1,00","0,27",5,0,0,0,5,1,0,0,0,0,0,0,0,0,0,4,0,9
Maranhão ,ATA,Ponte Preta,3,"2,29",6,"0,53","3,50","0,47",1,0,0,0,7,4,0,0,0,0,0,0,0,0,0,2,1,11
Lennon ,LAT,Cruzeiro,2,"4,03",3,"0,53","0,00","0,00",2,0,0,1,1,0,0,0,0,0,0,0,1,0,0,4,0,11
Moisés Ribeiro ,MEI,Chapecoense,2,"3,13",6,"0,52","0,00","0,00",5,0,0,0,5,1,0,0,0,0,0,0,2,0,0,5,0,7
Iury ,ATA,Avaí,2,"1,68",1,"0,50","0,00","0,00",0,0,0,0,1,0,0,0,0,0,0,0,0,0,0,0,0,0
Pepê ,ATA,Grêmio,1,"0,97",1,"0,50","0,00","0,00",0,0,0,0,1,0,0,0,0,0,0,0,0,0,0,0,0,0
Matheus Iacovelli ,ATA,Palmeiras,2,"1,68",1,"0,50","0,00","0,00",0,0,0,0,1,0,0,0,0,0,0,0,0,0,0,0,0,0
Léo Natel ,ATA,São Paulo,2,"0,92",1,"0,50","0,00","0,00",0,0,0,0,1,0,0,0,0,0,0,0,0,0,0,0,0,0
Deivid ,MEI,Atlético-PR,2,"5,04",5,"0,48","0,00","0,00",2,0,0,0,5,0,0,1,0,0,0,0,2,0,0,3,0,5
Nogueira ,ZAG,Fluminense,2,"1,92",5,"0,48","0,00","0,00",1,0,0,0,4,0,2,1,0,0,0,0,2,0,0,2,0,6
Fabrício Bruno ,ZAG,Chapecoense,2,"2,88",7,"0,45","0,60","0,61",7,0,0,1,5,0,1,0,0,0,0,0,4,0,0,13,0,9
Ralph ,MEI,Atlético-MG,2,"1,04",4,"0,45","0,00","0,00",5,0,0,0,4,0,0,0,0,0,0,0,3,0,0,3,0,4
Capixaba ,ATA,Atlético-MG,2,"0,87",1,"0,40","0,00","0,00",0,0,0,0,1,0,1,0,0,0,0,0,0,0,0,1,0,2
Fabrício ,MEI,Sport,2,"1,37",7,"0,39","0,00","0,00",1,0,1,0,3,2,2,0,0,0,0,0,1,0,0,2,1,18
Emerson Santos ,ZAG,Botafogo,3,"1,62",3,"0,37","6,50","0,84",4,0,0,2,3,1,0,0,0,0,0,1,2,0,0,10,0,13
Marcos Junior ,ATA,Fluminense,2,"2,55",8,"0,34","0,00","0,00",1,1,0,0,5,1,1,0,0,0,0,0,3,0,0,3,2,9
Bruno ,LAT,São Paulo,5,"4,28",9,"0,31","0,00","0,00",6,0,0,2,10,1,0,0,0,0,0,0,2,0,0,16,0,37
Adilson ,MEI,Atlético-MG,2,"4,22",10,"0,30","1,40","0,26",12,0,0,0,5,1,0,0,0,0,0,0,2,0,0,20,1,20
Ricardo Silva ,ZAG,Atlético-GO,2,"2,94",4,"0,28","0,00","0,00",5,0,0,0,1,2,0,0,0,0,0,0,1,0,0,8,0,11
Jonathan ,LAT,Atlético-GO,3,"1,64",6,"0,22","1,10","0,22",2,0,0,0,2,0,1,0,0,0,0,0,0,0,0,1,0,12
Thalis  ,MEI,Atlético-MG,2,"0,81",1,"0,20","0,00","0,00",0,0,0,0,1,0,0,0,0,0,0,0,0,0,0,0,0,1
Romercio ,ZAG,Coritiba,2,"1,63",1,"0,20","0,00","0,00",0,0,0,0,0,0,1,0,0,0,0,0,0,0,0,1,0,1
Mateus Norton ,MEI,Fluminense,2,"0,78",7,"0,18","-0,70","-0,24",6,0,0,0,4,1,0,0,0,0,0,0,3,0,0,4,0,12
Matheus Mancini ,ZAG,Atlético-MG,2,"1,60",5,"0,16","1,00","0,35",3,0,0,1,2,2,0,0,0,0,0,0,2,0,0,10,0,9
Iago ,ATA,Coritiba,2,"4,72",7,"0,16","0,00","0,00",1,0,0,0,4,1,0,0,0,0,0,0,0,0,0,2,1,6
Thiago Ribeiro ,ATA,Santos,2,"4,99",7,"0,15","0,60","0,31",6,0,0,0,5,2,2,0,0,0,0,0,1,0,0,10,4,20
Paulinho ,ATA,Vitória,2,"3,44",8,"0,15","0,00","0,00",3,0,0,0,3,5,4,1,0,0,0,0,3,0,0,6,1,23
Erazo ,ZAG,Atlético-MG,2,"3,98",2,"0,15","0,00","0,00",0,0,0,1,0,0,0,0,0,0,0,0,1,0,0,3,0,4
Claudinho ,ATA,Ponte Preta,2,"0,79",9,"0,14","0,00","0,00",1,0,0,0,5,5,2,0,0,0,0,0,0,0,0,10,1,10
Raniel ,ATA,Cruzeiro,2,"0,78",7,"0,13","0,00","-0,01",0,0,0,0,7,1,0,0,0,0,0,0,1,0,0,2,0,1
Alecsandro ,ATA,Coritiba,3,"4,63",12,"0,12","12,60","2,10",6,1,0,0,15,1,3,0,0,0,0,0,4,1,0,18,4,18
Everton Heleno ,MEI,Atlético-GO,2,"1,97",2,"0,10","0,00","0,00",1,0,0,0,0,0,0,0,0,0,0,0,0,0,0,3,0,0
Luizão ,ZAG,Coritiba,3,"1,87",5,"0,06","4,40","0,98",2,0,0,1,4,1,1,0,0,0,0,0,3,0,0,7,1,6
Júnior Brumado ,ATA,Bahia,2,"1,25",2,"0,05","0,00","0,00",1,0,0,0,0,1,0,0,0,0,0,0,0,0,0,3,1,1
Brenner ,ATA,Botafogo,3,"3,46",3,"0,03","-0,60","-0,37",0,0,0,0,2,0,1,0,0,0,0,0,0,0,0,1,1,3
Lucas Mineiro ,MEI,Chapecoense,2,"2,41",7,"0,01","0,00","0,00",7,0,0,0,4,2,1,0,0,0,0,0,3,0,0,15,0,9
Devid ,ATA,Avaí,2,"1,00",0,"0,00","0,00","0,00",0,0,0,0,0,0,0,0,0,0,0,0,0,0,0,0,0,0
Anderson Martins ,ZAG,Vasco,2,"11,00",0,"0,00","0,00","0,00",0,0,0,0,0,0,0,0,0,0,0,0,0,0,0,0,0,0
Ferdinando ,MEI,Avaí,2,"5,00",0,"0,00","0,00","0,00",0,0,0,0,0,0,0,0,0,0,0,0,0,0,0,0,0,0
Jael ,ATA,Grêmio,5,"5,00",0,"0,00","0,00","0,00",0,0,0,0,0,0,0,0,0,0,0,0,0,0,0,0,0,0
Alan Ruschel ,LAT,Chapecoense,2,"3,00",0,"0,00","0,00","0,00",0,0,0,0,0,0,0,0,0,0,0,0,0,0,0,0,0,0
Rafael Santos ,GOL,Bahia,2,"3,00",0,"0,00","0,00","0,00",0,0,0,0,0,0,0,0,0,0,0,0,0,0,0,0,0,0
Gum ,ZAG,Fluminense,5,"7,00",0,"0,00","0,00","0,00",0,0,0,0,0,0,0,0,0,0,0,0,0,0,0,0,0,0
Digão ,ZAG,Cruzeiro,3,"6,00",0,"0,00","0,00","0,00",0,0,0,0,0,0,0,0,0,0,0,0,0,0,0,0,0,0
Rafael ,GOL,Cruzeiro,1,"10,00",0,"0,00","0,00","0,00",0,0,0,0,0,0,0,0,0,0,0,0,0,0,0,0,0,0
Gustavo Santos ,LAT,Avaí,2,"1,00",0,"0,00","0,00","0,00",0,0,0,0,0,0,0,0,0,0,0,0,0,0,0,0,0,0
Neto ,ZAG,Chapecoense,5,"5,00",0,"0,00","0,00","0,00",0,0,0,0,0,0,0,0,0,0,0,0,0,0,0,0,0,0
João Vitor ,MEI,Ponte Preta,5,"5,00",0,"0,00","0,00","0,00",0,0,0,0,0,0,0,0,0,0,0,0,0,0,0,0,0,0
João Carlos ,GOL,Ponte Preta,2,"5,00",0,"0,00","0,00","0,00",0,0,0,0,0,0,0,0,0,0,0,0,0,0,0,0,0,0
Vladimir ,GOL,Santos,2,"4,00",0,"0,00","0,00","0,00",0,0,0,0,0,0,0,0,0,0,0,0,0,0,0,0,0,0
Jackson ,ZAG,Bahia,5,"7,00",0,"0,00","0,00","0,00",0,0,0,0,0,0,0,0,0,0,0,0,0,0,0,0,0,0
Leo ,GOL,Atlético-PR,2,"3,00",0,"0,00","0,00","0,00",0,0,0,0,0,0,0,0,0,0,0,0,0,0,0,0,0,0
Baumjohann ,MEI,Coritiba,2,"5,00",0,"0,00","0,00","0,00",0,0,0,0,0,0,0,0,0,0,0,0,0,0,0,0,0,0
Gabriel ,ZAG,Grêmio,2,"1,00",0,"0,00","0,00","0,00",0,0,0,0,0,0,0,0,0,0,0,0,0,0,0,0,0,0
Matheus Vidotto ,GOL,Corinthians,2,"3,00",0,"0,00","0,00","0,00",0,0,0,0,0,0,0,0,0,0,0,0,0,0,0,0,0,0
Toshi ,ATA,Avaí,2,"3,00",0,"0,00","0,00","0,00",0,0,0,0,0,0,0,0,0,0,0,0,0,0,0,0,0,0
Maurinho ,ATA,Avaí,2,"2,25",2,"0,00","0,00","0,00",0,0,0,0,0,0,0,0,0,0,0,0,0,0,0,0,0,0
Thiago Martins ,ZAG,Palmeiras,5,"5,00",0,"0,00","0,00","0,00",0,0,0,0,0,0,0,0,0,0,0,0,0,0,0,0,0,0
Neris ,ZAG,Sport,5,"3,00",0,"0,00","0,00","0,00",0,0,0,0,0,0,0,0,0,0,0,0,0,0,0,0,0,0
Lucas Cândido ,MEI,Atlético-MG,5,"4,00",0,"0,00","0,00","0,00",0,0,0,0,0,0,0,0,0,0,0,0,0,0,0,0,0,0
Marcos Felipe  ,GOL,Fluminense,2,"3,00",0,"0,00","0,00","0,00",0,0,0,0,0,0,0,0,0,0,0,0,0,0,0,0,0,0
Vinicius Silvestre ,GOL,Palmeiras,2,"2,00",0,"0,00","0,00","0,00",0,0,0,0,0,0,0,0,0,0,0,0,0,0,0,0,0,0
Daniel ,MEI,Coritiba,5,"6,00",0,"0,00","0,00","0,00",0,0,0,0,0,0,0,0,0,0,0,0,0,0,0,0,0,0
Yuri ,MEI,Bahia,2,"2,00",0,"0,00","0,00","0,00",0,0,0,0,0,0,0,0,0,0,0,0,0,0,0,0,0,0
Dodô ,MEI,Chapecoense,2,"3,94",1,"0,00","0,00","0,00",0,0,0,0,0,0,0,0,0,0,0,0,0,0,0,0,0,0
Morato ,ATA,São Paulo,5,"3,00",0,"0,00","0,00","0,00",0,0,0,0,0,0,0,0,0,0,0,0,0,0,0,0,0,0
Uilson ,GOL,Atlético-MG,2,"4,00",0,"0,00","0,00","0,00",0,0,0,0,0,0,0,0,0,0,0,0,0,0,0,0,0,0
Artur ,LAT,Ponte Preta,2,"4,00",0,"0,00","0,00","0,00",0,0,0,0,0,0,0,0,0,0,0,0,0,0,0,0,0,0
Lucas Macanhan ,GOL,Atlético-PR,2,"2,00",0,"0,00","0,00","0,00",0,0,0,0,0,0,0,0,0,0,0,0,0,0,0,0,0,0
Henrique Gelain ,LAT,Coritiba,2,"1,00",0,"0,00","0,00","0,00",0,0,0,0,0,0,0,0,0,0,0,0,0,0,0,0,0,0
José Welison ,MEI,Vitória,5,"4,00",0,"0,00","0,00","0,00",0,0,0,0,0,0,0,0,0,0,0,0,0,0,0,0,0,0
Caio César ,MEI,Avaí,2,"3,00",0,"0,00","0,00","0,00",0,0,0,0,0,0,0,0,0,0,0,0,0,0,0,0,0,0
Vinicius ,ZAG,Vitória,2,"2,00",0,"0,00","0,00","0,00",0,0,0,0,0,0,0,0,0,0,0,0,0,0,0,0,0,0
Matheus Peixoto ,ATA,Bahia,2,"1,00",0,"0,00","0,00","0,00",0,0,0,0,0,0,0,0,0,0,0,0,0,0,0,0,0,0
Cícero ,MEI,Atlético-MG,2,"2,00",0,"0,00","0,00","0,00",0,0,0,0,0,0,0,0,0,0,0,0,0,0,0,0,0,0
Jordi ,GOL,Vasco,2,"4,00",0,"0,00","0,00","0,00",0,0,0,0,0,0,0,0,0,0,0,0,0,0,0,0,0,0
Léo Santos ,ATA,Coritiba,2,"3,00",0,"0,00","0,00","0,00",0,0,0,0,0,0,0,0,0,0,0,0,0,0,0,0,0,0
Zeballos ,LAT,Chapecoense,2,"3,00",0,"0,00","0,00","0,00",0,0,0,0,0,0,0,0,0,0,0,0,0,0,0,0,0,0
Warian Santos  ,MEI,Corinthians,2,"1,00",0,"0,00","0,00","0,00",0,0,0,0,0,0,0,0,0,0,0,0,0,0,0,0,0,0
Ivan ,GOL,Ponte Preta,2,"2,00",0,"0,00","0,00","0,00",0,0,0,0,0,0,0,0,0,0,0,0,0,0,0,0,0,0
Serginho ,MEI,Santos,2,"1,58",1,"0,00","0,00","0,00",0,0,0,0,0,0,0,0,0,0,0,0,0,0,0,0,0,0
Matheus ,GOL,Avaí,2,"1,00",0,"0,00","0,00","0,00",0,0,0,0,0,0,0,0,0,0,0,0,0,0,0,0,0,0
João Vitor  ,ATA,Atlético-GO,2,"1,00",0,"0,00","0,00","0,00",0,0,0,0,0,0,0,0,0,0,0,0,0,0,0,0,0,0
César ,LAT,Atlético-MG,2,"1,00",0,"0,00","0,00","0,00",0,0,0,0,0,0,0,0,0,0,0,0,0,0,0,0,0,0
Andreazzi ,MEI,Botafogo,2,"2,00",0,"0,00","0,00","0,00",0,0,0,0,0,0,0,0,0,0,0,0,0,0,0,0,0,0
Judivan  ,ATA,Cruzeiro,2,"4,00",0,"0,00","0,00","0,00",0,0,0,0,0,0,0,0,0,0,0,0,0,0,0,0,0,0
Lucas Crispim ,MEI,Santos,2,"3,00",0,"0,00","0,00","0,00",0,0,0,0,0,0,0,0,0,0,0,0,0,0,0,0,0,0
Balbino ,MEI,Grêmio,2,"1,00",0,"0,00","0,00","0,00",0,0,0,0,0,0,0,0,0,0,0,0,0,0,0,0,0,0
Nickson ,ATA,Cruzeiro,2,"3,00",0,"0,00","0,00","0,00",0,0,0,0,0,0,0,0,0,0,0,0,0,0,0,0,0,0
James Dean ,ATA,Sport,2,"1,00",0,"0,00","0,00","0,00",0,0,0,0,0,0,0,0,0,0,0,0,0,0,0,0,0,0
Bruno Ramires ,MEI,Vitória,5,"5,00",0,"0,00","0,00","0,00",0,0,0,0,0,0,0,0,0,0,0,0,0,0,0,0,0,0
Lucas Ferreira ,GOL,Sport,2,"1,00",0,"0,00","0,00","0,00",0,0,0,0,0,0,0,0,0,0,0,0,0,0,0,0,0,0
Leandrinho ,MEI,Botafogo,2,"2,33",3,"0,00","0,00","0,00",1,0,0,0,2,0,1,0,0,0,0,0,1,0,0,1,0,4
Lima ,MEI,Chapecoense,2,"1,00",0,"0,00","0,00","0,00",0,0,0,0,0,0,0,0,0,0,0,0,0,0,0,0,0,0
Jeferson Negueba ,MEI,Grêmio,2,"2,00",0,"0,00","0,00","0,00",0,0,0,0,0,0,0,0,0,0,0,0,0,0,0,0,0,0
Bruno Bispo ,ZAG,Vitória,3,"2,00",0,"0,00","0,00","0,00",0,0,0,0,0,0,0,0,0,0,0,0,0,0,0,0,0,0
Léo ,LAT,Avaí,2,"1,00",0,"0,00","0,00","0,00",0,0,0,0,0,0,0,0,0,0,0,0,0,0,0,0,0,0
Lucão ,GOL,Cruzeiro,2,"1,00",0,"0,00","0,00","0,00",0,0,0,0,0,0,0,0,0,0,0,0,0,0,0,0,0,0
Jefferson Nem ,ATA,Atlético-GO,2,"1,00",0,"0,00","0,00","0,00",0,0,0,0,0,0,0,0,0,0,0,0,0,0,0,0,0,0
Deijair  ,GOL,Bahia,2,"1,00",0,"0,00","0,00","0,00",0,0,0,0,0,0,0,0,0,0,0,0,0,0,0,0,0,0
Marco Antônio ,MEI,Bahia,2,"3,00",0,"0,00","0,00","0,00",0,0,0,0,0,0,0,0,0,0,0,0,0,0,0,0,0,0
Luís Fernando ,MEI,Bahia,2,"3,00",0,"0,00","0,00","0,00",0,0,0,0,0,0,0,0,0,0,0,0,0,0,0,0,0,0
Luis Guilherme ,ATA,Atlético-MG,2,"2,00",0,"0,00","0,00","0,00",0,0,0,0,0,0,0,0,0,0,0,0,0,0,0,0,0,0
Elias ,GOL,Chapecoense,2,"4,00",0,"0,00","0,00","0,00",0,0,0,0,0,0,0,0,0,0,0,0,0,0,0,0,0,0
Júnior Ramos ,MEI,Bahia,2,"1,00",0,"0,00","0,00","0,00",0,0,0,0,0,0,0,0,0,0,0,0,0,0,0,0,0,0
Wallace ,GOL,Vitória,2,"1,00",0,"0,00","0,00","0,00",0,0,0,0,0,0,0,0,0,0,0,0,0,0,0,0,0,0
Moraes ,LAT,Flamengo,2,"1,00",0,"0,00","0,00","0,00",0,0,0,0,0,0,0,0,0,0,0,0,0,0,0,0,0,0
Índio ,ATA,Coritiba,2,"2,00",0,"0,00","0,00","0,00",0,0,0,0,0,0,0,0,0,0,0,0,0,0,0,0,0,0
Alison ,ATA,Sport,2,"1,00",0,"0,00","0,00","0,00",0,0,0,0,0,0,0,0,0,0,0,0,0,0,0,0,0,0
Kaynan ,ATA,Bahia,2,"1,00",0,"0,00","0,00","0,00",0,0,0,0,0,0,0,0,0,0,0,0,0,0,0,0,0,0
Ronaldo ,GOL,Vitória,2,"1,00",0,"0,00","0,00","0,00",0,0,0,0,0,0,0,0,0,0,0,0,0,0,0,0,0,0
Flávio ,MEI,Vitória,2,"2,12",1,"0,00","0,00","0,00",0,0,0,0,0,0,0,0,0,0,0,0,0,0,0,0,0,0
Luquinhas ,MEI,Fluminense,2,"1,00",0,"0,00","0,00","0,00",0,0,0,0,0,0,0,0,0,0,0,0,0,0,0,0,0,0
Matheus Jesus ,MEI,Santos,2,"4,00",0,"0,00","0,00","0,00",0,0,0,0,0,0,0,0,0,0,0,0,0,0,0,0,0,0
Gabriel Félix ,GOL,Vasco,2,"2,00",0,"0,00","0,00","0,00",0,0,0,0,0,0,0,0,0,0,0,0,0,0,0,0,0,0
Luiz Felipe ,GOL,Chapecoense,2,"2,00",0,"0,00","0,00","0,00",0,0,0,0,0,0,0,0,0,0,0,0,0,0,0,0,0,0
Ourinho ,LAT,Santos,2,"2,00",0,"0,00","0,00","0,00",0,0,0,0,0,0,0,0,0,0,0,0,0,0,0,0,0,0
Lucas Perri ,GOL,São Paulo,2,"2,00",0,"0,00","0,00","0,00",0,0,0,0,0,0,0,0,0,0,0,0,0,0,0,0,0,0
Messidoro ,MEI,Cruzeiro,2,"3,20",0,"0,00","0,00","0,00",0,0,0,0,0,0,0,0,0,0,0,0,0,0,0,0,0,0
Warleson ,GOL,Atlético-PR,2,"1,00",0,"0,00","0,00","0,00",0,0,0,0,0,0,0,0,0,0,0,0,0,0,0,0,0,0
Matheus Cassini ,MEI,Ponte Preta,2,"2,00",0,"0,00","0,00","0,00",0,0,0,0,0,0,0,0,0,0,0,0,0,0,0,0,0,0
Marciel ,MEI,Corinthians,2,"3,00",0,"0,00","0,00","0,00",0,0,0,0,0,0,0,0,0,0,0,0,0,0,0,0,0,0
Adryelson ,ZAG,Sport,2,"2,00",0,"0,00","0,00","0,00",0,0,0,0,0,0,0,0,0,0,0,0,0,0,0,0,0,0
Filipinho ,ATA,Atlético-MG,2,"2,00",0,"0,00","0,00","0,00",0,0,0,0,0,0,0,0,0,0,0,0,0,0,0,0,0,0
Breno ,LAT,Atlético-PR,2,"1,00",0,"0,00","0,00","0,00",0,0,0,0,0,0,0,0,0,0,0,0,0,0,0,0,0,0
Everson ,ZAG,Bahia,2,"2,00",0,"0,00","0,00","0,00",0,0,0,0,0,0,0,0,0,0,0,0,0,0,0,0,0,0
Lucas Kal ,ZAG,São Paulo,2,"2,00",0,"0,00","0,00","0,00",0,0,0,0,0,0,0,0,0,0,0,0,0,0,0,0,0,0
Nathan ,ZAG,Atlético-MG,2,"1,00",0,"0,00","0,00","0,00",0,0,0,0,0,0,0,0,0,0,0,0,0,0,0,0,0,0
Wallace ,ATA,Sport,2,"2,00",0,"0,00","0,00","0,00",0,0,0,0,0,0,0,0,0,0,0,0,0,0,0,0,0,0
Mário ,ATA,Bahia,2,"1,00",0,"0,00","0,00","0,00",0,0,0,0,0,0,0,0,0,0,0,0,0,0,0,0,0,0
Gustavo Bochecha ,MEI,Botafogo,5,"2,00",0,"0,00","0,00","0,00",0,0,0,0,0,0,0,0,0,0,0,0,0,0,0,0,0,0
Giovanny  ,ATA,Atlético-PR,2,"4,00",0,"0,00","0,00","0,00",0,0,0,0,0,0,0,0,0,0,0,0,0,0,0,0,0,0
Caíque ,LAT,São Paulo,2,"1,00",0,"0,00","0,00","0,00",0,0,0,0,0,0,0,0,0,0,0,0,0,0,0,0,0,0
Felipe ,GOL,Bahia,2,"1,00",0,"0,00","0,00","0,00",0,0,0,0,0,0,0,0,0,0,0,0,0,0,0,0,0,0
Ty Sandows ,ATA,Grêmio,2,"1,00",0,"0,00","0,00","0,00",0,0,0,0,0,0,0,0,0,0,0,0,0,0,0,0,0,0
Caíque França ,GOL,Corinthians,2,"2,00",0,"0,00","0,00","0,00",0,0,0,0,0,0,0,0,0,0,0,0,0,0,0,0,0,0
Matheus Phillipe ,GOL,Fluminense,2,"1,00",0,"0,00","0,00","0,00",0,0,0,0,0,0,0,0,0,0,0,0,0,0,0,0,0,0
Geovane ,ZAG,Coritiba,2,"3,00",0,"0,00","0,00","0,00",0,0,0,0,0,0,0,0,0,0,0,0,0,0,0,0,0,0
Lucas Lovat ,LAT,Avaí,2,"3,00",0,"0,00","0,00","0,00",0,0,0,0,0,0,0,0,0,0,0,0,0,0,0,0,0,0
Denilson ,ZAG,Grêmio,2,"1,00",0,"0,00","0,00","0,00",0,0,0,0,0,0,0,0,0,0,0,0,0,0,0,0,0,0
Matheus Oliveira ,MEI,Santos,2,"2,00",0,"0,00","0,00","0,00",0,0,0,0,0,0,0,0,0,0,0,0,0,0,0,0,0,0
Cassiano ,GOL,Bahia,2,"1,00",0,"0,00","0,00","0,00",0,0,0,0,0,0,0,0,0,0,0,0,0,0,0,0,0,0
Mauricio ,ZAG,Avaí,2,"2,00",0,"0,00","0,00","0,00",0,0,0,0,0,0,0,0,0,0,0,0,0,0,0,0,0,0
Victor Lindenberg ,LAT,Botafogo,2,"0,78",1,"0,00","0,00","0,00",0,0,0,0,0,0,0,0,0,0,0,0,0,0,0,0,0,0
Renan Lodi ,LAT,Atlético-PR,2,"4,00",0,"0,00","0,00","0,00",0,0,0,0,0,0,0,0,0,0,0,0,0,0,0,0,0,0
Yan ,MEI,Palmeiras,2,"1,00",0,"0,00","0,00","0,00",0,0,0,0,0,0,0,0,0,0,0,0,0,0,0,0,0,0
Daniel Fuzato ,GOL,Palmeiras,2,"1,00",0,"0,00","0,00","0,00",0,0,0,0,0,0,0,0,0,0,0,0,0,0,0,0,0,0
Ronaldo ,MEI,Flamengo,2,"3,00",0,"0,00","0,00","0,00",0,0,0,0,0,0,0,0,0,0,0,0,0,0,0,0,0,0
Vitor ,ATA,Avaí,2,"2,00",0,"0,00","0,00","0,00",0,0,0,0,0,0,0,0,0,0,0,0,0,0,0,0,0,0
Rodrigo Figueiredo ,MEI,Corinthians,2,"1,00",0,"0,00","0,00","0,00",0,0,0,0,0,0,0,0,0,0,0,0,0,0,0,0,0,0
Carlinhos ,ATA,Corinthians,2,"2,00",0,"0,00","0,00","0,00",0,0,0,0,0,0,0,0,0,0,0,0,0,0,0,0,0,0
Aderllan Santos ,ZAG,São Paulo,2,"6,00",0,"0,00","0,00","0,00",0,0,0,0,0,0,0,0,0,0,0,0,0,0,0,0,0,0
Thiago Santos ,ATA,Flamengo,2,"2,00",0,"0,00","0,00","0,00",0,0,0,0,0,0,0,0,0,0,0,0,0,0,0,0,0,0
Augusto ,ZAG,Palmeiras,2,"1,00",0,"0,00","0,00","0,00",0,0,0,0,0,0,0,0,0,0,0,0,0,0,0,0,0,0
Léo Lopes ,GOL,Avaí,2,"1,00",0,"0,00","0,00","0,00",0,0,0,0,0,0,0,0,0,0,0,0,0,0,0,0,0,0
Santarém ,ATA,Avaí,2,"1,00",0,"0,00","0,00","0,00",0,0,0,0,0,0,0,0,0,0,0,0,0,0,0,0,0,0
Patrick Correia ,ATA,Sport,2,"1,00",0,"0,00","0,00","0,00",0,0,0,0,0,0,0,0,0,0,0,0,0,0,0,0,0,0
Emerson ,LAT,Ponte Preta,2,"1,00",0,"0,00","0,00","0,00",0,0,0,0,0,0,0,0,0,0,0,0,0,0,0,0,0,0
Dida ,GOL,Grêmio,2,"1,00",0,"0,00","0,00","0,00",0,0,0,0,0,0,0,0,0,0,0,0,0,0,0,0,0,0
Mantuan ,MEI,Corinthians,5,"1,00",0,"0,00","0,00","0,00",0,0,0,0,0,0,0,0,0,0,0,0,0,0,0,0,0,0
Guilherme ,GOL,Ponte Preta,2,"2,00",0,"0,00","0,00","0,00",0,0,0,0,0,0,0,0,0,0,0,0,0,0,0,0,0,0
Daniel ,MEI,Atlético-MG,2,"1,00",0,"0,00","0,00","0,00",0,0,0,0,0,0,0,0,0,0,0,0,0,0,0,0,0,0
Julio Rusch ,MEI,Coritiba,2,"3,00",0,"0,00","0,00","0,00",0,0,0,0,0,0,0,0,0,0,0,0,0,0,0,0,0,0
Vitor Carvalho ,MEI,Coritiba,2,"1,00",0,"0,00","0,00","0,00",0,0,0,0,0,0,0,0,0,0,0,0,0,0,0,0,0,0
Scalon ,ZAG,Chapecoense,2,"2,00",0,"0,00","0,00","0,00",0,0,0,0,0,0,0,0,0,0,0,0,0,0,0,0,0,0
Marcinho ,LAT,Botafogo,5,"3,00",0,"0,00","0,00","0,00",0,0,0,0,0,0,0,0,0,0,0,0,0,0,0,0,0,0
Salazar ,ZAG,Avaí,2,"3,00",0,"0,00","0,00","0,00",0,0,0,0,0,0,0,0,0,0,0,0,0,0,0,0,0,0
Lucas França ,GOL,Cruzeiro,2,"3,00",0,"0,00","0,00","0,00",0,0,0,0,0,0,0,0,0,0,0,0,0,0,0,0,0,0
Diego Gomes ,MEI,Santos,2,"1,00",0,"0,00","0,00","0,00",0,0,0,0,0,0,0,0,0,0,0,0,0,0,0,0,0,0
Hiago ,ZAG,Chapecoense,2,"1,00",0,"0,00","0,00","0,00",0,0,0,0,0,0,0,0,0,0,0,0,0,0,0,0,0,0
Jean Pyerre ,MEI,Grêmio,2,"1,00",0,"0,00","0,00","0,00",0,0,0,0,0,0,0,0,0,0,0,0,0,0,0,0,0,0
John Victor ,GOL,Santos,2,"1,00",0,"0,00","0,00","0,00",0,0,0,0,0,0,0,0,0,0,0,0,0,0,0,0,0,0
Busanello ,LAT,Chapecoense,2,"1,00",0,"0,00","0,00","0,00",0,0,0,0,0,0,0,0,0,0,0,0,0,0,0,0,0,0
Bryan ,MEI,Chapecoense,2,"1,00",0,"0,00","0,00","0,00",0,0,0,0,0,0,0,0,0,0,0,0,0,0,0,0,0,0
Marco Túlio ,ATA,Atlético-MG,2,"1,00",0,"0,00","0,00","0,00",0,0,0,0,0,0,0,0,0,0,0,0,0,0,0,0,0,0
Thiago Couto ,GOL,São Paulo,2,"1,00",0,"0,00","0,00","0,00",0,0,0,0,0,0,0,0,0,0,0,0,0,0,0,0,0,0
Wellington Silva ,LAT,Bahia,5,"7,00",0,"0,00","0,00","0,00",0,0,0,0,0,0,0,0,0,0,0,0,0,0,0,0,0,0
Vinícius Guarapuava ,ZAG,Chapecoense,2,"1,00",0,"0,00","0,00","0,00",0,0,0,0,0,0,0,0,0,0,0,0,0,0,0,0,0,0
Yan ,MEI,Santos,2,"2,00",0,"0,00","0,00","0,00",0,0,0,0,0,0,0,0,0,0,0,0,0,0,0,0,0,0
Bruno Grassi ,GOL,Grêmio,2,"4,00",0,"0,00","0,00","0,00",0,0,0,0,0,0,0,0,0,0,0,0,0,0,0,0,0,0
Reynaldo ,ZAG,Ponte Preta,2,"2,00",0,"0,00","0,00","0,00",0,0,0,0,0,0,0,0,0,0,0,0,0,0,0,0,0,0
Thiaguinho ,ATA,Ponte Preta,2,"2,00",0,"0,00","0,00","0,00",0,0,0,0,0,0,0,0,0,0,0,0,0,0,0,0,0,0
Ibañez ,ZAG,Fluminense,2,"1,00",0,"0,00","0,00","0,00",0,0,0,0,0,0,0,0,0,0,0,0,0,0,0,0,0,0
Jacy ,ZAG,Atlético-PR,2,"1,00",0,"0,00","0,00","0,00",0,0,0,0,0,0,0,0,0,0,0,0,0,0,0,0,0,0
Murillo ,ATA,Atlético-PR,2,"1,00",0,"0,00","0,00","0,00",0,0,0,0,0,0,0,0,0,0,0,0,0,0,0,0,0,0
Hernane ,ATA,Bahia,5,"10,00",0,"0,00","0,00","0,00",0,0,0,0,0,0,0,0,0,0,0,0,0,0,0,0,0,0
Rafael ,ZAG,Flamengo,2,"1,00",0,"0,00","0,00","0,00",0,0,0,0,0,0,0,0,0,0,0,0,0,0,0,0,0,0
Maílson ,GOL,Sport,2,"1,00",0,"0,00","0,00","0,00",0,0,0,0,0,0,0,0,0,0,0,0,0,0,0,0,0,0
William Menezes ,GOL,Coritiba,2,"2,00",0,"0,00","0,00","0,00",0,0,0,0,0,0,0,0,0,0,0,0,0,0,0,0,0,0
Rodrigo Pelezinho ,ATA,Chapecoense,2,"2,00",0,"0,00","0,00","0,00",0,0,0,0,0,0,0,0,0,0,0,0,0,0,0,0,0,0
Caio ,LAT,Sport,2,"2,00",0,"0,00","0,00","0,00",0,0,0,0,0,0,0,0,0,0,0,0,0,0,0,0,0,0
Cedric ,LAT,Vitória,2,"2,00",0,"0,00","0,00","0,00",0,0,0,0,0,0,0,0,0,0,0,0,0,0,0,0,0,0
Luiz Felipe ,MEI,Atlético-GO,2,"2,00",0,"0,00","0,00","0,00",0,0,0,0,0,0,0,0,0,0,0,0,0,0,0,0,0,0
Gabriel Batista ,GOL,Flamengo,2,"1,00",0,"0,00","0,00","0,00",0,0,0,0,0,0,0,0,0,0,0,0,0,0,0,0,0,0
Cárdenas ,MEI,Vitória,2,"6,00",0,"0,00","0,00","0,00",0,0,0,0,0,0,0,0,0,0,0,0,0,0,0,0,0,0
Evanderson ,MEI,Atlético-GO,2,"1,00",0,"0,00","0,00","0,00",0,0,0,0,0,0,0,0,0,0,0,0,0,0,0,0,0,0
Danilo ,MEI,Corinthians,2,"5,00",0,"0,00","0,00","0,00",0,0,0,0,0,0,0,0,0,0,0,0,0,0,0,0,0,0
Patrick Luan ,ATA,Fluminense,2,"1,00",0,"0,00","0,00","0,00",0,0,0,0,0,0,0,0,0,0,0,0,0,0,0,0,0,0
Jorge Mendoza ,MEI,Ponte Preta,2,"3,00",0,"0,00","0,00","0,00",0,0,0,0,0,0,0,0,0,0,0,0,0,0,0,0,0,0
Rafael Martins ,GOL,Coritiba,2,"2,00",0,"0,00","0,00","0,00",0,0,0,0,0,0,0,0,0,0,0,0,0,0,0,0,0,0
Tiepo ,GOL,Chapecoense,2,"1,00",0,"0,00","0,00","0,00",0,0,0,0,0,0,0,0,0,0,0,0,0,0,0,0,0,0
Artur Moraes ,GOL,Chapecoense,2,"6,00",0,"0,00","0,00","0,00",0,0,0,0,0,0,0,0,0,0,0,0,0,0,0,0,0,0
Kanu ,ZAG,Botafogo,2,"1,00",0,"0,00","0,00","0,00",0,0,0,0,0,0,0,0,0,0,0,0,0,0,0,0,0,0
Lucas Silva ,ATA,Flamengo,2,"2,00",0,"0,00","0,00","0,00",0,0,0,0,0,0,0,0,0,0,0,0,0,0,0,0,0,0
Loran  ,ATA,Flamengo,2,"1,00",0,"0,00","0,00","0,00",0,0,0,0,0,0,0,0,0,0,0,0,0,0,0,0,0,0
Marcelo ,ATA,Atlético-PR,2,"2,00",0,"0,00","0,00","0,00",0,0,0,0,0,0,0,0,0,0,0,0,0,0,0,0,0,0
Fábio Ferreira ,ZAG,Ponte Preta,2,"5,00",0,"0,00","0,00","0,00",0,0,0,0,0,0,0,0,0,0,0,0,0,0,0,0,0,0
Pierre ,MEI,Fluminense,5,"3,54",1,"0,00","0,00","0,00",0,0,0,0,0,0,0,0,0,0,0,0,0,0,0,0,0,0
Jean Lucas ,MEI,Flamengo,2,"2,00",0,"0,00","0,00","0,00",0,0,0,0,0,0,0,0,0,0,0,0,0,0,0,0,0,0
Emanuel ,LAT,Atlético-MG,2,"1,00",0,"0,00","0,00","0,00",0,0,0,0,0,0,0,0,0,0,0,0,0,0,0,0,0,0
Eder Luis ,ATA,Vasco,2,"2,34",1,"0,00","0,00","0,00",0,0,0,0,0,0,0,0,0,0,0,0,0,0,0,0,0,0
Douglas Pires ,GOL,Bahia,2,"4,00",0,"0,00","0,00","0,00",0,0,0,0,0,0,0,0,0,0,0,0,0,0,0,0,0,0
Cláudio Vitor ,GOL,Avaí,2,"1,00",0,"0,00","0,00","0,00",0,0,0,0,0,0,0,0,0,0,0,0,0,0,0,0,0,0
Flávio ,ATA,Atlético-MG,2,"1,00",0,"0,00","0,00","0,00",0,0,0,0,0,0,0,0,0,0,0,0,0,0,0,0,0,0
Douglas ,MEI,Grêmio,5,"14,00",0,"0,00","0,00","0,00",0,0,0,0,0,0,0,0,0,0,0,0,0,0,0,0,0,0
João Pedro ,ATA,Atlético-GO,2,"4,00",0,"0,00","0,00","0,00",0,0,0,0,0,0,0,0,0,0,0,0,0,0,0,0,0,0
Derlan ,ZAG,Fluminense,2,"1,00",0,"0,00","0,00","0,00",0,0,0,0,0,0,0,0,0,0,0,0,0,0,0,0,0,0
Jonas ,LAT,Botafogo,5,"6,00",0,"0,00","0,00","0,00",0,0,0,0,0,0,0,0,0,0,0,0,0,0,0,0,0,0
João Victor ,MEI,Sport,2,"2,00",0,"0,00","0,00","0,00",0,0,0,0,0,0,0,0,0,0,0,0,0,0,0,0,0,0
Jomar ,ZAG,Vasco,2,"1,50",5,"0,00","0,00","0,00",4,0,0,0,5,0,0,0,0,0,0,0,2,0,0,7,0,6
Riuler ,LAT,Atlético-PR,2,"2,00",0,"0,00","0,00","0,00",0,0,0,0,0,0,0,0,0,0,0,0,0,0,0,0,0,0
Pedro Vitor ,ATA,Sport,2,"1,00",0,"0,00","0,00","0,00",0,0,0,0,0,0,0,0,0,0,0,0,0,0,0,0,0,0
Pedro Bortoluzo ,ATA,São Paulo,2,"3,00",0,"0,00","0,00","0,00",0,0,0,0,0,0,0,0,0,0,0,0,0,0,0,0,0,0
Dayvid ,LAT,Sport,2,"1,00",0,"0,00","0,00","0,00",0,0,0,0,0,0,0,0,0,0,0,0,0,0,0,0,0,0
Elias ,LAT,Sport,2,"2,00",0,"0,00","0,00","0,00",0,0,0,0,0,0,0,0,0,0,0,0,0,0,0,0,0,0
Alesandro ,ZAG,Sport,2,"1,00",0,"0,00","0,00","0,00",0,0,0,0,0,0,0,0,0,0,0,0,0,0,0,0,0,0
Pedro Henryque ,ZAG,Sport,2,"2,00",0,"0,00","0,00","0,00",0,0,0,0,0,0,0,0,0,0,0,0,0,0,0,0,0,0
João Erick ,MEI,Sport,2,"2,00",0,"0,00","0,00","0,00",0,0,0,0,0,0,0,0,0,0,0,0,0,0,0,0,0,0
Amaral ,MEI,Chapecoense,5,"5,00",0,"0,00","0,00","0,00",0,0,0,0,0,0,0,0,0,0,0,0,0,0,0,0,0,0
Matheus Bezerra ,MEI,Sport,2,"1,00",0,"0,00","0,00","0,00",0,0,0,0,0,0,0,0,0,0,0,0,0,0,0,0,0,0
Henrique ,ZAG,Avaí,2,"3,00",0,"0,00","0,00","0,00",0,0,0,0,0,0,0,0,0,0,0,0,0,0,0,0,0,0
Lucas Índio ,ATA,Atlético-MG,2,"1,00",0,"0,00","0,00","0,00",0,0,0,0,0,0,0,0,0,0,0,0,0,0,0,0,0,0
Vinícius ,MEI,Sport,2,"2,00",0,"0,00","0,00","0,00",0,0,0,0,0,0,0,0,0,0,0,0,0,0,0,0,0,0
Borges ,MEI,Atlético-GO,2,"1,00",0,"0,00","0,00","0,00",0,0,0,0,0,0,0,0,0,0,0,0,0,0,0,0,0,0
Paulo Henrique ,ATA,Sport,2,"3,00",0,"0,00","0,00","0,00",0,0,0,0,0,0,0,0,0,0,0,0,0,0,0,0,0,0
Yago ,ZAG,Ponte Preta,2,"6,00",0,"0,00","0,00","0,00",0,0,0,0,0,0,0,0,0,0,0,0,0,0,0,0,0,0
Lucas Vinícius ,ATA,Atlético-GO,2,"1,00",0,"0,00","0,00","0,00",0,0,0,0,0,0,0,0,0,0,0,0,0,0,0,0,0,0
Alexsander ,MEI,Atlético-PR,2,"1,00",0,"0,00","0,00","0,00",0,0,0,0,0,0,0,0,0,0,0,0,0,0,0,0,0,0
Vilson ,ZAG,Corinthians,2,"4,00",0,"0,00","0,00","0,00",0,0,0,0,0,0,0,0,0,0,0,0,0,0,0,0,0,0
Keirrison ,ATA,Coritiba,2,"3,00",0,"0,00","0,00","0,00",0,0,0,0,0,0,0,0,0,0,0,0,0,0,0,0,0,0
Felipe ,ATA,Fluminense,5,"1,00",0,"0,00","0,00","0,00",0,0,0,0,0,0,0,0,0,0,0,0,0,0,0,0,0,0
Diego ,GOL,Botafogo,2,"1,00",0,"0,00","0,00","0,00",0,0,0,0,0,0,0,0,0,0,0,0,0,0,0,0,0,0
Denis ,GOL,São Paulo,2,"5,00",0,"0,00","0,00","0,00",0,0,0,0,0,0,0,0,0,0,0,0,0,0,0,0,0,0
Caio ,GOL,Atlético-PR,2,"1,00",0,"0,00","0,00","0,00",0,0,0,0,0,0,0,0,0,0,0,0,0,0,0,0,0,0
Daniel ,ZAG,Atlético-PR,2,"1,00",0,"0,00","0,00","0,00",0,0,0,0,0,0,0,0,0,0,0,0,0,0,0,0,0,0
Wenderson ,MEI,Botafogo,2,"0,76",1,"0,00","0,00","0,00",0,0,0,0,0,0,0,0,0,0,0,0,0,0,0,0,0,0
César ,GOL,Flamengo,2,"3,00",0,"0,00","0,00","0,00",0,0,0,0,0,0,0,0,0,0,0,0,0,0,0,0,0,0
Gustavo Henrique ,ZAG,Santos,2,"6,00",0,"0,00","0,00","0,00",0,0,0,0,0,0,0,0,0,0,0,0,0,0,0,0,0,0
Fernando ,LAT,Botafogo,2,"1,00",0,"0,00","0,00","0,00",0,0,0,0,0,0,0,0,0,0,0,0,0,0,0,0,0,0
Esperon ,MEI,Grêmio,2,"1,00",0,"0,00","0,00","0,00",0,0,0,0,0,0,0,0,0,0,0,0,0,0,0,0,0,0
Walter ,GOL,Corinthians,2,"6,00",0,"0,00","0,00","0,00",0,0,0,0,0,0,0,0,0,0,0,0,0,0,0,0,0,0
Jadson ,ATA,Grêmio,2,"1,00",0,"0,00","0,00","0,00",0,0,0,0,0,0,0,0,0,0,0,0,0,0,0,0,0,0
Marcos ,GOL,Atlético-GO,2,"1,00",0,"0,00","0,00","0,00",0,0,0,0,0,0,0,0,0,0,0,0,0,0,0,0,0,0
Arthur ,ZAG,Cruzeiro,2,"1,00",0,"0,00","0,00","0,00",0,0,0,0,0,0,0,0,0,0,0,0,0,0,0,0,0,0
Leonardo Simas ,LAT,Atlético-PR,2,"1,00",0,"0,00","0,00","0,00",0,0,0,0,0,0,0,0,0,0,0,0,0,0,0,0,0,0
Igor Cássio ,ATA,Botafogo,2,"1,00",0,"0,00","0,00","0,00",0,0,0,0,0,0,0,0,0,0,0,0,0,0,0,0,0,0
Dionathã ,ATA,Grêmio,1,"1,00",0,"0,00","0,00","0,00",0,0,0,0,0,0,0,0,0,0,0,0,0,0,0,0,0,0
Léo Passos ,ATA,Palmeiras,2,"2,00",0,"0,00","0,00","0,00",0,0,0,0,0,0,0,0,0,0,0,0,0,0,0,0,0,0
Ricardo ,ZAG,Vasco,2,"2,00",0,"0,00","0,00","0,00",0,0,0,0,0,0,0,0,0,0,0,0,0,0,0,0,0,0
Gabriel Gasparotto ,GOL,Santos,2,"2,00",0,"0,00","0,00","0,00",0,0,0,0,0,0,0,0,0,0,0,0,0,0,0,0,0,0
Luis Ali ,ATA,Ponte Preta,2,"1,00",0,"0,00","0,00","0,00",0,0,0,0,0,0,0,0,0,0,0,0,0,0,0,0,0,0
Jayme de Almeida ,TEC,Flamengo,3,"11,73",0,"0,00","0,00","0,00",0,0,0,0,0,0,0,0,0,0,0,0,0,0,0,0,0,0
William Alves ,ZAG,Atlético-GO,3,"2,00",0,"0,00","0,00","0,00",0,0,0,0,0,0,0,0,0,0,0,0,0,0,0,0,0,0
Ezequiel ,MEI,Botafogo,2,"1,00",0,"0,00","0,00","0,00",0,0,0,0,0,0,0,0,0,0,0,0,0,0,0,0,0,0
Luiz Felipe ,ZAG,Santos,5,"5,00",0,"0,00","0,00","0,00",0,0,0,0,0,0,0,0,0,0,0,0,0,0,0,0,0,0
Khevin ,MEI,Chapecoense,2,"1,00",0,"0,00","0,00","0,00",0,0,0,0,0,0,0,0,0,0,0,0,0,0,0,0,0,0
Lucas Formiga ,ATA,Ponte Preta,2,"1,00",0,"0,00","0,00","0,00",0,0,0,0,0,0,0,0,0,0,0,0,0,0,0,0,0,0
Nilmar ,ATA,Santos,2,"8,00",0,"0,00","0,00","0,00",0,0,0,0,0,0,0,0,0,0,0,0,0,0,0,0,0,0
Cristian ,MEI,Corinthians,2,"4,00",0,"0,00","0,00","0,00",0,0,0,0,0,0,0,0,0,0,0,0,0,0,0,0,0,0
Marcelo Mattos ,MEI,Vasco,5,"4,00",0,"0,00","0,00","0,00",0,0,0,0,0,0,0,0,0,0,0,0,0,0,0,0,0,0
Arouca ,MEI,Palmeiras,5,"6,00",0,"0,00","0,00","0,00",0,0,0,0,0,0,0,0,0,0,0,0,0,0,0,0,0,0
Wanderson ,LAT,Atlético-GO,2,"4,00",0,"0,00","0,00","0,00",0,0,0,0,0,0,0,0,0,0,0,0,0,0,0,0,0,0
Michael ,ATA,Fluminense,2,"2,00",0,"0,00","0,00","0,00",0,0,0,0,0,0,0,0,0,0,0,0,0,0,0,0,0,0
Vitor Prada ,GOL,Avaí,2,"1,00",0,"0,00","0,00","0,00",0,0,0,0,0,0,0,0,0,0,0,0,0,0,0,0,0,0
Luan Pereira ,MEI,Avaí,2,"1,07",2,"-0,05","-0,30","-0,18",0,0,0,0,1,0,0,0,0,0,0,0,0,0,0,0,0,2
Nadson ,MEI,Chapecoense,2,"0,76",3,"-0,07","0,00","0,00",0,0,0,0,1,1,0,0,0,0,0,0,0,0,0,1,0,3
Dudu Cearense ,MEI,Botafogo,4,"2,87",8,"-0,07","-2,00","-1,01",6,0,0,0,5,0,1,0,0,0,0,0,3,0,0,8,0,14
Leandro Donizete ,MEI,Santos,2,"3,94",7,"-0,07","0,00","0,00",4,0,0,0,7,1,0,0,0,0,0,0,2,0,0,9,0,10
Bremer ,ZAG,Atlético-MG,2,"0,89",7,"-0,09","-3,00","-0,56",8,0,0,1,5,0,0,0,0,0,0,0,4,0,0,22,0,9
Lucho González ,MEI,Atlético-PR,2,"5,64",12,"-0,11","1,90","-0,13",12,0,0,0,10,5,1,0,0,0,0,1,2,0,0,17,2,42
Fernandes ,MEI,Botafogo,3,"3,09",3,"-0,13","0,00","0,00",0,0,0,0,2,1,0,0,0,0,0,0,0,0,0,0,0,7
Jean Pineda ,ATA,Vitória,2,"2,38",2,"-0,20","0,00","0,00",0,0,0,0,1,0,0,0,0,0,0,0,0,0,0,0,0,3
Lourenço ,ATA,Avaí,2,"0,79",6,"-0,22","0,00","0,00",1,0,0,0,5,3,1,0,0,0,0,0,2,0,0,4,1,7
Frazan ,ZAG,Fluminense,2,"1,34",3,"-0,23","0,00","0,00",3,0,0,0,0,0,1,0,0,0,0,0,1,0,0,6,0,6
Getterson ,ATA,Coritiba,2,"0,78",3,"-0,27","0,00","0,00",2,0,0,0,2,0,0,0,0,0,0,0,1,0,0,4,0,4
Juninho ,ATA,Sport,2,"0,78",7,"-0,30","-0,30","0,00",1,0,0,0,4,3,1,0,0,0,0,0,1,0,0,7,2,8
Juninho Capixaba ,LAT,Bahia,2,"1,51",1,"-0,30","-0,30","-0,49",0,0,0,0,0,0,0,0,0,0,0,0,0,0,0,0,0,1
Miller Bolaños ,ATA,Grêmio,5,"10,62",2,"-0,30","0,00","0,00",1,0,0,0,1,0,0,0,0,0,0,0,0,0,0,2,0,6
Lucas Campos ,ATA,Botafogo,2,"0,79",1,"-0,30","0,00","0,00",0,0,0,0,0,0,0,0,0,0,0,0,0,0,0,0,0,1
Felipe Gedoz  ,MEI,Atlético-PR,2,"7,22",4,"-0,32","0,00","0,00",1,0,0,0,1,1,2,0,0,0,0,0,1,0,0,6,0,4
Evandro ,LAT,Sport,2,"0,76",3,"-0,33","0,00","0,00",3,0,0,0,2,0,1,0,0,0,0,0,0,0,0,9,0,12
Evander ,MEI,Vasco,2,"1,30",3,"-0,37","0,00","0,00",1,0,0,0,0,0,1,0,0,0,0,0,1,0,0,3,0,1
Pablo Diogo ,ATA,Atlético-MG,2,"1,68",3,"-0,40","0,00","0,00",2,0,0,0,0,0,0,0,0,0,0,0,0,0,0,3,2,7
Thalisson Kelven ,ZAG,Coritiba,2,"0,99",2,"-0,40","0,00","0,00",0,0,0,0,0,0,0,0,0,0,0,0,0,0,0,0,1,1
Marquinho ,MEI,Fluminense,5,"2,98",4,"-0,40","0,00","0,00",1,0,0,0,0,0,0,0,0,0,0,0,1,0,0,2,0,1
Jonatan Gomez ,MEI,São Paulo,2,"3,86",6,"-0,42","0,00","0,00",2,0,0,0,10,2,2,0,0,0,0,0,1,0,0,11,1,21
Rafaelson ,ATA,Vitória,2,"1,54",4,"-0,43","0,00","0,00",1,0,0,0,2,3,2,0,0,0,0,0,1,0,0,10,0,5
Rafael Longuine ,MEI,Santos,2,"1,39",4,"-0,45","0,00","0,00",1,0,0,0,3,0,1,0,0,0,0,0,1,0,0,4,1,5
Kazim ,ATA,Corinthians,2,"1,71",6,"-0,45","0,00","0,00",0,0,0,0,2,2,0,0,0,0,0,0,0,0,0,8,1,2
Maikon Leite ,ATA,Bahia,5,"2,15",2,"-0,50","0,00","0,00",0,0,0,0,1,0,0,0,0,0,0,0,0,0,0,2,1,0
Danilinho ,ATA,Vitória,2,"3,82",1,"-0,50","0,00","0,00",0,0,0,0,0,0,0,0,0,0,0,0,0,0,0,1,0,0
Arroyo ,ATA,Grêmio,5,"4,43",1,"-0,50","0,00","0,00",0,0,0,0,0,0,0,0,0,0,0,0,0,0,0,0,1,0
Léo Cittadini ,MEI,Santos,2,"2,15",3,"-0,53","-1,10","-0,47",0,0,0,0,0,0,0,0,0,0,0,0,0,0,0,2,0,2
Pisculichi ,MEI,Vitória,2,"4,13",2,"-0,55","0,00","0,00",0,0,0,0,1,1,0,0,0,0,0,0,0,0,0,1,0,6
Matheus Anjos ,MEI,Atlético-PR,2,"1,48",4,"-0,58","0,00","0,00",2,0,0,0,4,1,2,0,0,0,0,0,1,0,0,6,0,18
Gustavo ,ZAG,Avaí,2,"4,14",3,"-0,60","0,00","0,00",1,0,0,0,2,1,0,0,0,0,0,0,1,0,0,2,2,4
Rodrigo Ramos ,LAT,Coritiba,2,"2,89",3,"-0,63","0,00","0,00",1,0,0,0,1,0,1,0,0,0,0,0,0,0,0,6,0,7
Armero ,LAT,Bahia,5,"1,86",5,"-0,64","3,20","0,95",5,0,0,1,2,1,2,0,0,0,0,1,1,0,0,11,2,23
Eduardo ,LAT,Atlético-GO,2,"0,79",7,"-0,66","0,00","0,00",3,0,0,0,3,0,0,0,0,0,0,0,1,0,0,9,1,14
Yuri ,MEI,Santos,1,"0,79",9,"-0,67","0,00","0,00",6,0,0,0,4,0,1,0,0,0,0,0,3,0,0,14,0,21
Edinho ,MEI,Coritiba,2,"3,60",4,"-0,68","0,00","0,00",0,0,0,0,3,0,0,0,0,0,0,0,1,0,0,2,0,4
Carlos Cesar ,LAT,Atlético-MG,5,"4,46",1,"-0,70","0,00","0,00",0,0,0,0,1,0,0,0,0,0,0,0,0,0,0,0,0,4
Marquinho ,MEI,Atlético-MG,2,"1,38",1,"-0,80","0,00","0,00",0,0,0,0,0,0,0,0,0,0,0,0,0,0,0,1,0,1
Patrick ,MEI,Grêmio,1,"1,27",1,"-0,80","-0,80","-0,73",0,0,0,0,0,0,0,0,0,0,0,0,0,0,0,1,0,1
Cícero ,MEI,São Paulo,2,"4,28",10,"-0,81","0,00","0,00",3,0,0,0,7,3,0,0,0,0,0,0,2,0,0,18,2,16
Yan ,MEI,Coritiba,2,"0,79",2,"-0,85","0,00","0,00",0,0,0,0,1,1,0,0,0,0,0,0,1,0,0,0,0,3
Conca ,MEI,Flamengo,2,"8,35",2,"-0,95","0,00","0,00",0,0,0,0,1,0,1,0,0,0,0,0,1,0,0,1,0,3
Feijão ,MEI,Bahia,2,"1,39",4,"-0,97","0,00","0,00",1,0,0,0,0,0,0,0,0,0,0,0,2,0,0,2,0,2
Douglas ,MEI,Fluminense,2,"3,78",2,"-1,00","0,00","0,00",3,0,0,0,1,0,0,0,0,0,0,0,2,0,0,3,0,7
Diego Cavalieri ,GOL,Fluminense,2,"3,91",3,"-1,00","0,00","0,00",0,0,0,0,0,0,0,0,3,0,0,0,0,0,6,0,0,0
Cleberson ,ZAG,Atlético-PR,2,"2,69",1,"-1,20","0,00","0,00",0,0,0,0,0,0,0,0,0,0,0,0,0,0,0,0,0,4
Giovanni ,GOL,Atlético-MG,2,"4,47",1,"-1,30","0,00","0,00",0,0,0,0,0,0,0,0,1,0,0,0,0,0,2,0,0,1
Alan Cardoso ,LAT,Vasco,2,"1,21",1,"-1,30","0,00","0,00",1,0,0,0,0,0,0,0,0,0,0,0,1,0,0,2,0,0
Wellington ,MEI,Vasco,1,"0,78",10,"-1,48","-2,10","-0,01",5,0,0,0,7,0,1,0,0,0,0,0,4,0,0,23,1,26
Fernando Guerrero ,MEI,Chapecoense,2,"2,89",2,"-1,50","0,00","0,03",0,0,0,0,0,0,0,0,0,0,0,0,1,0,0,2,0,0
Pablo ,ATA,Atlético-PR,2,"2,12",11,"-1,52","-1,30","0,13",3,0,0,0,12,6,2,0,0,0,0,0,4,0,0,20,8,40
Leonardo Valencia ,MEI,Botafogo,3,"4,66",2,"-1,65","-2,40","-0,67",0,0,0,0,7,1,0,0,0,0,0,0,2,0,0,4,0,5
Gabriel Furtado ,MEI,Palmeiras,2,"0,79",2,"-1,75","0,00","0,00",1,0,0,0,1,0,0,0,0,0,0,0,2,0,0,1,0,4
Sidão ,GOL,São Paulo,2,"6,25",0,"-2,00","0,00","0,00",0,0,0,0,0,0,0,0,0,0,0,0,1,0,0,0,0,0
Saulo ,GOL,Botafogo,2,"1,18",1,"-2,00","0,00","0,00",0,0,0,0,0,0,0,0,0,0,0,0,1,0,0,0,0,0
Anderson ,GOL,Bahia,2,"0,79",2,"-2,00","0,00","0,00",0,0,0,0,0,0,0,0,0,0,0,0,2,0,0,0,0,0
Gabriel ,ATA,Flamengo,2,"3,51",1,"-2,00","0,00","0,00",0,0,0,0,1,0,0,0,0,0,0,0,1,0,0,1,0,0
Bruno Brígido ,GOL,Coritiba,2,"3,48",1,"-2,00","0,00","0,00",0,0,0,0,0,0,0,0,0,0,0,0,1,0,0,0,0,0
Bruno Guimarães ,MEI,Atlético-PR,2,"0,79",3,"-2,27","0,00","0,00",0,0,0,0,0,0,0,0,0,0,0,0,2,0,0,5,0,1
Klever ,GOL,Atlético-GO,5,"0,83",3,"-3,10","0,00","0,00",0,0,0,0,0,0,0,0,3,0,0,0,0,0,9,0,0,1
Diego Alves ,GOL,Flamengo,3,"6,66",3,"-3,20","-4,00","-0,63",0,0,0,0,0,0,0,0,1,0,0,0,0,0,6,0,0,2
Andrés Ríos ,ATA,Vasco,2,"2,35",1,"-3,30","0,00","0,00",0,0,0,0,0,0,0,0,0,0,0,0,1,0,0,2,0,1
Renan Gorne ,ATA,Botafogo,2,"0,76",1,"-3,50","0,00","0,00",0,0,0,0,0,0,0,0,0,0,0,0,1,0,0,3,0,0
Maicon ,LAT,Avaí,2,"4,72",1,"-6,00","0,00","0,00",0,0,0,0,2,1,0,0,0,0,1,0,0,0,0,1,0,4
