name,position,team,situation,price,meatches,average,last_score,difference,disarms,goals,assists,no_goals,fouls_suffered,strikes_out,strikes_defended,strikes_post,difficult_defense,penalty_defense,own_goal,red_card,yellow_card,goal_suffered,penalty_lost,fouls_commited,offsides,wrong_pass
Marcos ,GOL,Atlético-GO,3,"3,12",1,"12,50","12,50","2,12",0,0,0,1,1,0,0,0,3,0,0,0,1,0,0,0,0,0
João Paulo ,GOL,Santos,2,"2,97",1,"10,70","0,00","0,00",0,0,0,1,0,0,0,0,2,0,0,0,0,0,0,0,0,1
Hernanes ,MEI,São Paulo,3,"18,57",6,"10,52","11,50","1,64",4,6,1,0,17,4,5,0,0,0,0,0,2,0,0,6,0,20
Paulo Victor ,GOL,Grêmio,2,"8,38",3,"10,03","0,00","0,00",0,0,0,2,0,0,0,0,6,1,0,0,1,0,1,0,0,3
Vanderlei ,GOL,Santos,3,"22,07",21,"9,70","4,00","-0,80",0,0,0,12,3,0,0,0,52,3,0,0,2,0,14,1,0,7
Douglas Friedrich ,GOL,Avaí,3,"10,69",13,"9,70","11,00","0,60",0,0,0,8,3,0,0,0,36,1,0,0,2,0,13,1,0,0
Jefferson ,GOL,Botafogo,2,"9,57",6,"7,78","0,00","0,00",0,0,0,2,1,0,0,0,15,1,0,0,2,0,5,0,0,6
Luan ,ATA,Grêmio,2,"20,87",15,"7,37","0,00","0,00",21,5,6,0,36,14,15,0,0,0,0,0,1,1,0,17,3,75
Lucca ,ATA,Ponte Preta,4,"20,16",20,"7,16","0,00","0,00",19,10,1,0,67,18,20,0,0,0,0,0,3,1,0,23,6,55
Pedro Geromel ,ZAG,Grêmio,5,"13,74",13,"6,74","0,00","0,00",31,0,2,7,8,3,3,0,0,0,0,0,3,0,0,8,0,31
Reinaldo Rueda ,TEC,Flamengo,3,"12,16",2,"6,65","5,37","0,63",0,0,0,0,0,0,0,0,0,0,0,0,0,0,0,0,0,0
Ramon ,LAT,Vasco,3,"10,25",8,"6,55","13,10","1,15",18,1,1,2,22,2,0,0,0,0,0,0,0,0,0,11,0,27
Balbuena ,ZAG,Corinthians,5,"10,40",17,"6,53","0,00","0,00",23,3,1,11,14,4,1,0,0,0,0,0,3,0,0,7,3,40
Renê Júnior ,MEI,Bahia,3,"13,35",18,"6,49","14,20","2,29",52,4,0,0,40,17,8,0,0,0,0,1,3,0,0,33,3,48
Henrique Dourado ,ATA,Fluminense,3,"21,31",16,"6,49","-0,30","-2,12",7,12,2,0,31,8,8,0,0,0,0,0,4,0,0,41,4,43
Igor ,ZAG,Sport,2,"5,80",1,"6,20","0,00","0,00",4,0,0,0,2,0,0,0,0,0,0,0,0,0,0,2,0,2
Gatito Fernández ,GOL,Botafogo,3,"19,52",15,"6,17","-2,00","-3,37",0,0,0,6,3,0,0,0,26,3,0,0,1,0,17,0,0,7
Zé Rafael  ,MEI,Bahia,3,"20,43",21,"6,08","9,10","1,42",53,1,4,0,65,11,17,0,0,0,0,0,4,0,0,46,6,45
Agenor ,GOL,Sport,2,"4,57",4,"6,05","0,00","0,00",0,0,0,2,0,0,0,0,8,0,0,0,0,0,4,0,0,6
Mena ,LAT,Sport,2,"5,35",10,"5,82","0,00","0,00",20,1,4,4,10,1,1,0,0,0,0,1,3,0,0,20,3,27
Fernandinho ,ATA,Grêmio,2,"11,11",17,"5,81","0,00","0,00",17,6,1,0,47,4,11,0,0,0,0,0,1,0,0,17,1,32
Sidcley ,LAT,Atlético-PR,1,"13,26",20,"5,75","1,20","-0,66",24,4,3,8,35,4,5,0,0,0,0,0,1,0,0,22,9,69
Thiago Carleto ,LAT,Coritiba,3,"6,03",7,"5,73","0,00","0,00",6,1,1,3,6,3,7,0,0,0,0,0,0,0,0,6,0,24
Jailson ,GOL,Palmeiras,5,"7,45",4,"5,73","0,00","0,00",0,0,0,2,1,0,0,0,6,1,0,0,3,0,3,0,0,2
Thiago Neves ,MEI,Cruzeiro,2,"17,26",19,"5,73","1,50","-0,86",19,6,2,0,32,11,27,2,0,0,0,0,2,0,0,20,5,75
Sander ,LAT,Sport,2,"9,26",13,"5,68","0,00","0,00",35,0,1,6,13,1,1,0,0,0,0,0,1,0,0,28,0,43
Nino Paraíba ,LAT,Ponte Preta,3,"21,10",18,"5,58","11,30","1,13",35,1,3,6,35,4,7,0,0,0,0,0,3,0,0,19,3,75
Cássio ,GOL,Corinthians,3,"13,09",21,"5,55","4,00","0,65",0,0,0,13,5,0,0,0,21,2,0,0,2,0,11,0,0,7
Fagner ,LAT,Corinthians,3,"13,18",17,"5,55","5,00","0,46",30,0,2,11,28,3,1,1,0,0,0,0,4,0,0,18,2,81
Patrick ,MEI,Sport,2,"10,35",17,"5,54","0,00","0,00",57,2,0,0,22,3,2,0,0,0,0,0,2,0,0,30,0,49
Oswaldo Henríquez ,ZAG,Sport,2,"5,58",8,"5,51","0,00","0,00",21,0,0,4,3,1,0,0,0,0,0,0,2,0,0,10,0,16
Alejandro Guerra ,MEI,Palmeiras,1,"13,82",14,"5,43","4,50","0,66",17,5,3,0,25,8,8,0,0,0,0,0,3,0,0,22,2,53
Fabián Noguera ,ZAG,Santos,2,"4,43",5,"5,38","0,00","0,00",5,0,1,3,1,2,0,0,0,0,0,0,0,0,0,4,0,5
Wallace Reis  ,ZAG,Vitória,3,"9,22",7,"5,37","7,50","0,18",13,0,0,4,13,0,0,1,0,0,0,0,3,0,0,8,0,15
Michel  ,MEI,Grêmio,2,"10,45",14,"5,33","0,00","0,00",38,4,0,0,16,8,2,0,0,0,0,0,4,0,0,36,0,39
Bruno Silva ,MEI,Botafogo,3,"13,75",18,"5,29","9,50","1,29",39,5,2,0,31,12,3,0,0,0,0,0,6,0,0,35,0,62
Wendel ,MEI,Fluminense,3,"12,52",18,"5,28","-0,10","0,20",26,3,2,0,46,6,6,2,0,0,0,0,1,0,0,17,1,41
Diego ,MEI,Flamengo,2,"20,17",17,"5,24","8,10","1,64",24,5,2,0,56,12,7,0,0,0,0,0,3,1,0,21,7,72
Júnior Dutra ,ATA,Avaí,3,"9,11",16,"5,22","6,60","-0,56",17,5,1,0,25,17,7,2,0,0,0,0,1,0,0,25,3,43
Léo Moura ,LAT,Grêmio,2,"10,70",7,"5,20","0,00","0,00",6,0,0,6,10,3,1,0,0,0,0,0,0,0,0,4,3,28
Manoel ,ZAG,Cruzeiro,2,"8,77",1,"5,20","0,00","0,00",0,0,0,1,2,0,0,0,0,0,0,0,0,0,0,0,1,1
Gustavo Henrique ,ZAG,Santos,2,"5,70",1,"5,20","0,00","0,00",0,0,0,1,1,0,2,0,0,0,0,0,0,0,0,4,0,1
Matheus Ribeiro ,LAT,Santos,2,"5,76",4,"5,20","0,00","0,00",2,0,0,4,1,1,1,0,0,0,0,0,1,0,0,2,0,6
Luis Fabiano ,ATA,Vasco,5,"11,82",11,"5,19","0,00","0,00",4,5,2,0,22,17,6,0,0,0,0,0,5,0,0,22,6,15
André ,ATA,Sport,2,"10,74",19,"5,19","0,00","0,00",17,9,1,0,32,18,9,1,0,0,0,0,3,0,0,42,14,48
Valdir ,TEC,Vasco,3,"9,46",1,"5,14","5,14","0,53",0,0,0,0,0,0,0,0,0,0,0,0,0,0,0,0,0,0
Fabrício ,LAT,Atlético-PR,3,"4,49",5,"5,12","-1,60","-1,77",11,0,0,3,4,1,1,0,0,0,0,0,1,0,0,9,1,16
Egídio ,LAT,Palmeiras,2,"7,15",11,"5,11","0,00","0,00",23,0,1,5,16,0,3,0,0,0,0,0,1,0,0,10,2,53
Emerson Silva ,ZAG,Botafogo,2,"5,82",4,"5,08","0,00","0,00",7,0,0,2,6,2,0,0,0,0,0,0,1,0,0,2,0,10
Alisson ,MEI,Cruzeiro,2,"14,00",16,"5,08","0,00","0,00",20,1,5,0,31,10,7,3,0,0,0,0,0,0,0,20,2,49
Wilson ,GOL,Coritiba,3,"14,88",22,"5,07","10,50","0,79",0,0,0,7,5,0,0,0,43,1,0,0,2,0,27,0,0,13
Sornoza ,MEI,Fluminense,2,"15,81",2,"5,05","0,00","0,00",2,1,0,0,2,1,1,0,0,0,0,0,1,0,0,1,0,5
Paulinho ,MEI,Atlético-GO,3,"6,00",10,"5,01","-2,20","-1,86",24,2,0,0,17,7,3,1,0,0,0,0,3,0,0,21,1,32
Bruno Henrique ,ATA,Santos,3,"14,07",17,"5,01","10,00","2,26",15,5,6,0,47,8,9,1,0,0,0,1,3,0,0,43,5,56
Léo Santos ,ZAG,Corinthians,2,"4,38",1,"5,00","0,00","0,00",0,0,0,1,0,0,0,0,0,0,0,0,0,0,0,0,0,0
Renan Fonseca ,ZAG,Botafogo,2,"3,30",1,"5,00","0,00","0,00",0,0,0,1,0,0,0,0,0,0,0,0,0,0,0,0,0,0
Pedro Henrique ,ZAG,Corinthians,3,"9,12",14,"4,90","3,40","-0,34",15,1,0,7,8,3,2,0,0,0,0,0,0,0,0,5,0,18
Cleiton ,GOL,Atlético-MG,2,"1,85",1,"4,90","0,00","0,00",0,0,0,1,1,0,0,0,0,0,0,0,0,0,0,0,0,2
Arnaldo ,LAT,Botafogo,1,"9,72",16,"4,88","6,10","0,38",34,0,1,6,26,0,2,0,0,0,0,0,2,0,0,24,0,46
Marcos Rocha ,LAT,Atlético-MG,3,"10,41",10,"4,82","3,00","-0,22",29,0,2,2,15,4,1,0,0,0,0,0,3,0,0,23,1,48
Vanderlei Luxemburgo ,TEC,Sport,2,"8,64",18,"4,81","0,00","0,00",0,0,0,0,0,0,0,0,0,0,0,0,0,0,0,0,0,0
Pablo ,ZAG,Corinthians,3,"11,63",14,"4,78","6,50","-0,21",12,0,0,10,8,7,2,0,0,0,0,0,2,0,0,10,0,18
Marcos Guilherme  ,MEI,São Paulo,3,"11,67",6,"4,78","12,90","3,18",3,3,0,0,2,0,1,1,0,0,0,0,0,0,0,4,0,13
Raul Prata ,LAT,Sport,2,"5,53",5,"4,76","0,00","0,00",9,0,0,3,5,4,0,0,0,0,0,0,1,0,0,7,0,21
Arthur  ,ATA,Chapecoense,5,"10,08",20,"4,75","-3,70","-0,40",18,4,5,0,45,16,13,1,0,0,0,0,4,0,0,36,5,47
Kanu ,ZAG,Vitória,3,"11,08",16,"4,72","15,60","2,28",21,3,1,6,10,10,3,0,0,0,1,0,4,0,0,13,5,37
Deyverson ,ATA,Palmeiras,1,"9,48",7,"4,72","13,40","2,28",5,2,2,0,22,3,4,0,0,0,0,0,1,0,0,19,1,22
Paolo Guerrero ,ATA,Flamengo,1,"12,15",14,"4,71","5,40","0,67",12,5,2,0,36,16,12,0,0,0,0,0,3,0,0,50,10,32
Fábio Carille ,TEC,Corinthians,3,"11,93",21,"4,67","3,96","0,39",0,0,0,0,0,0,0,0,0,0,0,0,0,0,0,0,0,0
Guilherme Arana ,LAT,Corinthians,5,"9,40",19,"4,67","0,00","0,00",9,2,2,13,24,2,2,0,0,0,0,0,3,0,0,12,4,63
Juninho ,LAT,Vitória,3,"8,46",5,"4,66","2,70","-0,66",6,0,1,3,3,0,0,0,0,0,0,0,1,0,0,4,1,13
Guilherme ,MEI,Atlético-PR,3,"9,08",9,"4,64","-1,40","-0,37",8,3,3,0,10,7,3,0,0,0,0,0,2,0,0,17,2,34
Pedro Rocha ,ATA,Grêmio,2,"10,99",15,"4,61","0,00","0,00",16,3,2,0,18,5,12,1,0,0,0,0,0,0,0,13,5,37
Rodinei ,LAT,Flamengo,2,"10,12",12,"4,58","6,40","0,23",12,1,3,6,10,2,2,0,0,0,0,1,2,0,0,19,1,26
Ronaldo Alves ,ZAG,Sport,2,"8,98",16,"4,57","0,00","0,00",18,1,1,8,28,2,4,0,0,0,0,0,4,0,0,19,1,40
Zeca ,LAT,Santos,3,"10,61",7,"4,57","3,70","-0,72",5,0,0,4,6,3,2,1,0,0,0,0,0,0,0,4,0,17
Diego Souza ,MEI,Sport,2,"15,37",14,"4,56","0,00","0,00",6,6,1,0,37,10,3,3,0,0,0,0,4,0,0,23,1,61
Marllon ,ZAG,Ponte Preta,3,"11,74",20,"4,56","1,40","-0,77",31,0,0,8,23,3,2,1,0,0,0,0,2,0,0,10,0,39
Capa ,LAT,Avaí,3,"13,00",21,"4,56","10,10","2,15",46,0,1,9,57,10,2,0,0,0,1,0,4,0,0,39,4,116
Renato Gaúcho ,TEC,Grêmio,2,"15,56",21,"4,56","0,00","0,00",0,0,0,0,0,0,0,0,0,0,0,0,0,0,0,0,0,0
Gilberto  ,LAT,Vasco,3,"11,59",19,"4,52","3,50","0,97",54,0,1,4,28,7,1,1,0,0,0,0,6,0,0,28,2,91
Rodrigão ,ATA,Bahia,3,"5,55",10,"4,52","0,70","0,21",2,4,2,0,8,10,7,0,0,0,0,0,1,0,0,11,7,24
Cléber Reis ,ZAG,Coritiba,2,"6,49",1,"4,50","0,00","0,00",0,0,0,1,0,0,0,0,0,0,0,0,0,0,0,1,0,0
Fagner Alemão ,LAT,Avaí,3,"9,95",19,"4,50","2,90","0,21",35,0,0,9,13,4,1,0,0,0,0,0,3,0,0,10,4,54
Daniel Guedes  ,LAT,Santos,2,"4,71",7,"4,50","0,00","0,00",11,1,1,4,7,1,1,0,0,0,0,2,2,0,0,15,0,13
Victor Luis ,LAT,Botafogo,3,"12,15",17,"4,48","3,60","-0,64",29,1,0,7,16,3,0,0,0,0,0,0,3,0,0,17,0,39
Juan ,ZAG,Flamengo,2,"7,02",9,"4,47","6,40","0,37",12,0,2,2,5,5,3,1,0,0,0,0,3,0,0,6,0,12
Victor ,GOL,Atlético-MG,3,"11,58",20,"4,47","3,70","-0,91",0,0,0,4,2,0,0,0,35,3,0,0,3,0,24,2,0,9
Ángel Romero ,ATA,Corinthians,4,"12,33",16,"4,46","0,00","0,00",30,2,2,0,51,5,7,0,0,0,0,0,5,0,0,15,11,62
Mendoza ,ATA,Bahia,3,"4,38",17,"4,45","-0,60","-3,43",21,4,0,0,22,17,8,0,0,0,0,0,0,0,0,18,1,45
Everton ,ATA,Grêmio,2,"10,18",18,"4,43","0,00","0,00",10,5,2,0,10,11,10,1,0,0,0,0,1,0,0,10,1,20
Rhodolfo ,ZAG,Flamengo,3,"8,62",8,"4,42","4,90","-0,45",9,0,0,5,3,3,1,0,0,0,0,0,1,0,0,9,2,7
Jô ,ATA,Corinthians,4,"12,14",20,"4,41","0,00","0,00",6,11,2,0,24,10,14,0,0,0,0,0,2,1,0,38,22,51
Juninho Capixaba ,LAT,Bahia,3,"3,21",3,"4,40","8,10","0,71",6,0,0,1,4,0,0,0,0,0,0,0,0,0,0,2,0,10
Fabiano Soares ,TEC,Atlético-PR,3,"9,86",8,"4,40","1,54","-0,59",0,0,0,0,0,0,0,0,0,0,0,0,0,0,0,0,0,0
Rithely ,MEI,Sport,2,"10,95",18,"4,36","0,00","0,00",44,1,2,0,17,15,6,0,0,0,0,0,4,0,0,25,1,61
Roberto ,LAT,Chapecoense,2,"4,34",2,"4,35","0,00","0,00",4,0,0,1,2,0,0,0,0,0,0,0,1,0,0,3,0,2
Felipe Santana ,ZAG,Atlético-MG,2,"9,43",9,"4,35","0,00","0,00",12,1,1,2,7,2,0,0,0,0,0,0,0,0,0,9,1,14
Jeferson ,LAT,Ponte Preta,1,"5,91",10,"4,32","2,50","-0,19",12,0,1,7,6,2,0,0,0,0,0,0,2,0,0,10,0,42
Levir Culpi ,TEC,Santos,3,"10,86",16,"4,32","2,94","-0,07",0,0,0,0,0,0,0,0,0,0,0,0,0,0,0,0,0,0
Dudu ,ATA,Palmeiras,2,"16,89",10,"4,30","0,00","0,00",11,3,0,0,45,3,1,0,0,0,0,0,3,0,0,10,4,41
Jesiel ,ZAG,Atlético-MG,2,"3,21",1,"4,30","0,00","0,00",1,0,0,0,1,2,1,0,0,0,0,0,0,0,0,0,0,1
Edson ,MEI,Bahia,3,"13,74",10,"4,29","5,40","-0,16",23,1,1,0,9,7,1,0,0,0,0,1,1,0,0,11,2,20
Neilton ,ATA,Vitória,3,"6,80",16,"4,29","1,20","-1,08",11,4,4,0,24,7,8,0,0,0,0,0,1,1,0,21,0,36
Júnior Tavares ,LAT,São Paulo,2,"12,18",15,"4,29","0,00","0,00",19,0,4,4,31,6,1,0,0,0,0,0,2,0,0,17,0,54
Arthur ,MEI,Grêmio,2,"8,85",16,"4,29","0,00","0,00",38,1,0,0,33,0,1,0,0,0,0,0,3,0,0,11,0,33
Wanderson ,ZAG,Atlético-PR,3,"5,83",13,"4,26","-0,40","-0,93",9,2,0,6,3,0,6,0,0,0,0,0,1,0,0,11,1,18
Roger ,ATA,Botafogo,3,"9,91",17,"4,26","7,50","0,93",8,7,2,0,20,13,9,0,0,0,0,0,2,1,0,20,15,34
Reinaldo ,LAT,Chapecoense,3,"12,10",18,"4,23","2,20","-1,11",31,3,2,4,17,6,4,0,0,0,0,0,5,0,0,22,1,86
Diogo Barbosa ,LAT,Cruzeiro,3,"12,00",19,"4,22","0,30","-0,52",31,0,2,8,23,3,2,1,0,0,0,0,4,0,0,20,2,75
Gustavo Scarpa ,MEI,Fluminense,3,"12,18",20,"4,22","1,20","-1,82",19,1,6,0,34,17,21,2,0,0,0,0,0,0,0,17,0,114
Léo Duarte ,ZAG,Flamengo,2,"3,24",1,"4,20","0,00","0,00",0,0,0,1,1,0,0,0,0,0,0,0,0,0,0,2,0,1
Jucilei ,MEI,São Paulo,3,"14,40",22,"4,20","5,50","1,31",54,1,0,0,40,7,1,0,0,0,0,0,0,0,0,32,1,56
Yago Pikachu ,LAT,Vasco,2,"9,41",12,"4,20","0,00","0,00",9,2,1,3,12,4,4,0,0,0,0,0,0,0,0,9,1,29
Jean ,MEI,Vasco,3,"10,65",21,"4,20","3,10","0,67",56,1,1,0,29,9,5,0,0,0,0,0,6,0,0,41,0,45
Alex ,MEI,Cruzeiro,2,"3,30",1,"4,20","0,00","0,00",2,0,0,0,2,1,0,0,0,0,0,0,0,0,0,0,0,3
Aranha ,GOL,Ponte Preta,3,"11,39",21,"4,14","-1,30","0,41",1,0,0,9,3,0,0,0,33,0,0,0,2,0,27,0,0,8
Yerry Mina ,ZAG,Palmeiras,5,"14,96",11,"4,14","0,00","0,00",17,1,1,4,10,4,3,0,0,0,0,0,4,0,0,19,2,29
David Braz ,ZAG,Santos,3,"10,53",18,"4,12","-3,10","-1,53",17,2,1,11,9,5,1,0,0,0,0,1,6,0,0,17,2,44
Paulinho ,ATA,Vasco,2,"4,14",9,"4,12","1,00","-0,27",13,2,1,0,7,2,1,0,0,0,0,0,1,0,0,3,0,28
Rildo ,ATA,Coritiba,3,"8,42",19,"4,12","0,20","-0,08",17,4,2,0,65,6,5,0,0,0,0,0,3,0,0,23,5,48
Thiago Heleno ,ZAG,Atlético-PR,3,"9,27",14,"4,11","0,00","0,00",13,3,0,6,9,5,0,0,0,0,0,0,5,0,0,17,0,27
Rodrigo ,ZAG,Ponte Preta,2,"9,94",14,"4,10","0,00","0,00",14,0,0,7,22,7,6,0,0,0,0,1,3,0,0,7,2,26
Léo Principe ,LAT,Corinthians,2,"3,10",2,"4,10","0,00","0,00",3,0,0,1,2,0,0,0,0,0,0,0,0,0,0,4,0,3
Mascarenhas ,LAT,Fluminense,2,"4,43",4,"4,10","0,00","0,00",4,1,0,1,6,2,0,0,0,0,0,0,1,0,0,5,0,11
Caio Monteiro ,ATA,Vasco,2,"2,53",2,"4,10","0,00","0,00",0,1,0,0,1,0,0,0,0,0,0,0,0,0,0,0,0,1
Matheus Savio ,MEI,Flamengo,2,"10,99",5,"4,10","0,00","0,00",8,1,0,0,0,1,1,0,0,0,0,0,0,0,0,1,1,6
Lucas Veríssimo ,ZAG,Santos,3,"6,96",20,"4,10","-1,10","-1,35",22,0,0,12,11,3,4,0,0,0,0,0,5,0,0,13,1,34
Jair Ventura ,TEC,Botafogo,3,"11,78",22,"4,10","4,03","0,28",0,0,0,0,0,0,0,0,0,0,0,0,0,0,0,0,0,0
Rafael Vaz ,ZAG,Flamengo,3,"8,73",11,"4,09","0,00","0,00",13,0,0,5,4,4,5,0,0,0,0,0,0,0,0,4,0,33
Victor Ferraz ,LAT,Santos,3,"9,53",14,"4,08","1,00","-0,89",13,2,0,7,11,2,1,0,0,0,0,0,2,0,0,11,0,48
Bruno Henrique ,MEI,Palmeiras,3,"9,48",9,"4,08","-0,20","-0,77",18,1,1,0,10,7,1,0,0,0,0,0,2,0,0,19,0,14
Rodriguinho ,MEI,Corinthians,3,"14,56",17,"4,06","5,00","0,42",16,3,3,0,35,14,13,1,0,0,0,0,4,0,0,28,2,60
Jean ,LAT,Palmeiras,3,"13,61",12,"4,06","-1,00","-0,18",12,1,1,4,10,13,2,0,0,0,0,0,1,1,0,7,2,36
Jean ,GOL,Bahia,3,"11,45",22,"4,03","1,10","-0,44",0,0,0,7,1,0,0,0,41,0,0,0,2,0,30,1,0,18
Sassá ,ATA,Cruzeiro,3,"8,01",14,"4,02","3,40","-0,79",11,6,0,0,25,6,4,0,0,0,0,0,2,1,0,30,12,9
Hudson ,MEI,Cruzeiro,3,"7,57",11,"4,01","6,10","0,20",24,1,0,0,12,5,1,0,0,0,0,0,1,0,0,17,0,16
Willian Arão ,MEI,Flamengo,1,"10,74",16,"3,98","12,00","1,50",33,1,2,0,14,1,3,1,0,0,0,0,1,0,0,18,1,44
Ramiro ,MEI,Grêmio,2,"15,73",15,"3,98","0,00","0,00",18,4,3,0,26,9,7,0,0,0,0,0,4,0,0,32,2,64
Willian ,ATA,Palmeiras,1,"10,52",16,"3,96","22,60","3,91",13,5,2,0,22,7,6,1,0,0,0,0,4,1,0,24,5,27
Lucas Rocha ,ZAG,Vasco,2,"2,99",2,"3,95","0,00","0,00",2,0,0,1,3,0,0,0,0,0,0,0,0,0,0,1,0,5
Léo Gomes ,LAT,Grêmio,2,"2,79",4,"3,95","0,00","0,00",7,0,0,2,1,0,0,0,0,0,0,0,0,0,0,6,0,12
Naldo ,MEI,Ponte Preta,4,"7,52",12,"3,92","0,00","0,00",34,1,0,0,9,2,1,0,0,0,0,0,3,0,0,21,2,27
Reginaldo ,ZAG,Fluminense,2,"4,52",10,"3,92","0,00","0,00",27,0,0,1,7,1,0,0,0,0,0,0,0,0,0,12,0,33
João Paulo Sanches ,TEC,Atlético-GO,3,"6,34",8,"3,92","4,95","0,66",0,0,0,0,0,0,0,0,0,0,0,0,0,0,0,0,0,0
Gilson Kleina ,TEC,Ponte Preta,3,"12,23",21,"3,91","2,28","0,01",0,0,0,0,0,0,0,0,0,0,0,0,0,0,0,0,0,0
Henrique Almeida ,ATA,Coritiba,2,"13,79",19,"3,91","0,60","-0,35",17,5,1,0,34,15,11,1,0,0,0,0,3,1,0,23,14,46
Cuca ,TEC,Palmeiras,3,"14,18",22,"3,90","6,32","0,73",0,0,0,0,0,0,0,0,0,0,0,0,0,0,0,0,0,0
Fernando Miguel ,GOL,Vitória,3,"12,87",20,"3,89","14,70","1,18",0,0,0,7,3,0,0,0,33,1,0,0,2,0,28,0,0,16
Éverton Ribeiro ,MEI,Flamengo,3,"12,44",13,"3,88","0,00","-0,15",12,2,4,0,26,4,4,0,0,0,0,0,1,0,0,11,0,61
Lucas Barrios ,ATA,Grêmio,2,"9,41",10,"3,88","0,00","0,00",6,4,1,0,13,2,5,0,0,0,0,0,3,0,0,15,6,16
Réver ,ZAG,Flamengo,2,"11,08",18,"3,87","0,00","0,00",19,2,0,5,15,2,4,0,0,0,0,0,2,0,0,11,2,20
Marcos Calazans ,ATA,Fluminense,5,"5,76",11,"3,87","0,00","0,00",28,0,2,0,14,3,2,0,0,0,0,0,4,0,0,20,3,22
Lucas Romero ,MEI,Cruzeiro,2,"8,29",18,"3,85","0,00","0,00",39,1,2,0,21,5,0,0,0,0,0,0,2,0,0,21,0,48
Mano Menezes ,TEC,Cruzeiro,3,"12,71",22,"3,83","3,65","-0,30",0,0,0,0,0,0,0,0,0,0,0,0,0,0,0,0,0,0
Rodrigo Lindoso ,MEI,Botafogo,3,"10,09",16,"3,81","2,40","0,29",32,2,1,0,13,3,3,0,0,0,0,0,2,0,0,16,0,47
Bruno Cortez ,LAT,Grêmio,2,"10,95",16,"3,80","0,00","0,00",21,1,0,8,12,0,0,0,0,0,0,0,3,0,0,24,2,33
Régis ,MEI,Bahia,3,"14,59",14,"3,80","-1,40","-0,86",7,3,5,0,10,2,3,0,0,0,0,0,1,0,0,9,2,32
Caíque Sá ,LAT,Vitória,3,"3,52",8,"3,80","5,40","0,01",16,0,0,4,11,2,1,0,0,0,0,0,1,0,0,23,2,34
Everton ,MEI,Flamengo,2,"13,42",17,"3,79","0,70","-0,46",26,3,2,0,29,8,10,1,0,0,0,0,6,0,0,31,8,53
Weverton ,GOL,Atlético-PR,3,"5,60",19,"3,78","7,10","0,15",1,0,0,7,5,0,0,0,28,0,0,0,1,0,22,0,0,18
Lucas Marques ,MEI,Chapecoense,2,"3,80",9,"3,76","0,00","0,00",14,2,1,0,6,4,1,1,0,0,0,0,2,0,0,17,0,29
Preto Casagrande ,TEC,Bahia,3,"8,64",5,"3,74","3,32","-0,48",0,0,0,0,0,0,0,0,0,0,0,0,0,0,0,0,0,0
Kleber ,ATA,Coritiba,3,"12,46",10,"3,74","0,00","0,00",4,4,1,0,26,6,10,0,0,0,0,1,1,0,0,28,6,32
Jonathan ,LAT,Atlético-PR,5,"7,78",14,"3,73","0,00","0,00",16,1,1,5,14,2,0,0,0,0,0,0,3,0,0,9,0,36
Luan ,ZAG,Palmeiras,3,"7,03",12,"3,73","1,70","0,01",15,0,0,4,12,5,1,0,0,0,0,0,1,0,0,12,0,11
Renê ,LAT,Flamengo,5,"6,88",10,"3,71","0,00","0,00",18,0,0,3,9,1,0,0,0,0,0,0,0,0,0,13,0,24
Índio ,ATA,Sport,2,"2,26",1,"3,70","0,00","0,00",1,0,0,0,2,0,1,0,0,0,0,0,0,0,0,0,0,0
Mayke ,LAT,Palmeiras,2,"7,38",14,"3,70","0,00","0,00",21,1,0,5,8,2,0,0,0,0,0,0,1,0,0,21,3,28
Gilvan ,ZAG,Atlético-GO,3,"5,98",10,"3,70","13,20","1,99",10,2,0,2,7,4,1,1,0,0,0,0,2,0,0,13,1,19
Fábio ,GOL,Cruzeiro,3,"11,84",21,"3,69","-2,30","-1,07",0,0,0,9,2,0,0,0,23,0,0,0,0,0,17,1,0,11
Bruno Rodrigo ,ZAG,Grêmio,2,"5,49",4,"3,68","0,00","0,00",5,0,0,2,0,1,1,0,0,0,0,0,1,0,0,4,0,5
Matheus Fernandes ,MEI,Botafogo,2,"5,47",14,"3,67","0,00","0,00",36,0,0,0,12,6,1,0,0,0,0,0,2,0,0,20,0,24
Gabriel ,ZAG,Atlético-MG,2,"8,82",12,"3,66","0,00","0,00",15,1,0,4,9,3,1,0,0,0,0,0,1,0,0,16,0,24
Lucas Pratto ,ATA,São Paulo,3,"15,14",21,"3,63","5,00","1,30",10,5,3,0,24,30,18,0,0,0,0,1,2,1,0,28,4,61
Rogério Micale ,TEC,Atlético-MG,3,"9,57",6,"3,62","2,85","0,01",0,0,0,0,0,0,0,0,0,0,0,0,0,0,0,0,0,0
Magrão ,GOL,Sport,2,"5,56",18,"3,61","0,00","0,00",1,0,0,7,0,0,0,0,26,0,0,0,0,0,24,0,0,6
Shaylon ,MEI,São Paulo,2,"2,36",2,"3,60","0,00","0,00",0,1,0,0,0,0,0,0,0,0,0,0,0,0,0,1,0,1
Thiago ,GOL,Flamengo,2,"4,24",11,"3,59","0,00","0,00",0,0,1,4,1,0,0,0,11,0,0,0,0,0,9,0,0,3
Vagner Mancini ,TEC,Vitória,3,"9,34",17,"3,59","5,36","0,16",0,0,0,0,0,0,0,0,0,0,0,0,0,0,0,0,0,0
Alex Silva ,LAT,Atlético-MG,2,"4,91",9,"3,58","0,00","0,00",14,0,3,2,12,2,0,0,0,0,0,0,3,0,0,21,0,25
Moisés ,LAT,Corinthians,3,"3,02",3,"3,57","1,10","-0,30",5,0,1,0,0,1,0,0,0,0,0,0,0,0,0,4,0,5
Anselmo ,MEI,Sport,2,"5,93",7,"3,54","0,00","0,00",20,0,0,0,6,4,0,0,0,0,0,0,2,0,0,13,0,15
Werley ,ZAG,Coritiba,5,"8,58",11,"3,48","0,00","0,00",11,0,0,5,4,5,1,0,0,0,0,0,0,0,0,7,0,28
Cazares ,MEI,Atlético-MG,3,"8,38",17,"3,48","-0,40","-1,13",5,2,6,0,9,19,16,0,0,0,0,0,0,1,0,16,1,58
Hyoran ,MEI,Palmeiras,2,"3,59",3,"3,47","7,70","0,95",2,1,0,0,1,0,1,0,0,0,0,0,0,0,0,2,0,5
Vinícius Tanque ,ATA,Botafogo,2,"1,91",2,"3,45","0,00","0,00",0,1,0,0,1,0,0,0,0,0,0,0,0,0,0,2,0,2
Fernando Prass ,GOL,Palmeiras,3,"13,14",18,"3,45","-4,00","-1,76",1,0,0,4,3,0,0,0,28,0,0,0,0,0,22,0,0,4
Marcelo Oliveira ,TEC,Coritiba,3,"8,91",6,"3,44","1,06","-0,62",0,0,0,0,0,0,0,0,0,0,0,0,0,0,0,0,0,0
Léo ,LAT,Coritiba,3,"5,59",10,"3,44","2,40","-1,31",23,0,0,2,19,0,1,0,0,0,0,0,2,0,0,19,0,39
Márcio Araújo ,MEI,Flamengo,4,"9,00",19,"3,44","0,00","0,00",42,0,1,0,26,5,1,0,0,0,0,0,3,0,0,23,0,37
Maycon ,MEI,Corinthians,3,"8,94",21,"3,43","6,50","0,78",33,1,3,0,9,11,6,0,0,0,0,0,0,0,0,11,0,66
Dedé ,ZAG,Cruzeiro,5,"8,86",3,"3,43","0,00","0,00",2,0,0,2,2,0,0,0,0,0,0,0,0,0,0,1,0,12
Gilson ,LAT,Botafogo,2,"8,43",15,"3,42","-0,50","-0,19",12,0,1,6,21,1,0,2,0,0,0,0,4,0,0,16,1,20
Samuel Xavier ,LAT,Sport,2,"4,74",17,"3,42","0,00","0,00",24,0,0,7,24,1,4,0,0,0,0,0,3,0,0,16,1,66
Leandro Silva ,LAT,Avaí,3,"9,44",21,"3,41","8,70","1,67",28,0,2,9,19,8,4,0,0,0,0,1,1,0,0,27,2,95
Leandro Salino ,LAT,Vitória,2,"5,87",7,"3,40","0,00","0,00",15,0,0,1,16,2,0,0,0,0,0,0,1,0,0,15,0,22
Marcelo ,ZAG,Botafogo,2,"4,05",9,"3,36","-0,30","-1,09",10,0,0,4,2,3,1,0,0,0,0,0,1,0,0,7,0,18
Léo Gamalho ,ATA,Ponte Preta,3,"6,62",2,"3,35","8,20","2,66",0,1,0,0,2,0,1,0,0,0,0,0,0,0,0,6,0,1
Santos ,GOL,Atlético-PR,2,"5,43",2,"3,35","0,00","0,00",0,0,0,1,0,0,0,0,2,0,0,0,0,0,2,0,0,1
Henrique ,LAT,Vasco,2,"8,37",15,"3,35","0,00","0,00",20,0,2,3,23,1,3,0,0,0,0,0,1,0,0,19,2,38
Marcos Vinícius ,MEI,Botafogo,1,"5,65",9,"3,33","1,20","-0,53",7,2,0,0,10,3,3,1,0,0,0,0,0,0,0,11,0,20
Valdívia ,MEI,Atlético-MG,3,"8,13",10,"3,33","4,60","-0,44",5,1,1,0,19,4,11,0,0,0,0,0,0,0,0,7,1,25
Eduardo Henrique ,MEI,Atlético-PR,1,"3,97",10,"3,31","5,60","0,65",15,2,0,0,11,1,3,0,0,0,0,0,1,0,0,18,0,22
Clayson ,ATA,Corinthians,3,"14,72",16,"3,31","0,90","-0,12",16,2,3,0,13,7,4,0,0,0,0,0,1,0,0,12,4,35
Lucas Paquetá ,MEI,Flamengo,2,"3,55",4,"3,30","0,00","0,00",3,0,1,0,3,4,1,0,0,0,0,0,0,0,0,1,1,4
Claudinei Oliveira ,TEC,Avaí,3,"8,17",22,"3,30","5,65","0,66",0,0,0,0,0,0,0,0,0,0,0,0,0,0,0,0,0,0
Copete ,ATA,Santos,3,"8,14",17,"3,28","11,20","1,78",14,5,1,0,21,13,6,0,0,0,0,0,3,0,0,23,7,59
Marcão Silva ,MEI,Atlético-GO,2,"7,50",16,"3,28","1,70","0,18",45,0,0,0,11,4,0,0,0,0,0,0,5,0,0,27,0,29
Clayton ,ATA,Atlético-MG,2,"6,30",4,"3,27","-1,30","-1,36",0,2,0,0,0,0,0,0,0,0,0,0,0,0,0,4,0,3
Brenner ,ATA,Botafogo,2,"6,41",5,"3,26","0,00","0,00",2,1,1,0,4,2,1,0,0,0,0,0,0,0,0,5,1,5
Andrés Ríos ,ATA,Vasco,3,"4,55",2,"3,25","9,80","2,20",2,0,1,0,3,1,0,0,0,0,0,0,1,0,0,3,0,2
Mateus Vital ,MEI,Vasco,3,"8,93",18,"3,25","3,50","0,48",18,0,2,0,39,5,12,0,0,0,0,0,1,0,0,12,2,28
Jean Mota ,MEI,Santos,2,"4,97",18,"3,23","0,00","0,00",30,0,2,0,20,5,4,0,0,0,0,0,1,0,0,7,0,50
Abel Braga ,TEC,Fluminense,3,"11,57",20,"3,23","0,93","-0,40",0,0,0,0,0,0,0,0,0,0,0,0,0,0,0,0,0,0
Ribamar ,ATA,Atlético-PR,3,"5,86",5,"3,22","2,70","0,37",3,1,0,0,11,4,1,0,0,0,0,0,0,0,0,6,3,6
Guilherme ,ATA,Botafogo,2,"5,60",17,"3,18","0,10","-1,49",10,2,1,0,28,10,7,1,0,0,0,0,0,0,0,11,0,33
Elias ,MEI,Atlético-MG,3,"13,61",18,"3,18","11,00","1,38",30,3,0,0,15,4,6,0,0,0,0,0,2,0,0,22,2,60
Rodrigo Pimpão ,ATA,Botafogo,3,"9,15",19,"3,18","13,90","2,38",21,2,5,0,22,10,12,0,0,0,0,0,3,0,0,30,5,76
Leandrinho ,MEI,Botafogo,1,"3,25",5,"3,18","0,00","0,00",7,1,0,0,4,0,1,0,0,0,0,0,1,0,0,4,0,10
Fred ,ATA,Atlético-MG,4,"13,86",14,"3,18","0,00","0,00",4,5,1,0,28,7,4,1,0,0,0,0,3,1,0,23,9,28
Petros ,MEI,São Paulo,3,"9,70",12,"3,17","2,50","-0,18",25,0,1,0,24,2,0,0,0,0,0,0,2,0,0,23,1,23
Leonan ,LAT,Atlético-MG,2,"2,69",3,"3,17","0,00","0,00",4,0,0,1,7,0,0,0,0,0,0,0,1,0,0,4,0,6
Uillian Correia ,MEI,Vitória,3,"4,69",19,"3,16","-1,90","-0,91",33,3,0,0,8,9,2,0,0,0,0,0,3,0,0,31,1,34
Igor Rabello ,ZAG,Botafogo,3,"10,03",17,"3,14","0,20","0,71",25,0,0,6,9,4,3,0,0,0,1,0,4,0,0,15,1,25
Geferson ,LAT,Vitória,5,"11,19",12,"3,12","0,00","0,00",26,0,0,3,9,1,1,0,0,0,0,0,5,0,0,19,2,25
Bruno Pacheco ,LAT,Atlético-GO,3,"9,38",20,"3,12","9,90","1,85",21,0,4,3,47,3,2,0,0,0,0,0,4,0,0,28,0,46
Willian Farias ,MEI,Vitória,5,"9,33",10,"3,11","0,00","0,00",27,0,0,0,8,3,0,1,0,0,0,0,4,0,0,16,0,28
Jonas ,MEI,Coritiba,2,"7,16",18,"3,11","0,00","0,00",48,0,0,0,18,8,0,0,0,0,0,0,4,0,0,35,0,49
Mauricio Kozlinski ,GOL,Avaí,2,"8,10",9,"3,10","0,00","0,00",0,0,0,2,0,0,0,0,15,0,0,0,0,0,13,0,0,4
Dodô ,LAT,Coritiba,2,"8,51",12,"3,09","0,50","-0,83",19,0,0,5,7,3,2,0,0,0,0,0,2,0,0,17,0,51
Alison ,MEI,Santos,3,"5,28",13,"3,08","4,80","0,64",22,1,0,0,16,0,0,0,0,0,0,0,1,0,0,13,0,16
Lucas Fonseca ,ZAG,Bahia,3,"5,18",17,"3,08","-1,00","-0,93",15,0,1,6,20,1,1,0,0,0,0,1,1,0,0,6,0,33
Arrascaeta ,MEI,Cruzeiro,2,"7,83",5,"3,06","2,10","-0,25",6,0,0,0,11,4,6,0,0,0,0,0,0,0,0,4,0,24
Thiago Santos ,MEI,Palmeiras,2,"6,03",13,"3,05","3,40","0,04",37,0,0,0,21,2,0,0,0,0,0,0,4,0,0,39,1,24
Marquinhos ,ATA,Sport,2,"5,05",3,"3,03","0,00","0,00",0,0,2,0,2,0,0,0,0,0,0,0,0,0,0,2,0,3
Nikão ,MEI,Atlético-PR,3,"8,79",20,"3,01","0,40","-0,56",18,2,2,0,33,8,13,1,0,0,0,0,2,0,0,20,2,67
Edu Dracena ,ZAG,Palmeiras,3,"8,32",12,"3,00","-0,40","-0,52",9,0,0,4,17,4,2,0,0,0,0,0,1,0,0,15,2,7
Juninho ,MEI,Bahia,2,"10,21",18,"3,00","0,00","0,00",20,2,2,0,10,12,11,1,0,0,0,0,1,0,0,29,0,57
Kaio ,MEI,Grêmio,2,"4,29",4,"2,98","0,00","0,00",6,0,0,0,15,1,2,0,0,0,0,0,1,0,0,7,0,10
Fábio Santos ,LAT,Atlético-MG,3,"3,41",18,"2,98","0,00","-0,02",22,2,0,4,38,5,2,0,0,0,0,0,6,0,0,26,2,62
Renato Chaves ,ZAG,Fluminense,3,"3,73",6,"2,97","3,60","0,70",6,1,0,1,2,1,2,0,0,0,0,0,1,0,0,9,1,7
Durval ,ZAG,Sport,2,"6,81",14,"2,97","0,00","0,00",13,0,1,4,9,0,4,0,0,0,0,0,1,0,0,11,1,20
Wellington Silva ,ATA,Fluminense,3,"8,84",10,"2,96","1,00","0,16",6,2,1,0,18,2,1,0,0,0,0,0,0,0,0,4,4,30
Cuéllar ,MEI,Flamengo,2,"4,75",13,"2,96","2,50","-0,57",29,0,0,0,7,0,2,0,0,0,0,0,2,0,0,12,0,21
Cueva ,MEI,São Paulo,3,"9,81",16,"2,96","2,00","0,07",23,1,2,0,26,9,6,1,0,0,0,0,3,1,0,13,4,69
Thomaz ,MEI,São Paulo,2,"5,16",8,"2,94","0,00","0,00",8,1,1,0,7,2,1,0,0,0,0,0,1,0,0,9,2,5
Alan Costa ,ZAG,Vitória,2,"8,16",7,"2,91","0,00","0,00",8,0,1,1,3,2,0,0,0,0,0,0,0,0,0,4,1,12
Airton  ,ZAG,Avaí,2,"1,80",3,"2,90","0,00","0,00",3,0,0,1,1,2,0,0,0,0,0,0,0,0,0,3,0,6
Pará ,LAT,Flamengo,3,"8,98",16,"2,89","4,50","-0,17",9,1,1,6,13,5,0,0,0,0,0,0,0,0,0,18,1,42
Lenis ,ATA,Sport,2,"3,76",11,"2,89","0,00","0,00",9,1,3,0,12,5,3,0,0,0,0,0,3,0,0,11,0,25
Nenê ,MEI,Vasco,3,"12,47",15,"2,89","2,70","0,39",10,2,3,0,35,9,7,0,0,0,0,0,4,0,0,16,2,62
Gabriel ,MEI,Corinthians,3,"8,69",20,"2,87","5,70","0,66",41,1,0,0,21,1,3,0,0,0,0,1,2,0,0,25,0,43
Zé Ivaldo ,ZAG,Atlético-PR,3,"1,97",5,"2,86","1,80","-1,24",7,0,0,2,0,0,1,0,0,0,0,0,2,0,0,5,0,7
João Paulo ,LAT,Avaí,2,"4,18",2,"2,85","0,00","0,00",1,0,0,1,1,0,0,0,0,0,0,0,0,0,0,0,0,5
Arboleda ,ZAG,São Paulo,3,"7,81",11,"2,85","-1,40","-0,50",10,2,1,1,9,6,1,0,0,0,0,0,3,0,0,15,0,26
Andrigo ,MEI,Atlético-GO,3,"5,53",21,"2,85","-0,40","0,09",30,2,2,0,12,13,8,1,0,0,0,0,5,0,0,19,1,79
Rodrigo Caio ,ZAG,São Paulo,3,"9,34",17,"2,83","2,10","-0,66",28,0,0,3,10,6,1,1,0,0,0,0,6,0,0,11,1,34
Léo ,ZAG,Cruzeiro,2,"10,30",20,"2,82","0,00","0,00",14,0,1,9,12,3,2,1,0,0,0,0,5,0,0,12,0,50
Thomás ,MEI,Sport,2,"6,71",8,"2,80","0,00","0,00",9,1,0,0,15,2,1,0,0,0,0,0,1,0,0,10,1,11
Rodrigão ,ZAG,Atlético-MG,2,"2,97",3,"2,80","0,00","0,00",0,0,0,2,0,0,0,0,0,0,0,0,0,0,0,2,0,2
Eduardo ,LAT,Bahia,3,"6,13",21,"2,78","0,10","-1,44",39,0,1,7,19,3,1,0,0,0,0,0,5,0,0,33,2,111
Élber ,MEI,Cruzeiro,2,"4,99",13,"2,78","0,70","-0,29",7,1,0,0,21,8,6,1,0,0,0,0,0,0,0,3,2,23
Esteban Pavez ,MEI,Atlético-PR,3,"3,98",6,"2,78","-2,40","-1,39",15,0,0,0,1,2,2,0,0,0,0,0,1,0,0,10,0,19
Kieza ,ATA,Vitória,5,"9,53",8,"2,77","0,00","0,00",2,3,0,0,17,3,4,0,0,0,0,0,1,1,0,13,6,16
Fernando Bob ,MEI,Ponte Preta,3,"8,56",10,"2,77","4,30","0,20",27,0,0,0,13,1,0,0,0,0,0,0,2,0,0,22,1,33
Apodi ,LAT,Chapecoense,3,"7,38",19,"2,76","1,90","-1,03",25,0,0,5,38,10,6,0,0,0,0,0,6,0,0,44,2,40
Marquinhos Gabriel ,MEI,Corinthians,2,"8,65",14,"2,76","1,40","0,29",7,2,3,0,18,5,4,0,0,0,0,0,3,0,0,10,1,31
Walisson Maia ,ZAG,Coritiba,3,"5,03",8,"2,76","4,10","-1,17",14,0,0,2,1,1,1,0,0,0,1,0,0,0,0,4,1,18
Edigar Junio ,ATA,Bahia,5,"9,52",10,"2,75","0,00","0,00",4,2,0,0,16,2,5,1,0,0,0,0,0,0,0,14,1,19
Murilo ,ZAG,Cruzeiro,3,"2,75",14,"2,72","2,80","0,01",12,0,0,6,5,6,0,0,0,0,0,0,1,0,0,15,1,31
Dorival Júnior ,TEC,São Paulo,3,"9,51",14,"2,72","3,56","0,28",0,0,0,0,0,0,0,0,0,0,0,0,0,0,0,0,0,0
Marcelo Oliveira ,LAT,Grêmio,5,"9,02",7,"2,71","0,00","0,00",8,0,0,3,6,0,0,0,0,0,0,0,1,1,0,9,1,7
Emerson Sheik ,ATA,Ponte Preta,3,"5,09",14,"2,71","-1,90","-2,50",5,4,1,0,42,6,6,0,0,0,0,0,8,0,0,20,2,39
Diego Tavares ,LAT,Avaí,2,"5,65",12,"2,71","0,00","0,00",6,0,0,5,13,4,0,0,0,0,0,0,1,0,0,10,1,15
Juninho ,ZAG,Palmeiras,5,"8,49",11,"2,71","0,00","0,00",17,0,2,2,6,2,1,0,0,0,0,0,4,0,0,16,0,28
Alex Muralha ,GOL,Flamengo,2,"4,22",5,"2,70","0,00","0,00",0,0,0,2,3,0,0,0,4,0,0,0,0,0,4,1,0,5
Allione ,MEI,Bahia,2,"10,13",13,"2,70","0,00","0,00",16,0,4,0,15,1,2,1,0,0,0,0,3,0,0,9,4,44
Kannemann ,ZAG,Grêmio,2,"9,94",14,"2,70","0,00","0,00",14,0,0,7,8,2,0,1,0,0,0,0,5,0,0,20,1,31
Keno ,ATA,Palmeiras,1,"7,60",19,"2,70","8,70","1,38",15,4,0,0,13,7,5,1,0,0,0,0,2,0,0,16,4,40
Andrey ,MEI,Vasco,2,"2,02",3,"2,70","0,00","0,00",4,0,0,0,5,4,0,0,0,0,0,0,1,0,0,1,0,5
Edílson ,LAT,Grêmio,2,"9,32",13,"2,70","0,00","0,00",17,1,0,5,10,6,3,0,0,0,0,1,4,1,0,23,1,35
André Lima ,ATA,Vitória,2,"7,10",10,"2,65","0,00","0,00",4,2,2,0,9,5,3,0,0,0,0,0,1,0,0,16,4,18
Cascardo ,LAT,Atlético-PR,2,"3,17",9,"2,65","0,00","0,00",7,0,0,3,13,0,1,0,0,0,0,0,0,0,0,7,1,22
Roger Carvalho ,ZAG,Atlético-GO,5,"7,51",19,"2,63","0,00","0,00",24,0,1,1,31,10,0,1,0,0,0,0,0,0,0,29,0,41
Ezequiel  ,LAT,Cruzeiro,3,"5,19",10,"2,63","0,10","-1,56",13,0,1,3,11,3,1,0,0,0,0,0,4,0,0,20,0,21
Diego Rosa ,MEI,Atlético-GO,2,"7,81",13,"2,62","0,00","0,00",9,1,2,0,10,3,5,0,0,0,0,0,1,0,0,10,3,10
William Alves ,ZAG,Atlético-GO,3,"3,06",3,"2,60","4,40","1,16",0,0,0,2,1,0,0,0,0,0,0,0,0,0,0,3,0,4
Rafael Thyere ,ZAG,Grêmio,2,"5,79",9,"2,60","0,00","0,00",6,1,0,3,7,1,1,0,0,0,1,0,1,0,0,6,0,13
Buffarini ,LAT,São Paulo,3,"7,46",6,"2,60","4,70","0,21",7,0,1,1,6,2,0,0,0,0,0,0,0,0,0,10,0,19
Betão ,ZAG,Avaí,3,"7,32",20,"2,58","4,10","0,04",14,0,0,10,18,1,1,0,0,0,0,0,6,0,0,15,0,44
Éderson ,ATA,Atlético-PR,2,"4,86",11,"2,58","0,00","0,00",5,1,1,0,6,9,8,0,0,0,0,0,0,0,0,4,6,18
Tiago  ,ZAG,Bahia,3,"9,16",21,"2,58","-1,60","-2,20",15,2,0,7,23,1,2,1,0,0,0,0,5,0,0,30,6,40
Jean Patrick ,LAT,Ponte Preta,1,"2,86",3,"2,57","0,00","0,00",3,0,0,1,2,0,0,0,0,0,0,0,0,0,0,5,0,3
Vinícius Eutrópio ,TEC,Chapecoense,3,"7,71",10,"2,56","0,34","-1,05",0,0,0,0,0,0,0,0,0,0,0,0,0,0,0,0,0,0
João Paulo ,ATA,Bahia,2,"3,35",9,"2,55","0,00","0,00",0,2,0,0,12,5,3,0,0,0,0,0,1,0,0,4,0,5
Guilherme Costa ,MEI,Vasco,2,"5,04",7,"2,54","0,10","-0,17",1,1,2,0,7,1,0,0,0,0,0,0,1,0,0,4,0,7
Felipe Vizeu ,ATA,Flamengo,1,"3,69",8,"2,50","0,00","0,00",3,1,0,0,8,3,3,1,0,0,0,0,0,0,0,9,0,4
Marcio ,ZAG,Coritiba,3,"6,28",20,"2,50","-1,40","-0,77",16,1,1,7,10,4,3,0,0,0,0,1,4,0,0,24,1,35
Ramon ,ZAG,Vitória,3,"5,42",10,"2,49","7,60","1,31",6,0,0,5,11,2,1,0,0,0,0,0,3,0,0,16,0,14
Osvaldo ,ATA,Sport,5,"4,68",15,"2,49","0,00","0,00",8,3,1,0,19,5,4,0,0,0,0,0,2,0,0,8,2,44
Matheus Galdezani ,MEI,Coritiba,4,"7,35",20,"2,48","0,00","0,00",32,1,1,0,38,11,13,0,0,0,0,0,6,0,0,42,1,81
William Matheus ,LAT,Coritiba,3,"7,06",19,"2,45","-0,40","-0,61",23,0,0,6,39,2,5,0,0,0,0,1,5,0,0,27,1,64
Tomas Bastos ,MEI,Coritiba,2,"11,25",12,"2,45","0,00","0,00",8,2,1,0,8,8,6,0,0,0,0,0,2,0,0,16,1,28
Edimar ,LAT,São Paulo,3,"4,34",8,"2,43","-0,90","0,21",13,0,0,1,13,1,3,0,0,0,0,0,2,0,0,9,0,31
Fernandinho ,LAT,Ponte Preta,1,"5,26",4,"2,43","0,00","0,00",2,0,0,2,0,0,0,1,0,0,0,0,1,0,0,3,2,9
Alan Santos ,MEI,Coritiba,3,"6,30",14,"2,42","9,80","0,89",26,0,0,0,8,4,3,1,0,0,0,0,2,0,0,18,1,34
Borja ,ATA,Palmeiras,1,"15,23",13,"2,42","0,00","0,00",4,3,0,0,12,14,6,0,0,0,0,0,3,0,0,16,3,19
Robinho ,MEI,Cruzeiro,3,"8,38",9,"2,40","0,00","0,00",9,2,0,0,8,7,5,0,0,0,0,0,2,0,0,7,2,50
Luan Peres  ,ZAG,Ponte Preta,3,"2,23",5,"2,38","1,40","0,30",3,0,0,2,4,0,0,0,0,0,0,0,1,0,0,1,0,9
Luiz Otávio  ,ZAG,Chapecoense,5,"6,40",10,"2,38","0,00","0,00",10,1,1,2,0,4,3,0,0,0,0,1,2,0,0,13,0,22
Ravanelli ,MEI,Ponte Preta,2,"8,16",3,"2,37","0,00","0,00",2,0,1,0,7,1,0,0,0,0,0,0,0,0,0,1,1,15
Júlio César ,GOL,Fluminense,3,"6,01",17,"2,36","4,50","0,11",0,0,0,2,10,0,0,0,24,0,0,0,0,0,22,0,0,10
Euller  ,LAT,Vitória,2,"6,31",2,"2,35","0,00","0,00",0,0,0,1,1,0,0,0,0,0,0,0,0,0,0,1,0,1
Madson ,LAT,Vasco,2,"3,64",5,"2,34","3,20","0,30",2,0,0,2,9,2,0,0,0,0,0,0,1,0,0,3,1,12
Joel ,ATA,Avaí,3,"4,46",15,"2,34","6,70","1,44",11,3,0,0,16,7,4,1,0,0,0,1,1,0,0,26,5,18
Erik ,ATA,Palmeiras,2,"4,34",7,"2,34","0,00","0,00",7,0,1,0,7,2,1,0,0,0,0,0,0,0,0,7,1,8
Wellington Paulista ,ATA,Chapecoense,2,"9,64",17,"2,33","2,40","-0,23",3,3,1,0,18,13,10,2,0,0,0,0,4,0,0,20,4,32
Paulo Roberto ,MEI,Corinthians,2,"3,53",5,"2,32","0,00","0,00",3,0,2,0,3,0,1,0,0,0,0,0,0,0,0,3,0,15
Maicosuel ,MEI,São Paulo,2,"6,88",5,"2,30","0,00","0,00",3,0,0,0,7,1,3,0,0,0,0,0,0,0,0,1,0,1
Leandro Pereira ,ATA,Sport,5,"5,86",2,"2,30","0,00","0,00",2,0,0,0,1,0,1,0,0,0,0,0,0,0,0,0,0,1
Ronaldo ,MEI,Sport,2,"3,20",1,"2,30","0,00","0,00",2,0,0,0,1,0,0,0,0,0,0,0,0,0,0,2,0,2
João Pedro  ,LAT,Chapecoense,5,"5,87",1,"2,30","0,00","0,00",1,0,0,0,1,1,0,0,0,0,0,0,0,0,0,0,0,2
Michel Bastos ,MEI,Palmeiras,3,"6,60",13,"2,27","9,40","0,62",17,0,2,0,11,11,3,0,0,0,0,0,4,0,0,9,3,39
Victor Ramos ,ZAG,Chapecoense,2,"7,19",12,"2,26","0,00","0,00",11,1,0,3,2,4,2,0,0,0,0,0,2,0,0,19,0,23
Matheus Sales ,MEI,Bahia,2,"4,86",8,"2,25","0,00","0,00",14,0,1,0,10,2,1,0,0,0,0,0,3,0,0,12,1,19
Róger Guedes ,ATA,Palmeiras,3,"6,61",20,"2,25","0,00","0,00",7,4,3,0,26,8,4,1,0,0,0,0,2,0,0,32,6,57
Rogério ,ATA,Sport,2,"6,34",12,"2,24","0,00","0,00",4,1,1,0,23,4,5,0,0,0,0,0,0,0,0,5,0,33
Breno Lopes ,LAT,Atlético-GO,2,"3,43",11,"2,22","0,00","0,00",13,0,0,2,7,4,5,0,0,0,0,0,0,0,0,14,6,30
Trauco ,LAT,Flamengo,3,"5,03",14,"2,21","0,00","0,00",14,1,0,5,7,6,3,1,0,0,0,1,3,0,0,24,0,57
Patric ,LAT,Vitória,2,"7,48",19,"2,20","5,00","0,30",19,0,1,6,10,10,4,0,0,0,0,0,2,0,0,26,5,73
Matheus Reis ,LAT,Bahia,2,"5,29",17,"2,20","0,00","0,00",15,0,1,6,22,1,1,0,0,0,0,0,4,0,0,25,0,51
Bruno Bispo ,ZAG,Vitória,2,"1,99",1,"2,20","0,00","0,00",1,0,0,0,2,0,0,0,0,0,0,0,0,0,0,1,0,0
David ,ATA,Vitória,3,"4,49",21,"2,20","-0,30","-0,08",11,2,4,0,12,16,7,2,0,0,0,0,4,0,0,22,9,54
Léo ,GOL,Grêmio,2,"4,77",5,"2,18","0,00","0,00",0,0,0,2,1,0,0,0,5,0,0,0,0,0,7,0,0,2
Gustavo Blanco ,MEI,Atlético-MG,5,"2,37",3,"2,17","0,00","0,00",6,0,0,0,1,0,0,0,0,0,0,0,0,0,0,4,2,4
Neto Berola ,ATA,Coritiba,2,"8,29",13,"2,14","0,00","0,00",8,1,2,0,13,8,2,0,0,0,0,0,2,0,0,9,5,23
Henrique ,ZAG,Fluminense,3,"8,97",19,"2,13","4,80","0,64",21,0,0,2,23,1,1,2,0,0,0,0,3,0,0,19,0,33
Mancuello ,MEI,Flamengo,1,"6,11",6,"2,13","0,00","0,00",5,1,0,0,3,2,2,0,0,0,0,0,2,0,0,4,1,7
Seijas ,MEI,Chapecoense,3,"6,21",17,"2,11","-0,50","-0,42",14,0,2,0,23,11,2,2,0,0,0,0,0,0,0,26,1,42
Manga Escobar ,ATA,Vasco,2,"4,45",12,"2,11","0,00","0,00",2,2,1,0,8,3,2,0,0,0,0,0,0,0,0,6,2,11
Bruno Paulista ,MEI,Vasco,4,"5,62",7,"2,08","0,00","0,00",9,0,0,0,14,7,3,0,0,0,0,0,3,0,0,9,0,17
Penilla ,ATA,Chapecoense,2,"4,35",3,"2,07","0,00","0,00",1,0,0,0,2,1,2,1,0,0,0,0,0,0,0,3,0,4
Tréllez ,ATA,Vitória,3,"3,06",8,"2,07","1,40","-0,09",2,3,0,0,5,4,4,1,0,0,0,0,1,0,0,26,4,22
Renan Ribeiro ,GOL,São Paulo,2,"8,90",20,"2,06","0,00","0,00",0,0,0,5,1,0,0,0,27,0,0,0,2,0,28,1,0,15
Jorginho ,MEI,Atlético-GO,3,"7,13",20,"2,06","10,70","2,27",24,2,0,0,47,6,2,0,0,0,0,1,1,0,0,32,2,72
Rafinha ,MEI,Cruzeiro,3,"7,24",13,"2,06","10,20","2,21",10,1,0,0,29,3,3,1,0,0,0,0,1,0,0,14,1,39
Anderson Martins ,ZAG,Vasco,3,"9,41",2,"2,05","4,50","0,97",2,0,0,1,0,1,0,0,0,0,0,0,1,0,0,3,0,5
Éder Militão ,MEI,São Paulo,2,"2,19",9,"2,04","0,00","0,00",12,0,0,0,8,3,0,0,0,0,0,0,0,0,0,4,1,19
Felipe Melo ,MEI,Palmeiras,2,"8,27",5,"2,04","0,00","0,00",9,0,0,0,9,2,1,0,0,0,0,0,2,0,0,10,0,10
Paulo Vitor ,ATA,Vasco,5,"1,97",9,"2,03","0,00","0,00",5,1,0,0,10,4,3,1,0,0,0,0,1,0,0,11,1,15
Joel Carli ,ZAG,Botafogo,3,"8,79",15,"2,03","1,40","0,21",15,1,1,5,7,3,0,0,0,0,0,0,7,0,0,26,1,37
Geuvânio ,ATA,Flamengo,3,"9,23",7,"2,00","0,00","0,00",7,0,0,0,14,1,3,0,0,0,0,0,1,0,0,4,2,12
Rodrigo ,MEI,Sport,2,"3,85",6,"2,00","0,00","0,00",11,0,0,0,4,0,0,0,0,0,0,0,1,0,0,8,0,9
Marlon ,LAT,Fluminense,2,"4,93",2,"2,00","0,00","0,00",1,0,1,0,0,1,1,0,0,0,0,0,0,0,0,4,0,8
Diego Renan ,LAT,Chapecoense,2,"4,82",6,"1,98","0,00","0,00",2,0,1,1,6,3,3,0,0,0,0,0,1,0,0,5,0,17
Lucas Silva ,MEI,Cruzeiro,1,"6,73",12,"1,98","10,80","1,56",18,0,2,0,11,4,1,0,0,0,0,0,3,0,0,21,0,32
René ,ZAG,Vitória,2,"3,27",10,"1,97","0,00","0,00",8,0,0,4,7,1,1,0,0,0,0,0,3,0,0,16,0,17
Zé Roberto ,LAT,Palmeiras,2,"6,88",12,"1,95","0,00","0,00",5,0,2,3,6,0,0,0,0,0,0,0,1,0,0,15,0,12
Lourency ,ATA,Chapecoense,2,"3,22",9,"1,95","0,00","0,00",4,1,1,0,6,3,3,0,0,0,0,0,2,0,0,8,0,8
Machado ,MEI,Grêmio,2,"2,04",2,"1,95","0,00","0,00",7,0,0,0,1,0,0,0,0,0,1,0,0,0,0,2,0,5
Elder Santana ,ATA,Atlético-MG,2,"1,40",2,"1,95","0,00","0,00",2,0,0,0,1,0,0,0,0,0,0,0,0,0,0,0,0,0
Matheus Alessandro ,ATA,Fluminense,2,"1,38",7,"1,94","-0,80","-0,38",4,0,1,0,4,0,1,1,0,0,0,0,0,0,0,3,1,9
Romulo ,ATA,Avaí,2,"8,77",20,"1,94","0,00","0,00",15,2,0,0,29,11,7,0,0,0,0,0,1,0,0,26,5,48
Bressan ,ZAG,Grêmio,2,"2,76",6,"1,93","0,00","0,00",4,0,0,3,5,1,0,0,0,0,0,0,2,0,0,7,1,18
Thalles ,ATA,Vasco,2,"4,07",9,"1,93","0,00","0,00",2,2,0,0,11,7,3,0,0,0,0,0,3,0,0,12,1,10
Lucas Fernandes ,MEI,São Paulo,2,"3,73",8,"1,92","0,90","0,18",4,1,0,0,4,3,2,0,0,0,0,0,1,0,0,4,0,5
Luiz Antonio  ,MEI,Chapecoense,3,"8,08",19,"1,92","1,60","-0,06",10,2,1,0,8,4,10,2,0,0,0,0,3,0,0,17,1,34
Denilson ,ATA,São Paulo,2,"2,92",12,"1,88","0,00","-0,42",5,1,1,0,10,4,4,0,0,0,0,0,0,0,0,6,1,24
Túlio de Melo ,ATA,Chapecoense,3,"3,94",14,"1,87","-0,10","-1,57",2,3,0,0,7,8,3,0,0,0,0,0,1,0,0,17,0,10
Elton ,MEI,Ponte Preta,3,"5,28",16,"1,86","-1,40","-0,22",22,1,1,0,14,5,1,0,0,0,0,1,1,0,0,27,2,35
Fred ,ZAG,Vitória,2,"3,95",11,"1,85","0,00","0,00",12,1,0,1,2,5,3,0,0,0,0,0,3,0,0,11,0,30
Eduardo Bauermann ,ZAG,Atlético-GO,2,"3,19",7,"1,85","0,00","0,00",5,0,0,1,5,1,0,0,0,0,0,0,0,0,0,4,1,4
Paulo André ,ZAG,Atlético-PR,2,"4,33",13,"1,84","1,50","-0,61",12,0,0,4,8,0,1,0,0,0,0,0,4,0,0,10,0,28
Otero ,MEI,Atlético-MG,2,"7,09",13,"1,84","5,50","0,35",8,1,0,0,22,11,3,0,0,0,0,0,5,0,0,13,0,10
Pedro ,ATA,Fluminense,2,"4,04",7,"1,82","0,00","0,00",3,1,0,0,8,2,2,0,0,0,0,0,1,0,0,7,1,6
Renato Cajá ,MEI,Ponte Preta,2,"7,68",12,"1,82","0,00","0,00",12,1,2,0,12,7,1,0,0,0,0,1,1,0,0,14,1,46
Rodrigo Becão ,ZAG,Bahia,2,"2,88",6,"1,80","0,00","-0,54",5,0,0,1,4,1,1,0,0,0,0,0,1,0,0,4,0,8
Jadson ,MEI,Corinthians,3,"9,00",16,"1,80","2,00","0,51",9,4,1,0,8,8,3,0,0,0,0,0,2,0,0,13,3,80
Cleiton Xavier ,MEI,Vitória,2,"5,18",14,"1,80","0,00","0,00",12,0,3,0,8,10,6,0,0,0,0,0,2,0,0,18,1,46
Henrique ,MEI,Cruzeiro,1,"4,44",14,"1,79","0,00","0,00",22,0,0,0,19,2,3,0,0,0,0,1,3,0,0,12,0,31
Igor ,MEI,Atlético-GO,3,"3,25",16,"1,75","-2,70","-1,17",29,1,0,0,27,9,7,0,0,0,0,0,8,0,0,53,3,40
Caíque ,GOL,Vitória,2,"5,04",2,"1,75","0,00","0,00",0,0,0,0,0,0,0,0,4,0,0,0,1,0,3,1,0,0
Lucas Lima ,MEI,Santos,3,"3,77",15,"1,73","0,40","0,24",20,0,3,0,34,6,7,0,0,0,0,0,8,0,0,28,0,71
Kelvin ,ATA,Vasco,5,"5,03",5,"1,72","0,00","0,00",4,0,0,0,8,0,3,0,0,0,0,0,0,0,0,3,2,9
Vinicius Junior ,ATA,Flamengo,3,"2,84",16,"1,72","0,20","-2,01",3,2,1,0,14,6,7,1,0,0,0,0,2,0,0,11,6,26
Roger Bernardo ,MEI,Atlético-MG,2,"5,67",5,"1,70","0,00","0,00",10,0,0,0,9,0,0,0,0,0,0,0,1,0,0,12,1,15
Bruno Cosendey ,MEI,Vasco,2,"2,21",1,"1,70","0,00","0,00",1,0,0,0,0,0,0,0,0,0,0,0,0,0,0,0,0,0
Luis Ali ,ATA,Ponte Preta,2,"1,16",1,"1,70","0,00","0,00",1,0,0,0,0,0,0,0,0,0,0,0,0,0,0,0,0,0
Filigrana ,ATA,Coritiba,2,"2,29",6,"1,70","0,00","0,00",3,1,0,0,1,1,1,0,0,0,0,0,1,0,0,5,0,2
Ariel Cabral ,MEI,Cruzeiro,5,"5,29",13,"1,69","0,00","0,00",22,0,0,0,23,8,0,0,0,0,0,0,4,0,0,16,0,55
Luis Ricardo ,LAT,Botafogo,1,"6,11",4,"1,68","0,00","0,00",3,0,1,0,0,0,0,0,0,0,0,0,0,0,0,2,0,8
Jonathan ,LAT,Atlético-GO,3,"3,41",9,"1,68","9,80","2,11",6,0,0,2,3,2,1,0,0,0,0,0,1,0,0,5,0,15
Luan ,MEI,Avaí,2,"5,16",13,"1,66","0,00","0,00",22,0,0,0,29,1,2,0,0,0,0,0,6,0,0,32,0,17
Everton Felipe ,MEI,Sport,2,"3,91",17,"1,66","0,00","0,00",17,1,2,0,24,7,12,0,0,0,0,0,2,0,0,27,2,97
Wagner ,MEI,Vasco,3,"4,57",11,"1,65","-0,70","-1,66",9,1,0,0,10,1,1,1,0,0,0,0,0,0,0,12,3,26
Digão ,ZAG,Cruzeiro,3,"5,25",2,"1,65","3,60","0,61",2,0,1,0,2,1,0,0,0,0,0,1,0,0,0,3,0,1
Lucas Fernandes ,ATA,Atlético-PR,1,"3,94",8,"1,64","0,00","0,00",7,0,0,0,10,2,1,0,0,0,0,0,0,0,0,5,2,9
Vladimir Hernández ,ATA,Santos,2,"7,75",12,"1,63","0,00","0,00",5,1,0,0,17,4,3,0,0,0,0,0,1,0,0,5,2,19
Danilo Barcelos ,MEI,Ponte Preta,2,"5,31",7,"1,61","0,00","0,00",8,0,1,0,8,2,3,0,0,0,0,0,0,0,0,12,2,29
Nonoca ,MEI,Cruzeiro,2,"1,91",5,"1,60","0,70","-0,49",5,0,0,0,3,1,0,0,0,0,0,0,0,0,0,3,0,4
Renato ,MEI,Santos,3,"6,43",13,"1,60","3,10","0,12",15,0,0,0,14,1,0,0,0,0,0,0,0,0,0,8,0,28
Vinícius ,MEI,Bahia,2,"6,39",16,"1,57","-0,30","-0,24",7,2,1,0,8,8,3,0,0,0,0,0,3,0,0,11,0,30
Niltinho ,ATA,Atlético-GO,2,"3,67",12,"1,57","-1,00","-0,38",7,1,0,0,25,4,2,0,0,0,0,0,1,0,0,18,2,21
Fabrício Bruno ,ZAG,Chapecoense,3,"2,61",9,"1,57","-3,30","-2,74",8,1,0,2,7,0,1,0,0,0,0,0,5,0,0,16,0,13
Kayke ,ATA,Santos,2,"4,41",19,"1,56","0,00","-0,63",4,3,1,0,8,17,7,0,0,0,0,0,0,1,0,17,8,44
Felipe Saraiva ,MEI,Ponte Preta,1,"1,77",9,"1,55","3,20","0,13",3,0,0,0,12,2,7,0,0,0,0,0,0,0,0,7,0,7
Rafael Moura ,ATA,Atlético-MG,3,"4,92",18,"1,54","0,10","0,43",4,4,0,0,22,9,8,1,0,0,0,0,1,1,0,36,17,26
Jadson ,MEI,Ponte Preta,1,"3,91",14,"1,54","-0,80","-0,78",17,0,0,0,16,3,1,0,0,0,0,0,2,0,0,15,0,23
Yago ,MEI,Vitória,3,"2,07",14,"1,54","0,70","-0,54",14,1,0,0,27,4,4,0,0,0,0,1,3,0,0,20,1,30
Leonardo Silva ,ZAG,Atlético-MG,3,"8,70",9,"1,53","1,90","0,03",7,0,0,2,16,1,0,0,0,0,0,0,3,0,0,12,0,16
Wellington Nem ,ATA,São Paulo,5,"7,13",10,"1,52","0,00","0,00",5,1,0,0,20,2,1,0,0,0,0,0,2,0,0,10,4,9
Vitor Bueno ,MEI,Santos,5,"9,29",8,"1,51","0,00","0,00",9,0,0,0,12,4,1,0,0,0,0,0,2,0,0,6,0,20
Wesley ,MEI,Sport,2,"3,86",3,"1,50","0,00","0,00",3,0,0,0,2,0,0,0,0,0,0,0,0,0,0,2,0,2
Luan ,ATA,Atlético-MG,3,"6,14",9,"1,50","2,60","0,68",5,0,1,0,10,5,3,0,0,0,0,0,1,0,0,13,0,10
Willians ,ATA,Avaí,2,"3,56",15,"1,47","-0,60","-0,35",14,0,2,0,8,0,1,0,0,0,0,0,1,0,0,21,1,12
Rafael Marques ,ATA,Cruzeiro,5,"4,14",11,"1,46","0,00","0,00",4,1,0,0,9,5,2,0,0,0,0,0,0,0,0,3,1,22
Thallyson ,LAT,Vitória,2,"1,25",5,"1,44","0,00","0,00",5,0,0,1,2,1,0,0,0,0,0,0,0,0,0,4,0,20
Robinho ,ATA,Atlético-MG,2,"11,81",17,"1,44","0,00","0,00",16,1,2,0,14,7,3,0,0,0,0,0,4,1,0,13,12,39
Breno ,ZAG,Vasco,3,"4,22",15,"1,43","6,70","1,23",7,0,0,5,9,3,1,0,0,0,0,0,4,0,0,13,0,28
Rafael Sobis ,ATA,Cruzeiro,3,"9,45",14,"1,41","0,10","0,61",4,2,1,0,11,12,9,0,0,0,0,1,3,0,0,19,1,33
Marcelo Grohe ,GOL,Grêmio,2,"8,74",14,"1,40","0,00","0,00",0,0,0,7,0,0,0,0,5,0,0,1,1,0,11,0,0,5
Marcinho ,ATA,São Paulo,2,"3,90",20,"1,40","0,00","0,00",10,2,2,0,22,11,7,0,0,0,0,0,3,0,0,26,1,71
Giovanni Augusto ,MEI,Corinthians,2,"5,16",5,"1,40","0,00","0,00",4,0,1,0,2,1,0,0,0,0,0,0,1,0,0,2,1,10
Eduardo da Silva ,ATA,Atlético-PR,2,"5,87",5,"1,40","0,00","0,00",4,0,0,0,1,1,4,0,0,0,0,0,0,0,0,6,1,5
Moisés ,MEI,Chapecoense,2,"1,80",2,"1,40","0,00","0,00",2,0,0,0,1,0,0,0,0,0,0,0,0,0,0,1,0,2
Batista ,ATA,Grêmio,2,"2,24",1,"1,40","0,00","0,00",0,0,0,0,1,1,1,0,0,0,0,0,0,0,0,1,0,1
Juan ,MEI,Avaí,3,"4,91",16,"1,38","3,60","0,56",16,1,1,0,24,9,4,1,0,0,0,1,5,0,0,25,3,50
Nenén ,MEI,Chapecoense,2,"2,45",7,"1,37","0,00","0,00",4,0,0,0,4,1,2,0,0,0,0,0,0,0,0,2,0,3
Wendel ,MEI,Ponte Preta,2,"4,30",12,"1,37","1,30","-0,40",9,0,1,0,11,5,0,0,0,0,0,0,3,0,0,9,1,6
Martín Silva ,GOL,Vasco,3,"7,25",22,"1,36","5,00","1,45",0,0,0,5,2,0,0,0,27,0,0,0,2,0,34,0,0,17
Orejuela ,MEI,Fluminense,3,"8,60",17,"1,36","-0,10","-0,43",23,0,0,0,23,0,0,0,0,0,0,1,2,0,0,20,0,28
Pedro Castro ,MEI,Avaí,3,"2,06",17,"1,35","-1,60","-1,25",12,0,1,0,25,9,3,0,0,0,0,0,2,0,0,15,1,41
Douglas Grolli ,ZAG,Chapecoense,3,"6,10",12,"1,33","-0,10","-0,62",11,1,0,3,2,1,0,0,0,0,0,0,4,0,0,26,2,18
Bryan ,LAT,Cruzeiro,2,"3,28",4,"1,32","0,00","0,00",2,0,0,1,5,1,1,0,0,0,0,0,1,0,0,4,0,11
Tiago Real ,MEI,Coritiba,2,"4,63",11,"1,30","0,00","0,00",7,0,2,0,6,2,5,1,0,0,0,0,2,0,0,13,2,30
Diego Alves ,GOL,Flamengo,3,"8,82",6,"1,28","4,60","-0,13",0,0,0,2,1,0,0,0,5,0,0,0,0,0,8,0,0,6
João Paulo ,MEI,Botafogo,3,"2,43",17,"1,27","1,20","0,69",17,0,3,0,26,6,5,1,0,0,0,0,5,0,0,36,1,66
Silva ,MEI,Atlético-GO,2,"3,18",9,"1,26","0,00","0,00",12,0,0,0,7,1,0,0,0,0,0,0,1,0,0,19,0,6
Lucas Mineiro ,MEI,Chapecoense,3,"2,53",9,"1,25","1,00","-1,33",14,0,0,0,6,3,1,0,0,0,0,0,3,0,0,18,0,12
Ricardo Oliveira ,ATA,Santos,3,"9,12",9,"1,25","-1,20","-0,46",1,1,0,0,7,10,2,1,0,0,0,0,1,0,0,14,3,13
Osman ,ATA,Chapecoense,5,"2,99",7,"1,23","0,00","0,00",0,1,1,0,1,4,0,0,0,0,0,0,2,0,0,5,0,4
Yago ,MEI,Atlético-MG,2,"1,86",14,"1,23","0,00","-0,60",15,1,0,0,7,3,5,0,0,0,0,0,4,0,0,18,0,33
Raniel ,ATA,Cruzeiro,2,"2,26",8,"1,23","0,00","0,00",1,1,0,0,7,1,0,0,0,0,0,0,1,0,0,3,0,2
Gilberto ,ATA,São Paulo,2,"3,71",12,"1,21","-0,60","-0,58",3,1,0,0,8,4,5,0,0,0,0,0,1,0,0,7,5,8
Jhemerson ,MEI,Vitória,2,"3,62",4,"1,20","0,00","0,00",2,0,0,0,1,3,0,0,0,0,0,0,0,0,0,0,0,4
Lincoln ,MEI,Grêmio,2,"2,98",8,"1,20","0,00","0,00",3,0,1,0,15,1,0,0,0,0,0,0,0,0,0,9,0,14
Judson ,MEI,Avaí,3,"4,49",19,"1,18","3,70","0,49",30,0,1,0,11,9,2,0,0,0,0,0,6,0,0,44,0,45
Araruna ,MEI,São Paulo,5,"1,95",3,"1,17","0,00","0,00",4,0,0,0,3,0,0,0,0,0,0,0,0,0,0,3,0,11
Airton ,MEI,Botafogo,5,"5,63",3,"1,17","0,00","0,00",3,0,0,0,4,0,0,0,0,0,0,0,0,0,0,3,0,7
Peu ,ATA,Fluminense,2,"1,37",5,"1,16","2,20","0,25",2,0,0,0,2,1,2,0,0,0,0,0,0,0,0,2,0,1
Conrado ,MEI,Grêmio,2,"1,87",2,"1,15","0,00","0,00",2,0,0,0,3,1,0,0,0,0,0,0,0,0,0,2,1,6
Léo ,LAT,Fluminense,3,"3,37",16,"1,15","-1,30","0,15",12,1,1,2,7,1,2,0,0,0,0,0,2,0,0,30,3,36
Fabiano ,LAT,Palmeiras,2,"4,32",5,"1,14","0,00","0,00",1,0,0,1,1,2,1,0,0,0,0,0,0,0,0,3,0,8
Emerson Santos ,ZAG,Botafogo,2,"0,78",5,"1,14","0,00","0,00",4,0,0,3,4,1,0,0,0,0,0,1,2,0,0,10,0,16
Romulo ,MEI,Flamengo,3,"5,85",4,"1,12","2,70","-0,21",4,0,0,0,1,0,2,0,0,0,0,0,1,0,0,5,0,1
Léo Cittadini ,MEI,Santos,2,"2,48",6,"1,12","-0,50","-0,47",4,0,0,0,3,1,1,0,0,0,0,0,0,0,0,3,0,6
Tchê Tchê ,MEI,Palmeiras,1,"7,12",18,"1,12","4,80","0,63",19,0,2,0,18,5,4,0,0,0,0,1,3,0,0,29,1,42
Matheus Rossetto ,MEI,Atlético-PR,1,"4,07",17,"1,11","-0,60","-0,12",15,1,1,0,13,0,4,0,0,0,0,0,4,0,0,22,1,35
Júlio César  ,ATA,Chapecoense,2,"2,57",4,"1,10","-0,30","-0,56",3,0,0,0,2,2,0,0,0,0,0,0,0,0,0,2,0,7
Luiz Fernando  ,MEI,Fluminense,5,"1,94",2,"1,10","0,00","0,00",1,0,0,0,1,0,0,0,0,0,0,0,0,0,0,0,0,0
Rafael Marques ,ZAG,Vasco,2,"2,30",12,"1,08","0,00","0,00",13,0,0,1,6,1,1,1,0,0,0,0,3,0,0,12,2,31
André Castro ,MEI,Atlético-GO,2,"1,81",18,"1,08","0,00","0,00",22,0,0,0,10,3,1,0,0,0,0,0,2,0,0,21,1,37
Paulão ,ZAG,Vasco,2,"4,38",14,"1,07","0,00","0,00",10,0,1,3,8,6,1,0,0,0,0,0,4,0,0,26,2,30
Júnior ,ATA,Vitória,2,"1,12",4,"1,05","0,00","0,00",2,0,0,0,3,1,0,0,0,0,0,0,0,0,0,1,0,3
Gustavo Ferrareis ,MEI,Bahia,2,"5,11",11,"1,05","0,00","0,00",2,1,0,0,6,3,2,1,0,0,0,0,1,0,0,8,0,15
Renato ,LAT,Fluminense,2,"3,07",7,"1,05","0,00","0,00",4,0,0,1,7,6,1,0,0,0,0,0,2,0,0,10,0,14
Marlone ,MEI,Atlético-MG,2,"5,83",11,"1,03","0,00","0,00",4,2,0,0,8,4,3,0,0,0,0,0,2,0,0,9,4,36
Douglas Coutinho  ,ATA,Atlético-PR,2,"2,46",16,"1,03","0,90","0,18",5,0,1,0,12,6,7,0,0,0,0,0,0,0,0,9,3,28
Escudero ,MEI,Vasco,2,"3,75",5,"1,00","0,00","0,00",3,0,1,0,3,1,0,0,0,0,0,0,1,0,0,4,0,11
Helton Leite ,GOL,Botafogo,2,"3,32",1,"1,00","0,00","0,00",0,0,0,0,0,0,0,0,1,0,0,0,0,0,1,0,0,0
Maicon ,MEI,Grêmio,2,"7,26",11,"1,00","0,00","0,00",12,0,0,0,10,3,1,0,0,0,0,0,3,0,0,11,0,20
Wellington Simião ,MEI,Avaí,3,"2,45",18,"0,96","0,70","0,26",8,1,0,0,21,7,3,1,0,0,0,0,3,0,0,17,3,33
Pedrinho ,ATA,Corinthians,5,"1,08",8,"0,95","0,00","0,00",3,0,0,0,1,2,3,0,0,0,0,0,0,0,0,0,0,8
Robert  ,MEI,Fluminense,2,"3,15",2,"0,95","0,00","0,00",1,0,0,0,1,0,0,0,0,0,0,0,0,0,0,0,0,1
Jandrei ,GOL,Chapecoense,3,"4,37",21,"0,95","0,70","-1,08",0,0,0,5,9,0,0,0,22,0,0,0,1,0,34,0,0,19
Ederson ,MEI,Flamengo,5,"4,25",5,"0,94","0,00","0,00",2,0,0,0,9,1,1,0,0,0,0,0,0,0,0,5,0,8
Lucas Otávio  ,MEI,Avaí,2,"3,05",7,"0,94","1,20","-0,16",5,0,0,0,1,0,0,0,0,0,0,0,0,0,0,2,1,3
Antônio Carlos  ,ZAG,Palmeiras,2,"3,05",4,"0,92","0,00","0,00",3,0,0,0,4,1,1,0,0,0,0,0,1,0,0,2,0,7
Perotti ,ATA,Chapecoense,2,"1,80",2,"0,90","0,00","0,00",1,0,0,0,2,1,0,0,0,0,0,0,0,0,0,2,0,2
Douglas ,ZAG,São Paulo,2,"3,28",1,"0,90","0,00","0,00",1,0,0,0,0,0,0,0,0,0,0,0,0,0,0,1,0,1
Berrío  ,ATA,Flamengo,2,"3,86",13,"0,89","0,70","-0,30",5,2,0,0,8,1,2,0,0,0,0,0,2,0,0,14,1,27
Moisés ,MEI,Palmeiras,3,"7,60",3,"0,87","-1,10","0,15",4,0,0,0,6,0,2,0,0,0,0,0,1,0,0,3,0,19
Arthur Gomes ,ATA,Santos,2,"1,84",5,"0,86","0,00","0,00",1,0,0,0,6,0,1,0,0,0,0,0,0,0,0,1,0,3
Luiz Fernando  ,MEI,Atlético-GO,3,"2,80",18,"0,86","1,80","0,35",5,1,1,0,16,4,4,1,0,0,0,0,3,0,0,15,6,26
Lucas ,LAT,Fluminense,3,"1,65",17,"0,81","-4,40","-1,19",22,0,1,1,12,4,1,0,0,0,0,0,4,0,0,35,5,51
Nicolas ,LAT,Atlético-PR,2,"3,55",5,"0,76","0,00","0,00",2,0,0,2,0,0,0,0,0,0,0,0,1,0,0,5,0,17
Dudu Cearense ,MEI,Botafogo,1,"4,44",9,"0,76","0,00","0,00",11,0,0,0,7,0,1,0,0,0,0,0,3,0,0,11,0,16
Léo Artur ,MEI,Ponte Preta,1,"2,04",13,"0,74","0,00","0,00",3,1,1,0,5,7,4,0,0,0,0,0,1,0,0,15,4,28
Marlon Freitas ,MEI,Fluminense,3,"2,30",9,"0,74","-0,50","-0,71",15,0,0,0,6,1,2,0,0,0,0,0,5,0,0,15,1,22
Jailson ,MEI,Grêmio,2,"3,25",10,"0,73","0,00","0,00",4,0,1,0,5,0,0,0,0,0,0,0,1,0,0,5,0,8
Marcos Junior ,ATA,Fluminense,2,"2,79",10,"0,71","0,00","0,00",3,1,0,0,7,1,1,0,0,0,0,0,3,0,0,3,2,9
Yuri ,ATA,Ponte Preta,2,"1,05",3,"0,70","0,00","0,00",0,0,0,0,1,2,3,0,0,0,0,0,0,0,0,5,0,1
Fellipe Bastos ,MEI,Corinthians,2,"3,53",2,"0,70","0,00","0,00",0,0,0,0,0,1,1,0,0,0,0,0,0,0,0,0,0,1
Fillipe Soutto ,MEI,Vitória,2,"3,12",5,"0,70","0,00","0,42",5,0,0,0,2,0,0,0,0,0,0,0,1,0,0,2,0,10
Douglas ,ATA,Bahia,2,"1,11",1,"0,70","0,00","0,00",0,0,0,0,2,0,0,0,0,0,0,0,0,0,0,0,0,1
Carlinhos ,ATA,Corinthians,2,"1,71",1,"0,70","0,70","-0,29",0,0,0,0,0,0,1,0,0,0,0,0,0,0,0,0,0,1
Walter ,ATA,Atlético-GO,3,"6,31",16,"0,69","-3,00","-0,43",6,1,0,0,38,12,13,1,0,0,0,0,5,0,0,31,7,73
Patrick ,MEI,Grêmio,2,"1,75",3,"0,67","0,00","0,00",1,0,0,0,0,1,1,0,0,0,0,0,0,0,0,1,0,3
Moisés Ribeiro ,MEI,Chapecoense,3,"3,31",8,"0,62","2,20","0,46",11,0,0,0,9,1,0,0,0,0,0,0,4,0,0,14,0,13
Marquinhos ,MEI,Avaí,2,"2,72",10,"0,61","0,00","0,00",3,1,0,0,10,3,4,0,0,0,0,1,0,0,0,4,0,37
Vecchio ,MEI,Santos,5,"1,51",5,"0,60","0,00","0,00",1,1,0,0,6,1,1,0,0,0,0,0,2,0,0,3,1,18
Negueba ,ATA,Ponte Preta,2,"4,01",4,"0,60","0,00","0,00",4,0,0,0,4,0,0,0,0,0,0,0,1,0,0,4,0,8
Maikon Leite ,ATA,Bahia,2,"2,22",3,"0,57","2,70","0,07",1,0,0,0,3,0,0,0,0,0,0,0,0,0,0,2,1,0
Brenner ,ATA,São Paulo,2,"0,88",2,"0,55","0,00","0,00",1,0,0,0,1,0,0,0,0,0,0,0,0,0,0,1,0,2
Lennon ,LAT,Cruzeiro,2,"4,03",3,"0,53","0,00","0,00",2,0,0,1,1,0,0,0,0,0,0,0,1,0,0,4,0,11
Maurinho ,ATA,Avaí,2,"2,47",3,"0,53","0,00","0,00",1,0,0,0,1,0,0,0,0,0,0,0,0,0,0,0,0,2
Maranhão ,ATA,Ponte Preta,2,"1,76",8,"0,51","0,00","-0,17",2,0,0,0,7,4,0,0,0,0,0,0,0,0,0,3,1,12
Léo Natel ,ATA,São Paulo,2,"0,92",1,"0,50","0,00","0,00",0,0,0,0,1,0,0,0,0,0,0,0,0,0,0,0,0,0
Carlos Eduardo ,MEI,Vitória,2,"2,19",7,"0,50","0,00","0,00",7,0,0,0,10,2,3,0,0,0,0,0,1,0,0,8,2,36
Iury ,ATA,Avaí,2,"1,68",1,"0,50","0,00","0,00",0,0,0,0,1,0,0,0,0,0,0,0,0,0,0,0,0,0
Matheus Iacovelli ,ATA,Palmeiras,2,"1,68",1,"0,50","0,00","0,00",0,0,0,0,1,0,0,0,0,0,0,0,0,0,0,0,0,0
Pepê ,ATA,Grêmio,2,"0,97",1,"0,50","0,00","0,00",0,0,0,0,1,0,0,0,0,0,0,0,0,0,0,0,0,0
Deivid ,MEI,Atlético-PR,2,"5,04",5,"0,48","0,00","0,00",2,0,0,0,5,0,0,1,0,0,0,0,2,0,0,3,0,5
Nogueira ,ZAG,Fluminense,2,"1,92",5,"0,48","0,00","0,00",1,0,0,0,4,0,2,1,0,0,0,0,2,0,0,2,0,6
Ralph ,MEI,Atlético-MG,2,"1,04",4,"0,45","0,00","0,00",5,0,0,0,4,0,0,0,0,0,0,0,3,0,0,3,0,4
Beto da Silva ,ATA,Grêmio,2,"2,75",2,"0,45","0,00","0,00",1,0,0,0,2,0,0,0,0,0,0,0,0,0,0,2,1,1
Capixaba ,ATA,Atlético-MG,2,"0,87",1,"0,40","0,00","0,00",0,0,0,0,1,0,1,0,0,0,0,0,0,0,0,1,0,2
Romarinho ,ATA,Fluminense,2,"0,98",1,"0,40","0,40","-0,02",0,0,0,0,0,1,0,0,0,0,0,0,0,0,0,0,0,1
Thallyson ,MEI,Sport,2,"0,79",12,"0,39","0,00","0,00",6,1,0,0,7,0,0,0,0,0,0,0,3,0,0,12,1,15
Raphael Veiga ,MEI,Palmeiras,2,"3,54",11,"0,39","0,00","0,00",1,0,1,0,10,4,1,0,0,0,0,0,3,0,0,8,0,4
Fabrício ,MEI,Sport,2,"1,37",7,"0,39","0,00","0,00",1,0,1,0,3,2,2,0,0,0,0,0,1,0,0,2,1,18
Anderson ,MEI,Coritiba,1,"2,88",7,"0,37","-4,60","-1,30",8,0,0,0,10,0,3,0,0,0,0,1,2,0,0,8,0,20
Camacho ,MEI,Corinthians,2,"3,14",14,"0,33","-2,40","-0,67",5,0,0,0,7,2,0,0,0,0,0,0,1,0,0,7,0,11
Bruno ,LAT,São Paulo,5,"4,28",9,"0,31","0,00","0,00",6,0,0,2,10,1,0,0,0,0,0,0,2,0,0,16,0,37
Adilson ,MEI,Atlético-MG,3,"4,06",12,"0,30","0,90","0,15",14,0,0,0,10,2,0,0,0,0,0,0,4,0,0,23,1,22
João Paulo ,MEI,Coritiba,3,"5,14",4,"0,28","-1,20","-0,20",3,0,0,0,3,0,0,0,0,0,0,0,0,0,0,5,0,10
Ricardo Silva ,ZAG,Atlético-GO,2,"2,94",4,"0,28","0,00","0,00",5,0,0,0,1,2,0,0,0,0,0,0,1,0,0,8,0,11
Lugano ,ZAG,São Paulo,2,"3,05",7,"0,25","0,00","0,00",4,0,0,2,2,3,1,0,0,0,0,0,5,0,0,11,0,12
Luan Pereira ,MEI,Avaí,2,"1,09",4,"0,22","0,00","0,00",1,0,0,0,4,0,0,0,0,0,0,0,0,0,0,2,0,6
Thalis  ,MEI,Atlético-MG,2,"0,81",1,"0,20","0,00","0,00",0,0,0,0,1,0,0,0,0,0,0,0,0,0,0,0,0,1
Romercio ,ZAG,Coritiba,2,"1,63",1,"0,20","0,00","0,00",0,0,0,0,0,0,1,0,0,0,0,0,0,0,0,1,0,1
Mateus Norton ,MEI,Fluminense,2,"0,78",7,"0,18","0,00","0,00",6,0,0,0,4,1,0,0,0,0,0,0,3,0,0,4,0,12
Thiago Ribeiro ,ATA,Santos,2,"4,95",8,"0,18","0,00","0,00",6,0,0,0,5,3,2,0,0,0,0,0,1,0,0,10,4,21
Matheus Mancini ,ZAG,Atlético-MG,2,"1,60",5,"0,16","0,00","0,00",3,0,0,1,2,2,0,0,0,0,0,0,2,0,0,10,0,9
Iago ,ATA,Coritiba,2,"4,16",9,"0,16","0,50","0,14",2,0,0,0,4,2,1,0,0,0,0,0,0,0,0,3,2,13
Kazim ,ATA,Corinthians,3,"2,46",7,"0,16","3,80","0,75",0,0,0,0,3,4,3,0,0,0,0,0,0,0,0,9,1,4
Jonatan Gomez ,MEI,São Paulo,2,"4,23",7,"0,15","0,00","0,00",4,0,0,0,10,3,2,0,0,0,0,0,1,0,0,12,1,21
Erazo ,ZAG,Atlético-MG,2,"3,98",2,"0,15","0,00","0,00",0,0,0,1,0,0,0,0,0,0,0,0,1,0,0,3,0,4
Danilinho ,ATA,Vitória,2,"3,42",3,"0,10","-0,60","-0,51",1,0,0,0,0,0,0,0,0,0,0,0,0,0,0,1,0,3
Júnior Brumado ,ATA,Bahia,2,"1,25",2,"0,05","0,00","0,00",1,0,0,0,0,1,0,0,0,0,0,0,0,0,0,3,1,1
Matheus ,GOL,Avaí,2,"1,00",0,"0,00","0,00","0,00",0,0,0,0,0,0,0,0,0,0,0,0,0,0,0,0,0,0
Devid ,ATA,Avaí,2,"1,00",0,"0,00","0,00","0,00",0,0,0,0,0,0,0,0,0,0,0,0,0,0,0,0,0,0
Cristian ,MEI,Corinthians,2,"4,00",0,"0,00","0,00","0,00",0,0,0,0,0,0,0,0,0,0,0,0,0,0,0,0,0,0
Marcelo Mattos ,MEI,Vasco,5,"4,00",0,"0,00","0,00","0,00",0,0,0,0,0,0,0,0,0,0,0,0,0,0,0,0,0,0
Arouca ,MEI,Palmeiras,5,"6,00",0,"0,00","0,00","0,00",0,0,0,0,0,0,0,0,0,0,0,0,0,0,0,0,0,0
Lucas ,GOL,Atlético-GO,2,"1,00",0,"0,00","0,00","0,00",0,0,0,0,0,0,0,0,0,0,0,0,0,0,0,0,0,0
Yan ,MEI,Santos,2,"2,00",0,"0,00","0,00","0,00",0,0,0,0,0,0,0,0,0,0,0,0,0,0,0,0,0,0
Reynaldo ,ZAG,Ponte Preta,2,"2,00",0,"0,00","0,00","0,00",0,0,0,0,0,0,0,0,0,0,0,0,0,0,0,0,0,0
Thiago Couto ,GOL,São Paulo,2,"1,00",0,"0,00","0,00","0,00",0,0,0,0,0,0,0,0,0,0,0,0,0,0,0,0,0,0
Ibañez ,ZAG,Fluminense,2,"1,00",0,"0,00","0,00","0,00",0,0,0,0,0,0,0,0,0,0,0,0,0,0,0,0,0,0
Thiaguinho ,ATA,Ponte Preta,2,"2,00",0,"0,00","0,00","0,00",0,0,0,0,0,0,0,0,0,0,0,0,0,0,0,0,0,0
Patrick Correia ,ATA,Sport,2,"1,00",0,"0,00","0,00","0,00",0,0,0,0,0,0,0,0,0,0,0,0,0,0,0,0,0,0
Jacy ,ZAG,Atlético-PR,2,"1,00",0,"0,00","0,00","0,00",0,0,0,0,0,0,0,0,0,0,0,0,0,0,0,0,0,0
Luiz Felipe ,MEI,Atlético-GO,2,"2,00",0,"0,00","0,00","0,00",0,0,0,0,0,0,0,0,0,0,0,0,0,0,0,0,0,0
Rafael ,ZAG,Flamengo,2,"1,00",0,"0,00","0,00","0,00",0,0,0,0,0,0,0,0,0,0,0,0,0,0,0,0,0,0
Maílson ,GOL,Sport,2,"1,00",0,"0,00","0,00","0,00",0,0,0,0,0,0,0,0,0,0,0,0,0,0,0,0,0,0
Murillo ,ATA,Atlético-PR,2,"1,00",0,"0,00","0,00","0,00",0,0,0,0,0,0,0,0,0,0,0,0,0,0,0,0,0,0
Caio ,LAT,Sport,2,"2,00",0,"0,00","0,00","0,00",0,0,0,0,0,0,0,0,0,0,0,0,0,0,0,0,0,0
Evanderson ,MEI,Atlético-GO,2,"1,00",0,"0,00","0,00","0,00",0,0,0,0,0,0,0,0,0,0,0,0,0,0,0,0,0,0
Patrick Luan ,ATA,Fluminense,2,"1,00",0,"0,00","0,00","0,00",0,0,0,0,0,0,0,0,0,0,0,0,0,0,0,0,0,0
Gabriel Batista ,GOL,Flamengo,2,"1,00",0,"0,00","0,00","0,00",0,0,0,0,0,0,0,0,0,0,0,0,0,0,0,0,0,0
Kanu ,ZAG,Botafogo,2,"1,00",0,"0,00","0,00","0,00",0,0,0,0,0,0,0,0,0,0,0,0,0,0,0,0,0,0
Cedric ,LAT,Vitória,2,"2,00",0,"0,00","0,00","0,00",0,0,0,0,0,0,0,0,0,0,0,0,0,0,0,0,0,0
Rodrigo Pelezinho ,ATA,Chapecoense,2,"2,00",0,"0,00","0,00","0,00",0,0,0,0,0,0,0,0,0,0,0,0,0,0,0,0,0,0
Tiepo ,GOL,Chapecoense,2,"1,00",0,"0,00","0,00","0,00",0,0,0,0,0,0,0,0,0,0,0,0,0,0,0,0,0,0
Lucas Silva ,ATA,Flamengo,2,"2,00",0,"0,00","0,00","0,00",0,0,0,0,0,0,0,0,0,0,0,0,0,0,0,0,0,0
Jean Lucas ,MEI,Flamengo,2,"2,00",0,"0,00","0,00","0,00",0,0,0,0,0,0,0,0,0,0,0,0,0,0,0,0,0,0
Cláudio Vitor ,GOL,Avaí,2,"1,00",0,"0,00","0,00","0,00",0,0,0,0,0,0,0,0,0,0,0,0,0,0,0,0,0,0
Marcelo ,ATA,Atlético-PR,2,"2,00",0,"0,00","0,00","0,00",0,0,0,0,0,0,0,0,0,0,0,0,0,0,0,0,0,0
Loran  ,ATA,Flamengo,2,"1,00",0,"0,00","0,00","0,00",0,0,0,0,0,0,0,0,0,0,0,0,0,0,0,0,0,0
Emanuel ,LAT,Atlético-MG,2,"1,00",0,"0,00","0,00","0,00",0,0,0,0,0,0,0,0,0,0,0,0,0,0,0,0,0,0
Riuler ,LAT,Atlético-PR,2,"2,00",0,"0,00","0,00","0,00",0,0,0,0,0,0,0,0,0,0,0,0,0,0,0,0,0,0
Derlan ,ZAG,Fluminense,2,"1,00",0,"0,00","0,00","0,00",0,0,0,0,0,0,0,0,0,0,0,0,0,0,0,0,0,0
Lucas Ferreira ,GOL,Sport,2,"1,00",0,"0,00","0,00","0,00",0,0,0,0,0,0,0,0,0,0,0,0,0,0,0,0,0,0
Lima ,MEI,Chapecoense,2,"1,00",0,"0,00","0,00","0,00",0,0,0,0,0,0,0,0,0,0,0,0,0,0,0,0,0,0
Léo ,LAT,Avaí,2,"1,00",0,"0,00","0,00","0,00",0,0,0,0,0,0,0,0,0,0,0,0,0,0,0,0,0,0
César ,LAT,Atlético-MG,2,"1,00",0,"0,00","0,00","0,00",0,0,0,0,0,0,0,0,0,0,0,0,0,0,0,0,0,0
Kaynan ,ATA,Bahia,2,"1,00",0,"0,00","0,00","0,00",0,0,0,0,0,0,0,0,0,0,0,0,0,0,0,0,0,0
Marco Antônio ,MEI,Bahia,2,"3,00",0,"0,00","0,00","0,00",0,0,0,0,0,0,0,0,0,0,0,0,0,0,0,0,0,0
Júnior Ramos ,MEI,Bahia,2,"1,00",0,"0,00","0,00","0,00",0,0,0,0,0,0,0,0,0,0,0,0,0,0,0,0,0,0
Moraes ,LAT,Flamengo,2,"1,00",0,"0,00","0,00","0,00",0,0,0,0,0,0,0,0,0,0,0,0,0,0,0,0,0,0
Deijair  ,GOL,Bahia,2,"1,00",0,"0,00","0,00","0,00",0,0,0,0,0,0,0,0,0,0,0,0,0,0,0,0,0,0
Lucão ,GOL,Cruzeiro,2,"1,00",0,"0,00","0,00","0,00",0,0,0,0,0,0,0,0,0,0,0,0,0,0,0,0,0,0
Luquinhas ,MEI,Fluminense,2,"1,00",0,"0,00","0,00","0,00",0,0,0,0,0,0,0,0,0,0,0,0,0,0,0,0,0,0
Luís Fernando ,MEI,Bahia,2,"3,00",0,"0,00","0,00","0,00",0,0,0,0,0,0,0,0,0,0,0,0,0,0,0,0,0,0
Luis Guilherme ,ATA,Atlético-MG,2,"2,00",0,"0,00","0,00","0,00",0,0,0,0,0,0,0,0,0,0,0,0,0,0,0,0,0,0
Índio ,ATA,Coritiba,2,"2,00",0,"0,00","0,00","0,00",0,0,0,0,0,0,0,0,0,0,0,0,0,0,0,0,0,0
Matheus Jesus ,MEI,Santos,2,"4,00",0,"0,00","0,00","0,00",0,0,0,0,0,0,0,0,0,0,0,0,0,0,0,0,0,0
Orinho ,LAT,Santos,2,"2,00",0,"0,00","0,00","0,00",0,0,0,0,0,0,0,0,0,0,0,0,0,0,0,0,0,0
Lucas Kal ,ZAG,São Paulo,2,"2,00",0,"0,00","0,00","0,00",0,0,0,0,0,0,0,0,0,0,0,0,0,0,0,0,0,0
Messidoro ,MEI,Cruzeiro,2,"3,20",0,"0,00","0,00","0,00",0,0,0,0,0,0,0,0,0,0,0,0,0,0,0,0,0,0
Nathan ,ZAG,Atlético-MG,2,"1,00",0,"0,00","0,00","0,00",0,0,0,0,0,0,0,0,0,0,0,0,0,0,0,0,0,0
Luiz Felipe ,GOL,Chapecoense,2,"2,00",0,"0,00","0,00","0,00",0,0,0,0,0,0,0,0,0,0,0,0,0,0,0,0,0,0
Filipinho ,ATA,Atlético-MG,2,"2,00",0,"0,00","0,00","0,00",0,0,0,0,0,0,0,0,0,0,0,0,0,0,0,0,0,0
Gustavo Bochecha ,MEI,Botafogo,5,"2,00",0,"0,00","0,00","0,00",0,0,0,0,0,0,0,0,0,0,0,0,0,0,0,0,0,0
Caíque ,LAT,São Paulo,2,"1,00",0,"0,00","0,00","0,00",0,0,0,0,0,0,0,0,0,0,0,0,0,0,0,0,0,0
Daniel Fuzato ,GOL,Palmeiras,2,"1,00",0,"0,00","0,00","0,00",0,0,0,0,0,0,0,0,0,0,0,0,0,0,0,0,0,0
Ty Sandows ,ATA,Grêmio,2,"1,00",0,"0,00","0,00","0,00",0,0,0,0,0,0,0,0,0,0,0,0,0,0,0,0,0,0
Felipe ,GOL,Bahia,2,"1,00",0,"0,00","0,00","0,00",0,0,0,0,0,0,0,0,0,0,0,0,0,0,0,0,0,0
Geovane ,ZAG,Coritiba,2,"3,00",0,"0,00","0,00","0,00",0,0,0,0,0,0,0,0,0,0,0,0,0,0,0,0,0,0
Matheus Oliveira ,MEI,Santos,2,"2,00",0,"0,00","0,00","0,00",0,0,0,0,0,0,0,0,0,0,0,0,0,0,0,0,0,0
Cassiano ,GOL,Bahia,2,"1,00",0,"0,00","0,00","0,00",0,0,0,0,0,0,0,0,0,0,0,0,0,0,0,0,0,0
Mauricio ,ZAG,Avaí,2,"2,00",0,"0,00","0,00","0,00",0,0,0,0,0,0,0,0,0,0,0,0,0,0,0,0,0,0
Victor Lindenberg ,LAT,Botafogo,2,"0,78",1,"0,00","0,00","0,00",0,0,0,0,0,0,0,0,0,0,0,0,0,0,0,0,0,0
Lincoln ,ATA,Flamengo,2,"2,00",0,"0,00","0,00","0,00",0,0,0,0,0,0,0,0,0,0,0,0,0,0,0,0,0,0
Paulo Henrique ,ATA,Sport,2,"3,00",0,"0,00","0,00","0,00",0,0,0,0,0,0,0,0,0,0,0,0,0,0,0,0,0,0
Pedro Augusto ,MEI,São Paulo,2,"1,00",0,"0,00","0,00","0,00",0,0,0,0,0,0,0,0,0,0,0,0,0,0,0,0,0,0
Igor ,MEI,São Paulo,2,"1,00",0,"0,00","0,00","0,00",0,0,0,0,0,0,0,0,0,0,0,0,0,0,0,0,0,0
Vilson ,ZAG,Corinthians,2,"4,00",0,"0,00","0,00","0,00",0,0,0,0,0,0,0,0,0,0,0,0,0,0,0,0,0,0
Keirrison ,ATA,Coritiba,2,"3,00",0,"0,00","0,00","0,00",0,0,0,0,0,0,0,0,0,0,0,0,0,0,0,0,0,0
Denis ,GOL,São Paulo,2,"5,00",0,"0,00","0,00","0,00",0,0,0,0,0,0,0,0,0,0,0,0,0,0,0,0,0,0
Walter ,GOL,Corinthians,2,"6,00",0,"0,00","0,00","0,00",0,0,0,0,0,0,0,0,0,0,0,0,0,0,0,0,0,0
Bruno Grassi ,GOL,Grêmio,2,"4,00",0,"0,00","0,00","0,00",0,0,0,0,0,0,0,0,0,0,0,0,0,0,0,0,0,0
Ferdinando ,MEI,Avaí,2,"5,00",0,"0,00","0,00","0,00",0,0,0,0,0,0,0,0,0,0,0,0,0,0,0,0,0,0
Jael ,ATA,Grêmio,5,"5,00",0,"0,00","0,00","0,00",0,0,0,0,0,0,0,0,0,0,0,0,0,0,0,0,0,0
Alan Ruschel ,LAT,Chapecoense,2,"3,00",0,"0,00","0,00","0,00",0,0,0,0,0,0,0,0,0,0,0,0,0,0,0,0,0,0
Rafael Santos ,GOL,Bahia,2,"3,00",0,"0,00","0,00","0,00",0,0,0,0,0,0,0,0,0,0,0,0,0,0,0,0,0,0
Gum ,ZAG,Fluminense,5,"7,00",0,"0,00","0,00","0,00",0,0,0,0,0,0,0,0,0,0,0,0,0,0,0,0,0,0
Gustavo Santos ,LAT,Avaí,2,"1,00",0,"0,00","0,00","0,00",0,0,0,0,0,0,0,0,0,0,0,0,0,0,0,0,0,0
João Vitor ,MEI,Ponte Preta,5,"5,00",0,"0,00","0,00","0,00",0,0,0,0,0,0,0,0,0,0,0,0,0,0,0,0,0,0
Vladimir ,GOL,Santos,2,"4,00",0,"0,00","0,00","0,00",0,0,0,0,0,0,0,0,0,0,0,0,0,0,0,0,0,0
Neto ,ZAG,Chapecoense,5,"5,00",0,"0,00","0,00","0,00",0,0,0,0,0,0,0,0,0,0,0,0,0,0,0,0,0,0
João Carlos ,GOL,Ponte Preta,2,"5,00",0,"0,00","0,00","0,00",0,0,0,0,0,0,0,0,0,0,0,0,0,0,0,0,0,0
Elicarlos ,MEI,Chapecoense,2,"6,00",0,"0,00","0,00","0,00",0,0,0,0,0,0,0,0,0,0,0,0,0,0,0,0,0,0
Hiago ,ZAG,Chapecoense,2,"1,00",0,"0,00","0,00","0,00",0,0,0,0,0,0,0,0,0,0,0,0,0,0,0,0,0,0
Bryan ,MEI,Chapecoense,2,"1,00",0,"0,00","0,00","0,00",0,0,0,0,0,0,0,0,0,0,0,0,0,0,0,0,0,0
Vinícius Guarapuava ,ZAG,Chapecoense,2,"1,00",0,"0,00","0,00","0,00",0,0,0,0,0,0,0,0,0,0,0,0,0,0,0,0,0,0
Marco Túlio ,ATA,Atlético-MG,2,"1,00",0,"0,00","0,00","0,00",0,0,0,0,0,0,0,0,0,0,0,0,0,0,0,0,0,0
Busanello ,LAT,Chapecoense,2,"1,00",0,"0,00","0,00","0,00",0,0,0,0,0,0,0,0,0,0,0,0,0,0,0,0,0,0
Elias ,LAT,Sport,2,"2,00",0,"0,00","0,00","0,00",0,0,0,0,0,0,0,0,0,0,0,0,0,0,0,0,0,0
João Victor ,MEI,Sport,2,"2,00",0,"0,00","0,00","0,00",0,0,0,0,0,0,0,0,0,0,0,0,0,0,0,0,0,0
Pedro Vitor ,ATA,Sport,2,"1,00",0,"0,00","0,00","0,00",0,0,0,0,0,0,0,0,0,0,0,0,0,0,0,0,0,0
Pedro Bortoluzo ,ATA,São Paulo,2,"3,00",0,"0,00","0,00","0,00",0,0,0,0,0,0,0,0,0,0,0,0,0,0,0,0,0,0
Pedro Henryque ,ZAG,Sport,2,"2,00",0,"0,00","0,00","0,00",0,0,0,0,0,0,0,0,0,0,0,0,0,0,0,0,0,0
Dayvid ,LAT,Sport,2,"1,00",0,"0,00","0,00","0,00",0,0,0,0,0,0,0,0,0,0,0,0,0,0,0,0,0,0
Jackson ,ZAG,Bahia,5,"7,00",0,"0,00","0,00","0,00",0,0,0,0,0,0,0,0,0,0,0,0,0,0,0,0,0,0
Alesandro ,ZAG,Sport,2,"1,00",0,"0,00","0,00","0,00",0,0,0,0,0,0,0,0,0,0,0,0,0,0,0,0,0,0
João Erick ,MEI,Sport,2,"2,00",0,"0,00","0,00","0,00",0,0,0,0,0,0,0,0,0,0,0,0,0,0,0,0,0,0
Leo ,GOL,Atlético-PR,2,"3,00",0,"0,00","0,00","0,00",0,0,0,0,0,0,0,0,0,0,0,0,0,0,0,0,0,0
Henrique ,ZAG,Avaí,2,"3,00",0,"0,00","0,00","0,00",0,0,0,0,0,0,0,0,0,0,0,0,0,0,0,0,0,0
Matheus Bezerra ,MEI,Sport,2,"1,00",0,"0,00","0,00","0,00",0,0,0,0,0,0,0,0,0,0,0,0,0,0,0,0,0,0
Vinícius ,MEI,Sport,2,"2,00",0,"0,00","0,00","0,00",0,0,0,0,0,0,0,0,0,0,0,0,0,0,0,0,0,0
Lucas Índio ,ATA,Atlético-MG,2,"1,00",0,"0,00","0,00","0,00",0,0,0,0,0,0,0,0,0,0,0,0,0,0,0,0,0,0
Baumjohann ,MEI,Coritiba,5,"5,00",0,"0,00","0,00","0,00",0,0,0,0,0,0,0,0,0,0,0,0,0,0,0,0,0,0
Felipe ,ATA,Fluminense,5,"1,00",0,"0,00","0,00","0,00",0,0,0,0,0,0,0,0,0,0,0,0,0,0,0,0,0,0
Alexsander ,MEI,Atlético-PR,2,"1,00",0,"0,00","0,00","0,00",0,0,0,0,0,0,0,0,0,0,0,0,0,0,0,0,0,0
Lucas Vinícius ,ATA,Atlético-GO,2,"1,00",0,"0,00","0,00","0,00",0,0,0,0,0,0,0,0,0,0,0,0,0,0,0,0,0,0
Caio ,GOL,Atlético-PR,2,"1,00",0,"0,00","0,00","0,00",0,0,0,0,0,0,0,0,0,0,0,0,0,0,0,0,0,0
Diego ,GOL,Botafogo,2,"1,00",0,"0,00","0,00","0,00",0,0,0,0,0,0,0,0,0,0,0,0,0,0,0,0,0,0
Daniel ,ZAG,Atlético-PR,2,"1,00",0,"0,00","0,00","0,00",0,0,0,0,0,0,0,0,0,0,0,0,0,0,0,0,0,0
Gabriel ,ZAG,Grêmio,2,"1,00",0,"0,00","0,00","0,00",0,0,0,0,0,0,0,0,0,0,0,0,0,0,0,0,0,0
Robinho ,ATA,Fluminense,2,"4,00",0,"0,00","0,00","0,00",0,0,0,0,0,0,0,0,0,0,0,0,0,0,0,0,0,0
Fernando ,LAT,Botafogo,2,"1,00",0,"0,00","0,00","0,00",0,0,0,0,0,0,0,0,0,0,0,0,0,0,0,0,0,0
Wellington Silva ,LAT,Bahia,5,"7,00",0,"0,00","0,00","0,00",0,0,0,0,0,0,0,0,0,0,0,0,0,0,0,0,0,0
Jadson ,ATA,Grêmio,2,"1,00",0,"0,00","0,00","0,00",0,0,0,0,0,0,0,0,0,0,0,0,0,0,0,0,0,0
Esperon ,MEI,Grêmio,2,"1,00",0,"0,00","0,00","0,00",0,0,0,0,0,0,0,0,0,0,0,0,0,0,0,0,0,0
Igor Cássio ,ATA,Botafogo,2,"1,00",0,"0,00","0,00","0,00",0,0,0,0,0,0,0,0,0,0,0,0,0,0,0,0,0,0
Arthur ,ZAG,Cruzeiro,2,"1,00",0,"0,00","0,00","0,00",0,0,0,0,0,0,0,0,0,0,0,0,0,0,0,0,0,0
Ricardo ,ZAG,Vasco,2,"2,00",0,"0,00","0,00","0,00",0,0,0,0,0,0,0,0,0,0,0,0,0,0,0,0,0,0
Léo Passos ,ATA,Palmeiras,2,"2,00",0,"0,00","0,00","0,00",0,0,0,0,0,0,0,0,0,0,0,0,0,0,0,0,0,0
Leonardo Simas ,LAT,Atlético-PR,2,"1,00",0,"0,00","0,00","0,00",0,0,0,0,0,0,0,0,0,0,0,0,0,0,0,0,0,0
Rickson ,MEI,Botafogo,2,"1,00",0,"0,00","0,00","0,00",0,0,0,0,0,0,0,0,0,0,0,0,0,0,0,0,0,0
Khevin ,MEI,Chapecoense,2,"1,00",0,"0,00","0,00","0,00",0,0,0,0,0,0,0,0,0,0,0,0,0,0,0,0,0,0
Ezequiel ,MEI,Botafogo,2,"1,00",0,"0,00","0,00","0,00",0,0,0,0,0,0,0,0,0,0,0,0,0,0,0,0,0,0
Hernane ,ATA,Bahia,5,"10,00",0,"0,00","0,00","0,00",0,0,0,0,0,0,0,0,0,0,0,0,0,0,0,0,0,0
Lucas Formiga ,ATA,Ponte Preta,2,"1,00",0,"0,00","0,00","0,00",0,0,0,0,0,0,0,0,0,0,0,0,0,0,0,0,0,0
William Menezes ,GOL,Coritiba,2,"2,00",0,"0,00","0,00","0,00",0,0,0,0,0,0,0,0,0,0,0,0,0,0,0,0,0,0
Douglas Pires ,GOL,Bahia,2,"4,00",0,"0,00","0,00","0,00",0,0,0,0,0,0,0,0,0,0,0,0,0,0,0,0,0,0
Jorge Mendoza ,MEI,Ponte Preta,2,"3,00",0,"0,00","0,00","0,00",0,0,0,0,0,0,0,0,0,0,0,0,0,0,0,0,0,0
Bruno Alves ,ZAG,São Paulo,2,"4,00",0,"0,00","0,00","0,00",0,0,0,0,0,0,0,0,0,0,0,0,0,0,0,0,0,0
Rafael Martins ,GOL,Coritiba,2,"2,00",0,"0,00","0,00","0,00",0,0,0,0,0,0,0,0,0,0,0,0,0,0,0,0,0,0
Jomar ,ZAG,Vasco,2,"1,50",5,"0,00","0,00","0,00",4,0,0,0,5,0,0,0,0,0,0,0,2,0,0,7,0,6
Yago ,ZAG,Ponte Preta,2,"6,00",0,"0,00","0,00","0,00",0,0,0,0,0,0,0,0,0,0,0,0,0,0,0,0,0,0
César ,GOL,Flamengo,2,"3,00",0,"0,00","0,00","0,00",0,0,0,0,0,0,0,0,0,0,0,0,0,0,0,0,0,0
Rodrigo Milanez ,ZAG,Atlético-GO,2,"2,00",0,"0,00","0,00","0,00",0,0,0,0,0,0,0,0,0,0,0,0,0,0,0,0,0,0
Gabriel Gasparotto ,GOL,Santos,2,"2,00",0,"0,00","0,00","0,00",0,0,0,0,0,0,0,0,0,0,0,0,0,0,0,0,0,0
Luiz Felipe ,ZAG,Santos,2,"5,00",0,"0,00","0,00","0,00",0,0,0,0,0,0,0,0,0,0,0,0,0,0,0,0,0,0
Matheus Vidotto ,GOL,Corinthians,2,"3,00",0,"0,00","0,00","0,00",0,0,0,0,0,0,0,0,0,0,0,0,0,0,0,0,0,0
Wanderson ,LAT,Atlético-GO,2,"4,00",0,"0,00","0,00","0,00",0,0,0,0,0,0,0,0,0,0,0,0,0,0,0,0,0,0
Michael ,ATA,Fluminense,2,"2,00",0,"0,00","0,00","0,00",0,0,0,0,0,0,0,0,0,0,0,0,0,0,0,0,0,0
Vitor Prada ,GOL,Avaí,2,"1,00",0,"0,00","0,00","0,00",0,0,0,0,0,0,0,0,0,0,0,0,0,0,0,0,0,0
Toshi ,ATA,Avaí,2,"3,00",0,"0,00","0,00","0,00",0,0,0,0,0,0,0,0,0,0,0,0,0,0,0,0,0,0
Yuri ,MEI,Bahia,2,"2,00",0,"0,00","0,00","0,00",0,0,0,0,0,0,0,0,0,0,0,0,0,0,0,0,0,0
Neris ,ZAG,Sport,5,"3,00",0,"0,00","0,00","0,00",0,0,0,0,0,0,0,0,0,0,0,0,0,0,0,0,0,0
Thiago Martins ,ZAG,Palmeiras,2,"5,00",0,"0,00","0,00","0,00",0,0,0,0,0,0,0,0,0,0,0,0,0,0,0,0,0,0
Vitor ,ATA,Avaí,2,"2,00",0,"0,00","0,00","0,00",0,0,0,0,0,0,0,0,0,0,0,0,0,0,0,0,0,0
Lucas Cândido ,MEI,Atlético-MG,5,"4,00",0,"0,00","0,00","0,00",0,0,0,0,0,0,0,0,0,0,0,0,0,0,0,0,0,0
Renan Lodi ,LAT,Atlético-PR,2,"4,00",0,"0,00","0,00","0,00",0,0,0,0,0,0,0,0,0,0,0,0,0,0,0,0,0,0
Lucas Frigeri ,GOL,Atlético-GO,2,"1,00",0,"0,00","0,00","0,00",0,0,0,0,0,0,0,0,0,0,0,0,0,0,0,0,0,0
Artur ,LAT,Ponte Preta,2,"4,00",0,"0,00","0,00","0,00",0,0,0,0,0,0,0,0,0,0,0,0,0,0,0,0,0,0
Daniel ,MEI,Coritiba,5,"6,00",0,"0,00","0,00","0,00",0,0,0,0,0,0,0,0,0,0,0,0,0,0,0,0,0,0
Dodô ,MEI,Chapecoense,2,"3,94",1,"0,00","0,00","0,00",0,0,0,0,0,0,0,0,0,0,0,0,0,0,0,0,0,0
Marcos Felipe  ,GOL,Fluminense,2,"3,00",0,"0,00","0,00","0,00",0,0,0,0,0,0,0,0,0,0,0,0,0,0,0,0,0,0
Vinicius Silvestre ,GOL,Palmeiras,2,"2,00",0,"0,00","0,00","0,00",0,0,0,0,0,0,0,0,0,0,0,0,0,0,0,0,0,0
Morato ,ATA,São Paulo,5,"3,00",0,"0,00","0,00","0,00",0,0,0,0,0,0,0,0,0,0,0,0,0,0,0,0,0,0
Uilson ,GOL,Atlético-MG,2,"4,00",0,"0,00","0,00","0,00",0,0,0,0,0,0,0,0,0,0,0,0,0,0,0,0,0,0
Richard ,MEI,Fluminense,2,"1,00",0,"0,00","0,00","0,00",0,0,0,0,0,0,0,0,0,0,0,0,0,0,0,0,0,0
Henrique Gelain ,LAT,Coritiba,5,"1,00",0,"0,00","0,00","0,00",0,0,0,0,0,0,0,0,0,0,0,0,0,0,0,0,0,0
Jordi ,GOL,Vasco,2,"4,00",0,"0,00","0,00","0,00",0,0,0,0,0,0,0,0,0,0,0,0,0,0,0,0,0,0
José Welison ,MEI,Vitória,5,"4,00",0,"0,00","0,00","0,00",0,0,0,0,0,0,0,0,0,0,0,0,0,0,0,0,0,0
Lucas Rex ,ZAG,Grêmio,2,"2,00",0,"0,00","0,00","0,00",0,0,0,0,0,0,0,0,0,0,0,0,0,0,0,0,0,0
Vinicius ,ZAG,Vitória,2,"2,00",0,"0,00","0,00","0,00",0,0,0,0,0,0,0,0,0,0,0,0,0,0,0,0,0,0
Lucas Macanhan ,GOL,Atlético-PR,2,"2,00",0,"0,00","0,00","0,00",0,0,0,0,0,0,0,0,0,0,0,0,0,0,0,0,0,0
Caio César ,MEI,Avaí,2,"3,00",0,"0,00","0,00","0,00",0,0,0,0,0,0,0,0,0,0,0,0,0,0,0,0,0,0
Matheus Peixoto ,ATA,Bahia,2,"1,00",0,"0,00","0,00","0,00",0,0,0,0,0,0,0,0,0,0,0,0,0,0,0,0,0,0
Cícero ,MEI,Atlético-MG,2,"2,00",0,"0,00","0,00","0,00",0,0,0,0,0,0,0,0,0,0,0,0,0,0,0,0,0,0
Rodrigo Figueiredo ,MEI,Corinthians,2,"1,00",0,"0,00","0,00","0,00",0,0,0,0,0,0,0,0,0,0,0,0,0,0,0,0,0,0
Mantuan ,MEI,Corinthians,5,"1,00",0,"0,00","0,00","0,00",0,0,0,0,0,0,0,0,0,0,0,0,0,0,0,0,0,0
Léo Lopes ,GOL,Avaí,2,"1,00",0,"0,00","0,00","0,00",0,0,0,0,0,0,0,0,0,0,0,0,0,0,0,0,0,0
Dida ,GOL,Grêmio,2,"1,00",0,"0,00","0,00","0,00",0,0,0,0,0,0,0,0,0,0,0,0,0,0,0,0,0,0
Santarém ,ATA,Avaí,2,"1,00",0,"0,00","0,00","0,00",0,0,0,0,0,0,0,0,0,0,0,0,0,0,0,0,0,0
Emerson ,LAT,Ponte Preta,2,"1,00",0,"0,00","0,00","0,00",0,0,0,0,0,0,0,0,0,0,0,0,0,0,0,0,0,0
Zeballos ,LAT,Chapecoense,2,"3,00",0,"0,00","0,00","0,00",0,0,0,0,0,0,0,0,0,0,0,0,0,0,0,0,0,0
Léo Santos ,ATA,Coritiba,2,"3,00",0,"0,00","0,00","0,00",0,0,0,0,0,0,0,0,0,0,0,0,0,0,0,0,0,0
Warian Santos  ,MEI,Corinthians,2,"1,00",0,"0,00","0,00","0,00",0,0,0,0,0,0,0,0,0,0,0,0,0,0,0,0,0,0
Serginho ,MEI,Santos,2,"1,58",1,"0,00","0,00","0,00",0,0,0,0,0,0,0,0,0,0,0,0,0,0,0,0,0,0
Ivan ,GOL,Ponte Preta,2,"2,00",0,"0,00","0,00","0,00",0,0,0,0,0,0,0,0,0,0,0,0,0,0,0,0,0,0
João Vitor  ,ATA,Atlético-GO,2,"1,00",0,"0,00","0,00","0,00",0,0,0,0,0,0,0,0,0,0,0,0,0,0,0,0,0,0
Judivan  ,ATA,Cruzeiro,2,"4,00",0,"0,00","0,00","0,00",0,0,0,0,0,0,0,0,0,0,0,0,0,0,0,0,0,0
Balbino ,MEI,Grêmio,2,"1,00",0,"0,00","0,00","0,00",0,0,0,0,0,0,0,0,0,0,0,0,0,0,0,0,0,0
Andreazzi ,MEI,Botafogo,2,"2,00",0,"0,00","0,00","0,00",0,0,0,0,0,0,0,0,0,0,0,0,0,0,0,0,0,0
Thiago Santos ,ATA,Flamengo,2,"2,00",0,"0,00","0,00","0,00",0,0,0,0,0,0,0,0,0,0,0,0,0,0,0,0,0,0
Augusto ,ZAG,Palmeiras,2,"1,00",0,"0,00","0,00","0,00",0,0,0,0,0,0,0,0,0,0,0,0,0,0,0,0,0,0
Guilherme ,GOL,Ponte Preta,2,"2,00",0,"0,00","0,00","0,00",0,0,0,0,0,0,0,0,0,0,0,0,0,0,0,0,0,0
Marcinho ,LAT,Botafogo,5,"3,00",0,"0,00","0,00","0,00",0,0,0,0,0,0,0,0,0,0,0,0,0,0,0,0,0,0
Edson Júnior ,ATA,Atlético-GO,2,"2,00",0,"0,00","0,00","0,00",0,0,0,0,0,0,0,0,0,0,0,0,0,0,0,0,0,0
Lucas França ,GOL,Cruzeiro,2,"3,00",0,"0,00","0,00","0,00",0,0,0,0,0,0,0,0,0,0,0,0,0,0,0,0,0,0
James Dean ,ATA,Sport,2,"1,00",0,"0,00","0,00","0,00",0,0,0,0,0,0,0,0,0,0,0,0,0,0,0,0,0,0
Nickson ,ATA,Cruzeiro,2,"3,00",0,"0,00","0,00","0,00",0,0,0,0,0,0,0,0,0,0,0,0,0,0,0,0,0,0
Julio Rusch ,MEI,Coritiba,2,"3,00",0,"0,00","0,00","0,00",0,0,0,0,0,0,0,0,0,0,0,0,0,0,0,0,0,0
Daniel ,MEI,Atlético-MG,2,"1,00",0,"0,00","0,00","0,00",0,0,0,0,0,0,0,0,0,0,0,0,0,0,0,0,0,0
Wallace ,GOL,Vitória,2,"1,00",0,"0,00","0,00","0,00",0,0,0,0,0,0,0,0,0,0,0,0,0,0,0,0,0,0
Elias ,GOL,Chapecoense,2,"4,00",0,"0,00","0,00","0,00",0,0,0,0,0,0,0,0,0,0,0,0,0,0,0,0,0,0
Alison ,ATA,Sport,2,"1,00",0,"0,00","0,00","0,00",0,0,0,0,0,0,0,0,0,0,0,0,0,0,0,0,0,0
Ronaldo ,GOL,Vitória,2,"1,00",0,"0,00","0,00","0,00",0,0,0,0,0,0,0,0,0,0,0,0,0,0,0,0,0,0
Vitor Carvalho ,MEI,Coritiba,2,"1,00",0,"0,00","0,00","0,00",0,0,0,0,0,0,0,0,0,0,0,0,0,0,0,0,0,0
Adryelson ,ZAG,Sport,2,"2,00",0,"0,00","0,00","0,00",0,0,0,0,0,0,0,0,0,0,0,0,0,0,0,0,0,0
Marciel ,MEI,Corinthians,2,"3,00",0,"0,00","0,00","0,00",0,0,0,0,0,0,0,0,0,0,0,0,0,0,0,0,0,0
Breno ,LAT,Atlético-PR,2,"1,00",0,"0,00","0,00","0,00",0,0,0,0,0,0,0,0,0,0,0,0,0,0,0,0,0,0
Matheus Cassini ,MEI,Ponte Preta,2,"2,00",0,"0,00","0,00","0,00",0,0,0,0,0,0,0,0,0,0,0,0,0,0,0,0,0,0
Flávio ,MEI,Vitória,2,"2,12",1,"0,00","0,00","0,00",0,0,0,0,0,0,0,0,0,0,0,0,0,0,0,0,0,0
Everson ,ZAG,Bahia,2,"2,00",0,"0,00","0,00","0,00",0,0,0,0,0,0,0,0,0,0,0,0,0,0,0,0,0,0
Warleson ,GOL,Atlético-PR,2,"1,00",0,"0,00","0,00","0,00",0,0,0,0,0,0,0,0,0,0,0,0,0,0,0,0,0,0
Caíque França ,GOL,Corinthians,5,"2,00",0,"0,00","0,00","0,00",0,0,0,0,0,0,0,0,0,0,0,0,0,0,0,0,0,0
Lucas Perri ,GOL,São Paulo,2,"2,00",0,"0,00","0,00","0,00",0,0,0,0,0,0,0,0,0,0,0,0,0,0,0,0,0,0
Mário ,ATA,Bahia,2,"1,00",0,"0,00","0,00","0,00",0,0,0,0,0,0,0,0,0,0,0,0,0,0,0,0,0,0
Giovanny  ,ATA,Atlético-PR,2,"4,00",0,"0,00","0,00","0,00",0,0,0,0,0,0,0,0,0,0,0,0,0,0,0,0,0,0
Wallace ,ATA,Sport,2,"2,00",0,"0,00","0,00","0,00",0,0,0,0,0,0,0,0,0,0,0,0,0,0,0,0,0,0
Gabriel Félix ,GOL,Vasco,2,"2,00",0,"0,00","0,00","0,00",0,0,0,0,0,0,0,0,0,0,0,0,0,0,0,0,0,0
Lucas Lovat ,LAT,Avaí,2,"3,00",0,"0,00","0,00","0,00",0,0,0,0,0,0,0,0,0,0,0,0,0,0,0,0,0,0
Bruno Ramires ,MEI,Vitória,5,"5,00",0,"0,00","0,00","0,00",0,0,0,0,0,0,0,0,0,0,0,0,0,0,0,0,0,0
Matheus Phillipe ,GOL,Fluminense,2,"1,00",0,"0,00","0,00","0,00",0,0,0,0,0,0,0,0,0,0,0,0,0,0,0,0,0,0
Yan ,MEI,Palmeiras,2,"1,00",0,"0,00","0,00","0,00",0,0,0,0,0,0,0,0,0,0,0,0,0,0,0,0,0,0
Scalon ,ZAG,Chapecoense,2,"2,00",0,"0,00","0,00","0,00",0,0,0,0,0,0,0,0,0,0,0,0,0,0,0,0,0,0
Denilson ,ZAG,Grêmio,2,"1,00",0,"0,00","0,00","0,00",0,0,0,0,0,0,0,0,0,0,0,0,0,0,0,0,0,0
Ronaldo ,MEI,Flamengo,2,"3,00",0,"0,00","0,00","0,00",0,0,0,0,0,0,0,0,0,0,0,0,0,0,0,0,0,0
John Victor ,GOL,Santos,2,"1,00",0,"0,00","0,00","0,00",0,0,0,0,0,0,0,0,0,0,0,0,0,0,0,0,0,0
Jonas ,LAT,Botafogo,5,"6,00",0,"0,00","0,00","0,00",0,0,0,0,0,0,0,0,0,0,0,0,0,0,0,0,0,0
Salazar ,ZAG,Avaí,2,"3,00",0,"0,00","0,00","0,00",0,0,0,0,0,0,0,0,0,0,0,0,0,0,0,0,0,0
Danilo ,MEI,Corinthians,2,"5,00",0,"0,00","0,00","0,00",0,0,0,0,0,0,0,0,0,0,0,0,0,0,0,0,0,0
Flávio ,ATA,Atlético-MG,2,"1,00",0,"0,00","0,00","0,00",0,0,0,0,0,0,0,0,0,0,0,0,0,0,0,0,0,0
Diego Gomes ,MEI,Santos,2,"1,00",0,"0,00","0,00","0,00",0,0,0,0,0,0,0,0,0,0,0,0,0,0,0,0,0,0
Aderllan Santos ,ZAG,São Paulo,2,"6,00",0,"0,00","0,00","0,00",0,0,0,0,0,0,0,0,0,0,0,0,0,0,0,0,0,0
Jeferson Negueba ,MEI,Grêmio,2,"2,00",0,"0,00","0,00","0,00",0,0,0,0,0,0,0,0,0,0,0,0,0,0,0,0,0,0
Artur Moraes ,GOL,Chapecoense,2,"6,00",0,"0,00","0,00","0,00",0,0,0,0,0,0,0,0,0,0,0,0,0,0,0,0,0,0
Jefferson Nem ,ATA,Atlético-GO,2,"1,00",0,"0,00","0,00","0,00",0,0,0,0,0,0,0,0,0,0,0,0,0,0,0,0,0,0
Fábio Ferreira ,ZAG,Ponte Preta,2,"5,00",0,"0,00","0,00","0,00",0,0,0,0,0,0,0,0,0,0,0,0,0,0,0,0,0,0
Eder Luis ,ATA,Vasco,2,"2,34",1,"0,00","0,00","0,00",0,0,0,0,0,0,0,0,0,0,0,0,0,0,0,0,0,0
Pierre ,MEI,Fluminense,5,"3,54",1,"0,00","0,00","0,00",0,0,0,0,0,0,0,0,0,0,0,0,0,0,0,0,0,0
Douglas ,MEI,Grêmio,5,"14,00",0,"0,00","0,00","0,00",0,0,0,0,0,0,0,0,0,0,0,0,0,0,0,0,0,0
Amaral ,MEI,Chapecoense,5,"5,00",0,"0,00","0,00","0,00",0,0,0,0,0,0,0,0,0,0,0,0,0,0,0,0,0,0
Everton Heleno ,MEI,Atlético-GO,2,"1,70",3,"-0,03","-0,30","-0,27",1,0,0,0,0,0,0,0,0,0,0,0,0,0,0,3,0,1
Bremer ,ZAG,Atlético-MG,3,"1,20",9,"-0,06","-0,30","-0,12",8,0,0,1,6,0,2,0,0,0,0,0,4,0,0,25,0,12
Leandro Donizete ,MEI,Santos,2,"3,94",7,"-0,07","0,00","0,00",4,0,0,0,7,1,0,0,0,0,0,0,2,0,0,9,0,10
Nadson ,MEI,Chapecoense,5,"0,76",3,"-0,07","0,00","0,00",0,0,0,0,1,1,0,0,0,0,0,0,0,0,0,1,0,3
Lucho González ,MEI,Atlético-PR,2,"5,64",12,"-0,11","0,00","0,00",12,0,0,0,10,5,1,0,0,0,0,1,2,0,0,17,2,42
Éder  ,ZAG,Bahia,2,"0,81",7,"-0,15","0,00","0,00",2,0,0,2,3,3,1,0,0,0,1,0,3,0,0,10,1,5
Claudinho ,ATA,Ponte Preta,2,"0,79",10,"-0,18","-3,10","0,00",1,0,0,0,6,5,2,0,0,0,0,0,1,0,0,11,2,12
Alecsandro ,ATA,Coritiba,2,"1,79",15,"-0,19","-4,80","-0,91",7,1,0,0,19,2,3,0,0,0,0,0,6,1,0,24,4,24
Jean Pineda ,ATA,Vitória,2,"2,38",2,"-0,20","0,00","0,00",0,0,0,0,1,0,0,0,0,0,0,0,0,0,0,0,0,3
Lourenço ,ATA,Avaí,2,"0,79",6,"-0,22","0,00","0,00",1,0,0,0,5,3,1,0,0,0,0,0,2,0,0,4,1,7
Frazan ,ZAG,Fluminense,2,"1,34",3,"-0,23","0,00","0,00",3,0,0,0,0,0,1,0,0,0,0,0,1,0,0,6,0,6
Getterson ,ATA,Coritiba,2,"0,78",3,"-0,27","0,00","0,00",2,0,0,0,2,0,0,0,0,0,0,0,1,0,0,4,0,4
Luizão ,ZAG,Coritiba,2,"0,81",6,"-0,27","0,00","0,00",3,0,0,1,4,1,1,0,0,0,0,0,4,0,0,9,1,8
Dionathã ,ATA,Grêmio,2,"0,79",1,"-0,30","0,00","0,00",0,0,0,0,0,0,1,0,0,0,0,0,0,0,0,2,0,1
Lucas Campos ,ATA,Botafogo,2,"0,79",1,"-0,30","0,00","0,00",0,0,0,0,0,0,0,0,0,0,0,0,0,0,0,0,0,1
Canteros ,MEI,Chapecoense,2,"3,84",1,"-0,30","-0,30","-1,16",0,0,0,0,0,0,0,0,0,0,0,0,0,0,0,0,0,1
Miller Bolaños ,ATA,Grêmio,2,"10,62",2,"-0,30","0,00","0,00",1,0,0,0,1,0,0,0,0,0,0,0,0,0,0,2,0,6
Lucas Crispim ,MEI,Santos,2,"2,29",1,"-0,30","0,00","0,00",0,0,0,0,2,0,0,0,0,0,0,0,0,0,0,1,1,1
Felipe Gedoz  ,MEI,Atlético-PR,2,"7,22",4,"-0,32","0,00","0,00",1,0,0,0,1,1,2,0,0,0,0,0,1,0,0,6,0,4
Evandro ,LAT,Sport,2,"0,76",3,"-0,33","0,00","0,00",3,0,0,0,2,0,1,0,0,0,0,0,0,0,0,9,0,12
Evander ,MEI,Vasco,2,"1,30",3,"-0,37","0,00","0,00",1,0,0,0,0,0,1,0,0,0,0,0,1,0,0,3,0,1
Marquinho ,MEI,Fluminense,5,"2,98",4,"-0,40","0,00","0,00",1,0,0,0,0,0,0,0,0,0,0,0,1,0,0,2,0,1
Pablo Diogo ,ATA,Atlético-MG,2,"1,68",3,"-0,40","0,00","0,00",2,0,0,0,0,0,0,0,0,0,0,0,0,0,0,3,2,7
Thalisson Kelven ,ZAG,Coritiba,5,"0,99",2,"-0,40","0,00","0,00",0,0,0,0,0,0,0,0,0,0,0,0,0,0,0,0,1,1
Rafaelson ,ATA,Vitória,2,"1,54",4,"-0,43","0,00","0,00",1,0,0,0,2,3,2,0,0,0,0,0,1,0,0,10,0,5
Fernandes ,MEI,Botafogo,2,"2,52",5,"-0,48","0,00","0,00",0,0,0,0,3,1,0,0,0,0,0,0,1,0,0,1,0,7
Arroyo ,ATA,Grêmio,2,"4,43",1,"-0,50","0,00","0,00",0,0,0,0,0,0,0,0,0,0,0,0,0,0,0,0,1,0
Maicon ,LAT,Avaí,2,"5,29",2,"-0,50","5,00","0,57",0,0,0,1,2,1,0,0,0,0,1,0,0,0,0,1,0,4
Nilmar ,ATA,Santos,2,"6,08",2,"-0,55","0,00","0,11",0,0,0,0,1,0,0,0,0,0,0,0,0,0,0,2,0,2
Juninho ,ATA,Sport,2,"0,78",9,"-0,55","0,00","0,00",1,0,0,0,4,3,1,0,0,0,0,0,1,0,0,10,3,11
Pisculichi ,MEI,Vitória,2,"4,13",2,"-0,55","0,00","0,00",0,0,0,0,1,1,0,0,0,0,0,0,0,0,0,1,0,6
Matheus Anjos ,MEI,Atlético-PR,2,"1,48",4,"-0,58","0,00","0,00",2,0,0,0,4,1,2,0,0,0,0,0,1,0,0,6,0,18
Gustavo ,ZAG,Avaí,2,"4,14",3,"-0,60","0,00","0,00",1,0,0,0,2,1,0,0,0,0,0,0,1,0,0,2,2,4
Jean Pyerre ,MEI,Grêmio,2,"0,79",1,"-0,60","0,00","0,00",0,0,0,0,0,0,0,0,0,0,0,0,0,0,0,0,0,2
Rodrigo Ramos ,LAT,Coritiba,2,"2,89",3,"-0,63","0,00","0,00",1,0,0,0,1,0,1,0,0,0,0,0,0,0,0,6,0,7
Armero ,LAT,Bahia,5,"1,86",5,"-0,64","0,00","0,00",5,0,0,1,2,1,2,0,0,0,0,1,1,0,0,11,2,23
Yuri ,MEI,Santos,2,"0,79",9,"-0,67","0,00","0,00",6,0,0,0,4,0,1,0,0,0,0,0,3,0,0,14,0,21
Edinho ,MEI,Coritiba,2,"3,60",4,"-0,68","0,00","0,00",0,0,0,0,3,0,0,0,0,0,0,0,1,0,0,2,0,4
Carlos Cesar ,LAT,Atlético-MG,5,"4,46",1,"-0,70","0,00","0,00",0,0,0,0,1,0,0,0,0,0,0,0,0,0,0,0,0,4
Marquinho ,MEI,Atlético-MG,2,"1,38",1,"-0,80","0,00","0,00",0,0,0,0,0,0,0,0,0,0,0,0,0,0,0,1,0,1
Leonardo Valencia ,MEI,Botafogo,4,"4,37",4,"-0,80","0,00","0,00",1,0,0,0,8,4,2,0,0,0,0,0,3,0,0,7,0,14
Cícero ,MEI,São Paulo,2,"4,28",10,"-0,81","0,00","0,00",3,0,0,0,7,3,0,0,0,0,0,0,2,0,0,18,2,16
Yan ,MEI,Coritiba,2,"0,79",2,"-0,85","0,00","0,00",0,0,0,0,1,1,0,0,0,0,0,0,1,0,0,0,0,3
Conca ,MEI,Flamengo,2,"8,35",2,"-0,95","0,00","0,00",0,0,0,0,1,0,1,0,0,0,0,0,1,0,0,1,0,3
Feijão ,MEI,Bahia,2,"1,39",4,"-0,97","0,00","0,00",1,0,0,0,0,0,0,0,0,0,0,0,2,0,0,2,0,2
Douglas ,MEI,Fluminense,2,"3,78",2,"-1,00","0,00","0,00",3,0,0,0,1,0,0,0,0,0,0,0,2,0,0,3,0,7
Diego Cavalieri ,GOL,Fluminense,2,"3,91",3,"-1,00","0,00","0,00",0,0,0,0,0,0,0,0,3,0,0,0,0,0,6,0,0,0
Wenderson ,MEI,Botafogo,2,"0,78",2,"-1,05","0,00","0,00",0,0,0,0,0,1,0,0,0,0,0,0,1,0,0,1,0,1
Pablo ,ATA,Atlético-PR,2,"2,61",13,"-1,19","2,10","0,52",4,0,0,0,12,7,2,0,0,0,0,0,4,0,0,21,8,42
Cleberson ,ZAG,Atlético-PR,2,"2,69",1,"-1,20","0,00","0,00",0,0,0,0,0,0,0,0,0,0,0,0,0,0,0,0,0,4
Rafael Longuine ,MEI,Coritiba,1,"0,79",5,"-1,26","-4,50","-0,60",1,0,0,0,4,0,3,0,0,0,0,0,1,1,0,4,2,15
Wellington ,MEI,Vasco,3,"0,79",12,"-1,29","1,00","0,00",8,0,0,0,7,0,1,0,0,0,0,0,5,0,0,27,1,32
Giovanni ,GOL,Atlético-MG,2,"4,47",1,"-1,30","0,00","0,00",0,0,0,0,0,0,0,0,1,0,0,0,0,0,2,0,0,1
Alan Cardoso ,LAT,Vasco,2,"1,21",1,"-1,30","0,00","0,00",1,0,0,0,0,0,0,0,0,0,0,0,1,0,0,2,0,0
Fernando Guerrero ,MEI,Chapecoense,2,"2,89",2,"-1,50","0,00","0,00",0,0,0,0,0,0,0,0,0,0,0,0,1,0,0,2,0,0
Gabriel Furtado ,MEI,Palmeiras,2,"0,79",2,"-1,75","0,00","0,00",1,0,0,0,1,0,0,0,0,0,0,0,2,0,0,1,0,4
Anderson ,GOL,Bahia,2,"0,79",2,"-2,00","0,00","0,00",0,0,0,0,0,0,0,0,0,0,0,0,2,0,0,0,0,0
Gabriel ,ATA,Flamengo,2,"3,51",1,"-2,00","0,00","0,00",0,0,0,0,1,0,0,0,0,0,0,0,1,0,0,1,0,0
Bruno Brígido ,GOL,Coritiba,2,"3,48",1,"-2,00","0,00","0,00",0,0,0,0,0,0,0,0,0,0,0,0,1,0,0,0,0,0
Saulo ,GOL,Botafogo,2,"1,18",1,"-2,00","0,00","0,00",0,0,0,0,0,0,0,0,0,0,0,0,1,0,0,0,0,0
Sidão ,GOL,São Paulo,3,"3,96",2,"-2,15","-5,00","-1,02",0,0,0,0,0,0,0,0,2,0,0,0,1,0,5,0,0,1
Bruno Guimarães ,MEI,Atlético-PR,2,"0,79",3,"-2,27","0,00","0,00",0,0,0,0,0,0,0,0,0,0,0,0,2,0,0,5,0,1
Klever ,GOL,Atlético-GO,5,"0,83",3,"-3,10","0,00","0,00",0,0,0,0,0,0,0,0,3,0,0,0,0,0,9,0,0,1
Renan Gorne ,ATA,Botafogo,2,"0,76",1,"-3,50","0,00","0,00",0,0,0,0,0,0,0,0,0,0,0,0,1,0,0,3,0,0
Rafael ,GOL,Cruzeiro,2,"7,19",1,"-3,60","0,00","0,00",0,0,0,0,0,0,0,0,1,0,0,0,0,0,3,0,0,2
