round,fitness,name,position,team,situation,price,meatches,average,last_score,difference,disarms,goals,assists,no_goals,fouls_suffered,strikes_out,strikes_defended,strikes_post,difficult_defense,penalty_defense,own_goal,red_card,yellow_card,goal_suffered,penalty_lost,fouls_commited,offsides,wrong_pass
0,0.5899999999999981,Guto Ferreira ,0,TEC,"8,76",1,0,Bahia,3,"8,39",0,0,0,0,"4,76",0,0,0,0,0,0,0,"8,39",0,0,0,0,0
0,0.5899999999999981,Rafael ,0,GOL,"10,00",0,0,Cruzeiro,2,"0,00",0,0,0,0,"0,00",0,0,0,0,0,0,0,"0,00",0,0,0,0,0
0,0.5899999999999981,Reynaldo ,0,ZAG,"2,00",0,0,Ponte Preta,2,"0,00",0,0,0,0,"0,00",0,0,0,0,0,0,0,"0,00",0,0,0,0,0
0,0.5899999999999981,Igor Rabello ,0,ZAG,"6,37",1,1,Botafogo,3,"6,00",0,0,0,0,"3,37",0,0,4,0,0,0,0,"6,00",0,0,0,1,0
0,0.5899999999999981,Guilherme Arana ,0,LAT,"4,03",1,1,Corinthians,3,"-0,30",0,0,0,0,"-1,97",0,0,0,0,0,1,0,"-0,30",0,0,0,1,0
0,0.5899999999999981,Fernandinho ,0,LAT,"5,66",1,0,Ponte Preta,2,"5,00",0,0,0,0,"2,66",0,0,0,0,0,0,1,"5,00",0,0,0,0,0
0,0.5899999999999981,Andrei Girotto ,1,MEI,"5,59",1,3,Chapecoense,3,"1,90",0,0,1,0,"-0,41",0,0,3,0,0,0,0,"1,90",0,0,0,2,0
0,0.5899999999999981,Diego Rosa ,0,MEI,"8,77",1,1,Bahia,1,"6,40",0,0,0,0,"2,77",0,0,1,0,1,1,0,"6,40",0,0,0,1,0
0,0.5899999999999981,Jonas ,1,MEI,"7,92",1,1,Coritiba,1,"6,20",0,0,0,0,"2,92",0,0,4,0,0,0,0,"6,20",0,0,0,2,0
0,0.5899999999999981,Borja ,2,ATA,"22,71",1,1,Palmeiras,3,"16,10",2,0,0,2,"6,71",0,0,0,0,0,2,0,"16,10",0,0,0,2,0
0,0.5899999999999981,Getterson ,0,ATA,"0,99",1,1,Coritiba,1,"0,40",0,0,0,0,"-0,01",0,0,1,0,0,0,0,"0,40",0,0,0,2,0
0,0.5899999999999981,Walter ,1,ATA,"11,67",1,4,Atlético-GO,3,"10,50",0,0,0,1,"5,67",0,0,0,0,0,5,0,"10,50",0,0,1,1,0
1,22.629999999999995,Dorival Júnior ,0,TEC,"12,19",1,0,Santos,3,"2,23",0,0,0,0,"-2,81",0,0,0,0,0,0,0,"2,23",0,0,0,0,0
1,22.629999999999995,Vanderlei ,0,GOL,"9,20",1,0,Santos,3,"-3,00",0,0,0,0,"-6,80",0,1,0,0,0,0,0,"-3,00",3,0,0,0,0
1,22.629999999999995,Yerry Mina ,0,ZAG,"17,40",1,2,Palmeiras,3,"6,60",0,0,0,0,"-0,60",0,0,1,0,0,0,1,"6,60",0,0,0,1,1
1,22.629999999999995,Augusto ,0,ZAG,"1,00",0,0,Palmeiras,2,"0,00",0,0,0,0,"0,00",0,0,0,0,0,0,0,"0,00",0,0,0,0,0
1,22.629999999999995,Wanderson ,0,LAT,"4,00",0,0,Atlético-GO,2,"0,00",0,0,0,0,"0,00",0,0,0,0,0,0,0,"0,00",0,0,0,0,0
1,22.629999999999995,Bruno Pacheco ,0,LAT,"6,30",1,1,Atlético-GO,3,"5,90",0,0,0,0,"3,30",0,0,1,0,1,2,0,"5,90",0,0,0,3,0
1,22.629999999999995,Eduardo Henrique ,0,MEI,"2,62",1,1,Atlético-PR,3,"-0,30",0,0,0,0,"-1,38",0,0,0,0,0,1,0,"-0,30",0,0,0,1,0
1,22.629999999999995,Edson ,2,MEI,"16,83",1,2,Bahia,3,"15,80",0,0,0,1,"8,83",0,0,0,0,1,2,0,"15,80",0,0,1,0,0
1,22.629999999999995,Elias ,0,MEI,"16,69",1,2,Atlético-MG,3,"9,60",0,0,0,1,"2,69",0,0,1,0,0,1,0,"9,60",0,0,0,0,0
1,22.629999999999995,Mário ,0,ATA,"1,00",0,0,Bahia,2,"0,00",0,0,0,0,"0,00",0,0,0,0,0,0,0,"0,00",0,0,0,0,0
1,22.629999999999995,Ábila ,1,ATA,"13,44",1,3,Cruzeiro,3,"11,00",0,0,0,1,"5,44",0,0,1,0,0,1,0,"11,00",0,0,1,0,0
1,22.629999999999995,Bruno Henrique ,0,ATA,"13,65",1,3,Santos,3,"9,30",0,0,0,0,"3,65",0,0,1,1,1,3,0,"9,30",0,1,0,3,2
2,40.78,Guto Ferreira ,0,TEC,"10,41",2,0,Bahia,3,"3,56",0,0,0,0,"1,65",0,0,0,0,0,0,0,"5,98",0,0,0,0,0
2,40.78,Lucão ,0,GOL,"1,00",0,0,Cruzeiro,2,"0,00",0,0,0,0,"0,00",0,0,0,0,0,0,0,"0,00",0,0,0,0,0
2,40.78,Joel Carli ,0,ZAG,"11,45",1,2,Botafogo,3,"7,80",0,0,0,0,"0,45",0,0,2,0,0,1,1,"7,80",0,0,0,1,0
2,40.78,Leonardo Silva ,0,ZAG,"13,00",0,0,Atlético-MG,5,"0,00",0,0,0,0,"0,00",0,0,0,0,0,0,0,"0,00",0,0,0,0,0
2,40.78,Júnior Tavares ,1,LAT,"10,47",2,8,São Paulo,3,"3,40",0,0,0,0,"0,57",0,0,3,0,0,2,1,"4,70",0,0,1,2,0
2,40.78,João Lucas ,0,LAT,"10,10",2,14,Ponte Preta,3,"-2,70",0,0,0,0,"-0,79",0,0,2,0,1,0,1,"4,35",0,0,0,1,0
2,40.78,Alisson ,1,MEI,"15,69",2,10,Cruzeiro,3,"12,90",0,0,0,1,"4,87",0,0,5,0,1,2,0,"10,10",0,0,3,6,0
2,40.78,Bruno Silva ,1,MEI,"10,65",2,9,Botafogo,3,"14,50",0,0,1,1,"4,85",0,0,6,0,0,4,0,"7,35",0,0,0,3,0
2,40.78,Vinícius ,0,MEI,"2,00",0,0,Sport,2,"0,00",0,0,0,0,"0,00",0,0,0,0,0,0,0,"0,00",0,0,0,0,0
2,40.78,Pedro Rocha ,0,ATA,"7,66",2,3,Grêmio,3,"1,40",0,0,0,0,"-0,55",0,0,2,0,0,3,0,"2,50",0,0,3,4,0
2,40.78,Lucca ,1,ATA,"15,25",2,5,Ponte Preta,3,"0,90",1,0,0,1,"0,47",0,0,3,0,0,5,0,"7,40",0,0,2,3,0
2,40.78,Luiz Araújo ,1,ATA,"11,91",2,3,São Paulo,2,"10,60",0,0,0,1,"3,00",0,0,2,0,0,1,0,"6,60",0,0,2,1,0
3,25.469999999999995,Dorival Júnior ,0,TEC,"10,94",3,0,Santos,3,"1,26",0,0,0,0,"-0,99",0,0,0,0,0,0,0,"2,97",0,0,0,0,0
3,25.469999999999995,Vanderlei ,0,GOL,"15,01",3,1,Santos,3,"1,00",0,0,0,0,"-2,53",0,7,0,0,0,0,1,"8,23",4,0,1,0,0
3,25.469999999999995,Yerry Mina ,0,ZAG,"15,27",2,5,Palmeiras,3,"2,90",1,0,0,0,"-2,13",0,0,5,0,0,0,1,"4,75",0,1,0,2,1
3,25.469999999999995,Augusto ,0,ZAG,"1,00",0,0,Palmeiras,2,"0,00",0,0,0,0,"0,00",0,0,0,0,0,0,0,"0,00",0,0,0,0,0
3,25.469999999999995,Wanderson ,0,LAT,"4,00",0,0,Atlético-GO,2,"0,00",0,0,0,0,"0,00",0,0,0,0,0,0,0,"0,00",0,0,0,0,0
3,25.469999999999995,Bruno Pacheco ,0,LAT,"8,01",3,7,Atlético-GO,3,"1,90",0,0,0,0,"-0,11",0,0,5,0,1,6,0,"3,97",0,0,0,5,0
3,25.469999999999995,Douglas ,5,MEI,"16,23",3,12,Vasco,3,"2,40",0,0,0,0,"-0,90",0,0,7,1,0,7,0,"6,43",0,1,0,1,3
3,25.469999999999995,Marquinhos ,2,MEI,"3,67",3,13,Avaí,3,"0,40",0,0,0,0,"-0,44",0,0,1,0,0,1,0,"0,40",0,0,0,1,2
3,25.469999999999995,Maicosuel ,1,MEI,"5,97",3,1,Atlético-MG,2,"1,20",0,0,0,0,"-0,28",0,0,1,0,0,4,0,"1,53",0,0,0,1,1
3,25.469999999999995,Mário ,0,ATA,"1,00",0,0,Bahia,2,"0,00",0,0,0,0,"0,00",0,0,0,0,0,0,0,"0,00",0,0,0,0,0
3,25.469999999999995,Ábila ,1,ATA,"14,35",3,5,Cruzeiro,2,"5,00",2,0,0,1,"0,62",0,0,2,0,1,5,0,"5,87",0,0,1,1,0
3,25.469999999999995,Bruno Henrique ,2,ATA,"13,54",3,11,Santos,3,"-0,70",2,0,0,0,"-1,73",0,0,2,1,2,7,0,"4,83",0,1,0,8,3
4,24.38,Guto Ferreira ,0,TEC,"8,76",1,0,Bahia,3,"8,39",0,0,0,0,"4,76",0,0,0,0,0,0,0,"8,39",0,0,0,0,0
4,24.38,João Paulo ,0,GOL,"1,00",0,0,Santos,2,"0,00",0,0,0,0,"0,00",0,0,0,0,0,0,0,"0,00",0,0,0,0,0
4,24.38,Gabriel ,0,ZAG,"10,15",4,8,Atlético-MG,3,"8,50",0,0,0,1,"2,14",0,0,6,0,0,3,1,"5,07",0,0,0,4,0
4,24.38,Pedro Geromel ,1,ZAG,"11,54",3,8,Grêmio,3,"8,50",0,0,0,0,"1,40",0,0,4,0,0,2,3,"7,20",0,0,1,1,0
4,24.38,Lennon ,0,LAT,"5,20",2,9,Cruzeiro,2,"-0,70",0,0,0,0,"-0,95",0,0,1,0,0,1,1,"2,00",0,0,0,1,0
4,24.38,Gilson ,0,LAT,"10,10",4,1,Botafogo,3,"6,70",0,0,0,0,"0,96",0,0,2,1,0,3,3,"5,52",0,0,0,2,0
4,24.38,Orejuela ,0,MEI,"11,27",4,6,Fluminense,2,"3,50",0,0,0,0,"0,25",0,0,8,0,0,8,0,"3,70",0,0,0,2,0
4,24.38,Marcão Silva ,1,MEI,"6,59",4,9,Atlético-GO,3,"0,30",0,0,2,0,"-0,79",0,0,13,0,0,1,0,"3,28",0,0,0,7,0
4,24.38,Bruno Gallo ,0,MEI,"1,70",1,2,Vasco,2,"0,00",0,0,0,0,"0,00",0,0,0,0,0,1,0,"-0,60",0,0,0,1,0
4,24.38,Wellington Paulista ,2,ATA,"12,65",4,7,Chapecoense,3,"9,50",2,0,1,3,"1,74",0,0,2,0,0,3,0,"5,92",0,0,1,5,0
4,24.38,Carlinhos ,0,ATA,"2,00",0,0,Corinthians,2,"0,00",0,0,0,0,"0,00",0,0,0,0,0,0,0,"0,00",0,0,0,0,0
4,24.38,Henrique Dourado ,2,ATA,"26,23",4,13,Fluminense,2,"9,20",1,0,0,6,"0,11",0,0,2,0,1,6,0,"13,60",0,0,2,8,0
5,8.301666666666666,Jair Ventura ,0,TEC,"10,12",5,0,Botafogo,3,"1,33",0,0,0,0,"-0,62",0,0,0,0,0,0,0,"4,42",0,0,0,0,0
5,8.301666666666666,Douglas Friedrich ,0,GOL,"4,00",0,0,Avaí,2,"0,00",0,0,0,0,"0,00",0,0,0,0,0,0,0,"0,00",0,0,0,0,0
5,8.301666666666666,Douglas Grolli ,0,ZAG,"8,98",1,2,Chapecoense,2,"0,00",0,0,0,1,"0,00",0,0,0,0,0,0,1,"11,90",0,0,0,1,0
5,8.301666666666666,Fred ,3,ZAG,"2,82",4,14,Vitória,3,"2,70",0,0,2,0,"0,87",0,0,3,0,0,0,0,"-0,88",0,0,1,7,0
5,8.301666666666666,Júnior Tavares ,1,LAT,"11,44",5,21,São Paulo,3,"6,00",0,0,0,0,"1,32",0,0,5,0,0,11,3,"4,08",0,0,0,8,1
5,8.301666666666666,Gilson ,0,LAT,"9,56",5,5,Botafogo,3,"2,50",0,0,0,0,"-0,54",0,0,3,1,0,7,3,"4,92",0,0,0,2,0
5,8.301666666666666,Everton Felipe ,0,MEI,"4,25",3,19,Sport,3,"1,60",0,0,0,0,"0,03",0,0,3,0,0,2,0,"0,97",0,0,0,3,4
5,8.301666666666666,Elton ,2,MEI,"5,55",5,13,Ponte Preta,3,"-2,90",0,1,0,0,"-1,69",0,0,11,0,0,5,0,"1,74",0,0,0,10,0
5,8.301666666666666,Edson ,3,MEI,"16,64",4,9,Bahia,5,"0,00",1,0,0,1,"0,00",0,0,4,0,1,5,0,"5,42",0,0,0,1,1
5,8.301666666666666,André ,1,ATA,"8,02",4,8,Sport,3,"-0,20",2,0,0,3,"-0,31",0,0,5,0,0,2,0,"6,08",0,1,0,11,1
5,8.301666666666666,Luis Fabiano ,6,ATA,"16,15",4,5,Vasco,3,"19,20",4,0,0,4,"3,91",0,0,2,0,1,4,0,"9,65",0,2,0,7,3
5,8.301666666666666,Leandro Pereira ,0,ATA,"7,00",0,0,Sport,2,"0,00",0,0,0,0,"0,00",0,0,0,0,0,0,0,"0,00",0,0,0,0,0
6,15.786666666666667,Dorival Júnior ,0,TEC,"12,19",1,0,Santos,3,"2,23",0,0,0,0,"-2,81",0,0,0,0,0,0,0,"2,23",0,0,0,0,0
6,15.786666666666667,Fábio ,0,GOL,"12,76",6,3,Cruzeiro,3,"4,40",0,0,0,0,"0,17",0,7,0,0,0,0,3,"4,43",4,0,0,1,0
6,15.786666666666667,Roger Carvalho ,2,ZAG,"6,93",6,13,Atlético-GO,3,"-0,30",0,0,0,0,"-0,91",0,0,11,0,0,11,1,"3,20",0,0,0,15,0
6,15.786666666666667,Durval ,0,ZAG,"4,89",5,6,Sport,3,"0,60",0,0,0,0,"-0,80",0,0,4,0,0,2,1,"2,00",0,0,0,2,0
6,15.786666666666667,Reinaldo ,2,LAT,"11,92",6,34,Chapecoense,3,"-4,20",0,0,1,2,"-2,65",0,0,10,0,0,4,3,"5,87",0,0,0,8,0
6,15.786666666666667,Dodô ,2,LAT,"9,23",6,22,Coritiba,3,"-0,30",0,0,1,0,"-0,75",0,0,10,0,0,6,3,"4,05",0,0,2,11,0
6,15.786666666666667,Diego ,2,MEI,"18,84",3,9,Flamengo,3,"4,20",1,0,0,0,"-0,12",0,0,4,0,0,8,0,"2,83",0,0,1,3,0
6,15.786666666666667,Danilo Barcelos ,0,MEI,"5,30",1,4,Atlético-MG,2,"-0,20",0,0,0,0,"-1,70",0,0,0,0,0,0,0,"-0,20",0,0,1,0,0
6,15.786666666666667,Judson ,4,MEI,"4,29",5,14,Avaí,3,"2,20",0,0,0,0,"0,23",0,0,5,0,0,2,0,"1,42",0,0,2,6,0
6,15.786666666666667,Richarlison  ,3,ATA,"13,87",4,7,Fluminense,1,"0,00",6,0,1,2,"0,00",0,0,7,0,1,9,0,"7,35",0,0,2,10,0
6,15.786666666666667,Emerson Sheik ,2,ATA,"5,90",3,8,Ponte Preta,3,"7,90",0,0,2,0,"1,46",0,0,1,0,1,11,0,"2,40",0,0,1,2,0
6,15.786666666666667,Arthur  ,4,ATA,"9,64",6,13,Chapecoense,3,"8,10",3,0,1,1,"0,59",0,0,6,1,3,10,0,"5,43",0,0,2,13,0
7,22.188095238095237,Dorival Júnior ,0,TEC,"12,19",1,0,Santos,3,"2,23",0,0,0,0,"-2,81",0,0,0,0,0,0,0,"2,23",0,0,0,0,0
7,22.188095238095237,Fábio ,0,GOL,"12,71",7,3,Cruzeiro,3,"4,00",0,0,0,0,"-0,05",0,9,0,0,0,0,3,"4,37",5,0,0,1,0
7,22.188095238095237,Roger Carvalho ,2,ZAG,"6,81",7,17,Atlético-GO,3,"0,30",0,0,0,0,"-0,12",0,0,11,0,0,14,1,"2,79",0,0,0,15,0
7,22.188095238095237,Durval ,0,ZAG,"6,63",6,8,Sport,3,"8,30",0,0,0,0,"1,74",0,0,6,0,0,3,2,"3,05",0,0,0,2,0
7,22.188095238095237,Reinaldo ,2,LAT,"12,25",7,37,Chapecoense,3,"0,80",0,0,0,2,"0,33",0,0,11,0,0,5,3,"5,15",0,1,0,9,0
7,22.188095238095237,Dodô ,2,LAT,"10,28",7,26,Coritiba,3,"5,50",0,0,0,0,"1,05",0,0,11,0,0,6,4,"4,26",0,1,0,11,2
7,22.188095238095237,Thiago Maia ,4,MEI,"7,86",7,24,Santos,3,"4,20",0,0,0,0,"-0,10",0,0,17,0,1,7,0,"3,28",0,2,0,14,1
7,22.188095238095237,Michel  ,4,MEI,"8,21",6,15,Grêmio,3,"4,50",0,0,0,2,"0,32",0,0,14,0,0,8,0,"5,85",0,0,0,14,0
7,22.188095238095237,Lucho González ,3,MEI,"5,23",4,17,Atlético-PR,4,"-7,20",2,1,0,0,"-2,08",0,0,2,0,0,2,0,"-2,15",0,0,0,8,0
7,22.188095238095237,Henrique Dourado ,4,ATA,"23,16",6,18,Fluminense,3,"-1,20",1,0,0,7,"-1,98",0,0,2,0,1,12,0,"9,97",0,2,0,13,3
7,22.188095238095237,Emerson Sheik ,2,ATA,"5,90",3,8,Ponte Preta,1,"0,00",0,0,0,0,"0,00",0,0,1,0,1,11,0,"2,40",0,2,0,2,1
7,22.188095238095237,Arthur  ,4,ATA,"11,06",7,16,Chapecoense,3,"11,50",3,0,0,2,"1,42",0,0,8,1,3,11,0,"6,30",0,1,0,16,4
8,36.855,Vagner Mancini ,0,TEC,"8,51",8,0,Chapecoense,3,"1,58",0,0,0,0,"-0,31",0,0,0,0,0,0,0,"3,28",0,0,0,0,0
8,36.855,Fábio ,0,GOL,"13,26",8,3,Cruzeiro,3,"6,00",0,0,0,0,"0,55",0,13,0,0,0,0,3,"4,57",8,0,0,1,0
8,36.855,Roger Carvalho ,3,ZAG,"7,99",8,18,Atlético-GO,3,"6,00",0,0,0,0,"1,18",0,0,14,0,0,15,1,"3,19",0,0,0,15,0
8,36.855,Durval ,0,ZAG,"7,63",7,9,Sport,3,"9,80",0,0,0,0,"1,00",0,0,9,0,1,4,2,"4,01",0,0,0,3,0
8,36.855,Reinaldo ,2,LAT,"12,02",8,42,Chapecoense,3,"0,70",0,0,1,2,"-0,23",0,0,12,0,0,6,3,"4,59",0,0,0,9,0
8,36.855,Dodô ,2,LAT,"9,93",8,35,Coritiba,3,"2,70",0,0,2,0,"-0,35",0,0,13,0,0,6,5,"4,07",0,0,2,13,0
8,36.855,Thiago Maia ,5,MEI,"8,13",8,30,Santos,4,"4,40",0,0,3,0,"0,27",0,0,22,0,1,7,0,"3,42",0,0,1,16,0
8,36.855,Michel  ,4,MEI,"9,08",7,17,Grêmio,3,"7,10",0,0,1,3,"0,87",0,0,15,0,0,10,0,"6,03",0,0,0,16,0
8,36.855,Lucho González ,3,MEI,"5,23",4,17,Atlético-PR,3,"0,00",2,1,0,0,"0,00",0,0,2,0,0,2,0,"-2,15",0,0,0,8,0
8,36.855,Henrique Dourado ,4,ATA,"24,22",7,20,Fluminense,3,"6,40",1,0,2,8,"1,06",0,0,2,0,1,13,0,"9,46",0,0,3,16,0
8,36.855,Emerson Sheik ,3,ATA,"4,92",4,11,Ponte Preta,3,"1,00",0,0,2,0,"-0,98",0,0,2,0,1,12,0,"2,05",0,0,1,4,0
8,36.855,Lucas Pratto ,14,ATA,"16,07",8,28,São Paulo,3,"2,10",1,0,0,3,"-0,02",0,0,4,0,2,5,0,"5,84",0,0,8,11,0
9,27.63555555555556,Fábio Carille ,0,TEC,"11,03",9,0,Corinthians,3,"6,48",0,0,0,0,"0,95",0,0,0,0,0,0,0,"4,54",0,0,0,0,0
9,27.63555555555556,Lucão ,0,GOL,"1,00",0,0,Cruzeiro,2,"0,00",0,0,0,0,"0,00",0,0,0,0,0,0,0,"0,00",0,0,0,0,0
9,27.63555555555556,Réver ,1,ZAG,"10,31",9,15,Flamengo,3,"1,40",0,0,0,1,"-0,27",0,0,10,0,0,8,3,"4,08",0,1,0,5,1
9,27.63555555555556,Jackson ,0,ZAG,"7,00",0,0,Bahia,5,"0,00",0,0,0,0,"0,00",0,0,0,0,0,0,0,"0,00",0,0,0,0,0
9,27.63555555555556,William Matheus ,1,LAT,"8,12",8,25,Coritiba,3,"0,90",1,0,0,0,"-1,20",0,0,10,0,0,20,4,"4,08",0,3,0,10,4
9,27.63555555555556,Trauco ,3,LAT,"6,63",5,19,Flamengo,3,"5,70",0,0,0,1,"0,33",0,0,4,0,0,3,2,"3,44",0,2,0,7,2
9,27.63555555555556,Marcão Silva ,2,MEI,"7,10",8,19,Atlético-GO,3,"5,70",0,0,0,0,"1,39",0,0,22,0,0,5,0,"2,51",0,4,0,15,0
9,27.63555555555556,Kady ,0,MEI,"4,00",0,0,Coritiba,2,"0,00",0,0,0,0,"0,00",0,0,0,0,0,0,0,"0,00",0,0,0,0,0
9,27.63555555555556,Bruno Silva ,4,MEI,"13,27",8,26,Botafogo,3,"5,40",0,0,0,4,"-0,21",0,0,15,0,2,15,0,"7,06",0,5,0,13,3
9,27.63555555555556,Edigar Junio ,2,ATA,"9,46",9,18,Bahia,3,"-0,30",1,0,0,2,"-0,53",0,0,4,1,0,14,0,"2,98",0,0,0,14,5
9,27.63555555555556,Luan ,8,ATA,"24,80",8,34,Grêmio,3,"14,70",2,0,0,4,"2,77",0,0,11,0,6,18,0,"11,02",0,0,0,14,11
9,27.63555555555556,Henrique Dourado ,7,ATA,"25,81",8,22,Fluminense,3,"13,20",1,0,0,9,"1,59",0,0,3,0,1,16,0,"9,93",0,2,0,17,4
10,0.0,Fábio Carille ,0,TEC,"11,03",10,0,Corinthians,3,"0,00",0,0,0,0,"0,00",0,0,0,0,0,0,0,"4,57",0,0,0,0,0
10,0.0,Lucão ,0,GOL,"1,00",0,0,Cruzeiro,2,"0,00",0,0,0,0,"0,00",0,0,0,0,0,0,0,"0,00",0,0,0,0,0
10,0.0,Réver ,0,ZAG,"10,31",9,0,Flamengo,3,"0,00",0,0,0,0,"0,00",0,0,0,0,0,0,0,"4,08",0,0,0,0,0
10,0.0,Jackson ,0,ZAG,"7,00",0,0,Bahia,5,"0,00",0,0,0,0,"0,00",0,0,0,0,0,0,0,"0,00",0,0,0,0,0
10,0.0,William Matheus ,0,LAT,"7,45",9,0,Coritiba,3,"0,00",0,0,0,0,"-0,67",0,0,0,0,0,0,0,"3,40",0,0,0,0,0
10,0.0,Trauco ,0,LAT,"6,48",6,0,Flamengo,3,"0,00",0,0,0,0,"-0,15",0,0,0,0,0,0,0,"3,43",0,0,0,0,0
10,0.0,Marcão Silva ,0,MEI,"7,93",9,0,Atlético-GO,3,"0,00",0,0,0,0,"0,83",0,0,0,0,0,0,0,"3,11",0,0,0,0,0
10,0.0,Kady ,0,MEI,"4,00",0,0,Coritiba,2,"0,00",0,0,0,0,"0,00",0,0,0,0,0,0,0,"0,00",0,0,0,0,0
10,0.0,Bruno Silva ,0,MEI,"12,98",9,0,Botafogo,3,"0,00",0,0,0,0,"-0,29",0,0,0,0,0,0,0,"6,60",0,0,0,0,0
10,0.0,Lourenço ,0,ATA,"0,77",5,0,Avaí,2,"0,00",0,0,0,0,"0,00",0,0,0,0,0,0,0,"-0,16",0,0,0,0,0
10,0.0,Luan ,0,ATA,"23,12",9,0,Grêmio,2,"0,00",0,0,0,0,"-1,68",0,0,0,0,0,0,0,"10,15",0,0,0,0,0
10,0.0,Henrique Dourado ,0,ATA,"23,83",9,0,Fluminense,1,"0,00",0,0,0,0,"-1,98",0,0,0,0,0,0,0,"8,94",0,0,0,0,0
11,12.14944444444444,Fábio Carille ,0,TEC,"11,03",11,0,Corinthians,3,"4,06",0,0,0,0,"0,00",0,0,0,0,0,0,0,"4,52",0,0,0,0,0
11,12.14944444444444,Victor ,0,GOL,"10,50",10,8,Atlético-MG,3,"3,70",0,0,0,0,"0,71",0,16,0,0,0,0,2,"3,61",12,1,1,1,0
11,12.14944444444444,Tiago  ,0,ZAG,"9,92",11,28,Bahia,3,"2,40",5,0,0,1,"0,31",0,0,10,0,0,11,4,"2,59",0,2,0,16,1
11,12.14944444444444,Balbuena ,3,ZAG,"10,56",8,20,Corinthians,3,"11,00",2,0,0,2,"1,31",0,0,7,0,0,6,6,"6,62",0,1,0,2,0
11,12.14944444444444,Júnior Tavares ,4,LAT,"13,18",11,42,São Paulo,3,"6,10",0,0,0,0,"0,87",0,0,14,0,3,23,4,"4,82",0,1,0,13,1
11,12.14944444444444,Yago Pikachu ,1,LAT,"9,56",8,21,Vasco,3,"2,50",0,0,0,2,"-0,78",0,0,6,0,1,8,2,"4,77",0,0,0,7,2
11,12.14944444444444,Andrigo ,6,MEI,"6,39",11,44,Atlético-GO,3,"9,90",0,0,0,1,"1,48",0,0,15,0,2,8,0,"3,18",0,2,0,11,6
11,12.14944444444444,Willian Arão ,1,MEI,"8,51",9,33,Flamengo,2,"0,00",0,0,0,0,"0,00",0,0,14,0,1,7,0,"2,34",0,0,3,10,0
11,12.14944444444444,Willians ,0,MEI,"4,00",0,0,Cruzeiro,2,"0,00",0,0,0,0,"0,00",0,0,0,0,0,0,0,"0,00",0,0,0,0,0
11,12.14944444444444,Fred ,6,ATA,"18,77",8,19,Atlético-MG,3,"18,70",4,0,0,4,"2,97",0,0,2,1,1,21,0,"5,49",0,1,0,14,2
11,12.14944444444444,Andres Chavez ,0,ATA,"7,00",0,0,São Paulo,2,"0,00",0,0,0,0,"0,00",0,0,0,0,0,0,0,"0,00",0,0,0,0,0
11,12.14944444444444,Lucas Silva ,0,ATA,"2,00",0,0,Flamengo,2,"0,00",0,0,0,0,"0,00",0,0,0,0,0,0,0,"0,00",0,0,0,0,0
12,10.474191919191918,Abel Braga ,0,TEC,"12,39",11,0,Fluminense,3,"4,35",0,0,0,0,"0,24",0,0,0,0,0,0,0,"3,59",0,0,0,0,0
12,10.474191919191918,Thiago ,0,GOL,"5,48",7,2,Flamengo,3,"8,00",0,0,0,0,"0,96",0,5,0,0,0,0,3,"4,20",4,0,0,0,0
12,10.474191919191918,Airton  ,2,ZAG,"2,11",2,5,Avaí,2,"0,00",0,0,0,0,"0,00",0,0,2,0,0,0,1,"3,40",0,0,0,3,0
12,10.474191919191918,Betão ,1,ZAG,"8,12",11,30,Avaí,3,"10,10",0,0,3,0,"1,59",0,0,7,0,0,12,4,"2,88",0,0,1,6,0
12,10.474191919191918,Daniel Guedes  ,0,LAT,"3,25",2,4,Santos,2,"0,00",0,1,0,0,"0,00",0,0,5,0,0,2,1,"3,15",0,0,1,6,0
12,10.474191919191918,Gilberto  ,3,LAT,"11,52",12,53,Vasco,3,"3,40",1,0,2,0,"0,34",0,0,31,1,1,15,2,"4,73",0,0,1,16,0
12,10.474191919191918,Ravanelli ,1,MEI,"8,16",3,15,Ponte Preta,2,"0,00",1,0,0,0,"0,00",0,0,2,0,1,7,0,"2,37",0,0,0,1,0
12,10.474191919191918,Ramiro ,8,MEI,"17,26",9,30,Grêmio,3,"5,40",1,0,3,3,"0,50",0,0,11,0,2,12,0,"5,30",0,0,1,15,0
12,10.474191919191918,Jucilei ,4,MEI,"15,66",12,34,São Paulo,3,"9,60",0,0,0,1,"1,04",0,0,33,0,0,26,0,"5,86",0,0,1,20,0
12,10.474191919191918,Henrique Dourado ,7,ATA,"23,53",10,27,Fluminense,3,"2,40",1,0,2,9,"-0,30",0,0,3,0,1,20,0,"8,29",0,0,6,20,0
12,10.474191919191918,Luis Fabiano ,14,ATA,"14,04",9,10,Vasco,3,"1,40",5,0,3,5,"-0,29",0,0,2,0,2,17,0,"6,56",0,0,4,13,0
12,10.474191919191918,Everton ,3,ATA,"9,98",9,7,Grêmio,1,"2,40",0,0,1,4,"0,18",0,0,4,1,0,5,0,"5,41",0,0,6,5,0
13,23.223543123543124,Fábio Carille ,0,TEC,"11,77",13,0,Corinthians,3,"5,79",0,0,0,0,"0,09",0,0,0,0,0,0,0,"4,77",0,0,0,0,0
13,23.223543123543124,Cleiton ,0,GOL,"1,85",1,2,Atlético-MG,2,"0,00",0,0,0,0,"0,00",0,0,0,0,0,1,1,"4,90",0,0,0,0,0
13,23.223543123543124,Pedro Geromel ,3,ZAG,"14,58",10,20,Grêmio,3,"8,70",0,0,2,0,"1,01",0,0,21,0,1,7,6,"7,50",0,0,3,6,0
13,23.223543123543124,David Braz ,3,ZAG,"11,32",11,28,Santos,3,"4,60",1,0,0,1,"1,21",0,0,9,0,0,4,6,"3,83",0,4,0,8,1
13,23.223543123543124,Breno Lopes ,0,LAT,"3,00",0,0,Ponte Preta,2,"0,00",0,0,0,0,"0,00",0,0,0,0,0,0,0,"0,00",0,0,0,0,0
13,23.223543123543124,Sidcley ,2,LAT,"12,54",11,41,Atlético-PR,3,"1,60",5,0,0,3,"-1,08",0,0,15,0,2,19,3,"5,97",0,1,0,11,1
13,23.223543123543124,Diego ,7,MEI,"21,16",10,38,Flamengo,3,"6,40",3,0,0,4,"0,35",0,0,10,0,2,26,0,"6,83",0,0,0,12,4
13,23.223543123543124,Danilo Barcelos ,0,MEI,"5,30",1,4,Atlético-MG,2,"0,00",0,0,0,0,"0,00",0,0,0,0,0,0,0,"-0,20",0,0,0,0,1
13,23.223543123543124,João Paulo ,5,MEI,"3,79",12,42,Botafogo,3,"8,60",1,0,0,0,"1,66",0,0,10,0,2,15,0,"1,75",0,3,0,23,5
13,23.223543123543124,Romulo ,8,ATA,"9,46",13,37,Avaí,3,"-1,60",3,0,0,2,"-0,90",0,0,12,0,0,24,0,"2,83",0,1,0,16,7
13,23.223543123543124,André Lima ,3,ATA,"7,61",6,6,Vitória,3,"1,30",1,0,1,2,"-1,03",0,0,3,0,1,3,0,"4,12",0,0,1,6,0
13,23.223543123543124,Arthur  ,12,ATA,"10,84",13,24,Chapecoense,3,"0,00",4,0,0,4,"-0,55",0,0,11,1,3,27,0,"5,80",0,2,0,19,7
14,42.72350593850594,Jair Ventura ,0,TEC,"11,66",14,0,Botafogo,3,"4,86",0,0,0,0,"-0,01",0,0,0,0,0,0,0,"4,13",0,0,0,0,0
14,42.72350593850594,Douglas Friedrich ,0,GOL,"8,02",5,0,Avaí,3,"4,50",0,0,1,0,"1,14",0,17,0,0,0,1,3,"13,60",4,0,0,0,1
14,42.72350593850594,Rodrigo ,5,ZAG,"8,07",9,14,Ponte Preta,3,"-0,20",1,1,0,0,"-0,97",0,0,8,0,0,15,3,"2,80",0,2,0,5,2
14,42.72350593850594,Marllon ,3,ZAG,"11,84",14,21,Ponte Preta,3,"2,80",0,0,2,0,"-0,26",0,0,20,1,0,17,5,"4,55",0,0,1,6,0
14,42.72350593850594,Diogo Barbosa ,2,LAT,"14,19",13,47,Cruzeiro,3,"11,20",0,0,2,0,"1,54",0,0,20,1,1,14,5,"5,03",0,0,2,11,0
14,42.72350593850594,Fagner Alemão ,3,LAT,"8,99",11,32,Avaí,3,"2,40",4,0,0,0,"0,34",0,0,19,0,0,5,4,"4,02",0,1,0,5,1
14,42.72350593850594,Wendel ,2,MEI,"14,23",11,22,Fluminense,3,"11,60",1,0,0,2,"1,87",0,0,13,1,1,27,0,"6,05",0,0,0,11,6
14,42.72350593850594,Jadson ,6,MEI,"9,70",13,64,Corinthians,3,"1,00",3,0,0,4,"-0,95",0,0,7,0,1,4,0,"2,14",0,2,0,13,3
14,42.72350593850594,Ariel Cabral ,7,MEI,"6,33",11,39,Cruzeiro,3,"0,30",0,0,3,0,"0,00",0,0,18,0,0,21,0,"2,14",0,0,0,10,0
14,42.72350593850594,Rafaelson ,3,ATA,"1,54",4,5,Vitória,2,"0,00",0,0,1,0,"0,00",0,0,1,0,0,2,0,"-0,43",0,0,2,10,0
14,42.72350593850594,Henrique Dourado ,8,ATA,"23,53",10,28,Fluminense,3,"0,00",1,0,3,9,"0,00",0,0,3,0,2,21,0,"8,29",0,0,6,23,0
14,42.72350593850594,Richarlison  ,5,ATA,"14,85",11,22,Fluminense,3,"14,50",10,0,2,3,"2,55",0,0,16,0,2,24,0,"6,24",0,0,5,24,0
15,33.62698412698412,Jair Ventura ,0,TEC,"11,57",15,0,Botafogo,3,"4,93",0,0,0,0,"-0,09",0,0,0,0,0,0,0,"4,18",0,0,0,0,0
15,33.62698412698412,Douglas Friedrich ,0,GOL,"9,30",6,0,Avaí,3,"11,00",0,0,0,0,"1,28",0,21,0,0,0,2,4,"13,17",5,1,1,0,0
15,33.62698412698412,Rodrigo ,5,ZAG,"9,31",10,19,Ponte Preta,3,"7,40",1,1,2,0,"1,24",0,0,9,0,0,17,4,"3,26",0,0,3,5,0
15,33.62698412698412,Marllon ,3,ZAG,"11,88",15,26,Ponte Preta,3,"4,10",0,0,0,0,"0,04",0,0,22,1,0,17,6,"4,52",0,2,0,6,1
15,33.62698412698412,Leandro Silva ,6,LAT,"8,65",14,69,Avaí,3,"9,20",2,1,0,0,"1,64",0,0,19,0,1,12,5,"2,74",0,1,0,19,4
15,33.62698412698412,Norberto  ,0,LAT,"5,00",0,0,Vitória,2,"0,00",0,0,0,0,"0,00",0,0,0,0,0,0,0,"0,00",0,0,0,0,0
15,33.62698412698412,Diego Souza ,6,MEI,"18,45",9,39,Sport,3,"14,30",1,0,0,6,"2,33",0,0,4,0,1,24,0,"6,09",0,2,0,16,3
15,33.62698412698412,Matheus Galdezani ,7,MEI,"7,54",14,57,Coritiba,3,"0,80",1,0,4,1,"-0,14",0,0,25,0,1,27,0,"3,24",0,0,12,30,0
15,33.62698412698412,Wendel ,4,MEI,"12,30",12,27,Fluminense,3,"0,90",1,0,0,2,"-1,93",0,0,16,1,2,32,0,"5,62",0,0,0,11,6
15,33.62698412698412,Rafaelson ,3,ATA,"1,54",4,5,Vitória,2,"0,00",0,0,0,0,"0,00",0,0,1,0,0,2,0,"-0,43",0,1,0,10,2
15,33.62698412698412,Henrique Dourado ,8,ATA,"23,53",10,28,Fluminense,1,"0,00",1,0,0,9,"0,00",0,0,3,0,2,21,0,"8,29",0,3,0,23,6
15,33.62698412698412,Richarlison  ,6,ATA,"13,50",12,30,Fluminense,3,"6,10",11,0,0,5,"-1,35",0,0,20,0,2,32,0,"6,23",0,3,0,30,6
16,33.62698412698412,Jair Ventura ,0,TEC,"11,20",16,0,Botafogo,3,"1,91",0,0,0,0,"-0,37",0,0,0,0,0,0,0,"4,04",0,0,0,0,0
16,33.62698412698412,Douglas Friedrich ,0,GOL,"11,61",7,0,Avaí,3,"20,00",0,0,1,0,"2,31",0,21,0,0,0,2,4,"14,15",5,0,0,0,1
16,33.62698412698412,Rodrigo ,5,ZAG,"8,97",11,19,Ponte Preta,3,"3,90",1,1,0,0,"-0,34",0,0,9,0,0,17,4,"3,32",0,2,0,5,3
16,33.62698412698412,Marllon ,3,ZAG,"12,22",16,26,Ponte Preta,3,"4,90",0,0,2,0,"0,34",0,0,22,1,0,17,6,"4,54",0,0,1,6,0
16,33.62698412698412,Leandro Silva ,6,LAT,"9,09",15,69,Avaí,3,"9,20",2,1,1,0,"0,44",0,0,19,0,1,12,5,"3,17",0,0,4,19,0
16,33.62698412698412,Norberto  ,0,LAT,"5,00",0,0,Vitória,2,"0,00",0,0,0,0,"0,00",0,0,0,0,0,0,0,"0,00",0,0,0,0,0
16,33.62698412698412,Diego Souza ,6,MEI,"17,27",10,39,Sport,3,"4,90",1,0,2,6,"-1,18",0,0,4,0,1,24,0,"5,97",0,0,3,16,0
16,33.62698412698412,Matheus Galdezani ,7,MEI,"7,44",15,57,Coritiba,3,"0,20",1,0,0,1,"-0,10",0,0,25,0,1,27,0,"3,04",0,4,0,30,12
16,33.62698412698412,Wendel ,4,MEI,"13,56",13,27,Fluminense,3,"7,20",1,0,0,2,"1,26",0,0,16,1,2,32,0,"5,74",0,0,6,11,0
16,33.62698412698412,Rafaelson ,3,ATA,"1,54",4,5,Vitória,2,"0,00",0,0,1,0,"0,00",0,0,1,0,0,2,0,"-0,43",0,0,2,10,0
16,33.62698412698412,Henrique Dourado ,8,ATA,"21,99",11,28,Fluminense,2,"-0,10",1,0,3,9,"-1,54",0,0,3,0,2,21,0,"7,53",0,0,6,23,0
16,33.62698412698412,Richarlison  ,6,ATA,"12,64",13,30,Fluminense,3,"0,30",11,0,3,5,"-0,86",0,0,20,0,2,32,0,"5,77",0,0,6,30,0
17,33.62698412698412,Jair Ventura ,0,TEC,"7,32",1,0,Botafogo,3,"1,35",0,0,0,0,"-1,68",0,0,0,0,0,0,0,"1,35",0,0,0,0,0
17,33.62698412698412,Douglas Friedrich ,0,GOL,"7,74",8,0,Avaí,3,"-3,50",0,0,0,0,"-3,87",0,26,0,0,0,3,5,"11,94",7,1,1,0,0
17,33.62698412698412,Rodrigo ,0,ZAG,"10,00",0,0,Ponte Preta,2,"0,00",0,0,0,0,"0,00",0,0,0,0,0,0,0,"0,00",0,0,0,0,0
17,33.62698412698412,Marllon ,3,ZAG,"12,22",16,28,Ponte Preta,3,"0,00",0,0,0,0,"0,00",0,0,22,1,0,18,7,"4,54",0,2,0,6,1
17,33.62698412698412,Leandro Silva ,0,LAT,"9,20",1,4,Avaí,3,"7,00",0,0,0,0,"3,20",0,0,1,0,0,1,1,"7,00",0,0,0,0,1
17,33.62698412698412,Norberto  ,0,LAT,"5,00",0,0,Vitória,2,"0,00",0,0,0,0,"0,00",0,0,0,0,0,0,0,"0,00",0,0,0,0,0
17,33.62698412698412,Diego Souza ,8,MEI,"17,27",10,43,Sport,4,"0,00",1,0,0,6,"0,00",0,0,5,1,1,30,0,"5,97",0,3,0,19,3
17,33.62698412698412,Matheus Galdezani ,1,MEI,"4,60",1,6,Coritiba,3,"4,50",0,0,0,0,"2,60",0,0,3,0,0,2,0,"4,50",0,0,1,3,0
17,33.62698412698412,Wendel ,5,MEI,"13,56",13,29,Fluminense,3,"0,00",1,0,0,2,"0,00",0,0,19,1,2,36,0,"5,74",0,0,0,11,6
17,33.62698412698412,Rafaelson ,2,ATA,"3,25",1,1,Vitória,3,"1,60",0,0,0,0,"0,25",0,0,0,0,0,1,0,"1,60",0,0,0,2,1
17,33.62698412698412,Henrique Dourado ,8,ATA,"21,99",11,34,Fluminense,3,"0,00",1,0,0,9,"0,00",0,0,4,0,2,22,0,"7,53",0,3,0,24,6
17,33.62698412698412,Richarlison  ,7,ATA,"12,64",13,32,Fluminense,3,"0,00",14,0,0,5,"0,00",0,0,21,0,2,34,0,"5,77",0,3,0,32,6
18,24.706078431372553,Mano Menezes ,0,TEC,"13,18",18,0,Cruzeiro,3,"6,57",0,0,0,0,"0,80",0,0,0,0,0,0,0,"3,83",0,0,0,0,0
18,24.706078431372553,Cássio ,0,GOL,"13,82",18,6,Corinthians,3,"8,00",0,0,0,0,"1,43",0,15,0,0,0,5,13,"5,82",8,2,2,0,0
18,24.706078431372553,Thiago Heleno ,5,ZAG,"9,33",12,26,Atlético-PR,3,"8,60",0,0,4,1,"1,80",0,0,13,0,0,6,5,"3,23",0,0,0,14,0
18,24.706078431372553,Betão ,1,ZAG,"5,89",17,39,Avaí,3,"-3,40",0,0,5,0,"-0,74",0,0,12,0,0,15,7,"2,13",0,0,1,13,0
18,24.706078431372553,Eduardo ,3,LAT,"6,41",17,95,Bahia,3,"2,70",2,0,3,0,"1,00",0,0,30,0,1,14,6,"2,78",0,0,1,27,0
18,24.706078431372553,Samuel Xavier ,1,LAT,"4,62",15,58,Sport,3,"1,80",1,0,2,0,"-0,37",0,0,22,0,0,21,7,"3,81",0,0,3,15,0
18,24.706078431372553,Zé Rafael  ,11,MEI,"20,28",17,39,Bahia,3,"5,20",3,0,3,1,"-1,02",0,0,45,0,3,55,0,"6,71",0,0,16,35,0
18,24.706078431372553,Andrigo ,9,MEI,"5,79",18,66,Atlético-GO,3,"-0,10",1,0,2,2,"-0,37",0,0,25,1,2,12,0,"3,28",0,0,7,16,0
18,24.706078431372553,João Filipe ,0,MEI,"5,00",0,0,Atlético-GO,2,"0,00",0,0,0,0,"0,00",0,0,0,0,0,0,0,"0,00",0,0,0,0,0
18,24.706078431372553,Romulo ,9,ATA,"9,67",18,44,Avaí,2,"3,10",4,0,1,2,"0,64",0,0,15,0,0,28,0,"2,17",0,0,7,25,0
18,24.706078431372553,Denilson ,0,ATA,"4,17",1,2,Avaí,3,"-0,10",0,0,0,0,"-1,83",0,0,0,0,0,1,0,"-0,10",0,0,0,0,0
18,24.706078431372553,Arthur  ,16,ATA,"12,21",17,40,Chapecoense,3,"7,20",5,0,3,4,"0,98",0,0,16,1,5,39,0,"5,61",0,0,12,29,0
19,12.324554655870445,Jair Ventura ,0,TEC,"11,38",19,0,Botafogo,3,"3,62",0,0,0,0,"0,51",0,0,0,0,0,0,0,"3,86",0,0,0,0,0
19,12.324554655870445,Cássio ,0,GOL,"13,58",19,7,Corinthians,2,"6,70",0,0,2,0,"-0,24",0,18,0,0,0,5,13,"5,87",9,0,0,0,2
19,12.324554655870445,Thiago Heleno ,5,ZAG,"10,43",13,27,Atlético-PR,3,"13,70",0,0,0,2,"1,10",0,0,13,0,0,9,6,"4,04",0,4,0,15,0
19,12.324554655870445,Marllon ,3,ZAG,"12,43",18,36,Ponte Preta,4,"6,40",0,0,0,0,"0,41",0,0,26,1,0,20,8,"4,59",0,2,0,7,1
19,12.324554655870445,Leandro Silva ,7,LAT,"8,78",18,82,Avaí,3,"6,90",2,1,0,0,"1,19",0,0,23,0,2,18,7,"3,10",0,1,0,27,4
19,12.324554655870445,Norberto  ,0,LAT,"5,00",0,0,Vitória,2,"0,00",0,0,0,0,"0,00",0,0,0,0,0,0,0,"0,00",0,0,0,0,0
19,12.324554655870445,Diego Souza ,10,MEI,"15,89",12,55,Sport,3,"-0,50",1,0,0,6,"-0,79",0,0,6,2,1,34,0,"5,10",0,4,0,22,3
19,12.324554655870445,Matheus Galdezani ,9,MEI,"6,78",18,73,Coritiba,3,"-1,50",1,0,5,1,"-0,26",0,0,27,0,1,34,0,"2,39",0,0,12,38,0
19,12.324554655870445,Wendel ,6,MEI,"14,35",15,34,Fluminense,3,"11,70",1,0,0,3,"1,61",0,0,22,1,2,40,0,"5,89",0,0,0,12,6
19,12.324554655870445,Rafaelson ,3,ATA,"1,54",4,5,Vitória,2,"0,00",0,0,0,0,"0,00",0,0,1,0,0,2,0,"-0,43",0,1,0,10,2
19,12.324554655870445,Henrique Dourado ,8,ATA,"22,77",13,39,Fluminense,3,"8,60",1,0,0,10,"1,07",0,0,6,0,2,26,0,"7,06",0,3,0,30,6
19,12.324554655870445,Fred ,7,ATA,"14,99",13,26,Atlético-MG,3,"0,00",9,0,0,5,"0,00",1,0,3,1,1,27,0,"3,49",0,2,0,22,4
20,4.581947711730988,Cuca ,0,TEC,"13,45",20,0,Palmeiras,3,"2,02",0,0,0,0,"-0,22",0,0,0,0,0,0,0,"3,80",0,0,0,0,0
20,4.581947711730988,Douglas Friedrich ,0,GOL,"9,72",11,0,Avaí,3,"8,50",0,0,2,0,"0,36",0,30,0,0,0,3,7,"9,55",12,0,0,1,1
20,4.581947711730988,Rodrigo Caio ,3,ZAG,"9,14",15,30,São Paulo,3,"1,80",1,0,6,0,"-0,38",0,0,23,1,0,10,3,"2,58",0,0,1,11,0
20,4.581947711730988,Pedro Geromel ,3,ZAG,"13,74",13,31,Grêmio,2,"0,00",0,0,3,0,"0,00",0,0,31,0,2,8,7,"6,74",0,0,3,8,0
20,4.581947711730988,Raul Prata ,4,LAT,"5,53",5,21,Sport,3,"10,70",0,0,1,0,"1,82",0,0,9,0,0,5,3,"4,76",0,0,0,7,0
20,4.581947711730988,Júnior Tavares ,6,LAT,"12,18",15,54,São Paulo,5,"0,00",0,0,2,0,"0,00",0,0,19,0,4,31,4,"4,29",0,0,1,17,0
20,4.581947711730988,Willian Arão ,1,MEI,"9,42",14,42,Flamengo,3,"6,20",1,0,0,0,"0,49",0,0,29,0,2,13,0,"3,31",0,1,0,16,3
20,4.581947711730988,Éder Militão ,3,MEI,"2,19",9,19,São Paulo,3,"0,80",1,0,0,0,"-0,55",0,0,12,0,0,8,0,"2,04",0,0,0,4,0
20,4.581947711730988,Wellington Simião ,7,MEI,"2,19",17,32,Avaí,3,"-1,20",3,0,3,1,"-0,42",0,0,8,1,0,19,0,"0,98",0,0,3,17,0
20,4.581947711730988,Borja ,12,ATA,"15,34",12,19,Palmeiras,2,"0,00",3,0,0,3,"-0,33",0,0,4,0,0,12,0,"2,50",0,3,0,16,6
20,4.581947711730988,Neilton ,0,ATA,"5,00",0,0,São Paulo,2,"0,00",0,0,0,0,"0,00",0,0,0,0,0,0,0,"0,00",0,0,0,0,0
20,4.581947711730988,Lucca ,17,ATA,"21,15",19,53,Ponte Preta,1,"1,60",6,0,0,10,"-0,21",1,0,19,0,1,65,0,"7,61",0,2,0,22,20
21,7.744620681605978,Cuca ,0,TEC,"13,45",21,0,Palmeiras,3,"3,33",0,0,0,0,"0,00",0,0,0,0,0,0,0,"3,78",0,0,0,0,0
21,7.744620681605978,Weverton ,0,GOL,"5,45",18,15,Atlético-PR,3,"8,00",0,0,0,0,"1,68",0,24,1,0,0,5,7,"3,60",20,1,0,0,0
21,7.744620681605978,Balbuena ,4,ZAG,"10,40",17,40,Corinthians,3,"-0,70",3,0,0,3,"-1,49",0,0,23,0,1,14,11,"6,53",0,3,0,7,1
21,7.744620681605978,Kanu ,9,ZAG,"8,80",15,36,Vitória,3,"4,40",5,0,1,2,"0,42",0,0,20,0,1,9,5,"4,00",0,4,0,13,3
21,7.744620681605978,Léo Moura ,3,LAT,"10,70",7,28,Grêmio,3,"5,20",3,0,0,0,"0,42",0,0,6,0,0,10,6,"5,20",0,0,0,4,1
21,7.744620681605978,Edimar ,1,LAT,"4,13",7,25,São Paulo,3,"-2,40",0,0,0,0,"-1,05",0,0,11,0,0,12,1,"2,91",0,1,0,7,3
21,7.744620681605978,Jonas ,8,MEI,"7,16",18,49,Coritiba,2,"0,00",0,0,0,0,"0,00",0,0,48,0,0,18,0,"3,11",0,4,0,35,0
21,7.744620681605978,Alexsander ,0,MEI,"1,00",0,0,Atlético-PR,2,"0,00",0,0,0,0,"0,00",0,0,0,0,0,0,0,"0,00",0,0,0,0,0
21,7.744620681605978,Evander ,0,MEI,"1,30",3,1,Vasco,2,"0,00",0,0,0,0,"0,00",0,0,1,0,0,0,0,"-0,37",0,1,0,3,1
21,7.744620681605978,Henrique Dourado ,8,ATA,"23,43",15,42,Fluminense,3,"14,40",4,0,0,12,"2,48",0,0,7,0,2,30,0,"6,94",0,4,0,40,8
21,7.744620681605978,Copete ,12,ATA,"6,36",16,57,Santos,3,"2,20",7,0,0,5,"-0,07",0,0,11,0,0,21,0,"2,78",0,3,0,23,5
21,7.744620681605978,Walter ,12,ATA,"6,74",15,64,Atlético-GO,3,"-0,70",5,0,0,1,"0,70",0,0,5,1,0,35,0,"0,94",0,4,0,26,11
22,3.1774079841726914,Fábio Carille ,0,TEC,"11,93",21,0,Corinthians,3,"3,96",0,0,0,0,"0,39",0,0,0,0,0,0,0,"4,67",0,0,0,0,0
22,3.1774079841726914,Daniel Fuzato ,0,GOL,"1,00",0,0,Palmeiras,2,"0,00",0,0,0,0,"0,00",0,0,0,0,0,0,0,"0,00",0,0,0,0,0
22,3.1774079841726914,Douglas Grolli ,1,ZAG,"6,10",12,18,Chapecoense,3,"-0,10",2,0,4,1,"-0,62",0,0,11,0,0,2,3,"1,33",0,0,0,26,0
22,3.1774079841726914,Lucas Fonseca ,1,ZAG,"5,18",17,33,Bahia,3,"-1,00",0,1,0,0,"-0,93",0,0,15,0,1,20,6,"3,08",0,1,0,6,1
22,3.1774079841726914,Capa ,10,LAT,"13,00",21,116,Avaí,3,"10,10",4,0,4,0,"2,15",0,0,46,0,1,57,9,"4,56",0,1,2,39,0
22,3.1774079841726914,Eduardo ,3,LAT,"6,13",21,111,Bahia,3,"0,10",2,0,5,0,"-1,44",0,0,39,0,1,19,7,"2,78",0,0,1,33,0
22,3.1774079841726914,Thiago Santos ,2,MEI,"6,03",13,24,Palmeiras,2,"3,40",1,0,0,0,"0,04",0,0,37,0,0,21,0,"3,05",0,4,0,39,0
22,3.1774079841726914,Wagner ,1,MEI,"4,57",11,26,Vasco,3,"-0,70",3,0,0,1,"-1,66",0,0,9,1,0,10,0,"1,65",0,0,1,12,0
22,3.1774079841726914,Andrigo ,13,MEI,"5,53",21,79,Atlético-GO,3,"-0,40",1,0,0,2,"0,09",0,0,30,1,2,12,0,"2,85",0,5,0,19,8
22,3.1774079841726914,Arthur  ,16,ATA,"10,08",20,47,Chapecoense,5,"-3,70",5,0,4,4,"-0,40",0,0,18,1,5,45,0,"4,75",0,0,13,36,0
22,3.1774079841726914,Daniel dos Anjos ,0,ATA,"3,00",0,0,Atlético-GO,2,"0,00",0,0,0,0,"0,00",0,0,0,0,0,0,0,"0,00",0,0,0,0,0
22,3.1774079841726914,Henrique Dourado ,8,ATA,"21,31",16,43,Fluminense,3,"-0,30",4,0,4,12,"-2,12",0,0,7,0,2,31,0,"6,49",0,0,8,41,0
23,14.30043742205507,Abel Braga ,0,TEC,"11,64",21,0,Fluminense,3,"1,57",0,0,0,0,"0,07",0,0,0,0,0,0,0,"3,15",0,0,0,0,0
23,14.30043742205507,Victor ,0,GOL,"12,33",21,11,Atlético-MG,3,"7,40",0,0,0,0,"0,75",0,36,0,0,0,2,4,"4,61",25,3,4,2,0
23,14.30043742205507,Kannemann ,2,ZAG,"9,47",15,32,Grêmio,3,"2,60",2,0,0,0,"-0,47",0,0,16,1,0,9,7,"2,69",0,5,0,21,0
23,14.30043742205507,Edu Dracena ,4,ZAG,"9,31",13,8,Palmeiras,3,"5,30",2,0,0,0,"0,99",0,0,12,0,0,18,4,"3,18",0,1,0,15,2
23,14.30043742205507,Léo Moura ,3,LAT,"9,84",8,33,Grêmio,3,"-0,50",3,0,0,0,"-0,86",0,0,6,0,0,12,6,"4,49",0,0,0,4,1
23,14.30043742205507,Arnaldo ,0,LAT,"9,76",17,46,Botafogo,3,"5,50",0,0,0,0,"0,04",0,0,34,0,1,27,7,"4,92",0,2,0,24,2
23,14.30043742205507,Orejuela ,0,MEI,"8,30",18,35,Fluminense,1,"-1,40",0,1,0,0,"-0,30",0,0,24,0,0,23,0,"1,21",0,2,0,22,0
23,14.30043742205507,Wendel ,7,MEI,"14,55",19,43,Fluminense,3,"11,30",1,0,1,4,"2,03",0,0,27,2,2,48,0,"5,60",0,0,7,18,0
23,14.30043742205507,Kady ,0,MEI,"4,00",0,0,Coritiba,2,"0,00",0,0,0,0,"0,00",0,0,0,0,0,0,0,"0,00",0,0,0,0,0
23,14.30043742205507,Rogério ,4,ATA,"6,35",13,34,Sport,2,"1,90",0,0,0,1,"0,01",0,0,5,0,1,24,0,"2,21",0,0,5,5,0
23,14.30043742205507,Rildo ,6,ATA,"8,61",20,48,Coritiba,3,"1,50",5,0,0,4,"0,19",0,0,17,0,2,69,0,"3,99",0,3,0,24,5
23,14.30043742205507,David ,17,ATA,"4,34",22,56,Vitória,3,"-0,90",10,0,0,2,"-0,15",0,0,11,2,4,12,0,"2,06",0,4,0,23,7
24,17.619732085864808,Cuca ,0,TEC,"14,41",24,0,Palmeiras,3,"7,01",0,0,0,0,"0,70",0,0,0,0,0,0,0,"3,99",0,0,0,0,0
24,17.619732085864808,Douglas Friedrich ,0,GOL,"10,03",15,1,Avaí,3,"4,20",0,0,2,0,"-1,07",0,40,0,0,0,5,9,"9,45",14,0,0,1,1
24,17.619732085864808,Rodrigo Caio ,7,ZAG,"8,78",19,39,São Paulo,3,"-0,20",1,0,7,0,"0,20",0,0,28,1,0,12,3,"2,41",0,0,1,12,0
24,17.619732085864808,Pedro Geromel ,3,ZAG,"13,74",13,31,Grêmio,2,"0,00",0,0,3,0,"0,00",0,0,31,0,2,8,7,"6,74",0,0,3,8,0
24,17.619732085864808,Capa ,10,LAT,"12,95",23,124,Avaí,3,"8,40",4,0,1,0,"0,96",0,0,51,0,1,65,10,"4,67",0,5,0,42,2
24,17.619732085864808,Samuel Xavier ,1,LAT,"4,14",18,68,Sport,2,"0,00",1,0,3,0,"0,00",0,0,24,0,0,26,7,"3,22",0,0,4,17,0
24,17.619732085864808,Bruno Silva ,13,MEI,"13,90",20,73,Botafogo,3,"8,70",0,0,6,5,"0,68",0,0,42,0,4,34,0,"5,46",0,0,5,39,0
24,17.619732085864808,Matheus Galdezani ,13,MEI,"7,38",22,89,Coritiba,3,"1,10",1,0,0,1,"-0,84",0,0,37,0,1,40,0,"2,60",0,6,0,44,13
24,17.619732085864808,Wendel ,7,MEI,"12,17",20,46,Fluminense,3,"-2,90",2,0,2,4,"-2,38",0,0,27,2,2,49,0,"5,17",0,0,7,18,0
24,17.619732085864808,Paulinho ,1,ATA,"6,15",1,5,Vitória,3,"2,70",0,0,0,0,"0,15",0,0,0,1,0,0,0,"2,70",0,0,0,0,0
24,17.619732085864808,Gabriel ,1,ATA,"2,93",2,0,Flamengo,3,"0,70",0,0,0,0,"-0,58",0,0,0,0,0,2,0,"-0,65",0,1,0,2,0
24,17.619732085864808,Andres Chavez ,0,ATA,"7,00",0,0,São Paulo,2,"0,00",0,0,0,0,"0,00",0,0,0,0,0,0,0,"0,00",0,0,0,0,0
25,23.94244824016563,Cuca ,0,TEC,"14,38",25,0,Palmeiras,3,"6,36",0,0,0,0,"-0,03",0,0,0,0,0,0,0,"4,08",0,0,0,0,0
25,23.94244824016563,Douglas Friedrich ,0,GOL,"11,68",16,1,Avaí,3,"13,00",0,0,0,0,"1,65",0,45,0,0,0,5,9,"9,67",15,2,1,1,0
25,23.94244824016563,Marllon ,3,ZAG,"11,60",23,40,Ponte Preta,3,"1,40",0,0,0,0,"0,03",0,0,36,1,0,24,8,"4,17",0,3,0,14,2
25,23.94244824016563,Betão ,1,ZAG,"6,36",23,50,Avaí,3,"-2,20",0,0,0,0,"-0,42",0,0,15,0,0,20,11,"2,46",0,6,0,17,1
25,23.94244824016563,Fernandinho ,0,LAT,"5,26",4,9,Ponte Preta,2,"0,00",2,0,1,0,"0,00",0,0,2,1,0,0,2,"2,43",0,0,0,3,0
25,23.94244824016563,Guilherme Arana ,3,LAT,"9,85",21,70,Corinthians,3,"2,00",4,0,0,2,"-0,42",0,0,11,0,2,26,14,"4,53",0,3,0,15,2
25,23.94244824016563,Zé Rafael  ,12,MEI,"20,60",24,50,Bahia,3,"8,00",7,0,0,2,"0,36",0,0,61,0,4,76,0,"6,40",0,4,0,48,18
25,23.94244824016563,Matheus Galdezani ,14,MEI,"8,04",23,92,Coritiba,3,"4,90",1,0,6,1,"0,66",0,0,40,0,1,41,0,"2,70",0,0,13,45,0
25,23.94244824016563,Wendel ,7,MEI,"12,48",21,52,Fluminense,3,"-0,10",2,0,0,4,"0,31",0,0,28,2,2,53,0,"4,92",0,2,0,22,7
25,23.94244824016563,Paulinho ,1,ATA,"6,15",1,5,Vitória,3,"2,70",0,0,0,0,"0,15",0,0,0,1,0,0,0,"2,70",0,0,0,0,0
25,23.94244824016563,Gabriel ,0,ATA,"6,00",0,0,Flamengo,2,"0,00",0,0,0,0,"0,00",0,0,0,0,0,0,0,"0,00",0,0,0,0,0
25,23.94244824016563,Andres Chavez ,0,ATA,"7,00",0,0,São Paulo,2,"0,00",0,0,0,0,"0,00",0,0,0,0,0,0,0,"0,00",0,0,0,0,0
26,26.37407575757576,Fábio Carille ,0,TEC,"11,72",25,0,Corinthians,3,"1,81",0,0,0,0,"-0,07",0,0,0,0,0,0,0,"4,36",0,0,0,0,0
26,26.37407575757576,Cássio ,0,GOL,"13,11",25,8,Corinthians,3,"1,20",0,0,2,0,"-0,40",0,29,0,0,0,7,14,"5,54",15,0,0,0,2
26,26.37407575757576,Reginaldo ,2,ZAG,"4,53",11,41,Fluminense,3,"1,70",0,0,0,0,"0,01",0,0,29,0,0,8,1,"3,72",0,0,0,13,0
26,26.37407575757576,Betão ,1,ZAG,"6,58",24,51,Avaí,3,"-0,80",0,0,6,0,"0,22",0,0,15,0,0,20,11,"2,32",0,0,1,18,0
26,26.37407575757576,Diogo Barbosa ,3,LAT,"12,59",22,83,Cruzeiro,3,"3,10",2,0,4,0,"-0,69",0,0,33,1,3,26,9,"4,17",0,0,2,22,0
26,26.37407575757576,Fagner Alemão ,5,LAT,"9,92",22,59,Avaí,3,"2,60",4,0,0,0,"0,18",0,0,39,0,0,15,9,"4,16",0,3,0,12,1
26,26.37407575757576,Zé Rafael  ,12,MEI,"22,69",25,53,Bahia,3,"17,40",7,0,4,3,"2,09",0,0,65,0,4,84,0,"6,84",0,0,18,49,0
26,26.37407575757576,Jadson ,12,MEI,"8,31",20,105,Corinthians,3,"-0,70",3,0,0,4,"0,02",0,0,9,0,1,12,0,"1,28",0,2,0,14,3
26,26.37407575757576,Wellington Simião ,7,MEI,"2,92",22,40,Avaí,3,"1,60",3,0,3,2,"0,25",0,0,10,1,0,28,0,"1,31",0,0,3,19,0
26,26.37407575757576,Rafaelson ,3,ATA,"1,54",4,5,Vitória,2,"0,00",0,0,1,0,"0,00",0,0,1,0,0,2,0,"-0,43",0,0,2,10,0
26,26.37407575757576,Henrique Dourado ,9,ATA,"21,24",20,54,Fluminense,3,"-1,20",6,0,4,14,"0,07",0,0,9,0,2,39,0,"5,98",0,0,10,53,0
26,26.37407575757576,Leandro Damião ,0,ATA,"8,00",0,0,Flamengo,2,"0,00",0,0,0,0,"0,00",0,0,0,0,0,0,0,"0,00",0,0,0,0,0
27,0.0,Fábio Carille ,0,TEC,"12,27",26,0,Corinthians,3,"0,00",0,0,0,0,"0,55",0,0,0,0,0,0,0,"4,38",0,0,0,0,0
27,0.0,Cássio ,0,GOL,"14,12",26,0,Corinthians,3,"0,00",0,0,0,0,"1,01",0,0,0,0,0,0,0,"5,60",0,0,0,0,0
27,0.0,Reginaldo ,0,ZAG,"4,24",12,0,Fluminense,3,"0,00",0,0,0,0,"-0,29",0,0,0,0,0,0,0,"3,41",0,0,0,0,0
27,0.0,Betão ,0,ZAG,"7,95",25,0,Avaí,3,"0,00",0,0,0,0,"1,37",0,0,0,0,0,0,0,"2,51",0,0,0,0,0
27,0.0,Diogo Barbosa ,0,LAT,"13,86",23,0,Cruzeiro,2,"0,00",0,0,0,0,"1,27",0,0,0,0,0,0,0,"4,42",0,0,0,0,0
27,0.0,William Matheus ,0,LAT,"6,45",21,0,Coritiba,1,"0,00",0,0,0,0,"-0,87",0,0,0,0,0,0,0,"2,13",0,0,0,0,0
27,0.0,Renê Júnior ,0,MEI,"10,75",20,0,Bahia,3,"0,00",0,0,0,0,"-1,47",0,0,0,0,0,0,0,"6,02",0,0,0,0,0
27,0.0,Willian Arão ,0,MEI,"9,54",20,0,Flamengo,3,"0,00",0,0,0,0,"0,13",0,0,0,0,0,0,0,"3,71",0,0,0,0,0
27,0.0,Alex ,0,MEI,"3,30",1,0,Cruzeiro,2,"0,00",0,0,0,0,"0,00",0,0,0,0,0,0,0,"4,20",0,0,0,0,0
27,0.0,Everton ,0,ATA,"10,38",23,0,Grêmio,2,"0,00",0,0,0,0,"-1,26",0,0,0,0,0,0,0,"4,18",0,0,0,0,0
27,0.0,Neilton ,0,ATA,"5,00",0,0,São Paulo,2,"0,00",0,0,0,0,"0,00",0,0,0,0,0,0,0,"0,00",0,0,0,0,0
27,0.0,Leandro Damião ,0,ATA,"8,00",0,0,Flamengo,2,"0,00",0,0,0,0,"0,00",0,0,0,0,0,0,0,"0,00",0,0,0,0,0
28,0.0,Renato Gaúcho ,0,TEC,"15,61",27,0,Grêmio,3,"0,00",0,0,0,0,"0,32",0,0,0,0,0,0,0,"4,24",0,0,0,0,0
28,0.0,Cleiton ,0,GOL,"1,85",1,0,Atlético-MG,2,"0,00",0,0,0,0,"0,00",0,0,0,0,0,0,0,"4,90",0,0,0,0,0
28,0.0,Donatti ,0,ZAG,"8,00",0,0,Flamengo,5,"0,00",0,0,0,0,"0,00",0,0,0,0,0,0,0,"0,00",0,0,0,0,0
28,0.0,Antônio Carlos  ,0,ZAG,"3,05",4,0,Palmeiras,2,"0,00",0,0,0,0,"0,00",0,0,0,0,0,0,0,"0,92",0,0,0,0,0
28,0.0,Léo Principe ,0,LAT,"2,55",3,0,Corinthians,2,"0,00",0,0,0,0,"0,00",0,0,0,0,0,0,0,"2,33",0,0,0,0,0
28,0.0,Leandro Silva ,0,LAT,"9,84",27,0,Avaí,3,"0,00",0,0,0,0,"1,29",0,0,0,0,0,0,0,"3,62",0,0,0,0,0
28,0.0,Hudson ,0,MEI,"7,11",14,0,Cruzeiro,3,"0,00",0,0,0,0,"0,00",0,0,0,0,0,0,0,"3,49",0,0,0,0,0
28,0.0,Matheus Bezerra ,0,MEI,"1,00",0,0,Sport,2,"0,00",0,0,0,0,"0,00",0,0,0,0,0,0,0,"0,00",0,0,0,0,0
28,0.0,Kady ,0,MEI,"4,00",0,0,Coritiba,2,"0,00",0,0,0,0,"0,00",0,0,0,0,0,0,0,"0,00",0,0,0,0,0
28,0.0,André ,0,ATA,"10,65",24,0,Sport,3,"0,00",0,0,0,0,"0,00",0,0,0,0,0,0,0,"4,57",0,0,0,0,0
28,0.0,Ty Sandows ,0,ATA,"1,00",0,0,Grêmio,2,"0,00",0,0,0,0,"0,00",0,0,0,0,0,0,0,"0,00",0,0,0,0,0
28,0.0,Lucas Barrios ,0,ATA,"9,21",14,0,Grêmio,3,"0,00",0,0,0,0,"0,47",0,0,0,0,0,0,0,"3,02",0,0,0,0,0
29,24.145661027568924,Abel Braga ,0,TEC,"12,09",27,0,Fluminense,3,"5,09",0,0,0,0,"-0,24",0,0,0,0,0,0,0,"3,05",0,0,0,0,0
29,24.145661027568924,Jandrei ,0,GOL,"3,89",28,28,Chapecoense,3,"-4,30",0,0,0,0,"-1,51",0,28,0,0,0,10,7,"1,31",42,1,1,0,0
29,24.145661027568924,Marllon ,3,ZAG,"11,30",26,42,Ponte Preta,3,"-0,10",1,0,0,0,"-0,51",0,0,39,1,0,29,9,"4,02",0,4,0,16,2
29,24.145661027568924,Breno ,0,ZAG,"4,00",0,0,São Paulo,2,"0,00",0,0,0,0,"0,00",0,0,0,0,0,0,0,"0,00",0,0,0,0,0
29,24.145661027568924,Arnaldo ,1,LAT,"9,63",21,57,Botafogo,3,"5,30",1,0,0,0,"0,34",0,0,43,0,1,33,7,"4,51",0,3,0,28,2
29,24.145661027568924,Pará ,7,LAT,"8,65",21,52,Flamengo,3,"1,60",1,0,1,1,"-0,77",0,0,18,0,1,16,8,"2,97",0,1,0,20,0
29,24.145661027568924,Willians ,0,MEI,"4,00",0,0,Cruzeiro,2,"0,00",0,0,0,0,"0,00",0,0,0,0,0,0,0,"0,00",0,0,0,0,0
29,24.145661027568924,Jailson ,2,MEI,"4,70",14,15,Grêmio,3,"7,00",1,0,0,0,"1,22",0,0,12,0,1,8,0,"1,20",0,1,0,14,0
29,24.145661027568924,Edson ,12,MEI,"14,05",16,25,Bahia,3,"4,70",2,1,0,1,"-1,36",0,0,47,0,1,21,0,"5,08",0,3,0,28,3
29,24.145661027568924,Paolo Guerrero ,23,ATA,"11,33",19,45,Flamengo,3,"0,90",15,0,4,6,"-0,07",0,0,14,0,3,48,0,"4,12",0,0,14,67,0
29,24.145661027568924,Rafael Marques ,0,ATA,"5,00",0,0,Palmeiras,2,"0,00",0,0,0,0,"0,00",0,0,0,0,0,0,0,"0,00",0,0,0,0,0
29,24.145661027568924,Lucca ,25,ATA,"19,89",26,69,Ponte Preta,3,"0,60",9,0,3,10,"-0,50",2,0,24,0,1,85,0,"6,03",0,0,24,30,0
30,12.450193906516954,Mano Menezes ,0,TEC,"12,65",29,0,Cruzeiro,3,"3,06",0,0,0,0,"0,36",0,0,0,0,0,0,0,"3,74",0,0,0,0,0
30,12.450193906516954,Cássio ,0,GOL,"12,64",29,8,Corinthians,3,"-1,00",0,0,0,0,"-1,55",0,35,0,0,0,8,15,"5,25",20,2,2,0,0
30,12.450193906516954,Thiago Heleno ,8,ZAG,"8,59",21,38,Atlético-PR,3,"3,60",1,0,6,3,"0,70",0,0,17,0,0,11,6,"2,94",0,0,2,21,0
30,12.450193906516954,Kannemann ,3,ZAG,"10,90",19,39,Grêmio,2,"0,00",3,0,0,0,"0,00",0,0,26,1,0,13,9,"3,18",0,7,0,27,0
30,12.450193906516954,Thiago Carleto ,4,LAT,"5,67",14,57,Coritiba,3,"1,90",0,0,2,2,"-0,32",1,0,17,0,3,11,4,"4,89",0,0,10,10,0
30,12.450193906516954,Fábio Santos ,5,LAT,"5,36",26,89,Atlético-MG,3,"6,70",2,0,7,4,"-0,15",0,0,30,0,2,47,6,"3,61",0,0,2,33,0
30,12.450193906516954,Adryan  ,0,MEI,"2,00",0,0,Flamengo,2,"0,00",0,0,0,0,"0,00",0,0,0,0,0,0,0,"0,00",0,0,0,0,0
30,12.450193906516954,Rithely ,24,MEI,"10,55",25,88,Sport,3,"-0,90",1,0,6,1,"-0,92",0,0,60,0,2,26,0,"3,98",0,0,10,43,0
30,12.450193906516954,Kady ,0,MEI,"4,00",0,0,Coritiba,2,"0,00",0,0,0,0,"0,00",0,0,0,0,0,0,0,"0,00",0,0,0,0,0
30,12.450193906516954,Maranhão ,0,ATA,"3,00",0,0,Fluminense,2,"0,00",0,0,0,0,"0,00",0,0,0,0,0,0,0,"0,00",0,0,0,0,0
30,12.450193906516954,Lucas Pratto ,35,ATA,"15,53",29,92,São Paulo,3,"6,90",5,1,2,7,"1,58",1,0,17,0,4,29,0,"3,75",0,0,27,39,0
30,12.450193906516954,Grafite ,0,ATA,"12,00",0,0,Atlético-PR,2,"0,00",0,0,0,0,"0,00",0,0,0,0,0,0,0,"0,00",0,0,0,0,0
31,20.33154427456601,Abel Braga ,0,TEC,"11,83",29,0,Fluminense,3,"3,75",0,0,0,0,"-0,05",0,0,0,0,0,0,0,"3,09",0,0,0,0,0
31,20.33154427456601,Bruno Brígido ,0,GOL,"3,48",1,0,Coritiba,2,"0,00",0,0,1,0,"0,00",0,0,0,0,0,0,0,"-2,00",0,0,0,0,0
31,20.33154427456601,Lucas Veríssimo ,5,ZAG,"7,89",28,44,Santos,3,"1,80",1,0,0,0,"-0,93",0,0,34,0,0,17,16,"4,21",0,7,0,21,6
31,20.33154427456601,Balbuena ,5,ZAG,"10,75",26,61,Corinthians,3,"2,10",5,0,5,3,"-0,25",0,0,37,0,1,19,13,"5,17",0,0,1,12,0
31,20.33154427456601,Lucas ,5,LAT,"2,97",24,81,Fluminense,3,"4,90",7,0,0,0,"0,42",0,0,33,0,1,20,1,"0,78",0,8,0,44,5
31,20.33154427456601,Fagner ,4,LAT,"12,72",25,110,Corinthians,3,"3,90",3,0,7,0,"0,42",0,0,43,2,2,38,13,"4,64",0,0,1,27,0
31,20.33154427456601,Rodrigo Lindoso ,7,MEI,"10,15",23,75,Botafogo,3,"0,00",0,0,0,3,"0,00",0,0,45,1,1,23,0,"3,70",0,3,0,30,3
31,20.33154427456601,Lucas Lima ,8,MEI,"3,38",21,110,Santos,3,"-3,70",0,0,0,1,"-3,20",0,0,26,0,4,61,0,"2,02",0,11,0,38,8
31,20.33154427456601,Kady ,0,MEI,"4,00",0,0,Coritiba,2,"0,00",0,0,0,0,"0,00",0,0,0,0,0,0,0,"0,00",0,0,0,0,0
31,20.33154427456601,Rogério ,9,ATA,"8,14",20,46,Sport,3,"11,50",0,0,0,2,"1,49",0,0,10,0,2,36,0,"2,86",0,0,7,7,0
31,20.33154427456601,Rildo ,7,ATA,"9,19",28,77,Coritiba,3,"2,10",8,0,0,6,"-1,39",0,0,27,0,2,103,0,"4,21",0,3,0,32,7
31,20.33154427456601,Ángel Romero ,7,ATA,"11,54",24,83,Corinthians,3,"1,20",13,0,8,2,"-0,08",0,0,45,0,2,72,0,"3,69",0,0,9,33,0
32,23.4977721489373,Abel Braga ,0,TEC,"12,14",30,0,Fluminense,3,"5,01",0,0,0,0,"0,31",0,0,0,0,0,0,0,"3,15",0,0,0,0,0
32,23.4977721489373,Bruno Brígido ,0,GOL,"3,48",1,0,Coritiba,2,"0,00",0,0,0,0,"0,00",0,0,0,0,0,0,0,"-2,00",0,1,0,0,0
32,23.4977721489373,Douglas Grolli ,1,ZAG,"5,79",18,27,Chapecoense,3,"1,40",3,0,0,1,"0,14",0,0,16,0,0,4,4,"0,74",0,8,0,38,0
32,23.4977721489373,Pedro Geromel ,5,ZAG,"13,12",18,43,Grêmio,3,"2,60",0,0,0,0,"-0,73",0,0,43,0,2,12,10,"6,55",0,4,0,14,3
32,23.4977721489373,Reinaldo ,13,LAT,"12,54",27,116,Chapecoense,3,"-0,40",1,0,6,4,"-0,55",0,0,47,0,5,22,8,"5,12",0,0,8,39,0
32,23.4977721489373,Capa ,10,LAT,"11,37",29,149,Avaí,3,"0,00",4,0,1,0,"-0,48",0,0,61,0,1,79,10,"4,17",0,5,0,48,2
32,23.4977721489373,Cuéllar ,0,MEI,"7,01",19,30,Flamengo,3,"11,60",0,0,0,0,"0,82",0,0,57,0,0,14,0,"4,36",0,3,0,18,3
32,23.4977721489373,Lucas Lima ,10,MEI,"5,58",22,113,Santos,3,"9,20",1,0,11,1,"2,20",0,0,27,0,5,64,0,"2,35",0,0,9,38,0
32,23.4977721489373,Kady ,0,MEI,"4,00",0,0,Coritiba,2,"0,00",0,0,0,0,"0,00",0,0,0,0,0,0,0,"0,00",0,0,0,0,0
32,23.4977721489373,Rogério ,9,ATA,"6,86",21,50,Sport,3,"2,70",0,0,0,2,"-1,28",0,0,12,0,2,38,0,"2,85",0,0,0,8,7
32,23.4977721489373,Rildo ,7,ATA,"9,71",29,78,Coritiba,3,"4,80",9,0,3,6,"0,52",0,0,30,0,2,105,0,"4,23",0,0,7,33,0
32,23.4977721489373,Ángel Romero ,7,ATA,"13,43",25,86,Corinthians,3,"11,70",13,0,0,3,"1,89",0,0,48,0,2,76,0,"4,01",0,9,0,36,10
33,11.737168128302429,Fábio Carille ,0,TEC,"12,22",32,0,Corinthians,3,"0,00",0,0,0,0,"0,41",0,0,0,0,0,0,0,"4,15",0,0,0,0,0
33,11.737168128302429,Diego Cavalieri ,0,GOL,"3,97",11,0,Fluminense,3,"0,00",0,0,0,0,"0,74",0,0,0,0,0,0,0,"1,68",0,0,0,0,0
33,11.737168128302429,Paulo André ,0,ZAG,"4,57",17,0,Atlético-PR,3,"0,00",0,0,0,0,"0,37",0,0,0,0,0,0,0,"1,95",0,0,0,0,0
33,11.737168128302429,Igor Rabello ,0,ZAG,"10,59",27,0,Botafogo,4,"0,00",0,0,0,0,"0,40",0,0,0,0,0,0,0,"3,19",0,0,0,0,0
33,11.737168128302429,Ezequiel  ,0,LAT,"5,72",20,0,Cruzeiro,3,"0,00",0,0,0,0,"-0,85",0,0,0,0,0,0,0,"2,66",0,0,0,0,0
33,11.737168128302429,Wallace Oliveira ,0,LAT,"5,00",0,0,Grêmio,2,"0,00",0,0,0,0,"0,00",0,0,0,0,0,0,0,"0,00",0,0,0,0,0
33,11.737168128302429,Montillo ,0,MEI,"7,00",0,0,Botafogo,2,"0,00",0,0,0,0,"0,00",0,0,0,0,0,0,0,"0,00",0,0,0,0,0
33,11.737168128302429,Diego Souza ,0,MEI,"14,94",22,0,Sport,2,"0,00",0,0,0,0,"0,00",0,0,0,0,0,0,0,"4,29",0,0,0,0,0
33,11.737168128302429,Gustavo Scarpa ,0,MEI,"12,59",31,0,Fluminense,3,"0,00",0,0,0,0,"-0,77",0,0,0,0,0,0,0,"4,25",0,0,0,0,0
33,11.737168128302429,Miller Bolaños ,0,ATA,"14,00",0,0,Grêmio,2,"0,00",0,0,0,0,"0,00",0,0,0,0,0,0,0,"0,00",0,0,0,0,0
33,11.737168128302429,Arthur  ,0,ATA,"11,87",30,0,Chapecoense,3,"0,00",0,0,0,0,"0,79",0,0,0,0,0,0,0,"4,61",0,0,0,0,0
33,11.737168128302429,Lenis ,0,ATA,"4,29",17,0,Sport,2,"0,00",0,0,0,0,"0,81",0,0,0,0,0,0,0,"2,81",0,0,0,0,0
34,17.432722220308428,Fábio Carille ,0,TEC,"12,13",33,0,Corinthians,3,"5,12",0,0,0,0,"-0,09",0,0,0,0,0,0,0,"4,18",0,0,0,0,0
34,17.432722220308428,Fernando Prass ,0,GOL,"14,78",30,13,Palmeiras,3,"4,40",0,0,0,0,"1,04",0,49,1,0,0,8,8,"3,99",36,2,1,0,0
34,17.432722220308428,Kannemann ,3,ZAG,"9,51",21,41,Grêmio,3,"2,40",3,0,7,0,"-0,63",0,0,31,1,0,17,9,"3,28",0,0,0,30,0
34,17.432722220308428,Kanu ,10,ZAG,"8,23",22,47,Vitória,3,"-0,40",5,0,6,4,"-0,40",0,0,24,1,1,12,6,"3,88",0,1,4,17,0
34,17.432722220308428,Reinaldo ,13,LAT,"14,10",29,123,Chapecoense,3,"7,90",1,0,6,5,"-1,03",0,0,52,0,6,22,9,"5,54",0,0,8,43,0
34,17.432722220308428,Fagner ,4,LAT,"13,46",28,116,Corinthians,3,"7,80",3,0,0,0,"0,23",0,0,47,2,2,42,15,"4,70",0,8,0,30,3
34,17.432722220308428,Matheus Galdezani ,17,MEI,"6,56",29,110,Coritiba,2,"0,00",1,0,8,1,"0,00",0,0,47,0,1,48,0,"2,12",0,1,13,50,0
34,17.432722220308428,Mateus Pet ,0,MEI,"5,02",1,1,Vasco,3,"5,10",0,0,0,0,"3,02",0,0,2,0,0,1,0,"5,10",0,0,2,1,0
34,17.432722220308428,Rodriguinho ,24,MEI,"13,28",29,104,Corinthians,3,"-0,60",3,0,5,3,"-0,32",0,0,24,2,5,55,0,"3,44",0,0,25,47,0
34,17.432722220308428,Edigar Junio ,7,ATA,"12,74",22,51,Bahia,3,"18,30",1,0,2,11,"0,43",0,0,14,1,1,36,0,"5,46",0,0,13,33,0
34,17.432722220308428,Alison ,0,ATA,"1,00",0,0,Sport,2,"0,00",0,0,0,0,"0,00",0,0,0,0,0,0,0,"0,00",0,0,0,0,0
34,17.432722220308428,Fernandinho ,16,ATA,"12,12",26,48,Grêmio,3,"8,20",3,0,2,7,"1,66",0,0,22,0,1,73,0,"4,66",0,0,13,36,0
35,16.014599561147257,Renato Gaúcho ,0,TEC,"15,65",34,0,Grêmio,3,"5,14",0,0,0,0,"0,42",0,0,0,0,0,0,0,"4,30",0,0,0,0,0
35,16.014599561147257,Fernando Prass ,0,GOL,"16,95",31,14,Palmeiras,3,"16,20",0,0,2,0,"2,17",0,55,1,0,0,9,8,"4,38",37,0,0,0,1
35,16.014599561147257,Rodrigo Caio ,10,ZAG,"9,23",30,48,São Paulo,3,"0,90",2,0,0,0,"0,05",0,0,44,1,0,18,6,"2,80",0,8,0,22,2
35,16.014599561147257,Balbuena ,6,ZAG,"11,44",29,63,Corinthians,3,"0,00",5,0,0,4,"0,00",0,0,40,0,1,21,15,"5,35",0,6,0,17,2
35,16.014599561147257,Jonathan ,2,LAT,"9,46",25,71,Atlético-PR,3,"0,00",1,0,0,2,"0,00",0,0,31,0,2,21,7,"3,64",0,3,0,17,2
35,16.014599561147257,Jeferson ,4,LAT,"5,16",20,79,Ponte Preta,3,"-1,20",0,0,0,0,"-0,18",0,0,20,0,2,11,9,"2,70",0,4,0,23,0
35,16.014599561147257,Lucas Silva ,5,MEI,"4,54",18,41,Cruzeiro,2,"0,00",1,1,0,0,"0,00",0,0,23,0,2,16,0,"1,31",0,3,0,28,1
35,16.014599561147257,Camilo ,0,MEI,"14,78",1,2,Botafogo,3,"-0,10",0,0,0,0,"-6,22",0,0,0,0,0,1,0,"-0,10",0,0,0,0,0
35,16.014599561147257,Judson ,12,MEI,"6,01",31,60,Avaí,3,"9,10",0,0,0,0,"1,58",0,0,64,0,1,22,0,"2,10",0,11,0,63,3
35,16.014599561147257,Henrique Dourado ,14,ATA,"19,68",27,66,Fluminense,3,"-5,50",9,0,7,17,"-2,33",0,0,9,0,3,58,0,"5,26",0,0,14,78,0
35,16.014599561147257,Lucca ,31,ATA,"19,38",32,87,Ponte Preta,3,"-0,40",11,0,0,11,"-1,42",2,0,27,0,2,97,0,"5,45",0,5,0,40,29
35,16.014599561147257,Pedro ,3,ATA,"3,65",11,11,Fluminense,2,"-2,50",1,0,0,2,"-1,84",0,0,9,0,0,11,0,"2,42",0,2,0,15,3
36,44.33374333865059,Jair Ventura ,0,TEC,"12,46",36,0,Botafogo,3,"5,55",0,0,0,0,"0,36",0,0,0,0,0,0,0,"4,14",0,0,0,0,0
36,44.33374333865059,Fábio ,0,GOL,"11,67",32,15,Cruzeiro,3,"-2,30",0,0,0,0,"0,12",0,41,0,0,0,2,11,"3,50",31,0,0,1,0
36,44.33374333865059,Edu Dracena ,10,ZAG,"8,49",24,12,Palmeiras,3,"0,00",2,0,5,0,"0,00",0,0,21,0,0,29,8,"3,03",0,0,3,26,0
36,44.33374333865059,Werley ,7,ZAG,"7,56",24,59,Coritiba,3,"-3,30",1,1,2,4,"-1,86",0,0,22,1,0,9,8,"3,71",0,0,2,17,0
36,44.33374333865059,Reinaldo ,13,LAT,"13,92",31,137,Chapecoense,3,"5,40",3,0,0,5,"-0,46",0,0,55,0,8,26,9,"5,63",0,6,0,45,11
36,44.33374333865059,Trauco ,7,LAT,"6,73",22,86,Flamengo,3,"5,00",0,1,0,1,"0,25",0,0,26,1,0,9,9,"2,70",0,3,0,36,4
36,44.33374333865059,Camacho ,3,MEI,"3,85",25,27,Corinthians,3,"1,90",0,0,0,0,"0,20",0,0,22,0,0,11,0,"0,76",0,2,0,30,1
36,44.33374333865059,Arrascaeta ,8,MEI,"7,58",14,55,Cruzeiro,3,"-0,70",0,0,1,2,"-2,19",0,0,10,0,1,27,0,"3,29",0,0,13,11,0
36,44.33374333865059,Judson ,13,MEI,"5,05",32,63,Avaí,3,"2,70",0,0,11,0,"-0,96",0,0,66,0,1,22,0,"2,12",0,0,3,64,0
36,44.33374333865059,Henrique Dourado ,14,ATA,"22,60",28,66,Fluminense,3,"12,70",9,0,0,18,"2,92",0,0,10,0,3,60,0,"5,53",0,7,0,80,17
36,44.33374333865059,Lucca ,32,ATA,"19,54",33,88,Ponte Preta,3,"1,40",11,0,5,11,"0,16",2,0,27,0,2,99,0,"5,33",0,0,29,40,0
36,44.33374333865059,Bruno Henrique ,16,ATA,"14,40",26,90,Santos,3,"7,10",10,1,6,7,"-1,42",0,0,33,1,11,78,0,"6,00",0,0,18,67,0
37,13.46396583805386,Cuca ,0,TEC,"15,09",1,0,Palmeiras,3,"8,34",0,0,0,0,"2,09",0,0,0,0,0,0,0,"8,34",0,0,0,0,0
37,13.46396583805386,Matheus Vidotto ,0,GOL,"3,00",0,0,Corinthians,2,"0,00",0,0,0,0,"0,00",0,0,0,0,0,0,0,"0,00",0,0,0,0,0
37,13.46396583805386,Rafael Vaz ,9,ZAG,"8,04",19,55,Flamengo,3,"4,30",0,0,1,0,"0,50",0,0,21,0,0,7,8,"3,67",0,0,8,10,0
37,13.46396583805386,Kanu ,10,ZAG,"7,59",24,52,Vitória,3,"-3,20",6,0,8,4,"-0,27",0,0,25,1,1,12,6,"3,34",0,1,5,21,0
37,13.46396583805386,Lucas ,6,LAT,"2,72",29,87,Fluminense,3,"1,60",9,0,0,0,"-0,28",0,0,37,0,2,26,2,"1,11",0,9,0,48,5
37,13.46396583805386,Thiago Carleto ,5,LAT,"6,84",20,83,Coritiba,3,"3,10",1,0,3,2,"-0,64",1,0,31,0,8,14,6,"6,05",0,0,15,16,0
37,13.46396583805386,Moisés ,7,MEI,"8,80",18,78,Palmeiras,3,"-2,10",0,0,2,3,"-1,20",0,0,30,1,3,39,0,"4,94",0,0,6,15,0
37,13.46396583805386,Diguinho ,0,MEI,"3,00",0,0,Vasco,2,"0,00",0,0,0,0,"0,00",0,0,0,0,0,0,0,"0,00",0,0,0,0,0
37,13.46396583805386,Moisés Ribeiro ,3,MEI,"3,57",22,45,Chapecoense,3,"1,20",0,0,7,0,"-0,04",0,0,40,0,0,37,0,"1,49",0,0,0,57,0
37,13.46396583805386,Arthur  ,28,ATA,"11,48",33,73,Chapecoense,3,"0,00",12,0,0,8,"0,00",0,0,38,2,6,67,0,"5,08",0,6,0,56,17
37,13.46396583805386,Rildo ,9,ATA,"9,02",33,85,Coritiba,3,"2,20",9,0,0,6,"0,84",0,0,33,0,2,112,0,"3,66",0,6,0,42,8
37,13.46396583805386,Luis Henrique ,0,ATA,"4,00",0,0,Atlético-PR,2,"0,00",0,0,0,0,"0,00",0,0,0,0,0,0,0,"0,00",0,0,0,0,0
