round,fitness,name,position,team,situation,price,meatches,average,last_score,difference,disarms,goals,assists,no_goals,fouls_suffered,strikes_out,strikes_defended,strikes_post,difficult_defense,penalty_defense,own_goal,red_card,yellow_card,goal_suffered,penalty_lost,fouls_commited,offsides,wrong_pass
0,9.449999999999998,Jair Ventura ,0,TEC,"7,32",1,0,Botafogo,3,"1,35",0,0,0,0,"-1,68",0,0,0,0,0,0,0,"1,35",0,0,0,0,0
0,9.449999999999998,Jordi ,0,GOL,"4,00",0,0,Vasco,2,"0,00",0,0,0,0,"0,00",0,0,0,0,0,0,0,"0,00",0,0,0,0,0
0,9.449999999999998,Pablo ,0,ZAG,"10,54",1,1,Corinthians,2,"0,90",0,0,0,0,"-3,46",0,0,1,0,0,0,0,"0,90",0,0,0,1,0
0,9.449999999999998,Kannemann ,0,ZAG,"10,19",1,1,Grêmio,3,"5,40",0,0,0,0,"1,19",0,0,1,0,0,1,1,"5,40",0,0,0,3,0
0,9.449999999999998,João Lucas ,0,LAT,"10,89",1,5,Ponte Preta,3,"11,40",0,0,0,0,"6,89",0,0,2,0,1,0,1,"11,40",0,0,0,1,0
0,9.449999999999998,Capa ,2,LAT,"7,78",1,8,Avaí,3,"7,00",0,0,0,0,"3,78",0,0,0,0,0,4,1,"7,00",0,0,1,0,0
0,9.449999999999998,Matheus Sávio ,1,MEI,"11,39",1,0,Flamengo,3,"12,10",0,0,0,1,"7,39",0,0,2,0,0,0,0,"12,10",0,0,0,0,0
0,9.449999999999998,Marcelo Mattos ,0,MEI,"4,00",0,0,Vasco,2,"0,00",0,0,0,0,"0,00",0,0,0,0,0,0,0,"0,00",0,0,0,0,0
0,9.449999999999998,Nadson ,0,MEI,"0,85",1,1,Chapecoense,2,"-0,80",0,0,0,0,"-1,15",0,0,0,0,0,0,0,"-0,80",0,0,0,1,0
0,9.449999999999998,Ricardo Oliveira ,3,ATA,"16,34",1,0,Santos,3,"3,10",1,0,1,0,"-3,66",0,0,0,1,0,1,0,"3,10",0,0,1,3,0
0,9.449999999999998,Pedro Rocha ,0,ATA,"8,21",1,2,Grêmio,3,"3,60",0,0,0,0,"0,21",0,0,1,0,0,3,0,"3,60",0,0,1,0,0
0,9.449999999999998,Rossi ,0,ATA,"9,48",1,1,Chapecoense,3,"5,40",0,0,0,0,"1,48",0,0,1,1,0,1,0,"5,40",0,0,0,0,0
1,0.0,Jair Ventura ,0,TEC,"7,32",1,0,Botafogo,3,"1,35",0,0,0,0,"-1,68",0,0,0,0,0,0,0,"1,35",0,0,0,0,0
1,0.0,Walter ,0,GOL,"6,00",0,0,Corinthians,2,"0,00",0,0,0,0,"0,00",0,0,0,0,0,0,0,"0,00",0,0,0,0,0
1,0.0,Dedé ,0,ZAG,"8,63",1,5,Cruzeiro,3,"6,20",0,0,0,0,"2,63",0,0,1,0,0,2,1,"6,20",0,0,0,0,0
1,0.0,Bonfim  ,0,ZAG,"4,00",0,0,Atlético-GO,2,"0,00",0,0,0,0,"0,00",0,0,0,0,0,0,0,"0,00",0,0,0,0,0
1,0.0,João Lucas ,0,LAT,"10,89",1,5,Ponte Preta,3,"11,40",0,0,0,0,"6,89",0,0,2,0,1,0,1,"11,40",0,0,0,1,0
1,0.0,Capa ,2,LAT,"7,78",1,8,Avaí,3,"7,00",0,0,0,0,"3,78",0,0,0,0,0,4,1,"7,00",0,0,0,0,1
1,0.0,Renan Paulino ,0,MEI,"3,00",0,0,Atlético-PR,2,"0,00",0,0,0,0,"0,00",0,0,0,0,0,0,0,"0,00",0,0,0,0,0
1,0.0,Thiago Mendes ,0,MEI,"9,20",1,4,São Paulo,3,"1,00",0,0,0,0,"-2,80",0,0,1,0,0,1,0,"1,00",0,0,0,0,0
1,0.0,Alisson ,0,MEI,"10,82",1,6,Cruzeiro,3,"7,30",0,0,0,0,"2,82",0,0,3,0,1,0,0,"7,30",0,0,0,4,1
1,0.0,Manga Escobar ,0,ATA,"3,00",0,0,Vasco,2,"0,00",0,0,0,0,"0,00",0,0,0,0,0,0,0,"0,00",0,0,0,0,0
1,0.0,Everaldo ,1,ATA,"6,30",1,1,Atlético-GO,3,"4,90",1,0,0,0,"2,30",0,0,0,0,0,0,0,"4,90",0,0,0,0,5
1,0.0,Índio ,0,ATA,"2,00",0,0,Coritiba,2,"0,00",0,0,0,0,"0,00",0,0,0,0,0,0,0,"0,00",0,0,0,0,0
2,21.41,Zé Ricardo ,0,TEC,"10,45",2,0,Flamengo,3,"6,36",0,0,0,0,"0,94",0,0,0,0,0,0,0,"4,41",0,0,0,0,0
2,21.41,Gabriel Batista ,0,GOL,"1,00",0,0,Flamengo,2,"0,00",0,0,0,0,"0,00",0,0,0,0,0,0,0,"0,00",0,0,0,0,0
2,21.41,Rafael Vaz ,0,ZAG,"8,23",2,7,Flamengo,3,"5,00",0,0,0,0,"1,16",0,0,3,0,0,1,1,"4,00",0,0,0,1,0
2,21.41,Kannemann ,0,ZAG,"10,60",2,4,Grêmio,3,"3,60",0,0,0,0,"0,41",0,0,1,0,0,2,2,"4,50",0,0,0,5,0
2,21.41,Henrique ,0,LAT,"6,79",2,7,Vasco,3,"6,20",0,0,0,0,"1,70",0,0,5,0,0,5,0,"3,70",0,0,1,5,0
2,21.41,Norberto  ,0,LAT,"5,00",0,0,Vitória,2,"0,00",0,0,0,0,"0,00",0,0,0,0,0,0,0,"0,00",0,0,0,0,0
2,21.41,Willian Arão ,0,MEI,"10,36",2,11,Flamengo,3,"5,20",0,0,0,0,"0,74",0,0,3,0,1,2,0,"4,40",0,0,2,2,0
2,21.41,Matheus Galdezani ,2,MEI,"5,38",2,7,Coritiba,3,"1,60",0,0,1,0,"0,78",0,0,4,0,0,4,0,"3,05",0,0,2,4,0
2,21.41,Bruno Silva ,1,MEI,"10,65",2,9,Botafogo,3,"14,50",0,0,1,1,"4,85",0,0,6,0,0,4,0,"7,35",0,0,0,3,0
2,21.41,Murillo ,0,ATA,"1,00",0,0,Atlético-PR,2,"0,00",0,0,0,0,"0,00",0,0,0,0,0,0,0,"0,00",0,0,0,0,0
2,21.41,Jael ,0,ATA,"5,00",0,0,Grêmio,5,"0,00",0,0,0,0,"0,00",0,0,0,0,0,0,0,"0,00",0,0,0,0,0
2,21.41,Muriqui ,0,ATA,"5,00",0,0,Vasco,2,"0,00",0,0,0,0,"0,00",0,0,0,0,0,0,0,"0,00",0,0,0,0,0
3,23.489999999999995,Renato Gaúcho ,0,TEC,"14,27",3,0,Grêmio,3,"5,30",0,0,0,0,"0,38",0,0,0,0,0,0,0,"5,49",0,0,0,0,0
3,23.489999999999995,Fábio ,0,GOL,"13,10",3,1,Cruzeiro,3,"8,00",0,0,0,0,"1,57",0,3,0,0,0,0,2,"5,40",1,0,0,1,0
3,23.489999999999995,Matheus Ferraz ,1,ZAG,"5,46",3,6,Sport,3,"6,00",0,0,0,1,"1,56",0,0,3,0,0,1,0,"2,67",0,1,0,7,1
3,23.489999999999995,Lucão ,0,ZAG,"5,01",1,3,São Paulo,3,"8,00",0,0,0,0,"2,01",0,0,2,0,0,0,1,"8,00",0,0,0,1,1
3,23.489999999999995,Geferson ,0,LAT,"12,42",3,7,Vitória,3,"2,60",2,0,0,0,"-0,27",0,0,9,0,0,2,1,"5,90",0,0,0,1,0
3,23.489999999999995,Fernando ,0,LAT,"1,00",0,0,Botafogo,2,"0,00",0,0,0,0,"0,00",0,0,0,0,0,0,0,"0,00",0,0,0,0,0
3,23.489999999999995,Otero ,2,MEI,"6,74",3,1,Atlético-MG,3,"-2,50",0,0,0,0,"-1,94",0,0,1,0,0,2,0,"0,77",0,1,0,1,1
3,23.489999999999995,Igor ,1,MEI,"3,21",3,10,Atlético-GO,3,"-0,10",0,0,2,0,"-0,14",0,0,6,0,0,5,0,"0,80",0,0,2,12,0
3,23.489999999999995,Jadson ,4,MEI,"10,47",3,18,Corinthians,3,"0,80",1,0,0,0,"-1,03",0,0,1,0,0,1,0,"0,20",0,0,2,1,0
3,23.489999999999995,Denilson ,1,ATA,"2,35",3,11,Avaí,3,"1,00",0,0,0,0,"0,12",0,0,1,0,0,2,0,"-0,30",0,0,0,2,0
3,23.489999999999995,Henrique Dourado ,2,ATA,"26,12",3,8,Fluminense,3,"18,30",1,0,0,5,"4,30",0,0,1,0,1,4,0,"15,07",0,0,0,6,1
3,23.489999999999995,Paulo Vitor ,0,ATA,"1,41",1,0,Vasco,2,"0,00",0,0,0,0,"0,00",0,0,0,0,0,0,0,"0,00",0,0,0,0,0
4,21.41,Zé Ricardo ,0,TEC,"10,79",4,0,Flamengo,3,"4,39",0,0,0,0,"0,63",0,0,0,0,0,0,0,"4,01",0,0,0,0,0
4,21.41,Gabriel Batista ,0,GOL,"1,00",0,0,Flamengo,2,"0,00",0,0,0,0,"0,00",0,0,0,0,0,0,0,"0,00",0,0,0,0,0
4,21.41,Rafael Vaz ,1,ZAG,"6,94",3,11,Flamengo,2,"0,00",0,0,0,0,"0,00",0,0,3,0,0,1,1,"2,33",0,0,0,2,0
4,21.41,Kannemann ,0,ZAG,"10,28",3,9,Grêmio,3,"3,00",0,0,0,0,"-0,32",0,0,1,0,0,2,3,"4,00",0,0,0,6,0
4,21.41,Henrique ,1,LAT,"6,55",4,12,Vasco,3,"3,10",0,0,0,0,"0,73",0,0,6,0,0,10,0,"2,58",0,0,1,6,0
4,21.41,Norberto  ,0,LAT,"5,00",0,0,Vitória,2,"0,00",0,0,0,0,"0,00",0,0,0,0,0,0,0,"0,00",0,0,0,0,0
4,21.41,Willian Arão ,0,MEI,"9,17",4,18,Flamengo,3,"1,30",0,0,0,0,"-0,02",0,0,5,0,1,5,0,"2,52",0,0,2,5,0
4,21.41,Matheus Galdezani ,2,MEI,"6,77",4,18,Coritiba,3,"5,80",0,0,2,0,"1,46",0,0,10,0,0,10,0,"3,25",0,0,3,8,0
4,21.41,Bruno Silva ,1,MEI,"11,00",4,16,Botafogo,4,"0,70",0,0,3,2,"-1,00",0,0,10,0,0,8,0,"5,97",0,0,1,8,0
4,21.41,Murillo ,0,ATA,"1,00",0,0,Atlético-PR,2,"0,00",0,0,0,0,"0,00",0,0,0,0,0,0,0,"0,00",0,0,0,0,0
4,21.41,Jael ,0,ATA,"5,00",0,0,Grêmio,5,"0,00",0,0,0,0,"0,00",0,0,0,0,0,0,0,"0,00",0,0,0,0,0
4,21.41,Muriqui ,0,ATA,"3,86",1,2,Vasco,2,"0,00",0,0,0,0,"0,00",0,0,0,0,0,2,0,"0,40",0,0,0,0,0
5,0.0,Zé Ricardo ,0,TEC,"10,20",5,0,Flamengo,3,"1,69",0,0,0,0,"-0,59",0,0,0,0,0,0,0,"3,55",0,0,0,0,0
5,0.0,Gabriel Batista ,0,GOL,"1,00",0,0,Flamengo,2,"0,00",0,0,0,0,"0,00",0,0,0,0,0,0,0,"0,00",0,0,0,0,0
5,0.0,Gustavo Henrique ,0,ZAG,"6,00",0,0,Santos,5,"0,00",0,0,0,0,"0,00",0,0,0,0,0,0,0,"0,00",0,0,0,0,0
5,0.0,Maicon ,2,ZAG,"10,04",4,13,São Paulo,3,"5,40",0,0,0,0,"0,62",0,0,4,0,0,0,2,"3,32",0,1,0,0,1
5,0.0,Léo Moura ,2,LAT,"11,81",4,11,Grêmio,3,"5,70",1,0,0,0,"-0,06",0,0,5,0,0,6,3,"6,02",0,0,0,2,1
5,0.0,Renê ,0,LAT,"5,74",3,9,Flamengo,3,"3,20",0,0,0,0,"0,09",0,0,6,0,0,3,0,"2,83",0,0,0,1,0
5,0.0,Michel  ,2,MEI,"9,50",4,8,Grêmio,3,"19,00",0,0,0,2,"4,37",0,0,8,0,0,5,0,"6,65",0,0,0,9,0
5,0.0,Diego Rosa ,0,MEI,"8,77",1,1,Bahia,1,"6,40",0,0,0,0,"2,77",0,0,1,0,1,1,0,"6,40",0,0,0,1,0
5,0.0,Alisson ,1,MEI,"12,16",5,25,Cruzeiro,3,"1,20",1,0,0,1,"-0,15",0,0,6,0,1,8,0,"3,48",0,0,0,11,3
5,0.0,Fernandinho ,0,ATA,"11,80",1,2,Grêmio,2,"0,00",0,0,0,2,"0,00",0,0,1,0,0,8,0,"21,10",0,0,0,0,0
5,0.0,Léo Santos ,0,ATA,"3,00",0,0,Coritiba,2,"0,00",0,0,0,0,"0,00",0,0,0,0,0,0,0,"0,00",0,0,0,0,0
5,0.0,Muriqui ,0,ATA,"3,56",2,2,Vasco,2,"0,50",0,0,0,0,"-0,30",0,0,0,0,0,3,0,"0,45",0,0,0,0,0
6,0.0,Zé Ricardo ,0,TEC,"10,31",6,0,Flamengo,3,"2,75",0,0,0,0,"0,11",0,0,0,0,0,0,0,"3,42",0,0,0,0,0
6,0.0,Gabriel Batista ,0,GOL,"1,00",0,0,Flamengo,2,"0,00",0,0,0,0,"0,00",0,0,0,0,0,0,0,"0,00",0,0,0,0,0
6,0.0,Gustavo Henrique ,0,ZAG,"6,00",0,0,Santos,5,"0,00",0,0,0,0,"0,00",0,0,0,0,0,0,0,"0,00",0,0,0,0,0
6,0.0,Maicon ,2,ZAG,"9,20",5,16,São Paulo,3,"0,80",0,0,1,0,"-0,84",0,0,5,0,0,0,2,"2,82",0,0,1,0,0
6,0.0,Léo Moura ,2,LAT,"11,81",4,11,Grêmio,5,"0,00",1,0,0,0,"0,00",0,0,5,0,0,6,3,"6,02",0,0,1,2,0
6,0.0,Léo Gomes ,0,LAT,"2,00",0,0,Grêmio,2,"0,00",0,0,0,0,"0,00",0,0,0,0,0,0,0,"0,00",0,0,0,0,0
6,0.0,Jean ,3,MEI,"10,16",6,16,Vasco,3,"7,40",0,0,2,0,"1,50",0,0,19,0,0,12,0,"5,43",0,0,4,6,0
6,0.0,Michel  ,2,MEI,"7,89",5,14,Grêmio,3,"4,00",0,0,0,2,"-1,61",0,0,12,0,0,6,0,"6,12",0,0,0,12,0
6,0.0,Moisés Ribeiro ,0,MEI,"4,00",0,0,Chapecoense,2,"0,00",0,0,0,0,"0,00",0,0,0,0,0,0,0,"0,00",0,0,0,0,0
6,0.0,Eduardo da Silva ,1,ATA,"7,19",2,2,Atlético-PR,2,"0,00",1,0,0,0,"0,00",0,0,3,0,0,1,0,"2,10",0,0,0,2,0
6,0.0,Rogério ,1,ATA,"6,42",5,15,Sport,2,"0,50",0,0,0,0,"-0,51",0,0,2,0,0,8,0,"1,42",0,0,4,1,0
6,0.0,Ábila ,2,ATA,"16,48",6,8,Cruzeiro,3,"17,40",4,0,0,3,"4,24",0,0,2,0,1,8,0,"5,73",0,1,0,2,4
7,4.236904761904763,Renato Gaúcho ,0,TEC,"16,04",7,0,Grêmio,3,"5,79",0,0,0,0,"-0,17",0,0,0,0,0,0,0,"6,34",0,0,0,0,0
7,4.236904761904763,Mauricio Kozlinski ,0,GOL,"8,54",7,3,Avaí,3,"0,00",0,0,0,0,"-0,43",0,11,0,0,0,0,2,"3,45",9,0,0,0,0
7,4.236904761904763,Marcão ,0,ZAG,"4,39",1,1,Atlético-PR,2,"0,00",0,1,0,1,"0,00",0,0,0,0,0,0,0,"3,20",0,0,0,3,2
7,4.236904761904763,Pablo ,5,ZAG,"10,41",6,8,Corinthians,3,"7,60",0,0,1,0,"1,48",0,0,2,0,0,1,3,"3,08",0,0,2,3,0
7,4.236904761904763,Guilherme Arana ,0,LAT,"8,81",7,22,Corinthians,3,"8,10",2,0,1,0,"1,83",0,0,4,0,2,10,4,"4,24",0,0,1,7,0
7,4.236904761904763,Samuel Xavier ,0,LAT,"2,39",5,21,Sport,3,"5,20",1,0,1,0,"0,86",0,0,3,0,0,3,2,"1,46",0,0,1,3,0
7,4.236904761904763,Diego ,3,MEI,"19,30",4,13,Flamengo,3,"7,20",1,0,0,0,"0,46",0,0,5,0,1,11,0,"3,92",0,0,0,4,1
7,4.236904761904763,Matheus Sávio ,1,MEI,"11,39",1,0,Flamengo,3,"12,10",0,0,0,1,"7,39",0,0,2,0,0,0,0,"12,10",0,0,0,0,0
7,4.236904761904763,Guilherme ,0,MEI,"10,33",3,8,Atlético-PR,5,"0,00",0,0,0,1,"0,00",0,0,0,0,0,4,0,"2,37",0,0,0,1,0
7,4.236904761904763,Rodrigo Pimpão ,2,ATA,"6,21",7,35,Botafogo,3,"4,50",1,0,0,0,"0,90",0,0,7,0,2,13,0,"1,47",0,1,0,13,0
7,4.236904761904763,Wellington Nem ,0,ATA,"8,64",3,3,São Paulo,3,"2,10",2,0,0,1,"-0,87",0,0,2,0,0,5,0,"3,83",0,0,0,1,0
7,4.236904761904763,Clayton ,0,ATA,"7,66",3,2,Corinthians,2,"0,00",0,0,0,2,"0,00",0,0,0,0,0,0,0,"4,80",0,0,0,2,0
8,1.847857142857144,Vagner Mancini ,0,TEC,"8,51",8,0,Chapecoense,3,"1,58",0,0,0,0,"-0,31",0,0,0,0,0,0,0,"3,28",0,0,0,0,0
8,1.847857142857144,Wilson ,0,GOL,"12,92",8,6,Coritiba,3,"5,20",0,0,0,0,"-0,16",0,10,0,0,0,3,5,"5,84",4,0,0,0,0
8,1.847857142857144,Erazo ,0,ZAG,"3,98",2,4,Atlético-MG,2,"0,00",0,0,0,0,"0,00",0,0,0,0,0,0,1,"0,15",0,1,0,3,0
8,1.847857142857144,Kannemann ,1,ZAG,"10,82",7,15,Grêmio,3,"4,60",0,0,0,0,"-0,15",0,0,6,1,0,2,5,"4,13",0,1,0,10,0
8,1.847857142857144,Leandro Silva ,3,LAT,"7,45",7,45,Avaí,3,"6,70",1,1,1,0,"1,94",0,0,11,0,1,8,1,"1,69",0,0,3,10,0
8,1.847857142857144,Marcelo Oliveira ,0,LAT,"9,97",1,2,Grêmio,5,"0,00",0,0,1,0,"0,00",0,0,1,0,0,4,1,"5,10",0,0,0,2,0
8,1.847857142857144,Mateus Pet ,0,MEI,"5,02",1,1,Vasco,3,"5,10",0,0,0,0,"3,02",0,0,2,0,0,1,0,"5,10",0,0,2,1,0
8,1.847857142857144,Gabriel ,0,MEI,"7,28",8,14,Corinthians,3,"-3,80",0,0,2,1,"-2,15",0,0,15,0,0,8,0,"3,10",0,0,1,11,0
8,1.847857142857144,Tomas Bastos ,3,MEI,"12,97",5,13,Coritiba,2,"0,00",0,0,0,2,"0,00",0,0,4,0,0,3,0,"3,80",0,1,0,9,3
8,1.847857142857144,Patrick ,0,ATA,"1,00",0,0,Sport,2,"0,00",0,0,0,0,"0,00",0,0,0,0,0,0,0,"0,00",0,0,0,0,0
8,1.847857142857144,Pedro Rocha ,3,ATA,"8,49",7,10,Grêmio,3,"-0,60",2,0,0,0,"-0,89",0,0,10,0,1,8,0,"3,73",0,0,5,6,0
8,1.847857142857144,Arthur  ,5,ATA,"9,81",8,16,Chapecoense,3,"2,20",3,0,0,2,"-1,25",0,0,8,1,3,13,0,"5,79",0,1,0,17,5
9,15.497777777777774,Jair Ventura ,0,TEC,"10,99",9,0,Botafogo,3,"3,45",0,0,0,0,"-0,17",0,0,0,0,0,0,0,"4,32",0,0,0,0,0
9,15.497777777777774,Marcelo Grohe ,0,GOL,"8,94",8,1,Grêmio,3,"5,00",0,1,1,0,"1,35",0,1,0,0,0,0,6,"1,71",6,0,0,0,0
9,15.497777777777774,Pablo ,6,ZAG,"10,72",8,11,Corinthians,3,"6,20",0,0,0,0,"0,59",0,0,3,0,0,2,5,"3,62",0,1,0,6,2
9,15.497777777777774,Cléber ,0,ZAG,"6,49",1,0,Santos,2,"0,00",0,0,0,0,"0,00",0,0,0,0,0,0,1,"4,50",0,0,0,1,0
9,15.497777777777774,Guilherme Arana ,0,LAT,"8,94",9,26,Corinthians,3,"4,80",3,0,0,0,"0,20",0,0,5,0,2,11,6,"4,41",0,1,0,8,1
9,15.497777777777774,Mayke ,1,LAT,"6,81",6,12,Palmeiras,3,"5,80",3,0,0,0,"1,09",0,0,7,0,0,3,2,"2,50",0,0,0,8,0
9,15.497777777777774,Thiago Neves ,6,MEI,"18,28",6,27,Cruzeiro,3,"0,00",2,0,0,2,"0,00",0,0,4,0,1,8,0,"5,32",0,1,0,4,9
9,15.497777777777774,Rithely ,7,MEI,"10,51",8,26,Sport,3,"3,50",0,0,1,0,"-0,17",0,0,19,0,1,12,0,"4,17",0,0,2,14,0
9,15.497777777777774,Moisés ,0,MEI,"10,00",0,0,Palmeiras,5,"0,00",0,0,0,0,"0,00",0,0,0,0,0,0,0,"0,00",0,0,0,0,0
9,15.497777777777774,Luan ,8,ATA,"24,80",8,34,Grêmio,3,"14,70",2,0,0,4,"2,77",0,0,11,0,6,18,0,"11,02",0,0,11,14,0
9,15.497777777777774,Roger ,6,ATA,"10,19",8,25,Botafogo,3,"12,40",12,0,0,4,"1,80",0,0,6,0,1,9,0,"5,05",0,1,0,8,4
9,15.497777777777774,Ty Sandows ,0,ATA,"1,00",0,0,Grêmio,2,"0,00",0,0,0,0,"0,00",0,0,0,0,0,0,0,"0,00",0,0,0,0,0
10,0.0,Jair Ventura ,0,TEC,"10,78",10,0,Botafogo,3,"0,00",0,0,0,0,"-0,21",0,0,0,0,0,0,0,"4,08",0,0,0,0,0
10,0.0,Marcelo Grohe ,0,GOL,"8,26",9,0,Grêmio,2,"0,00",0,0,0,0,"-0,68",0,0,0,0,0,0,0,"1,60",0,0,0,0,0
10,0.0,Pablo ,0,ZAG,"10,91",9,0,Corinthians,3,"0,00",0,0,0,0,"0,19",0,0,0,0,0,0,0,"3,83",0,0,0,0,0
10,0.0,Ronaldo Alves ,0,ZAG,"6,64",7,0,Sport,3,"0,00",0,0,0,0,"0,74",0,0,0,0,0,0,0,"1,79",0,0,0,0,0
10,0.0,Júnior Tavares ,0,LAT,"12,31",10,0,São Paulo,3,"0,00",0,0,0,0,"-0,23",0,0,0,0,0,0,0,"4,69",0,0,0,0,0
10,0.0,Jonathan ,0,LAT,"8,14",8,0,Atlético-PR,2,"0,00",0,0,0,0,"0,00",0,0,0,0,0,0,0,"3,17",0,0,0,0,0
10,0.0,Thiago Neves ,0,MEI,"17,99",7,0,Cruzeiro,3,"0,00",0,0,0,0,"-0,29",0,0,0,0,0,0,0,"6,23",0,0,0,0,0
10,0.0,Rithely ,0,MEI,"10,51",8,0,Sport,3,"0,00",0,0,0,0,"0,00",0,0,0,0,0,0,0,"4,17",0,0,0,0,0
10,0.0,Moisés ,0,MEI,"10,00",0,0,Palmeiras,5,"0,00",0,0,0,0,"0,00",0,0,0,0,0,0,0,"0,00",0,0,0,0,0
10,0.0,Luan ,0,ATA,"23,12",9,0,Grêmio,2,"0,00",0,0,0,0,"-1,68",0,0,0,0,0,0,0,"10,15",0,0,0,0,0
10,0.0,Roger ,0,ATA,"8,53",9,0,Botafogo,2,"0,00",0,0,0,0,"-1,66",0,0,0,0,0,0,0,"4,59",0,0,0,0,0
10,0.0,Ty Sandows ,0,ATA,"1,00",0,0,Grêmio,2,"0,00",0,0,0,0,"0,00",0,0,0,0,0,0,0,"0,00",0,0,0,0,0
11,17.655757575757576,Fábio Carille ,0,TEC,"11,03",11,0,Corinthians,3,"4,06",0,0,0,0,"0,00",0,0,0,0,0,0,0,"4,52",0,0,0,0,0
11,17.655757575757576,Cássio ,0,GOL,"12,28",11,5,Corinthians,3,"5,50",0,0,1,0,"-1,31",0,10,0,0,0,2,8,"5,86",5,0,0,0,1
11,17.655757575757576,Ronaldo Alves ,0,ZAG,"7,42",8,21,Sport,3,"6,30",1,0,0,0,"0,78",0,0,3,0,0,12,4,"2,35",0,2,0,9,3
11,17.655757575757576,Bruno Rodrigo ,0,ZAG,"5,11",1,1,Grêmio,3,"0,00",0,0,0,0,"0,00",0,0,0,0,0,0,0,"-0,30",0,0,0,0,0
11,17.655757575757576,Gustavo Santos ,0,LAT,"1,00",0,0,Avaí,2,"0,00",0,0,0,0,"0,00",0,0,0,0,0,0,0,"0,00",0,0,0,0,0
11,17.655757575757576,Henrique ,1,LAT,"8,74",11,29,Vasco,3,"4,80",1,0,0,0,"-0,04",0,0,17,0,2,17,2,"3,85",0,1,0,13,2
11,17.655757575757576,Gabriel Xavier ,1,MEI,"4,34",7,13,Vitória,3,"-0,30",1,1,0,1,"-0,38",0,0,6,0,0,7,0,"1,50",0,0,2,9,0
11,17.655757575757576,Jucilei ,4,MEI,"14,62",11,34,São Paulo,3,"5,60",0,0,0,1,"-0,82",0,0,33,0,0,26,0,"5,52",0,0,0,20,1
11,17.655757575757576,Lucas Lima ,3,MEI,"4,05",6,24,Santos,1,"4,50",0,0,0,0,"0,92",0,0,5,0,1,11,0,"1,32",0,2,0,8,2
11,17.655757575757576,Lucas Pratto ,22,ATA,"15,90",11,34,São Paulo,3,"3,90",1,0,1,3,"0,01",0,0,5,0,2,9,0,"4,75",0,0,10,15,0
11,17.655757575757576,Henrique Almeida ,11,ATA,"16,16",11,30,Coritiba,3,"11,60",9,0,0,2,"2,09",0,0,13,1,1,20,0,"4,72",0,1,0,10,8
11,17.655757575757576,André ,7,ATA,"9,15",10,19,Sport,3,"3,50",7,0,0,4,"0,23",0,0,7,1,1,13,0,"4,26",0,2,0,22,3
12,17.655757575757576,Fábio Carille ,0,TEC,"11,68",12,0,Corinthians,3,"6,47",0,0,0,0,"0,65",0,0,0,0,0,0,0,"4,68",0,0,0,0,0
12,17.655757575757576,Cássio ,0,GOL,"14,50",12,5,Corinthians,3,"15,00",0,0,0,0,"2,22",0,10,0,0,0,2,8,"6,62",5,1,1,0,0
12,17.655757575757576,Ronaldo Alves ,0,ZAG,"8,40",9,21,Sport,1,"9,40",1,0,2,0,"0,98",0,0,3,0,0,12,4,"3,13",0,0,3,9,0
12,17.655757575757576,Bruno Rodrigo ,0,ZAG,"5,11",1,1,Grêmio,2,"0,00",0,0,0,0,"0,00",0,0,0,0,0,0,0,"-0,30",0,0,0,0,0
12,17.655757575757576,Gustavo Santos ,0,LAT,"1,00",0,0,Avaí,2,"0,00",0,0,0,0,"0,00",0,0,0,0,0,0,0,"0,00",0,0,0,0,0
12,17.655757575757576,Henrique ,1,LAT,"8,17",12,29,Vasco,3,"1,00",1,0,1,0,"-0,57",0,0,17,0,2,17,2,"3,61",0,0,2,13,0
12,17.655757575757576,Gabriel Xavier ,1,MEI,"4,34",7,13,Vitória,2,"0,00",1,1,0,1,"0,00",0,0,6,0,0,7,0,"1,50",0,0,0,9,2
12,17.655757575757576,Jucilei ,4,MEI,"15,66",12,34,São Paulo,3,"9,60",0,0,0,1,"1,04",0,0,33,0,0,26,0,"5,86",0,0,1,20,0
12,17.655757575757576,Lucas Lima ,3,MEI,"2,79",7,24,Santos,3,"-2,70",0,0,2,0,"-1,26",0,0,5,0,1,11,0,"0,75",0,0,2,8,0
12,17.655757575757576,Lucas Pratto ,22,ATA,"13,81",12,34,São Paulo,3,"-6,40",1,0,0,3,"-2,09",0,0,5,0,2,9,0,"3,82",0,1,0,15,10
12,17.655757575757576,Henrique Almeida ,11,ATA,"14,37",12,30,Coritiba,3,"0,30",9,0,1,2,"-1,79",0,0,13,1,1,20,0,"4,35",0,0,8,10,0
12,17.655757575757576,André ,7,ATA,"9,26",11,19,Sport,3,"3,40",7,0,2,4,"0,11",0,0,7,1,1,13,0,"4,18",0,0,3,22,0
13,10.018525641025642,Pachequinho ,0,TEC,"10,03",13,0,Coritiba,3,"4,59",0,0,0,0,"0,79",0,0,0,0,0,0,0,"3,53",0,0,0,0,0
13,10.018525641025642,Douglas Friedrich ,0,GOL,"6,88",4,0,Avaí,3,"-2,00",0,0,0,0,"-5,35",0,15,0,0,0,1,3,"15,87",0,1,1,0,0
13,10.018525641025642,Rodrigo ,5,ZAG,"9,04",8,14,Ponte Preta,4,"0,00",1,1,0,0,"0,00",0,0,8,0,0,15,3,"3,17",0,2,0,5,2
13,10.018525641025642,Vitor Hugo ,0,ZAG,"12,00",0,0,Palmeiras,2,"0,00",0,0,0,0,"0,00",0,0,0,0,0,0,0,"0,00",0,0,0,0,0
13,10.018525641025642,Reinaldo ,4,LAT,"11,77",13,55,Chapecoense,3,"-0,50",0,0,0,2,"-0,57",0,0,16,0,1,10,3,"3,77",0,1,0,12,3
13,10.018525641025642,Diogo Barbosa ,2,LAT,"12,65",12,44,Cruzeiro,3,"4,10",0,0,0,0,"0,32",0,0,20,1,1,14,4,"4,52",0,2,0,11,2
13,10.018525641025642,Cuéllar ,0,MEI,"3,87",8,14,Flamengo,3,"-0,10",0,0,0,0,"-0,69",0,0,18,0,0,2,0,"2,48",0,2,0,9,1
13,10.018525641025642,Thallyson ,0,MEI,"0,79",8,11,Sport,2,"0,00",1,0,0,0,"0,00",0,0,3,0,0,7,0,"-0,46",0,2,0,9,0
13,10.018525641025642,Shaylon ,0,MEI,"2,36",2,1,São Paulo,2,"0,00",0,0,0,1,"0,00",0,0,0,0,0,0,0,"3,60",0,0,0,1,0
13,10.018525641025642,Fred ,6,ATA,"14,75",10,20,Atlético-MG,3,"-3,90",4,0,0,4,"-0,85",0,0,2,1,1,22,0,"3,88",0,1,0,17,2
13,10.018525641025642,Gustavo ,1,ATA,"5,09",1,0,Bahia,1,"1,20",0,0,0,0,"-0,91",0,0,0,0,0,1,0,"1,20",0,0,0,0,0
13,10.018525641025642,Lucas Barrios ,2,ATA,"9,74",8,9,Grêmio,3,"0,80",6,0,0,2,"-0,54",0,0,4,0,1,11,0,"3,16",0,2,0,9,4
14,2.8791125541125533,Renato Gaúcho ,0,TEC,"16,03",14,0,Grêmio,3,"4,90",0,0,0,0,"0,11",0,0,0,0,0,0,0,"4,95",0,0,0,0,0
14,2.8791125541125533,Cleiton ,0,GOL,"1,85",1,2,Atlético-MG,2,"0,00",0,0,0,0,"0,00",0,0,0,0,0,1,1,"4,90",0,0,0,0,0
14,2.8791125541125533,Alan Costa ,1,ZAG,"7,18",6,4,Vitória,3,"2,00",1,0,0,0,"-0,57",0,0,4,0,0,3,1,"2,13",0,0,0,3,0
14,2.8791125541125533,Pedro Geromel ,3,ZAG,"13,66",11,23,Grêmio,3,"2,50",0,0,2,0,"-0,92",0,0,24,0,1,7,7,"7,05",0,0,3,7,0
14,2.8791125541125533,Fagner Alemão ,3,LAT,"8,99",11,32,Avaí,3,"2,40",4,0,1,0,"0,34",0,0,19,0,0,5,4,"4,02",0,0,1,5,0
14,2.8791125541125533,Ezequiel  ,1,LAT,"5,86",6,13,Cruzeiro,2,"0,00",0,0,0,0,"0,00",0,0,11,0,0,6,2,"3,08",0,2,0,14,1
14,2.8791125541125533,Thiago Neves ,8,MEI,"17,40",11,41,Cruzeiro,3,"2,40",3,0,0,5,"-0,37",0,0,9,0,1,22,0,"6,36",0,1,0,13,13
14,2.8791125541125533,João Victor ,0,MEI,"2,00",0,0,Sport,2,"0,00",0,0,0,0,"0,00",0,0,0,0,0,0,0,"0,00",0,0,0,0,0
14,2.8791125541125533,Everton ,6,MEI,"15,43",12,38,Flamengo,3,"7,10",3,0,0,2,"0,62",0,0,17,1,2,21,0,"4,90",0,4,0,15,7
14,2.8791125541125533,Walterson ,0,ATA,"3,32",1,0,Atlético-GO,3,"2,70",0,0,0,0,"1,32",0,0,1,0,0,1,0,"2,70",0,0,0,1,1
14,2.8791125541125533,Leandro Damião ,11,ATA,"11,03",7,6,Flamengo,2,"0,00",1,0,0,3,"0,00",0,0,4,0,0,5,0,"5,46",0,0,6,13,0
14,2.8791125541125533,Rildo ,3,ATA,"9,13",12,28,Coritiba,3,"7,40",3,0,0,3,"-0,79",0,0,11,0,0,26,0,"4,24",0,1,0,9,2
15,9.947008547008547,Milton Mendes ,0,TEC,"8,73",15,0,Vasco,3,"1,24",0,0,0,0,"-0,65",0,0,0,0,0,0,0,"3,39",0,0,0,0,0
15,9.947008547008547,Jefferson ,0,GOL,"9,98",4,3,Botafogo,3,"8,40",0,0,1,0,"0,84",0,9,0,0,0,0,2,"9,28",2,0,0,0,1
15,9.947008547008547,Rodrigo ,5,ZAG,"9,31",10,19,Ponte Preta,3,"7,40",1,1,0,0,"1,24",0,0,9,0,0,17,4,"3,26",0,2,0,5,3
15,9.947008547008547,Vitor Hugo ,0,ZAG,"12,00",0,0,Palmeiras,2,"0,00",0,0,0,0,"0,00",0,0,0,0,0,0,0,"0,00",0,0,0,0,0
15,9.947008547008547,Reinaldo ,4,LAT,"11,77",13,62,Chapecoense,3,"0,00",1,0,0,2,"0,00",0,0,19,0,1,11,3,"3,77",0,2,0,15,3
15,9.947008547008547,Diogo Barbosa ,2,LAT,"11,84",14,54,Cruzeiro,3,"-1,50",1,0,0,0,"-2,35",0,0,24,1,2,17,5,"4,56",0,2,0,13,2
15,9.947008547008547,Cuéllar ,0,MEI,"4,89",10,18,Flamengo,3,"6,00",0,0,0,0,"1,11",0,0,22,0,0,3,0,"2,55",0,2,0,12,2
15,9.947008547008547,Thallyson ,0,MEI,"0,83",9,11,Sport,2,"0,00",1,0,0,0,"0,00",0,0,4,0,0,7,0,"-0,22",0,2,0,9,0
15,9.947008547008547,Shaylon ,0,MEI,"2,36",2,1,São Paulo,2,"0,00",0,0,0,1,"0,00",0,0,0,0,0,0,0,"3,60",0,0,0,1,0
15,9.947008547008547,Fred ,7,ATA,"14,85",12,26,Atlético-MG,3,"-1,20",9,0,0,5,"-1,87",1,0,3,1,1,27,0,"3,78",0,2,0,22,4
15,9.947008547008547,André ,11,ATA,"13,38",14,34,Sport,3,"20,60",10,0,0,8,"3,74",0,0,13,1,1,26,0,"6,08",0,2,0,30,4
15,9.947008547008547,Robinho ,5,ATA,"13,11",12,36,Atlético-MG,2,"0,00",10,0,3,1,"0,00",0,0,16,0,2,13,0,"2,54",0,0,2,10,0
16,11.16145979020979,Milton Mendes ,0,TEC,"9,78",16,0,Vasco,3,"6,34",0,0,0,0,"1,05",0,0,0,0,0,0,0,"3,57",0,0,0,0,0
16,11.16145979020979,Gabriel Gasparotto ,0,GOL,"2,00",0,0,Santos,2,"0,00",0,0,0,0,"0,00",0,0,0,0,0,0,0,"0,00",0,0,0,0,0
16,11.16145979020979,Roger Carvalho ,8,ZAG,"7,72",16,36,Atlético-GO,3,"1,10",0,0,0,0,"-0,65",0,0,20,1,1,30,1,"2,94",0,0,0,23,0
16,11.16145979020979,David Braz ,3,ZAG,"12,47",14,36,Santos,3,"9,30",1,0,0,1,"1,19",0,0,9,0,0,7,9,"4,31",0,4,0,9,1
16,11.16145979020979,Diogo Barbosa ,2,LAT,"12,87",15,54,Cruzeiro,3,"4,20",1,0,2,0,"1,03",0,0,24,1,2,17,5,"4,54",0,0,2,13,0
16,11.16145979020979,Henrique ,1,LAT,"8,17",12,32,Vasco,2,"0,00",2,0,1,0,"0,00",0,0,19,0,2,18,2,"3,61",0,0,2,16,0
16,11.16145979020979,Gabriel Xavier ,0,MEI,"5,00",0,0,Vitória,5,"0,00",0,0,0,0,"0,00",0,0,0,0,0,0,0,"0,00",0,0,0,0,0
16,11.16145979020979,Jucilei ,5,MEI,"14,00",16,46,São Paulo,3,"-0,40",0,0,0,1,"-0,77",0,0,46,0,0,36,0,"5,09",0,0,1,26,0
16,11.16145979020979,Cleiton Xavier ,10,MEI,"6,70",13,42,Vitória,3,"0,00",1,0,1,0,"0,00",0,0,12,0,3,8,0,"2,26",0,0,6,16,0
16,11.16145979020979,Walter ,6,ATA,"8,10",11,37,Atlético-GO,3,"4,60",3,0,0,1,"0,07",0,0,2,1,0,25,0,"1,55",0,2,0,15,5
16,11.16145979020979,Kayke ,8,ATA,"5,00",14,37,Santos,3,"3,40",8,0,0,3,"0,94",1,0,2,0,1,5,0,"1,74",0,0,0,14,6
16,11.16145979020979,Arthur  ,13,ATA,"12,11",15,32,Chapecoense,3,"8,50",5,0,0,4,"1,52",0,0,14,1,3,30,0,"5,65",0,3,0,22,7
17,9.425590659340658,Renato Gaúcho ,0,TEC,"15,22",17,0,Grêmio,3,"2,44",0,0,0,0,"-0,44",0,0,0,0,0,0,0,"4,61",0,0,0,0,0
17,9.425590659340658,João Carlos ,0,GOL,"5,00",0,0,Ponte Preta,2,"0,00",0,0,0,0,"0,00",0,0,0,0,0,0,0,"0,00",0,0,0,0,0
17,9.425590659340658,Vitor Hugo ,0,ZAG,"12,00",0,0,Palmeiras,2,"0,00",0,0,0,0,"0,00",0,0,0,0,0,0,0,"0,00",0,0,0,0,0
17,9.425590659340658,Pedro Geromel ,3,ZAG,"13,74",13,31,Grêmio,3,"4,80",0,0,0,0,"-0,18",0,0,31,0,2,8,7,"6,74",0,3,0,8,3
17,9.425590659340658,Arnaldo ,0,LAT,"3,00",0,0,Botafogo,2,"0,00",0,0,0,0,"0,00",0,0,0,0,0,0,0,"0,00",0,0,0,0,0
17,9.425590659340658,Gilberto  ,6,LAT,"12,13",14,71,Vasco,3,"7,10",2,0,3,0,"-0,51",0,0,46,1,1,20,2,"5,33",0,0,1,18,0
17,9.425590659340658,Marlone ,0,MEI,"9,00",0,0,Atlético-MG,2,"0,00",0,0,0,0,"0,00",0,0,0,0,0,0,0,"0,00",0,0,0,0,0
17,9.425590659340658,Cuéllar ,0,MEI,"5,00",0,0,Flamengo,2,"0,00",0,0,0,0,"0,00",0,0,0,0,0,0,0,"0,00",0,0,0,0,0
17,9.425590659340658,Cícero ,0,MEI,"11,00",0,0,São Paulo,3,"0,00",0,0,0,0,"0,00",0,0,0,0,0,0,0,"0,00",0,0,0,0,0
17,9.425590659340658,Lucca ,15,ATA,"24,02",16,46,Ponte Preta,3,"0,00",6,0,0,10,"0,00",1,0,17,0,1,56,0,"8,67",0,1,0,17,17
17,9.425590659340658,Keno ,0,ATA,"7,07",1,0,Palmeiras,2,"0,00",0,0,0,0,"-2,93",0,0,0,0,0,0,0,"0,00",0,0,0,0,0
17,9.425590659340658,Marcos Junior ,0,ATA,"6,01",1,0,Fluminense,1,"1,50",0,0,0,0,"-0,99",0,0,0,0,0,3,0,"1,50",0,0,0,0,0
18,2.62254901960784,Renato Gaúcho ,0,TEC,"16,02",18,0,Grêmio,3,"5,37",0,0,0,0,"0,80",0,0,0,0,0,0,0,"4,65",0,0,0,0,0
18,2.62254901960784,Wilson ,0,GOL,"14,71",18,10,Coritiba,3,"11,00",0,0,2,0,"1,34",0,37,0,0,0,3,5,"4,86",25,0,0,0,1
18,2.62254901960784,Marllon ,3,ZAG,"12,02",17,31,Ponte Preta,3,"3,50",0,0,0,0,"-0,20",0,0,24,1,0,20,7,"4,48",0,2,0,6,1
18,2.62254901960784,Ronaldo Alves ,2,ZAG,"8,28",14,33,Sport,3,"1,80",1,0,0,1,"-0,98",0,0,11,0,1,26,7,"4,16",0,4,0,17,4
18,2.62254901960784,Trauco ,6,LAT,"6,62",12,53,Flamengo,1,"0,00",0,0,3,1,"0,00",0,0,12,1,0,6,5,"2,89",0,0,3,21,0
18,2.62254901960784,Wallace Oliveira ,0,LAT,"5,00",0,0,Grêmio,2,"0,00",0,0,0,0,"0,00",0,0,0,0,0,0,0,"0,00",0,0,0,0,0
18,2.62254901960784,Gabriel Xavier ,0,MEI,"5,00",0,0,Vitória,5,"0,00",0,0,0,0,"0,00",0,0,0,0,0,0,0,"0,00",0,0,0,0,0
18,2.62254901960784,Jucilei ,7,MEI,"14,54",18,50,São Paulo,3,"3,80",0,0,0,1,"0,89",0,0,48,0,0,36,0,"4,72",0,0,1,27,0
18,2.62254901960784,Cleiton Xavier ,10,MEI,"5,18",14,46,Vitória,5,"0,00",1,0,2,0,"0,00",0,0,12,0,3,8,0,"1,80",0,0,6,18,0
18,2.62254901960784,Lucca ,15,ATA,"21,60",17,51,Ponte Preta,3,"1,50",6,0,1,10,"-2,42",1,0,17,0,1,60,0,"8,25",0,0,18,17,0
18,2.62254901960784,Keno ,5,ATA,"6,57",16,37,Palmeiras,3,"2,80",2,0,0,3,"-0,06",0,0,12,1,0,13,0,"2,48",0,2,0,12,4
18,2.62254901960784,Marcos Junior ,1,ATA,"2,55",8,9,Fluminense,1,"0,00",2,0,0,1,"0,00",0,0,1,0,0,5,0,"0,34",0,3,0,3,1
19,0.0,Renato Gaúcho ,0,TEC,"15,81",19,0,Grêmio,3,"5,13",0,0,0,0,"-0,21",0,0,0,0,0,0,0,"4,68",0,0,0,0,0
19,0.0,Wilson ,0,GOL,"14,14",19,12,Coritiba,3,"7,40",0,0,0,0,"-0,57",0,38,0,0,0,3,6,"4,99",25,2,1,0,0
19,0.0,Tiago  ,0,ZAG,"8,53",18,39,Bahia,3,"-3,60",6,0,4,1,"-0,91",0,0,15,0,0,21,6,"2,15",0,0,1,27,0
19,0.0,Ronaldo Alves ,2,ZAG,"8,28",14,33,Sport,3,"0,00",1,0,4,1,"0,00",0,0,11,0,1,26,7,"4,16",0,0,4,17,0
19,0.0,Trauco ,6,LAT,"6,26",13,54,Flamengo,2,"1,40",0,0,0,1,"-0,36",0,0,13,1,0,7,5,"2,78",0,3,0,22,3
19,0.0,Edimar ,1,LAT,"4,96",5,20,São Paulo,3,"2,50",0,0,0,0,"0,19",0,0,9,0,0,10,1,"3,90",0,0,2,5,0
19,0.0,Gabriel Xavier ,0,MEI,"5,00",0,0,Vitória,5,"0,00",0,0,0,0,"0,00",0,0,0,0,0,0,0,"0,00",0,0,0,0,0
19,0.0,Camacho ,1,MEI,"3,81",13,9,Corinthians,2,"1,00",0,0,0,0,"0,27",0,0,5,0,0,5,0,"0,54",0,0,0,4,0
19,0.0,Cleiton Xavier ,10,MEI,"5,18",14,46,Vitória,5,"0,00",1,0,0,0,"0,00",0,0,12,0,3,8,0,"1,80",0,2,0,18,6
19,0.0,Lucca ,16,ATA,"21,36",18,52,Ponte Preta,3,"2,60",6,0,0,10,"-0,24",1,0,18,0,1,64,0,"7,94",0,1,0,20,18
19,0.0,Keno ,5,ATA,"6,57",16,37,Palmeiras,3,"0,00",2,0,2,3,"0,00",0,0,12,1,0,13,0,"2,48",0,0,4,12,0
19,0.0,Emerson Sheik ,5,ATA,"5,18",12,32,Ponte Preta,2,"0,90",2,0,6,2,"-0,35",0,0,5,0,1,37,0,"2,11",0,0,5,17,0
20,0.0,Renato Gaúcho ,0,TEC,"15,36",20,0,Grêmio,3,"2,15",0,0,0,0,"-0,45",0,0,0,0,0,0,0,"4,55",0,0,0,0,0
20,0.0,Wilson ,0,GOL,"12,58",20,12,Coritiba,3,"-2,00",0,0,2,0,"-1,56",0,38,0,0,0,3,6,"4,64",26,0,0,0,1
20,0.0,Tiago  ,0,ZAG,"9,78",19,39,Bahia,3,"4,00",6,0,0,1,"1,25",0,0,15,1,0,21,6,"2,25",0,4,0,28,2
20,0.0,Ronaldo Alves ,2,ZAG,"9,53",15,36,Sport,3,"9,20",1,0,0,1,"1,25",0,0,14,0,1,27,8,"4,50",0,4,0,18,4
20,0.0,Trauco ,6,LAT,"5,03",14,57,Flamengo,2,"-5,20",0,1,3,1,"-1,23",0,0,14,1,0,7,5,"2,21",0,0,3,24,0
20,0.0,Edimar ,1,LAT,"5,18",6,22,São Paulo,3,"3,30",0,0,0,0,"0,22",0,0,11,0,0,12,1,"3,80",0,0,0,6,2
20,0.0,Gabriel Xavier ,0,MEI,"5,00",0,0,Vitória,5,"0,00",0,0,0,0,"0,00",0,0,0,0,0,0,0,"0,00",0,0,0,0,0
20,0.0,Camacho ,1,MEI,"3,81",13,9,Corinthians,2,"0,00",0,0,0,0,"0,00",0,0,5,0,0,5,0,"0,54",0,0,0,4,0
20,0.0,Cleiton Xavier ,10,MEI,"5,18",14,46,Vitória,5,"0,00",1,0,2,0,"0,00",0,0,12,0,3,8,0,"1,80",0,0,6,18,0
20,0.0,Lucca ,17,ATA,"21,15",19,53,Ponte Preta,1,"1,60",6,0,2,10,"-0,21",1,0,19,0,1,65,0,"7,61",0,0,20,22,0
20,0.0,Keno ,5,ATA,"6,19",17,38,Palmeiras,3,"1,10",3,0,0,3,"-0,38",0,0,14,1,0,13,0,"2,40",0,2,0,15,4
20,0.0,Emerson Sheik ,5,ATA,"5,18",12,32,Ponte Preta,2,"0,00",2,0,0,2,"0,00",0,0,5,0,1,37,0,"2,11",0,6,0,17,5
21,2.5699463118580765,Jair Ventura ,0,TEC,"11,50",21,0,Botafogo,3,"3,47",0,0,0,0,"-1,01",0,0,0,0,0,0,0,"4,10",0,0,0,0,0
21,2.5699463118580765,Douglas Friedrich ,0,GOL,"10,09",12,0,Avaí,3,"10,00",0,0,0,0,"0,37",0,34,0,0,0,3,7,"9,59",13,2,1,1,0
21,2.5699463118580765,Bruno Rodrigo ,1,ZAG,"5,49",4,5,Grêmio,3,"6,10",0,0,0,0,"0,52",0,0,5,0,0,0,2,"3,68",0,1,0,4,1
21,2.5699463118580765,Lucas Fonseca ,1,ZAG,"6,11",16,28,Bahia,3,"5,10",0,1,0,0,"0,64",0,0,15,0,1,19,6,"3,34",0,1,0,6,1
21,2.5699463118580765,Jonathan ,2,LAT,"7,78",14,36,Atlético-PR,5,"0,00",0,0,0,1,"0,00",0,0,16,0,1,14,5,"3,73",0,3,0,9,0
21,2.5699463118580765,Ezequiel  ,2,LAT,"6,75",9,19,Cruzeiro,3,"10,70",0,0,4,0,"2,00",0,0,13,0,1,10,3,"2,91",0,0,1,19,0
21,2.5699463118580765,Renê Júnior ,16,MEI,"11,06",17,47,Bahia,3,"2,70",3,1,0,3,"-0,81",0,0,48,0,0,40,0,"6,04",0,3,0,31,8
21,2.5699463118580765,Carlos Alberto ,0,MEI,"8,00",0,0,Atlético-PR,2,"0,00",0,0,0,0,"0,00",0,0,0,0,0,0,0,"0,00",0,0,0,0,0
21,2.5699463118580765,Yan ,1,MEI,"0,79",2,3,Coritiba,2,"0,00",0,0,0,0,"0,00",0,0,0,0,0,1,0,"-0,85",0,1,0,0,0
21,2.5699463118580765,Pedrinho ,2,ATA,"1,08",8,8,Corinthians,2,"0,00",0,0,0,0,"0,00",0,0,3,0,0,1,0,"0,95",0,0,0,0,3
21,2.5699463118580765,Ábila ,1,ATA,"13,44",1,3,Cruzeiro,3,"11,00",0,0,0,1,"5,44",0,0,1,0,0,1,0,"11,00",0,0,1,0,0
21,2.5699463118580765,Bruno Henrique ,7,ATA,"11,81",16,53,Santos,3,"-2,30",5,1,3,4,"-1,29",0,0,14,1,6,44,0,"4,70",0,0,9,41,0
22,2.5699463118580765,Jair Ventura ,0,TEC,"11,78",22,0,Botafogo,3,"4,03",0,0,0,0,"0,28",0,0,0,0,0,0,0,"4,10",0,0,0,0,0
22,2.5699463118580765,Douglas Friedrich ,0,GOL,"10,69",13,0,Avaí,3,"11,00",0,0,2,0,"0,60",0,36,0,0,0,3,8,"9,70",13,0,0,1,1
22,2.5699463118580765,Bruno Rodrigo ,1,ZAG,"5,49",4,5,Grêmio,2,"0,00",0,0,1,0,"0,00",0,0,5,0,0,0,2,"3,68",0,0,1,4,0
22,2.5699463118580765,Lucas Fonseca ,1,ZAG,"5,18",17,33,Bahia,3,"-1,00",0,1,1,0,"-0,93",0,0,15,0,1,20,6,"3,08",0,0,1,6,0
22,2.5699463118580765,Jonathan ,2,LAT,"7,78",14,36,Atlético-PR,5,"0,00",0,0,3,1,"0,00",0,0,16,0,1,14,5,"3,73",0,0,0,9,0
22,2.5699463118580765,Ezequiel  ,3,LAT,"5,19",10,21,Cruzeiro,3,"0,10",0,0,0,0,"-1,56",0,0,13,0,1,11,3,"2,63",0,4,0,20,1
22,2.5699463118580765,Renê Júnior ,17,MEI,"13,35",18,48,Bahia,3,"14,20",3,1,3,4,"2,29",0,0,52,0,0,40,0,"6,49",0,0,8,33,0
22,2.5699463118580765,Carlos Alberto ,0,MEI,"8,00",0,0,Atlético-PR,2,"0,00",0,0,0,0,"0,00",0,0,0,0,0,0,0,"0,00",0,0,0,0,0
22,2.5699463118580765,Yan ,1,MEI,"0,79",2,3,Coritiba,2,"0,00",0,0,1,0,"0,00",0,0,0,0,0,1,0,"-0,85",0,0,0,0,0
22,2.5699463118580765,Pedrinho ,2,ATA,"1,08",8,8,Corinthians,5,"0,00",0,0,0,0,"0,00",0,0,3,0,0,1,0,"0,95",0,0,3,0,0
22,2.5699463118580765,Ábila ,1,ATA,"13,44",1,3,Cruzeiro,3,"11,00",0,0,0,1,"5,44",0,0,1,0,0,1,0,"11,00",0,0,0,0,1
22,2.5699463118580765,Bruno Henrique ,8,ATA,"14,07",17,56,Santos,3,"10,00",5,1,0,5,"2,26",0,0,15,1,6,47,0,"5,01",0,3,0,43,9
23,2.5699463118580765,Jair Ventura ,0,TEC,"12,43",23,0,Botafogo,3,"7,16",0,0,0,0,"0,65",0,0,0,0,0,0,0,"4,23",0,0,0,0,0
23,2.5699463118580765,Douglas Friedrich ,0,GOL,"11,10",14,0,Avaí,3,"11,50",0,0,0,0,"0,41",0,38,0,0,0,4,9,"9,83",13,2,1,1,0
23,2.5699463118580765,Bruno Rodrigo ,1,ZAG,"5,49",4,5,Grêmio,2,"0,00",0,0,0,0,"0,00",0,0,5,0,0,0,2,"3,68",0,1,0,4,1
23,2.5699463118580765,Lucas Fonseca ,1,ZAG,"5,69",18,34,Bahia,3,"2,10",0,1,0,0,"0,51",0,0,17,0,1,23,6,"3,03",0,2,0,7,1
23,2.5699463118580765,Jonathan ,2,LAT,"8,21",15,37,Atlético-PR,3,"3,30",0,0,0,1,"0,43",0,0,19,0,1,14,5,"3,70",0,3,0,12,0
23,2.5699463118580765,Ezequiel  ,3,LAT,"5,01",11,25,Cruzeiro,3,"-0,70",0,0,4,0,"-0,18",0,0,13,0,1,12,3,"2,33",0,0,1,20,0
23,2.5699463118580765,Renê Júnior ,20,MEI,"12,22",19,49,Bahia,3,"5,90",3,1,0,4,"-1,13",0,0,55,0,0,40,0,"6,46",0,3,0,35,8
23,2.5699463118580765,Carlos Alberto ,0,MEI,"8,00",0,0,Atlético-PR,2,"0,00",0,0,0,0,"0,00",0,0,0,0,0,0,0,"0,00",0,0,0,0,0
23,2.5699463118580765,Yan ,1,MEI,"0,79",2,3,Coritiba,2,"0,00",0,0,0,0,"0,00",0,0,0,0,0,1,0,"-0,85",0,1,0,0,0
23,2.5699463118580765,Pedrinho ,2,ATA,"1,08",8,8,Corinthians,5,"0,00",0,0,0,0,"0,00",0,0,3,0,0,1,0,"0,95",0,0,0,0,3
23,2.5699463118580765,Ábila ,1,ATA,"13,44",1,3,Cruzeiro,3,"11,00",0,0,0,1,"5,44",0,0,1,0,0,1,0,"11,00",0,0,1,0,0
23,2.5699463118580765,Bruno Henrique ,9,ATA,"14,19",18,58,Santos,3,"9,30",5,1,3,5,"0,12",0,0,16,1,7,51,0,"5,25",0,0,10,44,0
24,15.581186030788428,Fábio Carille ,0,TEC,"12,10",23,0,Corinthians,3,"4,91",0,0,0,0,"0,63",0,0,0,0,0,0,0,"4,53",0,0,0,0,0
24,15.581186030788428,Cássio ,0,GOL,"14,49",23,7,Corinthians,3,"11,00",0,0,0,0,"1,16",0,26,0,0,0,5,14,"5,77",13,2,2,0,0
24,15.581186030788428,Marcio ,4,ZAG,"6,28",20,35,Coritiba,2,"0,00",1,1,0,1,"0,00",0,0,16,0,1,10,7,"2,50",0,4,0,24,3
24,15.581186030788428,Rodrigo Caio ,7,ZAG,"8,78",19,39,São Paulo,3,"-0,20",1,0,7,0,"0,20",0,0,28,1,0,12,3,"2,41",0,0,1,12,0
24,15.581186030788428,Reinaldo ,6,LAT,"13,72",19,93,Chapecoense,3,"11,50",1,0,0,3,"1,62",0,0,34,0,3,17,5,"4,61",0,5,0,25,4
24,15.581186030788428,Apodi ,11,LAT,"7,76",21,46,Chapecoense,3,"3,80",2,0,0,0,"0,25",0,0,27,0,0,40,6,"2,80",0,7,0,46,7
24,15.581186030788428,Zé Rafael  ,12,MEI,"20,24",23,49,Bahia,3,"6,00",7,0,0,2,"-0,87",0,0,57,0,4,73,0,"6,33",0,4,0,48,18
24,15.581186030788428,Matheus Galdezani ,13,MEI,"7,38",22,89,Coritiba,3,"1,10",1,0,6,1,"-0,84",0,0,37,0,1,40,0,"2,60",0,0,13,44,0
24,15.581186030788428,Zé Rafael  ,12,MEI,"20,24",23,49,Bahia,3,"6,00",7,0,4,2,"-0,87",0,0,57,0,4,73,0,"6,33",0,0,18,48,0
24,15.581186030788428,Arthur Gomes ,0,ATA,"1,84",5,3,Santos,2,"0,00",0,0,0,0,"0,00",0,0,1,0,0,6,0,"0,86",0,0,1,1,0
24,15.581186030788428,Fred ,10,ATA,"14,01",16,35,Atlético-MG,3,"2,10",10,0,4,5,"1,16",2,0,5,1,1,30,0,"2,54",0,0,5,26,0
24,15.581186030788428,Arthur  ,17,ATA,"12,93",22,51,Chapecoense,3,"13,00",5,0,0,5,"2,02",0,0,22,1,5,48,0,"4,99",0,4,0,38,13
25,15.365076421873095,Fábio Carille ,0,TEC,"11,79",24,0,Corinthians,3,"2,99",0,0,0,0,"-0,31",0,0,0,0,0,0,0,"4,47",0,0,0,0,0
25,15.365076421873095,Cássio ,0,GOL,"13,51",24,7,Corinthians,3,"4,50",0,0,2,0,"-0,98",0,28,0,0,0,6,14,"5,72",14,0,0,0,2
25,15.365076421873095,Marcio ,4,ZAG,"6,28",20,35,Coritiba,2,"0,00",1,1,4,1,"0,00",0,0,16,0,1,10,7,"2,50",0,0,3,24,0
25,15.365076421873095,Rodrigo Caio ,7,ZAG,"8,67",20,40,São Paulo,3,"-0,30",1,0,0,0,"-0,11",0,0,28,1,0,12,3,"2,27",0,7,0,12,1
25,15.365076421873095,Fábio Santos ,5,LAT,"3,51",21,77,Atlético-MG,3,"0,50",2,0,7,3,"0,66",0,0,24,0,0,39,4,"2,69",0,0,2,31,0
25,15.365076421873095,Fagner Alemão ,4,LAT,"9,74",21,58,Avaí,3,"2,30",4,0,3,0,"0,16",0,0,38,0,0,13,9,"4,23",0,0,1,11,0
25,15.365076421873095,Zé Rafael  ,12,MEI,"20,60",24,50,Bahia,3,"8,00",7,0,4,2,"0,36",0,0,61,0,4,76,0,"6,40",0,0,18,48,0
25,15.365076421873095,Matheus Galdezani ,14,MEI,"8,04",23,92,Coritiba,3,"4,90",1,0,0,1,"0,66",0,0,40,0,1,41,0,"2,70",0,6,0,45,13
25,15.365076421873095,Zé Rafael  ,12,MEI,"20,60",24,50,Bahia,3,"8,00",7,0,0,2,"0,36",0,0,61,0,4,76,0,"6,40",0,4,0,48,18
25,15.365076421873095,Arthur Gomes ,0,ATA,"1,84",5,3,Santos,2,"0,00",0,0,0,0,"0,00",0,0,1,0,0,6,0,"0,86",0,0,0,1,1
25,15.365076421873095,Fred ,10,ATA,"14,76",17,38,Atlético-MG,3,"6,60",10,0,0,5,"0,75",2,0,5,1,2,34,0,"2,78",0,4,0,27,6
25,15.365076421873095,Arthur  ,18,ATA,"12,12",23,53,Chapecoense,3,"7,00",5,0,4,5,"-0,81",0,0,24,1,5,53,0,"5,08",0,0,14,38,0
26,3.53287445887446,Claudinei Oliveira ,0,TEC,"7,84",26,0,Avaí,3,"1,85",0,0,0,0,"-0,06",0,0,0,0,0,0,0,"3,29",0,0,0,0,0
26,3.53287445887446,Cássio ,0,GOL,"13,11",25,8,Corinthians,3,"1,20",0,0,0,0,"-0,40",0,29,0,0,0,7,14,"5,54",15,2,2,0,0
26,3.53287445887446,Igor Rabello ,4,ZAG,"10,47",20,33,Botafogo,3,"1,40",1,0,4,0,"0,38",0,0,29,1,0,12,7,"3,28",0,1,3,19,0
26,3.53287445887446,Bruno Rodrigo ,1,ZAG,"5,81",5,6,Grêmio,2,"6,40",0,0,0,0,"0,32",0,0,6,0,0,1,3,"4,22",0,1,0,5,1
26,3.53287445887446,Euller  ,0,LAT,"6,31",2,1,Vitória,2,"0,00",0,0,0,0,"0,00",0,0,0,0,0,1,1,"2,35",0,0,0,1,0
26,3.53287445887446,Léo Moura ,3,LAT,"10,11",11,46,Grêmio,1,"1,70",5,0,0,0,"0,36",0,0,8,0,0,12,7,"3,49",0,0,1,6,0
26,3.53287445887446,Luiz Fernando  ,5,MEI,"4,94",22,40,Atlético-GO,3,"8,60",7,0,0,5,"0,67",0,0,11,1,1,22,0,"2,37",0,4,0,24,6
26,3.53287445887446,Tiago Real ,4,MEI,"4,56",14,36,Coritiba,3,"0,30",2,0,0,0,"-0,15",0,0,10,1,2,12,0,"1,43",0,2,0,17,5
26,3.53287445887446,Douglas ,3,MEI,"15,21",1,4,Vasco,3,"9,50",0,0,0,0,"3,21",0,0,3,1,0,2,0,"9,50",0,1,0,0,1
26,3.53287445887446,Lucca ,22,ATA,"20,07",24,65,Ponte Preta,3,"-2,40",7,0,3,10,"-0,61",2,0,23,0,1,83,0,"6,49",0,0,24,27,0
26,3.53287445887446,Berrío  ,1,ATA,"3,43",16,30,Flamengo,3,"0,00",1,0,0,2,"0,00",0,0,5,0,1,9,0,"0,89",0,3,0,14,2
26,3.53287445887446,Copete ,16,ATA,"6,56",20,67,Santos,3,"0,80",8,0,0,5,"-0,38",0,0,15,0,1,24,0,"2,98",0,3,0,26,9
27,0.0,Claudinei Oliveira ,0,TEC,"7,66",27,0,Avaí,3,"0,00",0,0,0,0,"-0,18",0,0,0,0,0,0,0,"3,20",0,0,0,0,0
27,0.0,Cássio ,0,GOL,"14,12",26,0,Corinthians,3,"0,00",0,0,0,0,"1,01",0,0,0,0,0,0,0,"5,60",0,0,0,0,0
27,0.0,Igor Rabello ,0,ZAG,"9,95",21,0,Botafogo,3,"0,00",0,0,0,0,"-0,52",0,0,0,0,0,0,0,"3,06",0,0,0,0,0
27,0.0,Bruno Rodrigo ,0,ZAG,"5,81",5,0,Grêmio,2,"0,00",0,0,0,0,"0,00",0,0,0,0,0,0,0,"4,22",0,0,0,0,0
27,0.0,Euller  ,0,LAT,"6,31",2,0,Vitória,2,"0,00",0,0,0,0,"0,00",0,0,0,0,0,0,0,"2,35",0,0,0,0,0
27,0.0,Léo Moura ,0,LAT,"10,11",11,0,Grêmio,2,"0,00",0,0,0,0,"0,00",0,0,0,0,0,0,0,"3,49",0,0,0,0,0
27,0.0,Lucas Romero ,0,MEI,"7,66",21,0,Cruzeiro,2,"0,00",0,0,0,0,"-0,69",0,0,0,0,0,0,0,"3,50",0,0,0,0,0
27,0.0,Judson ,2,MEI,"4,10",1,1,Avaí,3,"2,80",0,0,0,0,"1,10",0,0,1,0,0,0,0,"2,80",0,0,0,2,1
27,0.0,Douglas ,3,MEI,"15,21",1,4,Vasco,3,"9,50",0,0,1,0,"3,21",0,0,3,1,0,2,0,"9,50",0,0,1,0,0
27,0.0,Lucca ,0,ATA,"20,39",25,0,Ponte Preta,2,"0,00",0,0,0,0,"0,32",0,0,0,0,0,0,0,"6,25",0,0,0,0,0
27,0.0,Berrío  ,1,ATA,"4,95",1,4,Flamengo,3,"0,00",0,0,0,0,"-2,05",0,0,0,0,0,1,0,"0,00",0,0,0,0,0
27,0.0,Copete ,0,ATA,"6,88",21,0,Santos,3,"0,00",0,0,0,0,"0,32",0,0,0,0,0,0,0,"2,97",0,0,0,0,0
28,0.0,Jair Ventura ,0,TEC,"11,73",28,0,Botafogo,3,"0,00",0,0,0,0,"-0,57",0,0,0,0,0,0,0,"4,22",0,0,0,0,0
28,0.0,Marcelo Grohe ,0,GOL,"8,93",19,0,Grêmio,3,"0,00",0,0,0,0,"1,12",0,0,0,0,0,0,0,"2,17",0,0,0,0,0
28,0.0,David Braz ,0,ZAG,"12,25",22,0,Santos,3,"0,00",0,0,0,0,"0,78",0,0,0,0,0,0,0,"4,33",0,0,0,0,0
28,0.0,Oswaldo Henríquez ,0,ZAG,"4,98",13,0,Sport,3,"0,00",0,0,0,0,"-0,52",0,0,0,0,0,0,0,"4,03",0,0,0,0,0
28,0.0,Fernando ,0,LAT,"1,00",0,0,Botafogo,2,"0,00",0,0,0,0,"0,00",0,0,0,0,0,0,0,"0,00",0,0,0,0,0
28,0.0,Guilherme Arana ,0,LAT,"9,52",24,0,Corinthians,3,"0,00",0,0,0,0,"0,32",0,0,0,0,0,0,0,"3,83",0,0,0,0,0
28,0.0,Matheus Galdezani ,0,MEI,"7,37",26,0,Coritiba,3,"0,00",0,0,0,0,"-0,57",0,0,0,0,0,0,0,"2,80",0,0,0,0,0
28,0.0,Matheus Rossetto ,0,MEI,"3,54",22,0,Atlético-PR,2,"0,00",0,0,0,0,"-1,62",0,0,0,0,0,0,0,"1,00",0,0,0,0,0
28,0.0,Jean Mota ,0,MEI,"6,64",22,0,Santos,3,"0,00",0,0,0,0,"1,45",0,0,0,0,0,0,0,"3,42",0,0,0,0,0
28,0.0,Jô ,0,ATA,"12,02",25,0,Corinthians,3,"0,00",0,0,0,0,"-2,12",0,0,0,0,0,0,0,"4,25",0,0,0,0,0
28,0.0,Rodrigo Pimpão ,0,ATA,"7,91",23,0,Botafogo,3,"0,00",0,0,0,0,"-0,09",0,0,0,0,0,0,0,"3,51",0,0,0,0,0
28,0.0,Henrique Dourado ,0,ATA,"22,01",22,0,Fluminense,3,"0,00",0,0,0,0,"0,47",0,0,0,0,0,0,0,"5,75",0,0,0,0,0
29,24.526762273044014,Fábio Carille ,0,TEC,"12,04",28,0,Corinthians,3,"4,45",0,0,0,0,"0,42",0,0,0,0,0,0,0,"4,29",0,0,0,0,0
29,24.526762273044014,Diego Cavalieri ,0,GOL,"3,39",7,3,Fluminense,3,"-2,00",0,0,0,0,"-1,17",0,10,0,0,0,0,1,"2,30",9,0,0,0,0
29,24.526762273044014,Werley ,7,ZAG,"9,03",17,43,Coritiba,3,"7,10",1,1,0,2,"-0,23",0,0,18,1,0,7,6,"3,95",0,0,1,8,0
29,24.526762273044014,Pedro Geromel ,5,ZAG,"13,85",17,42,Grêmio,3,"6,30",0,0,4,0,"-0,91",0,0,41,0,2,12,10,"6,78",0,0,3,13,0
29,24.526762273044014,Apodi ,15,LAT,"8,35",26,60,Chapecoense,3,"5,00",2,0,0,1,"0,19",0,0,33,0,0,50,7,"3,19",0,8,0,49,8
29,24.526762273044014,Diogo Barbosa ,4,LAT,"12,23",24,87,Cruzeiro,3,"1,10",2,0,4,0,"-1,63",0,0,41,1,3,26,10,"4,28",0,1,2,24,0
29,24.526762273044014,Rafinha ,5,MEI,"6,43",19,58,Cruzeiro,3,"0,60",1,0,1,3,"-0,49",0,0,20,1,0,42,0,"3,07",0,0,5,25,0
29,24.526762273044014,Matheus Galdezani ,17,MEI,"7,46",27,105,Coritiba,3,"0,40",1,0,0,1,"0,09",0,0,47,0,1,46,0,"2,71",0,6,0,48,13
29,24.526762273044014,Zé Rafael  ,14,MEI,"20,36",28,63,Bahia,3,"4,30",8,0,0,3,"0,35",0,0,70,0,4,94,0,"6,60",0,4,0,52,22
29,24.526762273044014,Everton ,14,ATA,"9,98",25,25,Grêmio,2,"0,70",1,0,0,5,"-0,41",0,0,15,1,2,19,0,"3,98",0,1,0,12,17
29,24.526762273044014,Filigrana ,2,ATA,"1,67",8,3,Coritiba,2,"0,00",0,0,2,1,"0,00",0,0,4,0,0,1,0,"1,17",0,0,1,7,0
29,24.526762273044014,Júnior Dutra ,23,ATA,"8,54",22,71,Avaí,3,"4,10",4,0,0,6,"1,14",0,0,22,2,1,34,0,"4,15",0,3,0,36,8
30,12.33766645015494,Fábio Carille ,0,TEC,"11,72",29,0,Corinthians,3,"2,36",0,0,0,0,"-0,32",0,0,0,0,0,0,0,"4,22",0,0,0,0,0
30,12.33766645015494,Diego Cavalieri ,0,GOL,"4,57",8,3,Fluminense,3,"5,00",0,0,0,0,"1,18",0,13,0,0,0,0,1,"2,64",11,0,0,0,0
30,12.33766645015494,Werley ,7,ZAG,"7,88",18,45,Coritiba,3,"-0,10",1,1,0,2,"-1,15",0,0,18,1,0,8,6,"3,73",0,0,0,8,1
30,12.33766645015494,Pedro Geromel ,5,ZAG,"13,85",17,42,Grêmio,2,"0,00",0,0,0,0,"0,00",0,0,41,0,2,12,10,"6,78",0,4,0,13,3
30,12.33766645015494,Apodi ,15,LAT,"8,32",27,64,Chapecoense,3,"4,30",2,0,8,1,"-0,03",0,0,33,0,0,52,8,"3,23",0,0,8,50,0
30,12.33766645015494,Diogo Barbosa ,4,LAT,"13,23",25,91,Cruzeiro,3,"6,90",2,0,1,0,"1,00",0,0,44,1,3,30,10,"4,38",0,4,0,26,4
30,12.33766645015494,Rafinha ,7,MEI,"8,71",20,60,Cruzeiro,3,"13,40",1,0,0,3,"2,28",0,0,23,2,1,42,0,"3,59",0,1,0,27,5
30,12.33766645015494,Matheus Galdezani ,17,MEI,"5,66",28,110,Coritiba,2,"-9,50",1,0,7,1,"-1,80",0,0,47,0,1,48,0,"2,27",0,1,13,50,0
30,12.33766645015494,Jean Mota ,10,MEI,"5,59",24,71,Santos,3,"0,60",1,0,2,1,"-1,83",0,0,41,0,3,29,0,"3,68",0,0,7,15,0
30,12.33766645015494,Jô ,18,ATA,"13,31",27,60,Corinthians,3,"7,50",30,0,4,14,"1,38",1,0,8,0,2,30,0,"4,19",0,0,18,47,0
30,12.33766645015494,Filigrana ,2,ATA,"1,67",8,3,Coritiba,2,"0,00",0,0,0,1,"0,00",0,0,4,0,0,1,0,"1,17",0,2,0,7,1
30,12.33766645015494,Júnior Dutra ,23,ATA,"10,02",23,76,Avaí,3,"12,00",4,0,3,7,"1,48",0,0,22,2,2,36,0,"4,49",0,0,8,37,0
31,21.119998582653047,Mano Menezes ,0,TEC,"12,52",30,0,Cruzeiro,3,"2,98",0,0,0,0,"-0,13",0,0,0,0,0,0,0,"3,71",0,0,0,0,0
31,21.119998582653047,Douglas Friedrich ,0,GOL,"8,96",22,1,Avaí,3,"-1,00",0,0,2,0,"-0,09",0,49,0,0,0,9,9,"6,83",24,0,0,2,1
31,21.119998582653047,Tiago  ,2,ZAG,"9,04",28,45,Bahia,3,"-1,30",6,0,7,2,"-1,24",0,0,22,1,0,30,9,"2,63",0,0,4,36,0
31,21.119998582653047,Kanu ,10,ZAG,"9,01",19,44,Vitória,3,"0,00",5,0,4,4,"0,00",0,0,22,1,1,10,6,"4,51",0,1,3,15,0
31,21.119998582653047,Mayke ,2,LAT,"7,63",22,56,Palmeiras,3,"3,30",3,0,0,1,"-0,42",0,0,35,0,1,11,8,"3,51",0,3,0,36,0
31,21.119998582653047,Victor Luis ,8,LAT,"13,05",26,54,Botafogo,3,"7,00",1,0,4,1,"-0,33",0,0,46,0,0,27,10,"4,64",0,0,2,24,0
31,21.119998582653047,Lucas Silva ,4,MEI,"4,55",16,36,Cruzeiro,3,"-0,30",1,1,0,0,"-0,26",0,0,20,0,2,12,0,"1,24",0,3,0,23,1
31,21.119998582653047,Carlos Alberto ,0,MEI,"8,00",0,0,Atlético-PR,2,"0,00",0,0,0,0,"0,00",0,0,0,0,0,0,0,"0,00",0,0,0,0,0
31,21.119998582653047,Arthur ,2,MEI,"10,54",23,62,Grêmio,3,"0,00",0,0,0,1,"0,00",0,0,55,0,0,49,0,"4,14",0,3,0,19,2
31,21.119998582653047,Bruno Henrique ,13,ATA,"12,68",22,69,Santos,3,"-1,30",8,1,0,6,"-2,12",0,0,22,1,9,64,0,"5,53",0,5,0,53,13
31,21.119998582653047,Luis Guilherme ,0,ATA,"2,00",0,0,Atlético-MG,2,"0,00",0,0,0,0,"0,00",0,0,0,0,0,0,0,"0,00",0,0,0,0,0
31,21.119998582653047,Muriqui ,0,ATA,"5,00",0,0,Vasco,2,"0,00",0,0,0,0,"0,00",0,0,0,0,0,0,0,"0,00",0,0,0,0,0
32,28.85493795002592,Claudinei Oliveira ,0,TEC,"8,06",32,0,Avaí,3,"3,19",0,0,0,0,"-0,17",0,0,0,0,0,0,0,"3,19",0,0,0,0,0
32,28.85493795002592,Fernando Prass ,0,GOL,"15,40",28,11,Palmeiras,3,"7,00",0,0,0,0,"1,43",0,48,1,0,0,8,7,"4,23",33,2,1,0,0
32,28.85493795002592,Renato Chaves ,1,ZAG,"4,01",8,11,Fluminense,3,"6,80",1,0,0,1,"1,35",0,0,10,0,0,3,1,"2,74",0,2,0,11,3
32,28.85493795002592,Ronaldo Alves ,4,ZAG,"7,43",23,57,Sport,4,"0,00",3,0,0,1,"0,00",0,0,23,0,1,39,8,"3,44",0,5,0,24,5
32,28.85493795002592,Mayke ,2,LAT,"7,24",23,57,Palmeiras,3,"0,70",3,0,3,1,"-0,39",0,0,35,0,1,13,8,"3,39",0,0,0,36,0
32,28.85493795002592,Victor Luis ,8,LAT,"11,35",27,59,Botafogo,3,"-3,50",1,0,0,1,"-1,70",0,0,46,0,0,29,10,"4,34",0,5,0,26,2
32,28.85493795002592,Lucas Silva ,5,MEI,"5,35",17,37,Cruzeiro,3,"4,30",1,1,3,0,"0,80",0,0,22,0,2,15,0,"1,42",0,0,1,25,0
32,28.85493795002592,Carlos Alberto ,0,MEI,"8,00",0,0,Atlético-PR,2,"0,00",0,0,0,0,"0,00",0,0,0,0,0,0,0,"0,00",0,0,0,0,0
32,28.85493795002592,Arthur ,2,MEI,"8,91",24,66,Grêmio,3,"0,30",0,0,3,1,"-1,63",0,0,55,0,0,53,0,"3,98",0,0,2,20,0
32,28.85493795002592,Jô ,19,ATA,"13,69",29,63,Corinthians,3,"9,80",32,0,4,15,"1,73",1,0,8,0,2,35,0,"4,24",0,0,20,50,0
32,28.85493795002592,Lucca ,28,ATA,"19,75",29,76,Ponte Preta,3,"1,30",10,0,0,11,"-0,82",2,0,26,0,1,87,0,"5,66",0,4,0,37,25
32,28.85493795002592,Bruno Henrique ,14,ATA,"15,16",23,74,Santos,3,"12,90",8,1,5,6,"2,48",0,0,23,1,11,67,0,"5,85",0,0,15,56,0
33,13.377022386242778,Mano Menezes ,0,TEC,"12,50",32,0,Cruzeiro,3,"0,00",0,0,0,0,"-0,76",0,0,0,0,0,0,0,"3,75",0,0,0,0,0
33,13.377022386242778,Douglas Friedrich ,0,GOL,"9,34",24,0,Avaí,3,"0,00",0,0,0,0,"0,58",0,0,0,0,0,0,0,"6,25",0,0,0,0,0
33,13.377022386242778,Tiago  ,0,ZAG,"9,36",30,0,Bahia,3,"0,00",0,0,0,0,"-1,77",0,0,0,0,0,0,0,"2,80",0,0,0,0,0
33,13.377022386242778,Kanu ,0,ZAG,"8,63",21,0,Vitória,3,"0,00",0,0,0,0,"0,45",0,0,0,0,0,0,0,"4,08",0,0,0,0,0
33,13.377022386242778,Fagner ,0,LAT,"13,23",27,0,Corinthians,3,"0,00",0,0,0,0,"0,87",0,0,0,0,0,0,0,"4,59",0,0,0,0,0
33,13.377022386242778,Jonathan ,0,LAT,"2,43",19,0,Atlético-GO,4,"0,00",0,0,0,0,"-0,62",0,0,0,0,0,0,0,"2,16",0,0,0,0,0
33,13.377022386242778,Andrigo ,0,MEI,"7,46",31,0,Atlético-GO,1,"0,00",0,0,0,0,"2,16",0,0,0,0,0,0,0,"2,76",0,0,0,0,0
33,13.377022386242778,Allione ,0,MEI,"10,15",21,0,Bahia,3,"0,00",0,0,0,0,"0,41",0,0,0,0,0,0,0,"2,42",0,0,0,0,0
33,13.377022386242778,Luiz Antonio  ,0,MEI,"7,48",25,0,Chapecoense,3,"0,00",0,0,0,0,"-1,17",0,0,0,0,0,0,0,"2,19",0,0,0,0,0
33,13.377022386242778,Bruno Henrique ,0,ATA,"12,76",24,0,Santos,4,"0,00",0,0,0,0,"-2,40",0,0,0,0,0,0,0,"5,52",0,0,0,0,0
33,13.377022386242778,Luis Guilherme ,0,ATA,"2,00",0,0,Atlético-MG,2,"0,00",0,0,0,0,"0,00",0,0,0,0,0,0,0,"0,00",0,0,0,0,0
33,13.377022386242778,Muriqui ,0,ATA,"5,00",0,0,Vasco,2,"0,00",0,0,0,0,"0,00",0,0,0,0,0,0,0,"0,00",0,0,0,0,0
34,20.549036466504234,Claudinei Oliveira ,0,TEC,"7,80",34,0,Avaí,3,"1,48",0,0,0,0,"-0,55",0,0,0,0,0,0,0,"3,18",0,0,0,0,0
34,20.549036466504234,Fernando Prass ,0,GOL,"14,78",30,13,Palmeiras,3,"4,40",0,0,0,0,"1,04",0,49,1,0,0,8,8,"3,99",36,2,1,0,0
34,20.549036466504234,Renato Chaves ,1,ZAG,"2,52",10,16,Fluminense,3,"-2,50",1,0,0,1,"-0,80",0,0,13,0,0,4,1,"2,15",0,3,0,16,3
34,20.549036466504234,Ronaldo Alves ,4,ZAG,"7,71",24,58,Sport,3,"0,20",3,0,0,1,"0,28",0,0,23,0,1,41,8,"3,31",0,5,0,25,5
34,20.549036466504234,Mayke ,2,LAT,"8,83",25,58,Palmeiras,3,"10,30",3,0,4,1,"1,68",0,0,39,0,1,17,9,"3,54",0,0,0,38,0
34,20.549036466504234,Diogo Barbosa ,4,LAT,"13,83",29,100,Cruzeiro,3,"10,60",3,0,1,1,"1,57",0,0,49,1,3,34,11,"4,43",0,4,0,28,4
34,20.549036466504234,Rafinha ,9,MEI,"7,14",23,74,Cruzeiro,3,"4,00",2,0,0,3,"0,53",0,0,27,2,1,47,0,"3,31",0,2,0,30,7
34,20.549036466504234,Alisson ,12,MEI,"12,73",23,58,Cruzeiro,2,"1,70",4,0,1,1,"-0,53",0,0,27,3,5,43,0,"4,17",0,0,11,26,0
34,20.549036466504234,Tiago Real ,8,MEI,"4,16",21,54,Coritiba,3,"-1,20",3,0,4,1,"0,07",0,0,13,1,2,22,0,"1,29",0,0,6,27,0
34,20.549036466504234,Denilson ,0,ATA,"4,17",1,2,Avaí,3,"-0,10",0,0,0,0,"-1,83",0,0,0,0,0,1,0,"-0,10",0,0,0,0,0
34,20.549036466504234,Kazim ,5,ATA,"3,17",13,6,Corinthians,3,"8,30",2,0,1,1,"1,43",0,0,2,0,0,6,0,"0,67",0,0,4,17,0
34,20.549036466504234,Ángel Romero ,8,ATA,"12,24",27,93,Corinthians,3,"2,90",13,0,10,3,"-1,69",0,0,53,0,3,81,0,"4,31",0,0,14,37,0
35,26.779831797235023,Claudinei Oliveira ,0,TEC,"8,40",35,0,Avaí,3,"4,69",0,0,0,0,"0,60",0,0,0,0,0,0,0,"3,22",0,0,0,0,0
35,26.779831797235023,Fábio ,0,GOL,"11,55",31,14,Cruzeiro,3,"-4,00",0,0,0,0,"-0,86",0,41,0,0,0,2,11,"3,69",30,0,0,1,0
35,26.779831797235023,Tiago  ,3,ZAG,"9,22",32,48,Bahia,3,"-1,30",6,0,8,2,"-1,23",0,0,30,1,0,31,10,"2,79",0,0,5,41,0
35,26.779831797235023,Luis Caicedo ,0,ZAG,"6,00",0,0,Cruzeiro,2,"0,00",0,0,0,0,"0,00",0,0,0,0,0,0,0,"0,00",0,0,0,0,0
35,26.779831797235023,Fábio Santos ,5,LAT,"4,34",31,104,Atlético-MG,3,"-1,10",3,0,0,5,"-0,51",0,0,34,0,2,52,7,"3,48",0,8,0,38,3
35,26.779831797235023,Henrique ,1,LAT,"8,01",19,47,Vasco,3,"4,90",2,0,0,0,"1,05",0,0,27,0,2,31,3,"3,00",0,2,0,28,3
35,26.779831797235023,Maicosuel ,0,MEI,"6,86",1,0,Atlético-MG,3,"1,70",0,0,0,0,"-1,14",0,0,1,0,0,0,0,"1,70",0,0,0,0,0
35,26.779831797235023,Diego Jardel ,0,MEI,"6,00",0,0,Avaí,2,"0,00",0,0,0,0,"0,00",0,0,0,0,0,0,0,"0,00",0,0,0,0,0
35,26.779831797235023,Guilherme ,9,MEI,"9,60",20,84,Atlético-PR,3,"0,30",3,0,4,5,"-1,77",0,0,24,1,5,29,0,"4,35",0,0,8,33,0
35,26.779831797235023,Jô ,20,ATA,"14,85",31,68,Corinthians,3,"16,50",32,0,0,17,"2,93",1,0,8,0,2,37,0,"4,46",0,4,0,52,20
35,26.779831797235023,Robinho ,9,ATA,"12,62",28,73,Atlético-MG,3,"1,70",20,0,8,7,"-1,77",1,0,25,1,5,31,0,"3,19",0,0,5,26,0
35,26.779831797235023,Bruno Henrique ,15,ATA,"15,82",25,84,Santos,3,"16,60",8,1,0,7,"3,06",0,0,27,1,11,75,0,"5,96",0,6,0,60,17
36,9.26249863163656,Abel Braga ,0,TEC,"12,21",34,0,Fluminense,3,"5,45",0,0,0,0,"0,73",0,0,0,0,0,0,0,"3,16",0,0,0,0,0
36,9.26249863163656,Jandrei ,0,GOL,"6,18",35,40,Chapecoense,3,"7,00",0,0,0,0,"1,08",0,39,0,0,0,12,10,"2,01",47,2,1,0,0
36,9.26249863163656,Luan ,5,ZAG,"6,36",18,22,Palmeiras,2,"2,10",0,1,3,1,"-0,76",0,0,19,0,0,15,5,"2,69",0,0,1,23,0
36,9.26249863163656,Douglas ,0,ZAG,"4,00",0,0,São Paulo,2,"0,00",0,0,0,0,"0,00",0,0,0,0,0,0,0,"0,00",0,0,0,0,0
36,9.26249863163656,Fábio Santos ,5,LAT,"5,38",32,105,Atlético-MG,3,"5,20",3,0,8,5,"1,04",0,0,34,0,2,53,8,"3,53",0,0,3,38,0
36,9.26249863163656,Henrique ,1,LAT,"7,19",20,48,Vasco,3,"-0,10",2,0,2,0,"-0,82",0,0,28,0,2,31,3,"2,85",0,0,3,31,0
36,9.26249863163656,Maicosuel ,0,MEI,"6,86",1,0,Atlético-MG,3,"1,70",0,0,0,0,"-1,14",0,0,1,0,0,0,0,"1,70",0,0,0,0,0
36,9.26249863163656,Diego Jardel ,0,MEI,"6,00",0,0,Avaí,2,"0,00",0,0,0,0,"0,00",0,0,0,0,0,0,0,"0,00",0,0,0,0,0
36,9.26249863163656,Guilherme ,9,MEI,"9,00",21,88,Atlético-PR,3,"-2,70",4,0,0,5,"-0,60",0,0,24,1,5,30,0,"4,01",0,5,0,34,9
36,9.26249863163656,Jô ,21,ATA,"12,58",32,70,Corinthians,3,"2,10",32,0,4,17,"-2,27",1,0,8,0,2,39,0,"4,39",0,0,21,52,0
36,9.26249863163656,Robinho ,9,ATA,"12,27",29,73,Atlético-MG,3,"0,00",21,0,0,7,"-0,35",1,0,25,1,5,32,0,"3,08",0,8,0,26,5
36,9.26249863163656,Romulo ,18,ATA,"7,72",32,66,Avaí,3,"-2,20",9,0,0,3,"-0,60",0,0,20,0,0,42,0,"1,50",0,5,0,41,11
37,19.94081727096433,Renato Gaúcho ,0,TEC,"15,27",36,0,Grêmio,3,"2,95",0,0,0,0,"0,05",0,0,0,0,0,0,0,"4,21",0,0,0,0,0
37,19.94081727096433,Cássio ,0,GOL,"12,22",33,12,Corinthians,3,"1,70",0,0,3,0,"1,28",0,38,0,0,0,8,15,"4,31",28,0,0,0,2
37,19.94081727096433,Lugano ,3,ZAG,"3,05",7,12,São Paulo,3,"0,00",0,0,0,0,"0,00",0,0,4,0,0,2,2,"0,25",0,5,0,11,1
37,19.94081727096433,Bonfim  ,0,ZAG,"4,00",0,0,Atlético-GO,2,"0,00",0,0,0,0,"0,00",0,0,0,0,0,0,0,"0,00",0,0,0,0,0
37,19.94081727096433,Trauco ,7,LAT,"6,73",22,86,Flamengo,3,"0,00",0,1,3,1,"0,00",0,0,26,1,0,9,9,"2,70",0,0,4,36,0
37,19.94081727096433,Fábio Santos ,5,LAT,"4,57",33,109,Atlético-MG,3,"0,00",4,0,0,5,"-0,81",0,0,35,0,2,53,8,"3,42",0,8,0,38,3
37,19.94081727096433,Luiz Fernando  ,5,MEI,"4,19",32,62,Atlético-GO,3,"0,00",8,0,7,9,"-1,30",0,0,19,1,1,40,0,"2,78",0,0,10,41,0
37,19.94081727096433,Jucilei ,7,MEI,"13,90",34,74,São Paulo,3,"6,80",1,1,0,1,"1,15",0,0,80,0,0,54,0,"3,58",0,2,0,50,2
37,19.94081727096433,Diego ,17,MEI,"18,05",26,100,Flamengo,3,"-1,10",9,0,5,9,"-1,58",1,0,31,0,2,81,0,"5,12",0,0,13,38,0
37,19.94081727096433,Roger ,19,ATA,"10,31",20,44,Botafogo,5,"0,00",19,0,3,10,"0,00",1,0,11,0,2,22,0,"5,06",0,0,11,21,0
37,19.94081727096433,Rildo ,9,ATA,"9,02",33,85,Coritiba,3,"2,20",9,0,0,6,"0,84",0,0,33,0,2,112,0,"3,66",0,6,0,42,8
37,19.94081727096433,Santarém ,0,ATA,"1,00",0,0,Avaí,2,"0,00",0,0,0,0,"0,00",0,0,0,0,0,0,0,"0,00",0,0,0,0,0
