round,fitness,name,position,team,situation,price,meatches,average,last_score,difference,disarms,goals,assists,no_goals,fouls_suffered,strikes_out,strikes_defended,strikes_post,difficult_defense,penalty_defense,own_goal,red_card,yellow_card,goal_suffered,penalty_lost,fouls_commited,offsides,wrong_pass
0,0.0,Claudinei Oliveira ,0,TEC,"4,42",1,0,Avaí,3,"4,25",0,0,0,0,"2,42",0,0,0,0,0,0,0,"4,25",0,0,0,0,0
0,0.0,Fernando Miguel ,0,GOL,"8,13",1,0,Vitória,3,"5,50",0,0,0,0,"2,13",0,0,0,0,0,1,1,"5,50",0,0,0,0,0
0,0.0,Leonardo Silva ,0,ZAG,"13,00",0,0,Atlético-MG,5,"0,00",0,0,0,0,"0,00",0,0,0,0,0,0,0,"0,00",0,0,0,0,0
0,0.0,Vilson ,0,ZAG,"4,00",0,0,Corinthians,2,"0,00",0,0,0,0,"0,00",0,0,0,0,0,0,0,"0,00",0,0,0,0,0
0,0.0,Leandro Salino ,0,LAT,"4,00",0,0,Vitória,2,"0,00",0,0,0,0,"0,00",0,0,0,0,0,0,0,"0,00",0,0,0,0,0
0,0.0,Mena ,0,LAT,"7,00",0,0,Sport,5,"0,00",0,0,0,0,"0,00",0,0,0,0,0,0,0,"0,00",0,0,0,0,0
0,0.0,Fabrício Baiano ,0,MEI,"2,00",0,0,Coritiba,2,"0,00",0,0,0,0,"0,00",0,0,0,0,0,0,0,"0,00",0,0,0,0,0
0,0.0,Vitor Bueno ,0,MEI,"12,80",1,2,Santos,3,"2,10",0,0,0,0,"-3,20",0,0,1,0,0,2,0,"2,10",0,0,0,0,0
0,0.0,João Filipe ,0,MEI,"5,00",0,0,Atlético-GO,2,"0,00",0,0,0,0,"0,00",0,0,0,0,0,0,0,"0,00",0,0,0,0,0
0,0.0,Vinícius Tanque ,0,ATA,"2,00",0,0,Botafogo,2,"0,00",0,0,0,0,"0,00",0,0,0,0,0,0,0,"0,00",0,0,0,0,0
0,0.0,Índio ,0,ATA,"2,00",0,0,Sport,2,"0,00",0,0,0,0,"0,00",0,0,0,0,0,0,0,"0,00",0,0,0,0,0
0,0.0,Pachu ,0,ATA,"2,00",0,0,Botafogo,2,"0,00",0,0,0,0,"0,00",0,0,0,0,0,0,0,"0,00",0,0,0,0,0
1,22.66,Abel Braga ,0,TEC,"14,12",1,0,Fluminense,3,"4,96",0,0,0,0,"-0,88",0,0,0,0,0,0,0,"4,96",0,0,0,0,0
1,22.66,Mauricio Kozlinski ,0,GOL,"7,57",1,1,Avaí,3,"4,70",0,0,0,0,"1,57",0,0,0,0,0,0,1,"4,70",0,0,0,0,0
1,22.66,Henrique ,0,ZAG,"12,80",1,1,Fluminense,3,"8,10",0,0,0,0,"2,80",0,0,2,1,0,3,0,"8,10",0,0,0,0,0
1,22.66,Kanu ,0,ZAG,"8,00",0,0,Vitória,2,"0,00",0,0,0,0,"0,00",0,0,0,0,0,0,0,"0,00",0,0,0,0,0
1,22.66,Marcos Rocha ,0,LAT,"14,00",0,0,Atlético-MG,3,"0,00",0,0,0,0,"0,00",0,0,0,0,0,0,0,"0,00",0,0,0,0,0
1,22.66,Bruno Cortez ,0,LAT,"7,21",1,1,Grêmio,3,"4,20",0,0,0,0,"1,21",0,0,0,0,0,0,1,"4,20",0,0,0,1,0
1,22.66,Alan Santos ,0,MEI,"4,74",1,3,Coritiba,1,"1,70",0,0,0,0,"-0,26",0,0,3,0,0,1,0,"1,70",0,1,0,2,0
1,22.66,Gabriel Xavier ,0,MEI,"5,00",0,0,Vitória,5,"0,00",0,0,0,0,"0,00",0,0,0,0,0,0,0,"0,00",0,0,0,0,0
1,22.66,Matheus Sávio ,1,MEI,"11,39",1,0,Flamengo,3,"12,10",0,0,0,1,"7,39",0,0,2,0,0,0,0,"12,10",0,0,0,0,0
1,22.66,Henrique Dourado ,0,ATA,"16,91",1,2,Fluminense,3,"15,90",0,0,0,2,"8,91",0,0,0,0,0,2,0,"15,90",0,0,0,1,0
1,22.66,Ábila ,1,ATA,"13,44",1,3,Cruzeiro,3,"11,00",0,0,0,1,"5,44",0,0,1,0,0,1,0,"11,00",0,0,0,0,1
1,22.66,Lourenço ,0,ATA,"1,00",0,0,Avaí,2,"0,00",0,0,0,0,"0,00",0,0,0,0,0,0,0,"0,00",0,0,0,0,0
2,46.91,Zé Ricardo ,0,TEC,"10,45",2,0,Flamengo,3,"6,36",0,0,0,0,"0,94",0,0,0,0,0,0,0,"4,41",0,0,0,0,0
2,46.91,Vanderlei ,0,GOL,"17,54",2,1,Santos,3,"26,70",0,0,0,0,"8,34",0,6,0,0,0,0,1,"11,85",3,0,0,0,1
2,46.91,Neto ,0,ZAG,"5,00",0,0,Chapecoense,5,"0,00",0,0,0,0,"0,00",0,0,0,0,0,0,0,"0,00",0,0,0,0,0
2,46.91,Felipe Santana ,2,ZAG,"5,65",2,2,Atlético-MG,3,"2,60",0,0,0,0,"-0,08",0,0,2,0,0,3,0,"1,85",0,0,0,4,0
2,46.91,Zeca ,1,LAT,"13,67",1,0,Santos,3,"6,20",0,0,0,0,"-1,33",0,0,0,0,0,1,1,"6,20",0,0,0,0,0
2,46.91,Geferson ,0,LAT,"12,69",2,6,Vitória,3,"5,70",0,0,0,0,"2,50",0,0,7,0,0,1,1,"7,55",0,0,0,1,0
2,46.91,Eduardo Henrique ,0,MEI,"2,62",1,1,Atlético-PR,3,"-0,30",0,0,0,0,"-1,38",0,0,0,0,0,1,0,"-0,30",0,0,0,1,0
2,46.91,Kaio ,0,MEI,"4,00",0,0,Grêmio,2,"0,00",0,0,0,0,"0,00",0,0,0,0,0,0,0,"0,00",0,0,0,0,0
2,46.91,Ramiro ,2,MEI,"18,90",2,6,Grêmio,3,"3,50",1,0,2,2,"1,92",0,0,2,0,1,4,0,"10,25",0,0,0,2,0
2,46.91,Lourency ,0,ATA,"3,00",0,0,Chapecoense,2,"0,00",0,0,0,0,"0,00",0,0,0,0,0,0,0,"0,00",0,0,0,0,0
2,46.91,Dudu ,0,ATA,"24,12",1,4,Palmeiras,3,"0,00",3,0,0,0,"0,00",0,0,4,0,0,10,0,"10,10",0,0,1,0,0
2,46.91,Richarlison  ,1,ATA,"9,58",2,3,Fluminense,3,"8,30",3,0,1,1,"2,08",0,0,3,0,0,4,0,"4,95",0,0,1,5,0
3,23.43,Claudinei Oliveira ,0,TEC,"4,98",3,0,Avaí,3,"0,90",0,0,0,0,"-0,11",0,0,0,0,0,0,0,"2,19",0,0,0,0,0
3,23.43,Jean ,0,GOL,"8,60",3,3,Bahia,3,"0,70",0,0,0,0,"-1,08",0,8,0,0,0,0,0,"4,37",5,0,0,0,0
3,23.43,Marcio ,0,ZAG,"3,70",2,5,Coritiba,3,"5,80",0,0,0,0,"1,76",0,0,2,0,0,3,1,"3,45",0,0,0,3,0
3,23.43,Marllon ,0,ZAG,"9,48",3,2,Ponte Preta,3,"0,70",0,0,0,0,"-0,79",0,0,5,0,0,0,1,"3,97",0,0,0,2,0
3,23.43,João Lucas ,0,LAT,"9,96",3,15,Ponte Preta,3,"1,20",0,0,0,0,"-0,14",0,0,2,0,1,1,1,"3,30",0,0,0,1,1
3,23.43,Ezequiel  ,0,LAT,"6,00",0,0,Cruzeiro,2,"0,00",0,0,0,0,"0,00",0,0,0,0,0,0,0,"0,00",0,0,0,0,0
3,23.43,Bruno Silva ,1,MEI,"12,00",3,12,Botafogo,3,"8,50",0,0,0,2,"1,35",0,0,8,0,0,5,0,"7,73",0,2,0,6,1
3,23.43,Diego Souza ,0,MEI,"20,22",1,3,Sport,2,"0,00",0,0,0,1,"0,00",0,0,1,0,0,4,0,"7,80",0,1,0,2,0
3,23.43,Gastón Fernández ,0,MEI,"5,80",1,1,Grêmio,2,"0,00",0,0,0,0,"0,00",0,0,0,0,0,1,0,"0,20",0,0,0,0,0
3,23.43,Luis Fabiano ,3,ATA,"12,24",3,3,Vasco,3,"5,40",4,0,0,2,"0,16",0,0,1,0,1,3,0,"6,47",0,2,0,4,2
3,23.43,Marco Túlio ,0,ATA,"1,00",0,0,Atlético-MG,2,"0,00",0,0,0,0,"0,00",0,0,0,0,0,0,0,"0,00",0,0,0,0,0
3,23.43,Léo Santos ,0,ATA,"3,00",0,0,Coritiba,2,"0,00",0,0,0,0,"0,00",0,0,0,0,0,0,0,"0,00",0,0,0,0,0
4,17.65,Renato Gaúcho ,0,TEC,"15,00",4,0,Grêmio,3,"6,12",0,0,0,0,"0,73",0,0,0,0,0,0,0,"5,65",0,0,0,0,0
4,17.65,Maílson ,0,GOL,"1,00",0,0,Sport,2,"0,00",0,0,0,0,"0,00",0,0,0,0,0,0,0,"0,00",0,0,0,0,0
4,17.65,Rodrigo ,0,ZAG,"10,08",2,1,Ponte Preta,3,"10,10",0,0,0,0,"2,63",0,0,2,0,0,2,1,"5,05",0,0,1,0,0
4,17.65,David Braz ,1,ZAG,"9,68",3,12,Santos,3,"-1,20",0,0,1,1,"-1,13",0,0,2,0,0,1,1,"3,67",0,0,0,2,0
4,17.65,Diego Renan ,0,LAT,"7,00",0,0,Chapecoense,2,"0,00",0,0,0,0,"0,00",0,0,0,0,0,0,0,"0,00",0,0,0,0,0
4,17.65,Fernandinho ,0,LAT,"5,66",1,0,Ponte Preta,2,"0,00",0,0,0,0,"0,00",0,0,0,0,0,0,1,"5,00",0,0,0,0,0
4,17.65,Jucilei ,0,MEI,"12,16",4,9,São Paulo,3,"0,10",0,0,0,0,"-0,84",0,0,13,0,0,8,0,"4,22",0,0,0,13,0
4,17.65,Matheus Galdezani ,2,MEI,"6,77",4,18,Coritiba,3,"5,80",0,0,2,0,"1,46",0,0,10,0,0,10,0,"3,25",0,0,3,8,0
4,17.65,Michel  ,1,MEI,"5,13",3,6,Grêmio,3,"5,00",0,0,0,0,"1,14",0,0,6,0,0,3,0,"2,53",0,0,0,6,0
4,17.65,Wellington Paulista ,2,ATA,"12,65",4,7,Chapecoense,3,"9,50",2,0,1,3,"1,74",0,0,2,0,0,3,0,"5,92",0,0,1,5,0
4,17.65,Fernandinho ,0,ATA,"11,80",1,2,Grêmio,2,"0,00",0,0,0,2,"0,00",0,0,1,0,0,8,0,"21,10",0,0,0,0,0
4,17.65,Ricardo Oliveira ,6,ATA,"11,40",4,4,Santos,3,"-0,90",1,0,1,0,"-1,07",0,0,0,1,0,5,0,"1,25",0,0,2,7,0
5,35.78333333333333,Renato Gaúcho ,0,TEC,"15,75",5,0,Grêmio,3,"8,10",0,0,0,0,"0,75",0,0,0,0,0,0,0,"6,14",0,0,0,0,0
5,35.78333333333333,Cláudio Vitor ,0,GOL,"1,00",0,0,Avaí,2,"0,00",0,0,0,0,"0,00",0,0,0,0,0,0,0,"0,00",0,0,0,0,0
5,35.78333333333333,Rodrigo ,1,ZAG,"8,67",3,3,Ponte Preta,3,"1,10",0,0,0,0,"-1,41",0,0,2,0,0,4,1,"3,73",0,0,0,0,1
5,35.78333333333333,David Braz ,2,ZAG,"10,39",4,16,Santos,3,"4,00",0,0,0,1,"0,71",0,0,2,0,0,1,2,"3,75",0,1,0,3,0
5,35.78333333333333,Bruno Pacheco ,0,LAT,"7,69",5,15,Atlético-GO,3,"3,70",0,0,0,0,"0,96",0,0,5,0,1,9,1,"2,60",0,1,0,7,0
5,35.78333333333333,Euller  ,0,LAT,"6,31",2,1,Vitória,2,"0,00",0,0,0,0,"0,00",0,0,0,0,0,1,1,"2,35",0,0,0,1,0
5,35.78333333333333,Jean ,3,MEI,"8,66",5,13,Vasco,3,"0,90",0,0,0,0,"-1,25",0,0,15,0,0,8,0,"5,04",0,2,0,5,4
5,35.78333333333333,Matheus Galdezani ,2,MEI,"7,75",5,23,Coritiba,3,"7,20",0,0,0,1,"0,98",0,0,11,0,0,14,0,"4,04",0,3,0,10,3
5,35.78333333333333,Michel  ,2,MEI,"9,50",4,8,Grêmio,3,"19,00",0,0,0,2,"4,37",0,0,8,0,0,5,0,"6,65",0,0,0,9,0
5,35.78333333333333,Wellington Paulista ,3,ATA,"11,12",5,9,Chapecoense,3,"0,60",2,0,0,3,"-1,53",0,0,2,0,0,4,0,"4,86",0,2,0,5,3
5,35.78333333333333,Fernandinho ,0,ATA,"11,80",1,2,Grêmio,2,"0,00",0,0,0,2,"0,00",0,0,1,0,0,8,0,"21,10",0,0,0,0,0
5,35.78333333333333,Everaldo ,2,ATA,"10,79",5,10,Atlético-GO,3,"18,80",1,0,0,2,"4,28",0,0,1,0,1,5,0,"5,52",0,0,7,5,0
6,17.973333333333333,Vagner Mancini ,0,TEC,"8,48",6,0,Chapecoense,3,"1,67",0,0,0,0,"-0,11",0,0,0,0,0,0,0,"3,52",0,0,0,0,0
6,17.973333333333333,Victor ,0,GOL,"11,31",6,6,Atlético-MG,3,"1,70",0,0,1,0,"-1,68",0,12,0,0,0,0,2,"5,87",7,0,0,0,1
6,17.973333333333333,Marllon ,1,ZAG,"9,40",6,6,Ponte Preta,3,"-0,90",0,0,1,0,"-0,79",0,0,7,0,0,4,2,"3,22",0,0,0,3,0
6,17.973333333333333,Luiz Otávio  ,1,ZAG,"5,51",5,13,Chapecoense,3,"-0,70",0,1,0,0,"-0,49",0,0,6,0,0,0,2,"2,10",0,1,0,3,2
6,17.973333333333333,Mayke ,0,LAT,"6,38",3,7,Palmeiras,2,"0,00",1,0,0,0,"0,00",0,0,5,0,0,3,1,"2,97",0,0,0,7,0
6,17.973333333333333,Leandro Salino ,1,LAT,"6,94",4,11,Vitória,3,"8,20",0,0,1,0,"1,72",0,0,10,0,0,9,1,"4,10",0,0,0,11,0
6,17.973333333333333,Mateus Pet ,0,MEI,"5,02",1,1,Vasco,3,"5,10",0,0,0,0,"3,02",0,0,2,0,0,1,0,"5,10",0,0,2,1,0
6,17.973333333333333,Renato Cajá ,2,MEI,"8,87",2,8,Ponte Preta,3,"8,40",0,0,0,1,"1,67",0,0,1,0,0,0,0,"4,85",0,0,1,0,0
6,17.973333333333333,Thiago Lopes ,0,MEI,"4,00",0,0,Coritiba,2,"0,00",0,0,0,0,"0,00",0,0,0,0,0,0,0,"0,00",0,0,0,0,0
6,17.973333333333333,Kelvin ,0,ATA,"5,03",5,9,Vasco,5,"0,00",2,0,0,0,"0,00",0,0,4,0,0,8,0,"1,72",0,0,3,3,0
6,17.973333333333333,Lucca ,3,ATA,"21,96",6,19,Ponte Preta,3,"14,80",2,0,0,5,"2,85",0,0,6,0,1,17,0,"9,77",0,0,0,9,4
6,17.973333333333333,Henrique Almeida ,3,ATA,"15,79",6,15,Coritiba,3,"8,40",6,0,1,2,"1,34",0,0,8,1,0,12,0,"5,62",0,0,4,4,0
7,20.09095238095238,Zé Ricardo ,0,TEC,"11,63",7,0,Flamengo,3,"8,48",0,0,0,0,"1,32",0,0,0,0,0,0,0,"4,14",0,0,0,0,0
7,20.09095238095238,Fernando Prass ,0,GOL,"16,07",7,4,Palmeiras,3,"7,00",0,0,0,0,"0,63",0,14,0,0,0,1,2,"5,61",6,0,0,0,0
7,20.09095238095238,Marcio ,2,ZAG,"7,73",6,12,Coritiba,3,"5,10",1,0,0,1,"1,07",0,0,5,0,1,5,4,"5,97",0,1,0,7,0
7,20.09095238095238,Pedro Geromel ,1,ZAG,"12,81",5,13,Grêmio,3,"4,20",0,0,0,0,"-1,87",0,0,9,0,1,4,5,"8,92",0,0,0,3,2
7,20.09095238095238,João Pedro  ,1,LAT,"5,87",1,2,Chapecoense,5,"0,00",0,0,0,0,"0,00",0,0,1,0,0,1,0,"2,30",0,0,0,0,0
7,20.09095238095238,Rodinei ,1,LAT,"10,73",3,5,Flamengo,3,"11,00",1,0,0,1,"1,52",0,0,4,0,0,2,2,"8,00",0,0,0,3,1
7,20.09095238095238,Thiago Maia ,4,MEI,"7,86",7,24,Santos,3,"4,20",0,0,0,0,"-0,10",0,0,17,0,1,7,0,"3,28",0,2,0,14,1
7,20.09095238095238,Jean Mota ,2,MEI,"4,59",6,14,Santos,3,"9,00",0,0,0,0,"1,06",0,0,6,0,1,5,0,"2,65",0,0,0,2,2
7,20.09095238095238,Luiz Antonio  ,1,MEI,"9,27",7,15,Chapecoense,3,"0,10",0,0,1,2,"0,00",0,0,4,1,1,0,0,"3,79",0,0,6,10,0
7,20.09095238095238,Henrique Almeida ,5,ATA,"15,01",7,17,Coritiba,3,"3,50",7,0,0,2,"-0,78",0,0,9,1,0,13,0,"5,32",0,1,0,4,5
7,20.09095238095238,Andres Chavez ,0,ATA,"5,70",1,1,São Paulo,2,"0,00",0,0,0,0,"0,00",0,0,1,0,0,0,0,"1,40",0,0,0,0,0
7,20.09095238095238,Paulo Henrique ,0,ATA,"3,00",0,0,Sport,2,"0,00",0,0,0,0,"0,00",0,0,0,0,0,0,0,"0,00",0,0,0,0,0
8,27.86583333333333,Rogério Ceni ,0,TEC,"9,66",8,0,São Paulo,3,"2,12",0,0,0,0,"-0,34",0,0,0,0,0,0,0,"3,87",0,0,0,0,0
8,27.86583333333333,Jean ,0,GOL,"10,02",8,7,Bahia,3,"-5,00",0,0,0,0,"-2,50",0,15,0,0,0,1,3,"4,80",10,0,0,0,0
8,27.86583333333333,Pablo ,5,ZAG,"10,13",7,11,Corinthians,3,"4,30",0,0,0,0,"-0,28",0,0,3,0,0,1,4,"3,25",0,1,0,6,2
8,27.86583333333333,Cléber ,0,ZAG,"6,49",1,0,Santos,2,"0,00",0,0,0,0,"0,00",0,0,0,0,0,0,1,"4,50",0,0,0,1,0
8,27.86583333333333,Euller  ,0,LAT,"6,31",2,1,Vitória,2,"0,00",0,0,0,0,"0,00",0,0,0,0,0,1,1,"2,35",0,0,0,1,0
8,27.86583333333333,Léo ,0,LAT,"6,00",0,0,Atlético-PR,2,"0,00",0,0,0,0,"0,00",0,0,0,0,0,0,0,"0,00",0,0,0,0,0
8,27.86583333333333,Zé Rafael  ,6,MEI,"19,84",8,23,Bahia,3,"4,50",1,0,1,1,"0,22",0,0,19,0,3,23,0,"7,63",0,0,9,19,0
8,27.86583333333333,Marcão Silva ,2,MEI,"5,71",7,17,Atlético-GO,3,"-1,70",0,0,4,0,"-0,74",0,0,18,0,0,5,0,"2,05",0,0,0,14,0
8,27.86583333333333,Diego Souza ,1,MEI,"16,75",3,18,Sport,3,"7,10",0,0,1,2,"-0,53",0,0,2,0,0,8,0,"4,90",0,0,1,6,0
8,27.86583333333333,Emerson Sheik ,3,ATA,"4,92",4,11,Ponte Preta,3,"1,00",0,0,2,0,"-0,98",0,0,2,0,1,12,0,"2,05",0,0,1,4,0
8,27.86583333333333,Luan ,8,ATA,"22,03",7,29,Grêmio,3,"0,50",1,0,0,4,"-1,63",0,0,10,0,4,17,0,"10,49",0,0,0,11,5
8,27.86583333333333,Borja ,3,ATA,"19,54",3,2,Palmeiras,3,"0,00",2,0,0,2,"0,00",0,0,0,0,0,2,0,"5,83",0,0,0,2,1
9,34.72031746031746,Fábio Carille ,0,TEC,"11,03",9,0,Corinthians,3,"6,48",0,0,0,0,"0,95",0,0,0,0,0,0,0,"4,54",0,0,0,0,0
9,34.72031746031746,Renan Ribeiro ,0,GOL,"10,51",9,8,São Paulo,3,"4,20",0,0,1,0,"0,88",0,12,0,0,0,1,4,"4,01",8,0,0,0,0
9,34.72031746031746,Balbuena ,2,ZAG,"9,71",6,19,Corinthians,3,"12,10",2,0,0,2,"1,71",0,0,3,0,0,5,4,"5,97",0,1,0,1,0
9,34.72031746031746,Rodrigo Becão ,1,ZAG,"2,60",4,7,Bahia,3,"-2,40",0,0,1,0,"-1,20",0,0,4,0,0,2,1,"2,10",0,0,1,4,0
9,34.72031746031746,Ezequiel  ,0,LAT,"6,05",4,8,Cruzeiro,3,"0,00",0,0,0,0,"0,00",0,0,9,0,0,6,1,"3,10",0,2,0,9,0
9,34.72031746031746,Victor Ferraz ,1,LAT,"11,06",7,23,Santos,3,"7,00",0,0,0,2,"0,29",0,0,5,0,0,8,4,"5,05",0,2,0,6,0
9,34.72031746031746,Rodrigo Lindoso ,1,MEI,"9,24",7,19,Botafogo,3,"-0,80",0,0,0,1,"-0,20",0,0,14,0,0,7,0,"3,68",0,1,0,5,0
9,34.72031746031746,Willian Farias ,2,MEI,"9,77",7,24,Vitória,3,"7,90",0,0,3,0,"1,02",0,0,23,1,0,3,0,"3,76",0,0,0,12,0
9,34.72031746031746,Everton ,3,MEI,"14,50",8,30,Flamengo,3,"4,80",1,0,3,1,"0,49",0,0,14,0,2,14,0,"4,30",0,0,5,12,0
9,34.72031746031746,Kelvin ,0,ATA,"5,03",5,9,Vasco,5,"0,00",2,0,0,0,"0,00",0,0,4,0,0,8,0,"1,72",0,0,0,3,3
9,34.72031746031746,Kayke ,2,ATA,"4,46",7,23,Santos,3,"-1,80",4,0,0,3,"-0,44",0,0,1,0,0,4,0,"2,89",0,0,0,6,3
9,34.72031746031746,Lucas Pratto ,16,ATA,"14,97",9,30,São Paulo,3,"-2,20",1,0,1,3,"-1,10",0,0,4,0,2,5,0,"4,95",0,0,8,13,0
10,34.72031746031746,Fábio Carille ,0,TEC,"11,03",10,0,Corinthians,3,"0,00",0,0,0,0,"0,00",0,0,0,0,0,0,0,"4,57",0,0,0,0,0
10,34.72031746031746,Renan Ribeiro ,0,GOL,"11,96",10,0,São Paulo,3,"0,00",0,0,0,0,"1,45",0,0,0,0,0,0,0,"4,61",0,0,0,0,0
10,34.72031746031746,Balbuena ,0,ZAG,"9,25",7,0,Corinthians,3,"0,00",0,0,0,0,"-0,46",0,0,0,0,0,0,0,"6,00",0,0,0,0,0
10,34.72031746031746,Rodrigo Becão ,0,ZAG,"3,42",5,0,Bahia,3,"0,00",0,0,0,0,"0,82",0,0,0,0,0,0,0,"2,16",0,0,0,0,0
10,34.72031746031746,Ezequiel  ,0,LAT,"6,23",5,0,Cruzeiro,3,"0,00",0,0,0,0,"0,18",0,0,0,0,0,0,0,"3,36",0,0,0,0,0
10,34.72031746031746,Victor Ferraz ,0,LAT,"9,60",8,0,Santos,2,"0,00",0,0,0,0,"-1,46",0,0,0,0,0,0,0,"4,23",0,0,0,0,0
10,34.72031746031746,Rodrigo Lindoso ,0,MEI,"10,26",8,0,Botafogo,3,"0,00",0,0,0,0,"1,02",0,0,0,0,0,0,0,"3,82",0,0,0,0,0
10,34.72031746031746,Willian Farias ,0,MEI,"8,41",8,0,Vitória,3,"0,00",0,0,0,0,"-1,36",0,0,0,0,0,0,0,"3,21",0,0,0,0,0
10,34.72031746031746,Everton ,0,MEI,"14,50",8,0,Flamengo,3,"0,00",0,0,0,0,"0,00",0,0,0,0,0,0,0,"4,30",0,0,0,0,0
10,34.72031746031746,Kelvin ,0,ATA,"5,03",5,0,Vasco,5,"0,00",0,0,0,0,"0,00",0,0,0,0,0,0,0,"1,72",0,0,0,0,0
10,34.72031746031746,Kayke ,0,ATA,"4,65",8,0,Santos,3,"0,00",0,0,0,0,"0,19",0,0,0,0,0,0,0,"2,53",0,0,0,0,0
10,34.72031746031746,Lucas Pratto ,0,ATA,"15,89",10,0,São Paulo,3,"0,00",0,0,0,0,"0,92",0,0,0,0,0,0,0,"4,84",0,0,0,0,0
11,20.27610389610389,Zé Ricardo ,0,TEC,"12,43",11,0,Flamengo,3,"8,25",0,0,0,0,"1,03",0,0,0,0,0,0,0,"4,50",0,0,0,0,0
11,20.27610389610389,Felipe Garcia ,0,GOL,"7,74",10,6,Atlético-GO,3,"-2,00",0,0,1,0,"-0,71",0,22,0,0,0,1,1,"3,98",14,0,0,0,0
11,20.27610389610389,Rodrigo Caio ,0,ZAG,"9,00",7,17,São Paulo,3,"0,90",0,0,0,0,"-0,14",0,0,13,0,0,4,2,"2,72",0,3,0,8,0
11,20.27610389610389,Rodrigo Becão ,1,ZAG,"3,42",5,8,Bahia,3,"0,00",0,0,0,0,"0,00",0,0,5,0,0,4,1,"2,16",0,1,0,4,1
11,20.27610389610389,Norberto  ,0,LAT,"5,00",0,0,Vitória,2,"0,00",0,0,0,0,"0,00",0,0,0,0,0,0,0,"0,00",0,0,0,0,0
11,20.27610389610389,Bruno Cortez ,0,LAT,"10,86",9,19,Grêmio,4,"0,00",0,0,0,1,"0,00",0,0,14,0,0,10,6,"5,40",0,3,0,13,0
11,20.27610389610389,Alisson ,5,MEI,"15,16",10,35,Cruzeiro,3,"10,60",1,0,0,1,"1,22",0,0,16,2,3,20,0,"5,47",0,0,3,16,0
11,20.27610389610389,João Paulo ,5,MEI,"2,06",10,40,Botafogo,3,"0,20",1,0,0,0,"-0,53",0,0,9,0,2,14,0,"1,18",0,3,0,21,5
11,20.27610389610389,Zé Rafael  ,8,MEI,"19,68",11,28,Bahia,3,"2,60",2,0,2,1,"-1,02",0,0,27,0,3,30,0,"6,86",0,0,11,23,0
11,20.27610389610389,Henrique Almeida ,11,ATA,"16,16",11,30,Coritiba,3,"11,60",9,0,0,2,"2,09",0,0,13,1,1,20,0,"4,72",0,1,0,10,8
11,20.27610389610389,Osvaldo ,4,ATA,"5,42",11,34,Sport,3,"1,20",1,0,0,3,"-1,05",0,0,6,0,1,18,0,"3,30",0,2,0,8,4
11,20.27610389610389,Caio Monteiro ,0,ATA,"2,53",2,1,Vasco,2,"0,00",0,0,0,1,"0,00",0,0,0,0,0,1,0,"4,10",0,0,0,0,0
12,20.042489177489177,Milton Mendes ,0,TEC,"8,48",12,0,Vasco,3,"0,05",0,0,0,0,"-0,45",0,0,0,0,0,0,0,"3,39",0,0,0,0,0
12,20.042489177489177,Marcelo Grohe ,0,GOL,"8,26",9,2,Grêmio,5,"0,00",0,1,1,0,"0,00",0,2,0,0,0,0,6,"1,60",7,0,0,0,0
12,20.042489177489177,Wanderson ,0,ZAG,"5,53",6,6,Atlético-PR,3,"-1,50",1,0,1,2,"-0,20",0,0,5,0,0,2,3,"5,95",0,0,3,4,0
12,20.042489177489177,Yerry Mina ,2,ZAG,"15,65",7,15,Palmeiras,3,"4,30",1,0,3,1,"0,50",0,0,12,0,0,7,3,"5,23",0,0,2,14,0
12,20.042489177489177,Guilherme Arana ,0,LAT,"9,01",12,38,Corinthians,3,"1,90",3,0,0,0,"-0,22",0,0,6,0,2,14,8,"4,26",0,1,0,8,1
12,20.042489177489177,Zé Roberto ,0,LAT,"6,79",5,8,Palmeiras,2,"-0,80",0,0,1,0,"-0,77",0,0,4,0,0,4,2,"1,62",0,0,0,11,0
12,20.042489177489177,Rithely ,8,MEI,"10,99",10,27,Sport,3,"4,20",0,0,0,0,"-0,25",0,0,22,0,1,13,0,"4,45",0,1,0,14,3
12,20.042489177489177,Marcão Silva ,3,MEI,"7,27",11,22,Atlético-GO,3,"1,70",0,0,5,0,"-0,41",0,0,31,0,0,7,0,"3,13",0,0,0,18,0
12,20.042489177489177,Rodrigo Lindoso ,2,MEI,"10,05",9,21,Botafogo,3,"3,30",0,0,1,1,"-0,21",0,0,15,0,0,7,0,"3,76",0,0,3,5,0
12,20.042489177489177,Henrique Almeida ,11,ATA,"14,37",12,30,Coritiba,3,"0,30",9,0,1,2,"-1,79",0,0,13,1,1,20,0,"4,35",0,0,8,10,0
12,20.042489177489177,Kayke ,4,ATA,"5,86",10,29,Santos,3,"7,00",5,0,0,3,"1,69",0,0,1,0,0,4,0,"2,54",0,0,3,8,0
12,20.042489177489177,Lucas Barrios ,0,ATA,"10,28",7,8,Grêmio,3,"3,80",5,0,0,2,"0,23",0,0,3,0,1,9,0,"3,50",0,2,0,8,3
13,26.284860139860143,Cuca ,0,TEC,"13,15",13,0,Palmeiras,3,"1,45",0,0,0,0,"-0,10",0,0,0,0,0,0,0,"3,47",0,0,0,0,0
13,26.284860139860143,Felipe Garcia ,0,GOL,"6,80",12,7,Atlético-GO,3,"-4,60",0,0,0,0,"-0,87",0,23,0,0,0,1,1,"2,83",16,1,0,0,0
13,26.284860139860143,Pablo ,6,ZAG,"12,09",12,16,Corinthians,3,"8,40",0,0,0,0,"0,72",0,0,6,0,0,4,8,"4,46",0,2,0,9,2
13,26.284860139860143,Léo ,2,ZAG,"9,67",12,29,Cruzeiro,3,"6,40",0,0,0,0,"0,90",0,0,8,0,1,10,4,"2,72",0,3,0,10,1
13,26.284860139860143,Sidcley ,2,LAT,"12,54",11,41,Atlético-PR,3,"1,60",5,0,0,3,"-1,08",0,0,15,0,2,19,3,"5,97",0,1,0,11,1
13,26.284860139860143,Eduardo ,2,LAT,"7,00",13,65,Bahia,3,"5,60",2,0,1,0,"0,84",0,0,22,0,1,10,4,"3,30",0,0,0,18,0
13,26.284860139860143,Thaciano ,0,MEI,"1,00",0,0,Santos,2,"0,00",0,0,0,0,"0,00",0,0,0,0,0,0,0,"0,00",0,0,0,0,0
13,26.284860139860143,Gabriel ,0,MEI,"8,32",12,20,Corinthians,3,"4,70",0,1,2,1,"0,17",0,0,22,0,0,8,0,"2,72",0,0,2,17,0
13,26.284860139860143,Bruno Mota ,1,MEI,"3,40",1,2,Atlético-PR,3,"1,80",0,0,0,0,"0,40",0,0,1,0,0,1,0,"1,80",0,0,0,1,0
13,26.284860139860143,Rildo ,3,ATA,"9,92",11,23,Coritiba,3,"15,00",2,0,0,1,"2,30",0,0,11,0,0,24,0,"3,95",0,1,0,7,1
13,26.284860139860143,Lucas Pratto ,23,ATA,"16,39",13,36,São Paulo,3,"9,00",2,0,0,3,"2,58",1,0,5,0,2,10,0,"4,22",0,2,0,17,10
13,26.284860139860143,Róger Guedes ,5,ATA,"7,04",13,31,Palmeiras,3,"2,50",3,0,0,2,"0,06",0,0,4,1,3,15,0,"2,62",0,2,0,16,2
14,11.626827616827613,Milton Mendes ,0,TEC,"9,38",14,0,Vasco,3,"4,16",0,0,0,0,"0,07",0,0,0,0,0,0,0,"3,54",0,0,0,0,0
14,11.626827616827613,Wilson ,0,GOL,"12,32",14,9,Coritiba,3,"-4,00",0,0,0,0,"-1,10",0,26,0,0,0,3,5,"4,99",14,0,0,0,0
14,11.626827616827613,Léo ,2,ZAG,"8,91",13,30,Cruzeiro,3,"1,40",0,0,3,0,"-0,76",0,0,9,0,1,10,5,"2,62",0,0,1,10,0
14,11.626827616827613,Rodrigo Caio ,0,ZAG,"8,45",10,22,São Paulo,3,"-3,80",0,0,3,0,"-1,41",0,0,20,0,0,6,2,"2,67",0,0,0,8,0
14,11.626827616827613,Yago Pikachu ,1,LAT,"10,85",11,25,Vasco,3,"9,20",1,0,0,2,"1,39",0,0,7,0,1,11,2,"4,48",0,0,3,8,0
14,11.626827616827613,Rodinei ,2,LAT,"10,01",9,21,Flamengo,3,"3,50",1,0,2,1,"0,24",0,0,9,0,1,7,4,"4,71",0,0,2,11,0
14,11.626827616827613,Otávio  ,3,MEI,"11,99",11,24,Atlético-PR,3,"12,30",0,0,2,0,"2,36",0,0,23,0,1,6,0,"4,30",0,0,2,10,0
14,11.626827616827613,Luan ,1,MEI,"5,62",11,17,Avaí,5,"0,00",0,0,6,0,"0,00",0,0,22,0,0,27,0,"1,92",0,0,1,29,0
14,11.626827616827613,Marcos Vinícius ,0,MEI,"6,00",0,0,Cruzeiro,5,"0,00",0,0,0,0,"0,00",0,0,0,0,0,0,0,"0,00",0,0,0,0,0
14,11.626827616827613,Judivan  ,0,ATA,"4,00",0,0,Cruzeiro,2,"0,00",0,0,0,0,"0,00",0,0,0,0,0,0,0,"0,00",0,0,0,0,0
14,11.626827616827613,Pedro Rocha ,4,ATA,"10,92",10,18,Grêmio,3,"10,70",4,0,0,1,"1,56",0,0,12,0,1,10,0,"4,75",0,0,0,8,7
14,11.626827616827613,Lucas Pratto ,23,ATA,"15,44",14,41,São Paulo,3,"2,70",2,0,2,4,"-0,95",1,0,5,0,2,12,0,"4,11",0,0,12,18,0
15,15.310104895104892,Milton Mendes ,0,TEC,"8,73",15,0,Vasco,3,"1,24",0,0,0,0,"-0,65",0,0,0,0,0,0,0,"3,39",0,0,0,0,0
15,15.310104895104892,Vanderlei ,0,GOL,"22,13",14,5,Santos,3,"12,20",0,0,0,0,"-1,76",0,35,0,0,0,2,8,"10,21",10,1,3,1,0
15,15.310104895104892,Rodrigo Caio ,1,ZAG,"9,84",11,25,São Paulo,3,"5,60",1,0,0,0,"1,39",0,0,20,0,0,7,3,"2,94",0,4,0,10,0
15,15.310104895104892,Emerson Silva ,1,ZAG,"6,08",1,1,Botafogo,3,"0,00",0,0,0,0,"0,00",0,0,3,0,0,4,0,"6,50",0,0,0,2,0
15,15.310104895104892,Ezequiel  ,1,LAT,"4,91",7,13,Cruzeiro,4,"-2,00",0,0,3,0,"-0,95",0,0,11,0,0,6,2,"2,35",0,0,1,14,0
15,15.310104895104892,Sidcley ,4,LAT,"13,49",13,54,Atlético-PR,3,"5,90",6,0,1,3,"-0,72",0,0,20,0,3,24,4,"6,28",0,0,2,14,0
15,15.310104895104892,Everton Felipe ,6,MEI,"4,23",11,58,Sport,3,"1,70",2,0,2,0,"-0,04",0,0,13,0,1,15,0,"1,54",0,0,9,17,0
15,15.310104895104892,Carlos Alberto ,0,MEI,"8,00",0,0,Atlético-PR,2,"0,00",0,0,0,0,"0,00",0,0,0,0,0,0,0,"0,00",0,0,0,0,0
15,15.310104895104892,Allione ,0,MEI,"10,90",11,37,Bahia,2,"0,00",3,0,3,0,"0,00",0,0,13,1,4,14,0,"2,95",0,0,2,7,0
15,15.310104895104892,Richarlison  ,6,ATA,"13,50",12,30,Fluminense,3,"6,10",11,0,0,5,"-1,35",0,0,20,0,2,32,0,"6,23",0,3,0,30,6
15,15.310104895104892,Luis Henrique ,0,ATA,"4,00",0,0,Atlético-PR,2,"0,00",0,0,0,0,"0,00",0,0,0,0,0,0,0,"0,00",0,0,0,0,0
15,15.310104895104892,Éderson ,0,ATA,"4,00",0,0,Vasco,2,"0,00",0,0,0,0,"0,00",0,0,0,0,0,0,0,"0,00",0,0,0,0,0
16,11.626827616827613,Milton Mendes ,0,TEC,"9,78",16,0,Vasco,3,"6,34",0,0,0,0,"1,05",0,0,0,0,0,0,0,"3,57",0,0,0,0,0
16,11.626827616827613,Wilson ,0,GOL,"12,93",16,9,Coritiba,3,"2,70",0,0,0,0,"0,80",0,28,0,0,0,3,5,"4,41",20,0,0,0,0
16,11.626827616827613,Léo ,3,ZAG,"9,12",15,32,Cruzeiro,3,"3,80",0,0,4,0,"0,86",0,0,11,0,1,10,5,"2,47",0,0,1,12,0
16,11.626827616827613,Rodrigo Caio ,1,ZAG,"8,94",12,25,São Paulo,3,"-0,30",1,0,4,0,"-0,90",0,0,20,0,0,7,3,"2,67",0,0,0,10,0
16,11.626827616827613,Yago Pikachu ,4,LAT,"9,41",12,29,Vasco,2,"0,00",1,0,0,2,"0,00",0,0,9,0,1,12,3,"4,20",0,0,4,9,0
16,11.626827616827613,Rodinei ,2,LAT,"10,01",9,21,Flamengo,5,"0,00",1,0,2,1,"0,00",0,0,9,0,2,8,4,"4,71",0,0,2,15,0
16,11.626827616827613,Otávio  ,4,MEI,"10,20",12,28,Atlético-PR,4,"0,00",0,0,3,1,"0,00",0,0,26,0,2,8,0,"4,09",0,0,2,15,0
16,11.626827616827613,Luan ,1,MEI,"5,62",11,17,Avaí,5,"0,00",0,0,6,0,"0,00",0,0,22,0,0,27,0,"1,92",0,0,1,29,0
16,11.626827616827613,Marcos Vinícius ,0,MEI,"6,00",0,0,Cruzeiro,5,"0,00",0,0,0,0,"0,00",0,0,0,0,0,0,0,"0,00",0,0,0,0,0
16,11.626827616827613,Judivan  ,0,ATA,"4,00",0,0,Cruzeiro,2,"0,00",0,0,0,0,"0,00",0,0,0,0,0,0,0,"0,00",0,0,0,0,0
16,11.626827616827613,Pedro Rocha ,5,ATA,"11,10",12,26,Grêmio,3,"10,60",4,0,0,1,"2,10",0,0,13,1,2,14,0,"4,83",0,0,0,8,7
16,11.626827616827613,Lucas Pratto ,26,ATA,"15,49",16,52,São Paulo,3,"2,80",3,0,2,5,"-0,67",1,0,5,0,2,19,0,"4,28",0,0,14,20,0
17,19.375128205128203,Fábio Carille ,0,TEC,"11,33",17,0,Corinthians,3,"2,61",0,0,0,0,"-0,46",0,0,0,0,0,0,0,"4,58",0,0,0,0,0
17,19.375128205128203,Victor ,0,GOL,"11,94",15,8,Atlético-MG,3,"9,00",0,0,3,0,"1,45",0,24,0,0,0,2,3,"4,41",17,0,0,1,3
17,19.375128205128203,Luiz Otávio  ,1,ZAG,"4,31",1,2,Chapecoense,3,"0,10",0,0,0,0,"-1,69",0,0,0,0,0,0,0,"0,10",0,0,0,0,0
17,19.375128205128203,Réver ,0,ZAG,"9,55",1,0,Flamengo,3,"-0,50",0,0,0,0,"-4,45",0,0,0,0,0,0,0,"-0,50",0,0,0,1,0
17,19.375128205128203,Léo Moura ,2,LAT,"11,81",4,11,Grêmio,2,"0,00",1,0,0,0,"0,00",0,0,5,0,0,6,3,"6,02",0,0,1,2,0
17,19.375128205128203,Guilherme Arana ,2,LAT,"9,39",16,49,Corinthians,3,"-0,20",4,0,3,1,"-1,11",0,0,8,0,2,20,12,"4,76",0,0,2,12,0
17,19.375128205128203,Diego Rosa ,0,MEI,"8,77",1,1,Bahia,1,"6,40",0,0,0,0,"2,77",0,0,1,0,1,1,0,"6,40",0,0,0,1,0
17,19.375128205128203,Zé Rafael  ,11,MEI,"21,30",16,36,Bahia,3,"14,70",3,0,3,1,"1,48",0,0,42,0,3,52,0,"6,80",0,0,16,34,0
17,19.375128205128203,Wendel ,5,MEI,"13,56",13,29,Fluminense,3,"0,00",1,0,0,2,"0,00",0,0,19,1,2,36,0,"5,74",0,0,0,11,6
17,19.375128205128203,Gilberto ,1,ATA,"5,45",1,0,São Paulo,2,"0,70",0,0,0,0,"-1,55",0,0,0,0,0,0,0,"0,70",0,0,0,0,0
17,19.375128205128203,Lucca ,15,ATA,"24,02",16,46,Ponte Preta,3,"0,00",6,0,1,10,"0,00",1,0,17,0,1,56,0,"8,67",0,0,17,17,0
17,19.375128205128203,Iago ,0,ATA,"7,00",0,0,Coritiba,2,"0,00",0,0,0,0,"0,00",0,0,0,0,0,0,0,"0,00",0,0,0,0,0
18,20.89611111111111,Milton Mendes ,0,TEC,"9,02",18,0,Vasco,3,"1,05",0,0,0,0,"-0,14",0,0,0,0,0,0,0,"3,39",0,0,0,0,0
18,20.89611111111111,Felipe Garcia ,0,GOL,"7,00",15,10,Atlético-GO,3,"1,00",0,0,1,0,"0,10",0,25,0,0,0,1,1,"2,11",22,0,0,0,0
18,20.89611111111111,Roger Carvalho ,10,ZAG,"7,54",18,40,Atlético-GO,3,"0,10",0,0,0,0,"-0,23",0,0,23,1,1,31,1,"2,73",0,0,0,28,0
18,20.89611111111111,Ronaldo Alves ,2,ZAG,"8,28",14,33,Sport,3,"1,80",1,0,4,1,"-0,98",0,0,11,0,1,26,7,"4,16",0,0,4,17,0
18,20.89611111111111,Edimar ,1,LAT,"4,77",4,17,São Paulo,3,"1,10",0,0,0,0,"-0,37",0,0,7,0,0,7,1,"4,25",0,0,2,2,0
18,20.89611111111111,Gilberto  ,7,LAT,"11,20",15,74,Vasco,3,"0,20",2,0,4,0,"-0,93",0,0,48,1,1,20,2,"4,99",0,0,1,20,0
18,20.89611111111111,André Castro ,2,MEI,"2,99",15,34,Atlético-GO,3,"7,40",1,0,0,0,"1,49",0,0,21,0,0,10,0,"1,23",0,2,0,20,1
18,20.89611111111111,Danilo ,0,MEI,"5,00",0,0,Corinthians,2,"0,00",0,0,0,0,"0,00",0,0,0,0,0,0,0,"0,00",0,0,0,0,0
18,20.89611111111111,Maicon ,3,MEI,"7,42",10,15,Grêmio,3,"0,00",0,0,2,0,"-0,45",0,0,9,0,0,9,0,"1,09",0,0,1,7,0
18,20.89611111111111,Bruno Henrique ,5,ATA,"14,21",14,45,Santos,3,"9,70",4,1,3,4,"0,79",0,0,13,1,6,42,0,"5,29",0,0,7,37,0
18,20.89611111111111,Andres Chavez ,0,ATA,"7,00",0,0,São Paulo,2,"0,00",0,0,0,0,"0,00",0,0,0,0,0,0,0,"0,00",0,0,0,0,0
18,20.89611111111111,André ,13,ATA,"11,73",16,42,Sport,3,"7,70",10,0,0,9,"1,16",0,0,15,1,1,31,0,"5,87",0,3,0,38,6
19,9.291167721167717,Jair Ventura ,0,TEC,"11,38",19,0,Botafogo,3,"3,62",0,0,0,0,"0,51",0,0,0,0,0,0,0,"3,86",0,0,0,0,0
19,9.291167721167717,Vanderlei ,0,GOL,"22,47",18,7,Santos,3,"8,00",0,0,2,0,"0,64",0,48,0,0,0,3,10,"10,21",13,0,0,1,3
19,9.291167721167717,Cléber ,0,ZAG,"6,49",1,0,Santos,2,"0,00",0,0,0,0,"0,00",0,0,0,0,0,0,1,"4,50",0,0,0,1,0
19,9.291167721167717,Léo ,3,ZAG,"9,31",18,46,Cruzeiro,3,"4,10",0,0,0,0,"0,04",0,0,13,0,1,11,8,"2,71",0,4,0,12,2
19,9.291167721167717,Pará ,4,LAT,"8,46",13,31,Flamengo,3,"2,70",1,0,0,1,"0,10",0,0,6,0,1,11,4,"2,59",0,0,0,16,0
19,9.291167721167717,Leonan ,0,LAT,"2,69",3,6,Atlético-MG,2,"4,90",0,0,0,0,"0,51",0,0,4,0,0,7,1,"3,17",0,1,0,4,0
19,9.291167721167717,Thallyson ,0,MEI,"2,38",11,12,Sport,2,"9,70",1,0,2,1,"1,59",0,0,5,0,0,7,0,"0,63",0,0,0,10,0
19,9.291167721167717,Zé Rafael  ,11,MEI,"19,77",18,39,Bahia,3,"3,90",5,0,3,1,"-0,51",0,0,47,0,3,59,0,"6,55",0,0,17,38,0
19,9.291167721167717,Wendel ,6,MEI,"14,35",15,34,Fluminense,3,"11,70",1,0,0,3,"1,61",0,0,22,1,2,40,0,"5,89",0,0,0,12,6
19,9.291167721167717,Rafael Sobis ,9,ATA,"9,69",12,27,Cruzeiro,3,"-1,40",1,0,3,2,"-0,51",0,0,4,0,1,11,0,"2,08",0,0,8,16,0
19,9.291167721167717,Lucca ,16,ATA,"21,36",18,52,Ponte Preta,3,"2,60",6,0,1,10,"-0,24",1,0,18,0,1,64,0,"7,94",0,0,18,20,0
19,9.291167721167717,Iago ,1,ATA,"4,72",7,6,Coritiba,2,"0,00",1,0,0,0,"0,00",0,0,1,0,0,4,0,"0,16",0,0,0,2,0
20,5.251742424242425,Renato Gaúcho ,0,TEC,"15,36",20,0,Grêmio,3,"2,15",0,0,0,0,"-0,45",0,0,0,0,0,0,0,"4,55",0,0,0,0,0
20,5.251742424242425,Cleiton ,0,GOL,"1,85",1,2,Atlético-MG,2,"0,00",0,0,0,0,"0,00",0,0,0,0,0,1,1,"4,90",0,0,0,0,0
20,5.251742424242425,Cléber ,0,ZAG,"6,49",1,0,Santos,2,"0,00",0,0,0,0,"0,00",0,0,0,0,0,0,1,"4,50",0,0,0,1,0
20,5.251742424242425,Gabriel ,0,ZAG,"1,00",0,0,Grêmio,2,"0,00",0,0,0,0,"0,00",0,0,0,0,0,0,0,"0,00",0,0,0,0,0
20,5.251742424242425,Wallace Oliveira ,0,LAT,"5,00",0,0,Grêmio,2,"0,00",0,0,0,0,"0,00",0,0,0,0,0,0,0,"0,00",0,0,0,0,0
20,5.251742424242425,Leandro Silva ,7,LAT,"9,06",19,86,Avaí,3,"7,20",2,1,0,0,"0,28",0,0,25,0,2,18,8,"3,32",0,1,0,27,4
20,5.251742424242425,Éder Militão ,3,MEI,"2,19",9,19,São Paulo,3,"0,80",1,0,0,0,"-0,55",0,0,12,0,0,8,0,"2,04",0,0,0,4,0
20,5.251742424242425,Jadson ,3,MEI,"4,69",13,22,Ponte Preta,3,"3,80",0,0,0,0,"0,28",0,0,17,0,0,15,0,"1,72",0,2,0,13,1
20,5.251742424242425,Alejandro Guerra ,7,MEI,"14,96",12,44,Palmeiras,3,"11,80",2,0,0,5,"0,78",0,0,14,0,3,20,0,"5,83",0,3,0,21,7
20,5.251742424242425,Fernandinho ,4,ATA,"11,62",16,26,Grêmio,3,"1,20",0,0,0,6,"-2,07",0,0,17,0,1,42,0,"6,19",0,1,0,16,11
20,5.251742424242425,Lucca ,17,ATA,"21,15",19,53,Ponte Preta,1,"1,60",6,0,0,10,"-0,21",1,0,19,0,1,65,0,"7,61",0,2,0,22,20
20,5.251742424242425,Fernandinho ,4,ATA,"11,62",16,26,Grêmio,3,"1,20",0,0,0,6,"-2,07",0,0,17,0,1,42,0,"6,19",0,1,0,16,11
21,10.081143627614217,Renato Gaúcho ,0,TEC,"15,56",21,0,Grêmio,3,"4,77",0,0,0,0,"0,20",0,0,0,0,0,0,0,"4,56",0,0,0,0,0
21,10.081143627614217,Lucão ,0,GOL,"1,00",0,0,Cruzeiro,2,"0,00",0,0,0,0,"0,00",0,0,0,0,0,0,0,"0,00",0,0,0,0,0
21,10.081143627614217,Edu Dracena ,4,ZAG,"8,84",11,5,Palmeiras,3,"3,20",2,0,0,0,"-0,02",0,0,8,0,0,17,4,"3,31",0,1,0,12,2
21,10.081143627614217,David Braz ,5,ZAG,"12,06",17,42,Santos,3,"6,70",2,1,0,2,"-0,07",0,0,17,0,1,8,11,"4,54",0,5,0,15,1
21,10.081143627614217,Cascardo ,0,LAT,"3,17",9,22,Atlético-PR,3,"0,00",1,0,0,0,"0,00",0,0,7,0,0,13,3,"2,65",0,0,0,7,1
21,10.081143627614217,Pará ,4,LAT,"9,15",15,38,Flamengo,3,"7,00",1,0,0,1,"0,95",0,0,9,0,1,13,5,"2,78",0,0,0,18,0
21,10.081143627614217,Nenê ,7,MEI,"12,08",14,58,Vasco,2,"1,10",2,0,4,2,"0,35",0,0,10,0,3,33,0,"2,90",0,0,5,15,0
21,10.081143627614217,Maxi Rodríguez ,0,MEI,"6,00",0,0,Grêmio,2,"0,00",0,0,0,0,"0,00",0,0,0,0,0,0,0,"0,00",0,0,0,0,0
21,10.081143627614217,Alejandro Guerra ,7,MEI,"13,16",13,51,Palmeiras,3,"1,60",2,0,3,5,"-1,80",0,0,15,0,3,24,0,"5,50",0,0,7,21,0
21,10.081143627614217,Fernandinho ,4,ATA,"11,11",17,32,Grêmio,3,"-0,30",1,0,1,6,"-0,51",0,0,17,0,1,47,0,"5,81",0,0,11,17,0
21,10.081143627614217,Lucca ,18,ATA,"20,16",20,55,Ponte Preta,3,"-1,40",6,0,3,10,"-0,99",1,0,19,0,1,67,0,"7,16",0,0,20,23,0
21,10.081143627614217,Willian ,6,ATA,"6,61",15,26,Palmeiras,1,"2,20",5,0,0,3,"-1,04",1,0,12,1,1,22,0,"2,72",0,4,0,23,6
22,0.0,Vagner Mancini ,0,TEC,"6,51",1,0,Chapecoense,3,"2,20",0,0,0,0,"-0,49",0,0,0,0,0,0,0,"2,20",0,0,0,0,0
22,0.0,Rafael Martins ,0,GOL,"2,00",0,0,Coritiba,2,"0,00",0,0,0,0,"0,00",0,0,0,0,0,0,0,"0,00",0,0,0,0,0
22,0.0,Fred ,5,ZAG,"3,95",11,30,Vitória,2,"0,00",0,0,3,1,"0,00",0,0,12,0,0,2,1,"1,85",0,0,3,11,0
22,0.0,Rodrigo ,7,ZAG,"9,94",14,26,Ponte Preta,2,"0,00",2,1,3,0,"0,00",0,0,14,0,0,22,7,"4,10",0,0,6,7,0
22,0.0,Apodi ,10,LAT,"7,38",19,40,Chapecoense,3,"1,90",2,0,6,0,"-1,03",0,0,25,0,0,38,5,"2,76",0,0,6,44,0
22,0.0,Fagner Alemão ,4,LAT,"9,95",19,54,Avaí,3,"2,90",4,0,3,0,"0,21",0,0,35,0,0,13,9,"4,50",0,0,1,10,0
22,0.0,João Erick ,0,MEI,"2,00",0,0,Sport,2,"0,00",0,0,0,0,"0,00",0,0,0,0,0,0,0,"0,00",0,0,0,0,0
22,0.0,Jadson ,3,MEI,"3,91",14,23,Ponte Preta,1,"-0,80",0,0,0,0,"-0,78",0,0,17,0,0,16,0,"1,54",0,2,0,15,1
22,0.0,Arthur ,0,MEI,"8,85",16,33,Grêmio,2,"0,00",0,0,0,1,"0,00",0,0,38,0,0,33,0,"4,29",0,3,0,11,1
22,0.0,Willians ,0,ATA,"5,00",0,0,Atlético-GO,2,"0,00",0,0,0,0,"0,00",0,0,0,0,0,0,0,"0,00",0,0,0,0,0
22,0.0,Keno ,7,ATA,"7,60",19,40,Palmeiras,1,"8,70",4,0,2,4,"1,38",0,0,15,1,0,13,0,"2,70",0,0,5,16,0
22,0.0,Vitor ,0,ATA,"2,00",0,0,Avaí,2,"0,00",0,0,0,0,"0,00",0,0,0,0,0,0,0,"0,00",0,0,0,0,0
23,6.937536075036075,Mano Menezes ,0,TEC,"12,87",23,0,Cruzeiro,3,"4,26",0,0,0,0,"0,16",0,0,0,0,0,0,0,"3,85",0,0,0,0,0
23,6.937536075036075,Douglas Friedrich ,0,GOL,"11,10",14,0,Avaí,3,"11,50",0,0,0,0,"0,41",0,38,0,0,0,4,9,"9,83",13,2,1,1,0
23,6.937536075036075,Rafael ,0,ZAG,"1,00",0,0,Flamengo,2,"0,00",0,0,0,0,"0,00",0,0,0,0,0,0,0,"0,00",0,0,0,0,0
23,6.937536075036075,Pablo ,7,ZAG,"10,52",15,19,Corinthians,3,"-0,30",0,0,0,0,"-1,11",0,0,12,0,0,8,10,"4,44",0,2,0,10,2
23,6.937536075036075,Léo Moura ,3,LAT,"9,84",8,33,Grêmio,3,"-0,50",3,0,0,0,"-0,86",0,0,6,0,0,12,6,"4,49",0,0,1,4,0
23,6.937536075036075,Matheus Reis ,1,LAT,"5,29",17,51,Bahia,2,"0,00",0,0,4,0,"0,00",0,0,15,0,1,22,6,"2,20",0,0,1,25,0
23,6.937536075036075,Éder Militão ,3,MEI,"2,26",10,23,São Paulo,3,"1,20",1,0,0,0,"0,07",0,0,14,0,0,8,0,"1,96",0,0,0,6,0
23,6.937536075036075,Wagner ,1,MEI,"5,63",12,27,Vasco,3,"5,30",3,0,0,1,"1,06",0,0,12,1,0,11,0,"1,95",0,0,1,12,0
23,6.937536075036075,Alejandro Guerra ,8,MEI,"13,48",15,55,Palmeiras,3,"2,30",3,0,3,5,"-0,34",0,0,19,0,3,26,0,"5,22",0,0,8,23,0
23,6.937536075036075,João Paulo ,5,ATA,"3,35",9,5,Bahia,2,"0,00",0,0,1,2,"0,00",0,0,0,0,0,12,0,"2,55",0,0,3,4,0
23,6.937536075036075,Lucas Pratto ,31,ATA,"15,55",22,63,São Paulo,3,"6,80",4,1,2,5,"0,41",1,0,11,0,4,25,0,"3,77",0,0,18,29,0
23,6.937536075036075,Marcelinho ,0,ATA,"3,00",0,0,Avaí,2,"0,00",0,0,0,0,"0,00",0,0,0,0,0,0,0,"0,00",0,0,0,0,0
24,17.913882532418,Renato Gaúcho ,0,TEC,"15,30",23,0,Grêmio,3,"2,78",0,0,0,0,"0,00",0,0,0,0,0,0,0,"4,39",0,0,0,0,0
24,17.913882532418,Marcos ,0,GOL,"1,36",3,1,Atlético-GO,3,"0,70",0,0,1,0,"-0,04",0,5,0,0,0,1,1,"4,73",2,0,0,0,0
24,17.913882532418,Manoel ,0,ZAG,"8,77",1,1,Cruzeiro,5,"0,00",1,0,0,0,"0,00",0,0,0,0,0,2,1,"5,20",0,0,0,0,0
24,17.913882532418,Henrique ,1,ZAG,"9,14",20,33,Fluminense,5,"0,00",0,0,0,0,"0,00",0,0,24,2,0,23,2,"2,28",0,3,0,19,1
24,17.913882532418,Eduardo ,4,LAT,"6,17",23,119,Bahia,3,"0,50",2,0,5,0,"-0,22",0,0,41,0,1,21,7,"2,63",0,0,1,34,0
24,17.913882532418,William Matheus ,2,LAT,"7,32",20,66,Coritiba,3,"0,00",2,1,0,0,"0,00",0,0,25,0,0,43,6,"2,39",0,6,0,29,5
24,17.913882532418,Lincoln ,0,MEI,"4,00",0,0,Grêmio,2,"0,00",0,0,0,0,"0,00",0,0,0,0,0,0,0,"0,00",0,0,0,0,0
24,17.913882532418,Zé Rafael  ,12,MEI,"20,24",23,49,Bahia,3,"6,00",7,0,0,2,"-0,87",0,0,57,0,4,73,0,"6,33",0,4,0,48,18
24,17.913882532418,Maycon ,12,MEI,"7,69",23,72,Corinthians,3,"-1,20",0,0,0,1,"-0,68",0,0,35,0,3,9,0,"3,19",0,0,0,13,6
24,17.913882532418,Guilherme ,10,ATA,"7,38",19,43,Botafogo,3,"10,30",0,0,1,3,"1,92",0,0,14,1,1,30,0,"3,37",0,0,8,15,0
24,17.913882532418,Wellington Silva ,2,ATA,"8,34",12,44,Fluminense,3,"-1,80",4,0,0,2,"-0,98",0,0,9,0,1,22,0,"2,63",0,0,0,6,1
24,17.913882532418,Lucas Pratto ,32,ATA,"14,82",23,63,São Paulo,3,"2,40",4,1,2,5,"-0,73",1,0,12,0,4,26,0,"3,71",0,0,19,32,0
25,25.941271929824566,Fábio Carille ,0,TEC,"11,79",24,0,Corinthians,3,"2,99",0,0,0,0,"-0,31",0,0,0,0,0,0,0,"4,47",0,0,0,0,0
25,25.941271929824566,Renan Ribeiro ,0,GOL,"8,90",20,15,São Paulo,5,"0,00",0,0,2,0,"0,00",0,27,0,0,0,1,5,"2,06",28,0,0,1,0
25,25.941271929824566,Lucas Fonseca ,1,ZAG,"5,95",20,40,Bahia,3,"3,50",0,1,3,0,"0,43",0,0,19,0,1,23,7,"2,96",0,0,2,9,0
25,25.941271929824566,Luan Peres  ,0,ZAG,"2,09",8,13,Ponte Preta,3,"-0,30",0,0,0,0,"-0,41",0,0,6,0,0,6,2,"2,17",0,1,0,2,1
25,25.941271929824566,Raul Prata ,4,LAT,"5,90",7,27,Sport,3,"10,00",0,0,1,0,"1,04",0,0,15,0,1,7,3,"5,53",0,0,1,8,0
25,25.941271929824566,Guilherme Arana ,3,LAT,"9,85",21,70,Corinthians,3,"2,00",4,0,3,2,"-0,42",0,0,11,0,2,26,14,"4,53",0,0,2,15,0
25,25.941271929824566,Wendel ,7,MEI,"12,48",21,52,Fluminense,3,"-0,10",2,0,2,4,"0,31",0,0,28,2,2,53,0,"4,92",0,0,7,22,0
25,25.941271929824566,Renato ,0,MEI,"3,00",0,0,Avaí,2,"0,00",0,0,0,0,"0,00",0,0,0,0,0,0,0,"0,00",0,0,0,0,0
25,25.941271929824566,Luiz Fernando  ,5,MEI,"4,27",21,38,Atlético-GO,3,"6,10",7,0,0,4,"-1,46",0,0,10,1,1,21,0,"2,07",0,4,0,20,5
25,25.941271929824566,Copete ,15,ATA,"6,94",19,64,Santos,3,"3,70",8,0,3,5,"0,65",0,0,15,0,1,22,0,"3,09",0,0,8,24,0
25,25.941271929824566,Henrique Dourado ,9,ATA,"21,17",19,50,Fluminense,3,"-1,20",6,0,4,14,"-2,01",0,0,9,0,2,36,0,"6,36",0,0,9,48,0
25,25.941271929824566,Rafael Sobis ,13,ATA,"11,10",16,37,Cruzeiro,3,"10,50",1,1,3,3,"1,87",0,0,5,0,1,13,0,"1,88",0,0,9,19,0
26,20.209461824724983,Abel Braga ,0,TEC,"11,61",24,0,Fluminense,3,"1,78",0,0,0,0,"0,37",0,0,0,0,0,0,0,"2,87",0,0,0,0,0
26,20.209461824724983,Martín Silva ,0,GOL,"7,64",26,19,Vasco,3,"4,20",0,0,2,0,"0,66",0,34,0,0,0,3,6,"1,92",37,0,0,0,0
26,20.209461824724983,Lucas Fonseca ,1,ZAG,"5,95",20,40,Bahia,3,"0,00",0,1,0,0,"0,00",0,0,19,0,1,23,7,"2,96",0,3,0,9,2
26,20.209461824724983,Luan Peres  ,0,ZAG,"3,70",9,16,Ponte Preta,3,"8,40",0,0,2,0,"1,61",0,0,10,0,0,6,3,"2,86",0,0,1,3,0
26,20.209461824724983,Raul Prata ,5,LAT,"5,04",8,33,Sport,3,"3,50",0,0,0,0,"-0,86",0,0,18,0,1,7,3,"5,28",0,1,0,9,1
26,20.209461824724983,Guilherme Arana ,3,LAT,"9,03",22,72,Corinthians,3,"-3,10",4,0,0,2,"-0,82",0,0,11,0,2,26,14,"4,18",0,4,0,16,2
26,20.209461824724983,Moisés Ribeiro ,1,MEI,"3,47",12,26,Chapecoense,3,"0,60",0,0,5,0,"-0,52",0,0,24,0,0,15,0,"1,64",0,0,0,23,0
26,20.209461824724983,Renato ,0,MEI,"3,00",0,0,Avaí,2,"0,00",0,0,0,0,"0,00",0,0,0,0,0,0,0,"0,00",0,0,0,0,0
26,20.209461824724983,Luiz Fernando  ,5,MEI,"4,94",22,40,Atlético-GO,3,"8,60",7,0,4,5,"0,67",0,0,11,1,1,22,0,"2,37",0,0,6,24,0
26,20.209461824724983,Osvaldo ,5,ATA,"5,38",19,50,Sport,3,"3,70",2,0,2,3,"0,75",0,0,12,0,1,21,0,"2,31",0,0,5,9,0
26,20.209461824724983,Henrique Dourado ,9,ATA,"21,24",20,54,Fluminense,3,"-1,20",6,0,0,14,"0,07",0,0,9,0,2,39,0,"5,98",0,4,0,53,10
26,20.209461824724983,Manga Escobar ,3,ATA,"4,58",13,12,Vasco,2,"0,70",2,0,0,2,"0,13",0,0,2,0,1,8,0,"2,00",0,0,3,6,0
27,4.342039718451485,Mano Menezes ,0,TEC,"13,37",27,0,Cruzeiro,2,"0,00",0,0,0,0,"0,76",0,0,0,0,0,0,0,"3,87",0,0,0,0,0
27,4.342039718451485,Cleiton ,0,GOL,"1,85",1,0,Atlético-MG,2,"0,00",0,0,0,0,"0,00",0,0,0,0,0,0,0,"4,90",0,0,0,0,0
27,4.342039718451485,Thiago Heleno ,0,ZAG,"8,38",18,0,Atlético-PR,3,"0,00",0,0,0,0,"0,03",0,0,0,0,0,0,0,"3,31",0,0,0,0,0
27,4.342039718451485,Werley ,0,ZAG,"8,05",15,0,Coritiba,3,"0,00",0,0,0,0,"0,52",0,0,0,0,0,0,0,"3,39",0,0,0,0,0
27,4.342039718451485,Léo ,0,LAT,"5,80",1,1,Fluminense,3,"2,20",0,0,1,0,"-0,20",0,0,0,0,1,1,0,"2,20",0,0,1,4,0
27,4.342039718451485,Zeca ,0,LAT,"9,89",11,0,Santos,3,"0,00",0,0,0,0,"-1,55",0,0,0,0,0,0,0,"4,35",0,0,0,0,0
27,4.342039718451485,Luís Fernando ,0,MEI,"3,00",0,0,Bahia,2,"0,00",0,0,0,0,"0,00",0,0,0,0,0,0,0,"0,00",0,0,0,0,0
27,4.342039718451485,Wagner ,0,MEI,"5,76",14,0,Vasco,3,"0,00",0,0,0,0,"0,78",0,0,0,0,0,0,0,"2,13",0,0,0,0,0
27,4.342039718451485,Maycon ,0,MEI,"7,89",26,0,Corinthians,3,"0,00",0,0,0,0,"-0,35",0,0,0,0,0,0,0,"2,87",0,0,0,0,0
27,4.342039718451485,Edigar Junio ,0,ATA,"11,76",15,0,Bahia,3,"0,00",0,0,0,0,"3,54",0,0,0,0,0,0,0,"3,25",0,0,0,0,0
27,4.342039718451485,Bruno Henrique ,0,ATA,"14,80",21,0,Santos,1,"0,00",0,0,0,0,"0,79",0,0,0,0,0,0,0,"5,86",0,0,0,0,0
27,4.342039718451485,Luis Guilherme ,0,ATA,"2,00",0,0,Atlético-MG,2,"0,00",0,0,0,0,"0,00",0,0,0,0,0,0,0,"0,00",0,0,0,0,0
28,0.0,Renato Gaúcho ,0,TEC,"15,61",27,0,Grêmio,3,"0,00",0,0,0,0,"0,32",0,0,0,0,0,0,0,"4,24",0,0,0,0,0
28,0.0,Klever ,0,GOL,"0,83",3,0,Atlético-GO,2,"0,00",0,0,0,0,"0,00",0,0,0,0,0,0,0,"-3,10",0,0,0,0,0
28,0.0,Vinicius ,0,ZAG,"2,00",0,0,Vitória,2,"0,00",0,0,0,0,"0,00",0,0,0,0,0,0,0,"0,00",0,0,0,0,0
28,0.0,Juninho ,0,ZAG,"12,00",0,0,Coritiba,2,"0,00",0,0,0,0,"0,00",0,0,0,0,0,0,0,"0,00",0,0,0,0,0
28,0.0,Jonathan ,0,LAT,"2,77",15,0,Atlético-GO,3,"0,00",0,0,0,0,"0,39",0,0,0,0,0,0,0,"2,15",0,0,0,0,0
28,0.0,Apodi ,0,LAT,"8,16",25,0,Chapecoense,3,"0,00",0,0,0,0,"-0,45",0,0,0,0,0,0,0,"3,12",0,0,0,0,0
28,0.0,Anderson ,0,MEI,"3,25",11,0,Coritiba,2,"0,00",0,0,0,0,"-0,10",0,0,0,0,0,0,0,"0,06",0,0,0,0,0
28,0.0,Wagner ,0,MEI,"4,92",15,0,Vasco,2,"0,00",0,0,0,0,"-0,84",0,0,0,0,0,0,0,"2,01",0,0,0,0,0
28,0.0,Marcão Silva ,0,MEI,"7,50",16,0,Atlético-GO,2,"0,00",0,0,0,0,"0,00",0,0,0,0,0,0,0,"3,28",0,0,0,0,0
28,0.0,Rossi ,0,ATA,"9,48",1,1,Chapecoense,3,"5,40",0,0,0,0,"1,48",0,0,1,1,0,1,0,"5,40",0,0,0,0,0
28,0.0,Gabriel ,0,ATA,"2,80",5,0,Flamengo,2,"0,00",0,0,0,0,"-0,05",0,0,0,0,0,0,0,"-0,44",0,0,0,0,0
28,0.0,Lucas Índio ,0,ATA,"1,00",0,0,Atlético-MG,2,"0,00",0,0,0,0,"0,00",0,0,0,0,0,0,0,"0,00",0,0,0,0,0
29,16.256766656527397,Fábio Carille ,0,TEC,"12,04",28,0,Corinthians,3,"4,45",0,0,0,0,"0,42",0,0,0,0,0,0,0,"4,29",0,0,0,0,0
29,16.256766656527397,Vanderlei ,0,GOL,"22,79",28,9,Santos,3,"7,20",0,0,2,0,"0,72",0,66,0,0,0,5,15,"8,90",20,0,0,1,3
29,16.256766656527397,David Braz ,6,ZAG,"11,32",23,53,Santos,3,"1,90",2,1,8,2,"-0,93",0,0,28,0,1,13,13,"4,22",0,0,1,21,0
29,16.256766656527397,Rodrigo Becão ,2,ZAG,"3,41",8,9,Bahia,2,"0,00",0,0,1,0,"0,00",0,0,10,0,0,6,1,"2,46",0,0,1,6,0
29,16.256766656527397,Edílson ,10,LAT,"11,31",18,54,Grêmio,3,"12,90",1,1,4,1,"1,26",1,0,22,1,0,13,7,"3,07",0,0,6,30,0
29,16.256766656527397,Arnaldo ,1,LAT,"9,63",21,57,Botafogo,3,"5,30",1,0,3,0,"0,34",0,0,43,0,1,33,7,"4,51",0,0,2,28,0
29,16.256766656527397,Marcos Vinícius ,0,MEI,"6,00",0,0,Cruzeiro,5,"0,00",0,0,0,0,"0,00",0,0,0,0,0,0,0,"0,00",0,0,0,0,0
29,16.256766656527397,Lucas Fernandes ,7,MEI,"3,70",15,21,São Paulo,3,"-0,70",0,0,2,1,"-0,11",0,0,11,0,0,13,0,"1,91",0,0,5,8,0
29,16.256766656527397,Maycon ,16,MEI,"8,17",28,87,Corinthians,3,"2,60",0,0,0,1,"-0,15",0,0,40,0,3,13,0,"2,88",0,0,7,18,0
29,16.256766656527397,Edigar Junio ,4,ATA,"9,17",17,36,Bahia,3,"2,10",1,0,0,4,"-0,92",0,0,10,1,1,25,0,"3,45",0,0,0,22,8
29,16.256766656527397,Thalles ,8,ATA,"3,84",11,10,Vasco,2,"0,00",1,0,4,2,"0,00",0,0,2,0,0,12,0,"1,46",0,0,3,13,0
29,16.256766656527397,Rafael Sobis ,14,ATA,"9,50",19,39,Cruzeiro,3,"-0,30",1,1,4,4,"-1,93",0,0,7,0,1,15,0,"2,12",0,0,9,20,0
30,2.3680713905777835,Paulo Autuori ,0,TEC,"8,23",1,0,Atlético-PR,3,"1,64",0,0,0,0,"-1,77",0,0,0,0,0,0,0,"1,64",0,0,0,0,0
30,2.3680713905777835,Aranha ,0,GOL,"11,02",27,10,Ponte Preta,3,"-1,00",0,0,0,0,"-0,55",0,41,1,0,0,3,10,"3,53",37,2,0,0,0
30,2.3680713905777835,Fabián Noguera ,3,ZAG,"4,08",6,7,Santos,2,"0,00",0,0,0,0,"0,00",0,0,6,0,1,2,3,"4,87",0,0,0,4,0
30,2.3680713905777835,Fabrício Bruno ,0,ZAG,"5,38",17,21,Chapecoense,3,"9,60",0,0,0,1,"1,29",0,0,20,0,0,14,5,"2,89",0,5,0,19,1
30,2.3680713905777835,Egídio ,2,LAT,"8,07",18,79,Palmeiras,3,"-0,20",2,0,3,1,"-2,03",0,0,44,0,1,23,8,"5,84",0,0,4,18,0
30,2.3680713905777835,Mansur ,0,LAT,"5,00",0,0,Sport,2,"0,00",0,0,0,0,"0,00",0,0,0,0,0,0,0,"0,00",0,0,0,0,0
30,2.3680713905777835,Willian Arão ,4,MEI,"10,03",23,56,Flamengo,3,"6,40",1,0,0,1,"0,79",0,0,49,1,2,16,0,"3,78",0,2,0,21,3
30,2.3680713905777835,Montillo ,0,MEI,"7,00",0,0,Botafogo,2,"0,00",0,0,0,0,"0,00",0,0,0,0,0,0,0,"0,00",0,0,0,0,0
30,2.3680713905777835,Gustavo Scarpa ,31,MEI,"12,52",28,151,Fluminense,3,"2,80",3,0,0,1,"-1,17",0,0,26,2,8,44,0,"4,03",0,0,0,18,26
30,2.3680713905777835,Miller Bolaños ,0,ATA,"14,00",0,0,Grêmio,2,"0,00",0,0,0,0,"0,00",0,0,0,0,0,0,0,"0,00",0,0,0,0,0
30,2.3680713905777835,Guilherme ,11,ATA,"6,31",24,52,Botafogo,2,"1,00",0,0,0,4,"-0,33",0,0,19,1,1,40,0,"3,48",0,1,0,17,9
30,2.3680713905777835,Everton ,16,ATA,"10,74",26,29,Grêmio,3,"5,10",1,0,0,5,"0,76",0,0,17,1,2,23,0,"4,02",0,1,0,13,17
31,14.261918767507005,Renato Gaúcho ,0,TEC,"15,25",30,0,Grêmio,3,"3,84",0,0,0,0,"0,21",0,0,0,0,0,0,0,"4,19",0,0,0,0,0
31,14.261918767507005,John Victor ,0,GOL,"1,00",0,0,Santos,2,"0,00",0,0,0,0,"0,00",0,0,0,0,0,0,0,"0,00",0,0,0,0,0
31,14.261918767507005,Yago ,2,ZAG,"5,68",3,0,Ponte Preta,3,"5,00",0,0,0,0,"0,52",0,0,0,0,0,0,2,"3,97",0,0,0,1,1
31,14.261918767507005,Lucas Veríssimo ,5,ZAG,"7,89",28,44,Santos,3,"1,80",1,0,7,0,"-0,93",0,0,34,0,0,17,16,"4,21",0,0,6,21,0
31,14.261918767507005,Guilherme Arana ,4,LAT,"9,67",27,90,Corinthians,3,"2,10",4,0,4,2,"-0,63",0,0,15,0,3,32,15,"3,92",0,0,2,18,0
31,14.261918767507005,Fagner Alemão ,6,LAT,"10,38",27,66,Avaí,3,"6,10",8,0,0,0,"0,64",0,0,47,0,1,26,9,"4,03",0,4,0,17,2
31,14.261918767507005,Carlos Alberto ,0,MEI,"8,00",0,0,Atlético-PR,2,"0,00",0,0,0,0,"0,00",0,0,0,0,0,0,0,"0,00",0,0,0,0,0
31,14.261918767507005,Abuda ,0,MEI,"6,00",0,0,Atlético-GO,2,"0,00",0,0,0,0,"0,00",0,0,0,0,0,0,0,"0,00",0,0,0,0,0
31,14.261918767507005,Cárdenas ,0,MEI,"6,00",0,0,Vitória,2,"0,00",0,0,0,0,"0,00",0,0,0,0,0,0,0,"0,00",0,0,0,0,0
31,14.261918767507005,Ricardo Oliveira ,14,ATA,"9,25",17,22,Santos,3,"-4,80",10,0,0,6,"-2,56",0,0,3,1,0,15,0,"3,45",0,2,0,25,13
31,14.261918767507005,Osvaldo ,6,ATA,"5,83",24,68,Sport,3,"6,70",2,0,2,3,"0,62",0,0,17,0,2,25,0,"2,24",0,0,6,12,0
31,14.261918767507005,Rildo ,7,ATA,"9,19",28,77,Coritiba,3,"2,10",8,0,3,6,"-1,39",0,0,27,0,2,103,0,"4,21",0,0,7,32,0
32,17.900299227462803,Renato Gaúcho ,0,TEC,"15,67",31,0,Grêmio,3,"5,73",0,0,0,0,"0,42",0,0,0,0,0,0,0,"4,24",0,0,0,0,0
32,17.900299227462803,Cássio ,0,GOL,"11,54",31,9,Corinthians,3,"-6,00",0,0,0,0,"-1,18",0,36,0,0,0,8,15,"4,74",23,3,2,0,0
32,17.900299227462803,Wanderson ,2,ZAG,"5,57",22,36,Atlético-PR,3,"-0,30",2,0,2,2,"-1,00",0,0,14,0,0,5,7,"2,78",0,0,9,21,0
32,17.900299227462803,Rodrigo Caio ,9,ZAG,"10,31",27,46,São Paulo,3,"7,10",2,0,8,0,"0,88",0,0,43,1,0,16,6,"3,07",0,0,2,19,0
32,17.900299227462803,Sidcley ,6,LAT,"12,69",29,84,Atlético-PR,3,"0,30",13,0,3,4,"-0,78",0,0,31,0,4,51,9,"4,62",0,0,7,30,0
32,17.900299227462803,Fagner Alemão ,6,LAT,"10,46",28,67,Avaí,3,"5,70",9,0,5,0,"0,08",0,0,52,0,1,27,9,"4,09",0,0,2,18,0
32,17.900299227462803,Marquinhos ,4,MEI,"2,58",17,58,Avaí,3,"0,50",0,1,1,2,"0,24",0,0,3,0,0,15,0,"0,65",0,0,8,8,0
32,17.900299227462803,Ramiro ,15,MEI,"16,38",22,88,Grêmio,3,"10,40",3,0,5,5,"1,24",0,0,27,0,4,32,0,"3,96",0,0,13,41,0
32,17.900299227462803,Gustavo Scarpa ,33,MEI,"13,36",30,161,Fluminense,3,"6,90",3,0,0,2,"-0,31",0,0,26,3,9,48,0,"4,33",0,1,0,20,29
32,17.900299227462803,Filigrana ,2,ATA,"2,30",9,3,Coritiba,2,"3,40",0,0,0,1,"0,63",0,0,6,0,0,1,0,"1,42",0,2,0,7,1
32,17.900299227462803,Henrique Dourado ,12,ATA,"21,73",25,65,Fluminense,3,"5,90",8,0,0,16,"0,99",0,0,9,0,3,51,0,"5,61",0,5,0,65,14
32,17.900299227462803,Gabriel ,2,ATA,"2,59",6,2,Flamengo,2,"0,00",0,0,2,0,"0,00",0,0,0,0,0,6,0,"-0,45",0,0,0,5,0
33,15.792059860192854,Abel Braga ,0,TEC,"11,96",31,0,Fluminense,3,"0,00",0,0,0,0,"-0,18",0,0,0,0,0,0,0,"3,16",0,0,0,0,0
33,15.792059860192854,Douglas Friedrich ,0,GOL,"9,34",24,0,Avaí,3,"0,00",0,0,0,0,"0,58",0,0,0,0,0,0,0,"6,25",0,0,0,0,0
33,15.792059860192854,Lucas Fonseca ,0,ZAG,"6,27",26,0,Bahia,5,"0,00",0,0,0,0,"0,00",0,0,0,0,0,0,0,"2,76",0,0,0,0,0
33,15.792059860192854,Rodrigo Caio ,0,ZAG,"9,14",28,0,São Paulo,3,"0,00",0,0,0,0,"-1,17",0,0,0,0,0,0,0,"2,95",0,0,0,0,0
33,15.792059860192854,João Pedro  ,0,LAT,"4,61",4,0,Chapecoense,2,"0,00",0,0,0,0,"-0,47",0,0,0,0,0,0,0,"2,02",0,0,0,0,0
33,15.792059860192854,Jeferson ,0,LAT,"5,58",18,0,Ponte Preta,3,"0,00",0,0,0,0,"0,39",0,0,0,0,0,0,0,"3,08",0,0,0,0,0
33,15.792059860192854,Fabrício Baiano ,0,MEI,"2,00",0,0,Coritiba,2,"0,00",0,0,0,0,"0,00",0,0,0,0,0,0,0,"0,00",0,0,0,0,0
33,15.792059860192854,Wagner ,0,MEI,"4,92",15,0,Vasco,2,"0,00",0,0,0,0,"0,00",0,0,0,0,0,0,0,"2,01",0,0,0,0,0
33,15.792059860192854,Lucas de Sá ,0,MEI,"1,00",0,0,Avaí,2,"0,00",0,0,0,0,"0,00",0,0,0,0,0,0,0,"0,00",0,0,0,0,0
33,15.792059860192854,Borja ,0,ATA,"15,09",22,0,Palmeiras,2,"0,00",0,0,0,0,"0,00",0,0,0,0,0,0,0,"3,10",0,0,0,0,0
33,15.792059860192854,Neilton ,0,ATA,"5,00",0,0,São Paulo,2,"0,00",0,0,0,0,"0,00",0,0,0,0,0,0,0,"0,00",0,0,0,0,0
33,15.792059860192854,Luan ,0,ATA,"21,13",18,0,Grêmio,3,"0,00",0,0,0,0,"0,00",0,0,0,0,0,0,0,"6,77",0,0,0,0,0
34,7.818563992498072,Renato Gaúcho ,0,TEC,"15,23",33,0,Grêmio,3,"3,06",0,0,0,0,"-0,69",0,0,0,0,0,0,0,"4,27",0,0,0,0,0
34,7.818563992498072,Vanderlei ,0,GOL,"20,95",33,11,Santos,3,"-1,30",0,0,2,0,"-0,83",0,73,0,0,0,6,16,"7,89",27,0,0,2,3
34,7.818563992498072,Yerry Mina ,5,ZAG,"14,99",12,31,Palmeiras,2,"0,00",2,0,4,2,"0,00",0,0,18,0,1,11,4,"4,65",0,0,3,19,0
34,7.818563992498072,Joel Carli ,4,ZAG,"8,59",24,53,Botafogo,3,"2,40",1,0,10,1,"-0,20",0,0,25,0,2,15,6,"1,97",0,0,1,36,0
34,7.818563992498072,Thiago Carleto ,5,LAT,"6,87",18,71,Coritiba,3,"4,50",1,0,0,2,"-0,61",1,0,28,0,7,13,5,"6,14",0,2,0,13,13
34,7.818563992498072,Caju ,0,LAT,"3,50",3,14,Santos,3,"0,00",0,0,0,0,"0,00",0,0,7,0,0,3,0,"2,40",0,0,0,4,0
34,7.818563992498072,Daniel ,0,MEI,"5,20",1,2,Coritiba,2,"2,80",0,0,0,0,"-0,80",0,0,2,0,0,0,0,"2,80",0,0,0,0,0
34,7.818563992498072,Luiz Antonio  ,7,MEI,"7,72",26,47,Chapecoense,3,"0,60",2,0,4,3,"0,24",0,0,15,2,2,12,0,"2,13",0,0,14,25,0
34,7.818563992498072,Lucas Otávio  ,0,MEI,"2,96",9,5,Avaí,2,"0,00",1,0,0,0,"0,00",0,0,6,0,0,1,0,"0,85",0,0,0,2,0
34,7.818563992498072,Everaldo ,1,ATA,"6,30",1,1,Atlético-GO,3,"4,90",1,0,0,0,"2,30",0,0,0,0,0,0,0,"4,90",0,0,5,0,0
34,7.818563992498072,Arthur  ,26,ATA,"13,51",31,70,Chapecoense,3,"15,10",11,0,5,7,"1,64",0,0,35,1,6,64,0,"4,95",0,0,17,52,0
34,7.818563992498072,Rogério ,14,ATA,"6,73",23,56,Sport,3,"1,70",0,0,0,2,"-0,44",0,0,13,0,2,44,0,"2,86",0,0,0,11,8
35,0.0,Renato Gaúcho ,0,TEC,"15,65",34,0,Grêmio,3,"5,14",0,0,0,0,"0,42",0,0,0,0,0,0,0,"4,30",0,0,0,0,0
35,0.0,Lucão ,0,GOL,"1,00",0,0,Cruzeiro,2,"0,00",0,0,0,0,"0,00",0,0,0,0,0,0,0,"0,00",0,0,0,0,0
35,0.0,Henrique ,0,ZAG,"3,00",0,0,Avaí,2,"0,00",0,0,0,0,"0,00",0,0,0,0,0,0,0,"0,00",0,0,0,0,0
35,0.0,Igor Rabello ,6,ZAG,"10,57",28,44,Botafogo,3,"3,00",5,0,1,1,"-0,02",0,0,42,1,0,16,8,"3,18",0,6,0,30,3
35,0.0,Gilson ,3,LAT,"8,85",25,33,Botafogo,2,"3,60",1,0,5,0,"0,20",0,0,20,2,1,29,8,"2,88",0,0,0,21,0
35,0.0,Arnaldo ,1,LAT,"8,94",27,79,Botafogo,3,"0,00",1,0,5,0,"-1,11",0,0,57,0,1,41,8,"4,24",0,0,4,37,0
35,0.0,Matheus Bezerra ,0,MEI,"1,00",0,0,Sport,2,"0,00",0,0,0,0,"0,00",0,0,0,0,0,0,0,"0,00",0,0,0,0,0
35,0.0,Guilherme ,9,MEI,"9,60",20,84,Atlético-PR,3,"0,30",3,0,0,5,"-1,77",0,0,24,1,5,29,0,"4,35",0,4,0,33,8
35,0.0,Rithely ,25,MEI,"10,34",28,98,Sport,2,"0,00",1,0,6,1,"0,00",0,0,68,0,2,29,0,"3,89",0,0,10,50,0
35,0.0,André ,34,ATA,"10,25",31,77,Sport,3,"-0,90",28,0,0,13,"-0,12",0,0,25,1,1,52,0,"4,52",0,5,0,61,13
35,0.0,Rodrigão ,0,ATA,"6,00",0,0,Santos,2,"0,00",0,0,0,0,"0,00",0,0,0,0,0,0,0,"0,00",0,0,0,0,0
35,0.0,Patrick ,0,ATA,"1,00",0,0,Sport,2,"0,00",0,0,0,0,"0,00",0,0,0,0,0,0,0,"0,00",0,0,0,0,0
36,8.773843206902031,Mano Menezes ,0,TEC,"12,87",35,0,Cruzeiro,3,"3,89",0,0,0,0,"-0,21",0,0,0,0,0,0,0,"3,84",0,0,0,0,0
36,8.773843206902031,Vanderlei ,0,GOL,"22,93",35,11,Santos,3,"11,50",0,0,2,0,"2,32",0,76,0,0,0,7,17,"7,68",30,0,0,2,3
36,8.773843206902031,Neto ,0,ZAG,"5,00",0,0,Chapecoense,5,"0,00",0,0,0,0,"0,00",0,0,0,0,0,0,0,"0,00",0,0,0,0,0
36,8.773843206902031,Breno ,0,ZAG,"4,00",0,0,São Paulo,2,"0,00",0,0,0,0,"0,00",0,0,0,0,0,0,0,"0,00",0,0,0,0,0
36,8.773843206902031,Gilson ,3,LAT,"9,41",26,33,Botafogo,2,"6,70",1,0,0,0,"0,56",0,0,21,2,1,29,9,"3,03",0,5,0,21,0
36,8.773843206902031,Trauco ,7,LAT,"6,73",22,86,Flamengo,3,"5,00",0,1,3,1,"0,25",0,0,26,1,0,9,9,"2,70",0,0,4,36,0
36,8.773843206902031,Alan Santos ,13,MEI,"6,26",27,62,Coritiba,3,"6,10",2,0,0,1,"0,72",0,0,50,1,2,12,0,"2,75",0,4,0,48,4
36,8.773843206902031,Diego Souza ,18,MEI,"15,07",24,92,Sport,3,"0,40",2,1,0,11,"-1,39",2,0,8,3,3,55,0,"4,31",0,9,0,36,13
36,8.773843206902031,Rafinha ,12,MEI,"7,29",25,79,Cruzeiro,3,"3,70",2,0,0,3,"-0,54",0,0,32,2,1,51,0,"3,49",0,2,0,30,7
36,8.773843206902031,Edigar Junio ,7,ATA,"10,07",24,52,Bahia,3,"-0,30",1,0,0,12,"-2,09",0,0,15,1,1,43,0,"5,52",0,2,0,38,15
36,8.773843206902031,David ,22,ATA,"6,94",34,92,Vitória,3,"9,20",16,0,0,6,"0,31",0,0,29,3,6,18,0,"3,11",0,5,0,44,11
36,8.773843206902031,Edigar Junio ,7,ATA,"10,07",24,52,Bahia,3,"-0,30",1,0,2,12,"-2,09",0,0,15,1,1,43,0,"5,52",0,0,15,38,0
37,16.256148920045472,Mano Menezes ,0,TEC,"12,43",36,0,Cruzeiro,3,"1,15",0,0,0,0,"-0,44",0,0,0,0,0,0,0,"3,77",0,0,0,0,0
37,16.256148920045472,Vanderlei ,0,GOL,"22,31",36,11,Santos,3,"7,00",0,0,0,0,"-0,62",0,79,0,0,0,7,17,"7,66",31,2,3,2,0
37,16.256148920045472,Tiago  ,4,ZAG,"11,00",34,49,Bahia,3,"9,20",6,0,0,2,"1,02",0,0,37,1,0,32,10,"3,00",0,8,0,41,5
37,16.256148920045472,Emerson Santos ,1,ZAG,"0,78",5,16,Botafogo,2,"0,00",0,1,2,0,"0,00",0,0,4,0,0,4,3,"1,14",0,0,0,10,0
37,16.256148920045472,Lucas ,6,LAT,"2,72",29,87,Fluminense,3,"1,60",9,0,9,0,"-0,28",0,0,37,0,2,26,2,"1,11",0,0,5,48,0
37,16.256148920045472,Arnaldo ,1,LAT,"9,68",29,87,Botafogo,3,"3,60",1,0,5,0,"-0,90",0,0,63,0,1,44,9,"4,40",0,0,4,39,0
37,16.256148920045472,Moisés ,7,MEI,"8,80",18,78,Palmeiras,3,"-2,10",0,0,2,3,"-1,20",0,0,30,1,3,39,0,"4,94",0,0,6,15,0
37,16.256148920045472,Diego Souza ,18,MEI,"16,20",25,94,Sport,3,"7,10",2,1,9,11,"1,13",2,0,9,3,3,58,0,"4,42",0,0,18,37,0
37,16.256148920045472,Rafinha ,12,MEI,"7,50",26,84,Cruzeiro,3,"4,60",4,0,2,3,"0,21",0,0,35,2,1,56,0,"3,53",0,0,7,31,0
37,16.256148920045472,Edigar Junio ,7,ATA,"9,33",25,53,Bahia,3,"-4,30",1,0,2,12,"-0,74",1,0,15,1,1,43,0,"5,13",0,0,16,41,0
37,16.256148920045472,David ,23,ATA,"5,66",35,93,Vitória,5,"0,90",16,0,5,6,"-1,28",0,0,29,3,6,19,0,"3,05",0,0,12,46,0
37,16.256148920045472,Edigar Junio ,7,ATA,"9,33",25,53,Bahia,3,"-4,30",1,0,0,12,"-0,74",1,0,15,1,1,43,0,"5,13",0,2,0,41,16
