round,fitness,name,position,team,situation,price,meatches,average,last_score,difference,disarms,goals,assists,no_goals,fouls_suffered,strikes_out,strikes_defended,strikes_post,difficult_defense,penalty_defense,own_goal,red_card,yellow_card,goal_suffered,penalty_lost,fouls_commited,offsides,wrong_pass
0,0.0,Paulo Autuori ,0,TEC,"8,23",1,0,Atlético-PR,3,"1,64",0,0,0,0,"-1,77",0,0,0,0,0,0,0,"1,64",0,0,0,0,0
0,0.0,Jandrei ,0,GOL,"2,48",1,0,Chapecoense,3,"2,50",0,0,0,0,"1,48",0,1,0,0,0,3,0,"2,50",1,0,0,0,0
0,0.0,Rodrigo Becão ,0,ZAG,"3,00",0,0,Bahia,2,"0,00",0,0,0,0,"0,00",0,0,0,0,0,0,0,"0,00",0,0,0,0,0
0,0.0,Igor Rabello ,0,ZAG,"6,37",1,1,Botafogo,3,"6,00",0,0,0,0,"3,37",0,0,4,0,0,0,0,"6,00",0,0,0,1,0
0,0.0,Fábio Santos ,0,LAT,"1,49",1,3,Atlético-MG,3,"-2,90",0,0,1,0,"-3,51",0,0,0,0,0,1,0,"-2,90",0,0,0,1,0
0,0.0,Elias ,0,LAT,"2,00",0,0,Sport,2,"0,00",0,0,0,0,"0,00",0,0,0,0,0,0,0,"0,00",0,0,0,0,0
0,0.0,Júnior Ramos ,0,MEI,"1,00",0,0,Bahia,2,"0,00",0,0,0,0,"0,00",0,0,0,0,0,0,0,"0,00",0,0,0,0,0
0,0.0,Yago ,0,MEI,"2,00",0,0,Atlético-MG,2,"0,00",0,0,0,0,"0,00",0,0,0,0,0,0,0,"0,00",0,0,0,0,0
0,0.0,Douglas ,0,MEI,"14,00",0,0,Grêmio,5,"0,00",0,0,0,0,"0,00",0,0,0,0,0,0,0,"0,00",0,0,0,0,0
0,0.0,Getterson ,0,ATA,"0,99",1,1,Coritiba,1,"0,40",0,0,0,0,"-0,01",0,0,1,0,0,0,0,"0,40",0,0,0,2,0
0,0.0,Luan ,3,ATA,"17,90",1,5,Grêmio,3,"4,30",0,0,0,0,"-3,10",0,0,1,0,0,1,0,"4,30",0,0,2,1,0
0,0.0,Robinho ,0,ATA,"17,75",1,2,Atlético-MG,3,"1,10",0,0,0,0,"-6,25",0,0,1,0,0,1,0,"1,10",0,0,0,1,0
1,0.0,Renato Gaúcho ,0,TEC,"13,53",1,0,Grêmio,3,"6,13",0,0,0,0,"0,53",0,0,0,0,0,0,0,"6,13",0,0,0,0,0
1,0.0,Caio ,0,GOL,"1,00",0,0,Atlético-PR,2,"0,00",0,0,0,0,"0,00",0,0,0,0,0,0,0,"0,00",0,0,0,0,0
1,0.0,Rafael Vaz ,0,ZAG,"7,07",1,3,Flamengo,3,"3,00",0,0,0,0,"0,07",0,0,2,0,0,1,0,"3,00",0,0,0,0,0
1,0.0,Rodrigo ,0,ZAG,"10,00",0,0,Ponte Preta,2,"0,00",0,0,0,0,"0,00",0,0,0,0,0,0,0,"0,00",0,0,0,0,0
1,0.0,Capa ,2,LAT,"7,78",1,8,Avaí,3,"7,00",0,0,0,0,"3,78",0,0,0,0,0,4,1,"7,00",0,0,0,0,1
1,0.0,Fagner Alemão ,0,LAT,"5,73",1,2,Avaí,3,"5,10",2,0,0,0,"2,73",0,0,1,0,0,0,1,"5,10",0,0,0,0,0
1,0.0,Cristian ,0,MEI,"4,00",0,0,Corinthians,2,"0,00",0,0,0,0,"0,00",0,0,0,0,0,0,0,"0,00",0,0,0,0,0
1,0.0,Conca ,0,MEI,"12,00",0,0,Flamengo,5,"0,00",0,0,0,0,"0,00",0,0,0,0,0,0,0,"0,00",0,0,0,0,0
1,0.0,Alejandro Guerra ,0,MEI,"14,92",1,6,Palmeiras,3,"10,10",0,0,0,1,"3,92",0,0,2,0,0,1,0,"10,10",0,0,0,2,1
1,0.0,Túlio de Melo ,0,ATA,"7,00",0,0,Chapecoense,2,"0,00",0,0,0,0,"0,00",0,0,0,0,0,0,0,"0,00",0,0,0,0,0
1,0.0,Erik ,0,ATA,"5,00",0,0,Palmeiras,2,"0,00",0,0,0,0,"0,00",0,0,0,0,0,0,0,"0,00",0,0,0,0,0
1,0.0,Fred ,2,ATA,"21,43",1,2,Atlético-MG,3,"6,30",0,0,0,0,"-2,57",0,0,0,0,1,2,0,"6,30",0,0,0,1,0
2,21.92,Dorival Júnior ,0,TEC,"11,93",2,0,Santos,3,"5,42",0,0,0,0,"-0,26",0,0,0,0,0,0,0,"3,82",0,0,0,0,0
2,21.92,Caíque França ,0,GOL,"2,00",0,0,Corinthians,2,"0,00",0,0,0,0,"0,00",0,0,0,0,0,0,0,"0,00",0,0,0,0,0
2,21.92,Balbuena ,2,ZAG,"7,14",2,6,Corinthians,3,"7,80",0,0,0,0,"1,84",0,0,1,0,0,2,1,"3,65",0,0,0,0,0
2,21.92,Igor Rabello ,0,ZAG,"8,11",2,2,Botafogo,3,"3,90",0,0,1,0,"1,74",0,0,5,0,0,1,1,"4,95",0,0,0,3,0
2,21.92,Jonathan ,0,LAT,"6,49",2,6,Atlético-PR,3,"-0,40",0,0,0,0,"-1,64",0,0,2,0,0,1,0,"1,05",0,0,0,0,0
2,21.92,Cedric ,0,LAT,"2,00",0,0,Vitória,2,"0,00",0,0,0,0,"0,00",0,0,0,0,0,0,0,"0,00",0,0,0,0,0
2,21.92,Conca ,0,MEI,"12,00",0,0,Flamengo,5,"0,00",0,0,0,0,"0,00",0,0,0,0,0,0,0,"0,00",0,0,0,0,0
2,21.92,Cleiton Xavier ,2,MEI,"5,78",2,9,Vitória,3,"-0,80",0,0,0,0,"-2,14",0,0,1,0,0,2,0,"0,20",0,0,1,4,0
2,21.92,Felipe Melo ,0,MEI,"11,46",1,3,Palmeiras,3,"0,00",0,0,0,0,"0,00",0,0,3,0,0,1,0,"3,20",0,0,0,3,0
2,21.92,Richarlison  ,1,ATA,"9,58",2,3,Fluminense,3,"8,30",3,0,1,1,"2,08",0,0,3,0,0,4,0,"4,95",0,0,1,5,0
2,21.92,Rogério ,0,ATA,"7,41",2,7,Sport,3,"1,50",0,0,0,0,"-0,80",0,0,1,0,0,6,0,"2,05",0,0,0,1,2
2,21.92,Fred ,3,ATA,"18,28",2,4,Atlético-MG,3,"1,80",1,0,0,0,"-3,15",0,0,1,0,1,4,0,"4,05",0,0,1,4,0
3,20.64,Rogério Ceni ,0,TEC,"9,51",3,0,São Paulo,3,"6,26",0,0,0,0,"1,19",0,0,0,0,0,0,0,"4,58",0,0,0,0,0
3,20.64,Jefferson ,0,GOL,"9,00",0,0,Botafogo,5,"0,00",0,0,0,0,"0,00",0,0,0,0,0,0,0,"0,00",0,0,0,0,0
3,20.64,Betão ,0,ZAG,"5,66",3,11,Avaí,3,"1,00",0,0,1,0,"-0,10",0,0,2,0,0,3,1,"1,53",0,0,0,0,0
3,20.64,Dedé ,0,ZAG,"8,86",3,12,Cruzeiro,1,"6,40",0,0,0,0,"1,75",0,0,2,0,0,2,2,"3,43",0,0,0,1,0
3,20.64,Mayke ,0,LAT,"5,39",1,3,Palmeiras,3,"0,50",1,0,0,0,"-1,61",0,0,2,0,0,0,0,"0,50",0,0,0,3,0
3,20.64,João Pedro  ,1,LAT,"5,87",1,2,Chapecoense,5,"0,00",0,0,0,0,"0,00",0,0,1,0,0,1,0,"2,30",0,0,0,0,0
3,20.64,Wendel ,1,MEI,"11,01",3,8,Fluminense,3,"0,10",0,0,0,0,"-1,09",0,0,5,0,1,9,0,"5,10",0,0,1,4,0
3,20.64,Julio Rusch ,0,MEI,"3,00",0,0,Coritiba,2,"0,00",0,0,0,0,"0,00",0,0,0,0,0,0,0,"0,00",0,0,0,0,0
3,20.64,Leandrinho ,0,MEI,"3,00",0,0,Botafogo,2,"0,00",0,0,0,0,"0,00",0,0,0,0,0,0,0,"0,00",0,0,0,0,0
3,20.64,Marcinho ,1,ATA,"5,23",3,8,São Paulo,3,"5,40",0,0,0,0,"1,29",0,0,2,0,2,3,0,"3,90",0,0,1,5,0
3,20.64,Jael ,0,ATA,"5,00",0,0,Grêmio,5,"0,00",0,0,0,0,"0,00",0,0,0,0,0,0,0,"0,00",0,0,0,0,0
3,20.64,Dudu ,0,ATA,"19,48",2,12,Palmeiras,3,"-1,40",3,0,0,0,"-4,64",0,0,4,0,0,12,0,"4,35",0,0,0,0,1
4,20.64,Rogério Ceni ,0,TEC,"8,56",4,0,São Paulo,3,"0,14",0,0,0,0,"-0,95",0,0,0,0,0,0,0,"3,47",0,0,0,0,0
4,20.64,Jefferson ,0,GOL,"9,00",0,0,Botafogo,5,"0,00",0,0,0,0,"0,00",0,0,0,0,0,0,0,"0,00",0,0,0,0,0
4,20.64,Betão ,0,ZAG,"6,81",4,14,Avaí,3,"5,00",0,0,0,0,"1,15",0,0,4,0,0,4,2,"2,40",0,2,0,2,0
4,20.64,Dedé ,0,ZAG,"8,86",3,12,Cruzeiro,3,"0,00",0,0,0,0,"0,00",0,0,2,0,0,2,2,"3,43",0,0,0,1,0
4,20.64,Mayke ,0,LAT,"7,03",2,5,Palmeiras,3,"6,60",1,0,0,0,"1,64",0,0,3,0,0,2,1,"3,55",0,0,0,4,0
4,20.64,João Pedro  ,1,LAT,"5,87",1,2,Chapecoense,5,"0,00",0,0,0,0,"0,00",0,0,1,0,0,1,0,"2,30",0,0,0,0,0
4,20.64,Wendel ,2,MEI,"10,95",4,13,Fluminense,2,"1,20",0,0,0,0,"-0,06",0,0,5,0,1,13,0,"4,12",0,0,0,6,2
4,20.64,Julio Rusch ,0,MEI,"3,00",0,0,Coritiba,2,"0,00",0,0,0,0,"0,00",0,0,0,0,0,0,0,"0,00",0,0,0,0,0
4,20.64,Leandrinho ,0,MEI,"3,00",0,0,Botafogo,2,"0,00",0,0,0,0,"0,00",0,0,0,0,0,0,0,"0,00",0,0,0,0,0
4,20.64,Marcinho ,1,ATA,"3,27",4,12,São Paulo,3,"-4,20",0,0,0,0,"-1,96",0,0,2,0,2,3,0,"1,88",0,1,0,7,1
4,20.64,Jael ,0,ATA,"5,00",0,0,Grêmio,5,"0,00",0,0,0,0,"0,00",0,0,0,0,0,0,0,"0,00",0,0,0,0,0
4,20.64,Dudu ,0,ATA,"19,48",2,12,Palmeiras,2,"0,00",3,0,0,0,"0,00",0,0,4,0,0,12,0,"4,35",0,0,1,0,0
5,18.34,Milton Mendes ,0,TEC,"7,99",5,0,Vasco,3,"3,80",0,0,0,0,"0,64",0,0,0,0,0,0,0,"3,33",0,0,0,0,0
5,18.34,Bruno Grassi ,0,GOL,"4,00",0,0,Grêmio,2,"0,00",0,0,0,0,"0,00",0,0,0,0,0,0,0,"0,00",0,0,0,0,0
5,18.34,Henrique ,0,ZAG,"9,60",4,12,Fluminense,2,"0,00",0,0,0,0,"0,00",0,0,3,1,0,4,0,"1,50",0,0,0,2,0
5,18.34,Luan ,0,ZAG,"7,00",0,0,Palmeiras,1,"0,00",0,0,0,0,"0,00",0,0,0,0,0,0,0,"0,00",0,0,0,0,0
5,18.34,Dodô ,2,LAT,"9,98",5,21,Coritiba,3,"2,70",0,0,1,0,"-0,71",0,0,10,0,0,6,3,"4,92",0,0,1,9,0
5,18.34,Jean ,2,LAT,"16,51",2,10,Palmeiras,2,"0,00",1,0,0,1,"0,00",1,0,2,0,0,1,1,"6,40",0,0,0,1,2
5,18.34,Leandro Donizete ,1,MEI,"5,86",1,3,Santos,5,"0,00",0,0,0,0,"0,00",0,0,2,0,0,3,0,"1,70",0,1,0,2,0
5,18.34,Rodriguinho ,3,MEI,"16,57",4,14,Corinthians,2,"0,00",1,0,0,1,"0,00",0,0,3,0,2,11,0,"5,75",0,1,0,6,2
5,18.34,Maicon ,0,MEI,"8,51",2,1,Grêmio,2,"-0,30",0,0,0,0,"-0,66",0,0,0,0,0,0,0,"-0,15",0,0,0,0,0
5,18.34,Henrique Dourado ,2,ATA,"26,23",4,13,Fluminense,2,"0,00",1,0,0,6,"0,00",0,0,2,0,1,6,0,"13,60",0,0,0,8,2
5,18.34,Muriqui ,0,ATA,"3,56",2,2,Vasco,2,"0,50",0,0,0,0,"-0,30",0,0,0,0,0,3,0,"0,45",0,0,0,0,0
5,18.34,Paulinho ,5,ATA,"4,52",5,22,Vitória,2,"0,50",1,0,0,0,"0,11",0,0,2,1,0,2,0,"0,46",0,2,0,4,4
6,7.686666666666674,Mano Menezes ,0,TEC,"12,29",6,0,Cruzeiro,3,"5,95",0,0,0,0,"0,91",0,0,0,0,0,0,0,"3,63",0,0,0,0,0
6,7.686666666666674,Fernando Miguel ,0,GOL,"12,36",6,6,Vitória,3,"7,70",0,0,1,0,"0,61",0,13,0,0,0,2,2,"5,70",6,0,0,0,0
6,7.686666666666674,Joel Carli ,0,ZAG,"11,33",4,13,Botafogo,3,"8,60",0,0,2,1,"2,18",0,0,6,0,0,1,2,"4,33",0,0,0,7,0
6,7.686666666666674,Marcio ,1,ZAG,"6,66",5,10,Coritiba,3,"-0,30",1,0,0,1,"-1,33",0,0,5,0,1,5,3,"6,14",0,1,0,7,0
6,7.686666666666674,Zeballos ,0,LAT,"3,00",0,0,Chapecoense,2,"0,00",0,0,0,0,"0,00",0,0,0,0,0,0,0,"0,00",0,0,0,0,0
6,7.686666666666674,Diogo Barbosa ,1,LAT,"12,45",6,24,Cruzeiro,3,"5,30",0,0,1,0,"0,16",0,0,12,0,0,9,3,"4,73",0,0,0,6,0
6,7.686666666666674,Douglas ,9,MEI,"18,59",6,27,Vasco,3,"15,80",1,0,1,1,"2,72",0,0,15,1,0,13,0,"6,62",0,0,4,7,0
6,7.686666666666674,Matheus Fernandes ,1,MEI,"2,26",4,2,Botafogo,3,"0,90",0,0,0,0,"-0,59",0,0,4,0,0,2,0,"1,60",0,0,0,3,0
6,7.686666666666674,Willian Arão ,0,MEI,"8,64",6,23,Flamengo,3,"1,60",0,0,0,0,"0,04",0,0,7,0,1,7,0,"2,00",0,0,0,7,2
6,7.686666666666674,Joel ,1,ATA,"2,39",3,2,Botafogo,2,"0,00",1,0,0,0,"0,00",0,0,1,0,0,4,0,"0,60",0,0,0,3,0
6,7.686666666666674,Túlio de Melo ,1,ATA,"3,69",4,5,Chapecoense,2,"0,00",0,0,0,0,"0,00",0,0,0,0,0,1,0,"-0,32",0,0,0,2,0
6,7.686666666666674,Edigar Junio ,1,ATA,"10,60",6,10,Bahia,3,"3,70",1,0,0,2,"-0,94",0,0,4,1,0,9,0,"4,17",0,0,0,12,3
7,9.107142857142854,Milton Mendes ,0,TEC,"8,31",7,0,Vasco,3,"3,41",0,0,0,0,"0,01",0,0,0,0,0,0,0,"3,46",0,0,0,0,0
7,9.107142857142854,Mauricio Kozlinski ,0,GOL,"8,54",7,3,Avaí,3,"0,00",0,0,0,0,"-0,43",0,11,0,0,0,0,2,"3,45",9,0,0,0,0
7,9.107142857142854,Ronaldo Alves ,0,ZAG,"7,09",4,9,Sport,3,"5,40",0,0,1,0,"0,84",0,0,1,0,0,7,2,"2,38",0,0,1,4,0
7,9.107142857142854,Igor Rabello ,1,ZAG,"11,51",7,9,Botafogo,3,"2,10",0,0,1,0,"-0,41",0,0,16,0,0,5,3,"5,60",0,0,2,7,0
7,9.107142857142854,Capa ,4,LAT,"10,67",7,40,Avaí,3,"2,00",3,0,1,0,"-0,36",0,0,13,0,1,19,2,"4,63",0,0,1,5,0
7,9.107142857142854,Moraes ,0,LAT,"1,00",0,0,Flamengo,2,"0,00",0,0,0,0,"0,00",0,0,0,0,0,0,0,"0,00",0,0,0,0,0
7,9.107142857142854,Pisculichi ,1,MEI,"4,13",2,6,Vitória,2,"0,00",0,0,0,0,"0,00",0,0,0,0,0,1,0,"-0,55",0,0,0,1,0
7,9.107142857142854,Michel Bastos ,5,MEI,"5,01",5,21,Palmeiras,2,"0,00",2,0,0,0,"0,00",0,0,5,0,0,2,0,"0,44",0,2,0,1,1
7,9.107142857142854,Maicon ,0,MEI,"8,58",4,9,Grêmio,3,"0,80",0,0,0,0,"-0,76",0,0,4,0,0,5,0,"1,27",0,0,0,3,0
7,9.107142857142854,Henrique Dourado ,4,ATA,"23,16",6,18,Fluminense,3,"-1,20",1,0,0,7,"-1,98",0,0,2,0,1,12,0,"9,97",0,2,0,13,3
7,9.107142857142854,André ,3,ATA,"7,92",6,16,Sport,3,"-3,00",3,0,2,4,"-2,21",0,0,6,0,0,6,0,"5,08",0,0,3,19,0
7,9.107142857142854,Henrique Almeida ,5,ATA,"15,01",7,17,Coritiba,3,"3,50",7,0,1,2,"-0,78",0,0,9,1,0,13,0,"5,32",0,0,5,4,0
8,25.69440476190476,Milton Mendes ,0,TEC,"9,03",8,0,Vasco,3,"5,97",0,0,0,0,"0,72",0,0,0,0,0,0,0,"3,77",0,0,0,0,0
8,25.69440476190476,Mauricio Kozlinski ,0,GOL,"9,88",8,4,Avaí,3,"6,70",0,0,0,0,"1,34",0,14,0,0,0,0,2,"3,86",10,0,0,0,0
8,25.69440476190476,Ronaldo Alves ,0,ZAG,"6,42",5,13,Sport,3,"1,00",0,0,0,0,"-0,67",0,0,2,0,0,7,2,"2,10",0,1,0,5,2
8,25.69440476190476,Marcio ,2,ZAG,"7,42",7,16,Coritiba,3,"2,30",1,0,0,1,"-0,31",0,0,5,0,1,5,5,"5,45",0,2,0,8,1
8,25.69440476190476,Zeballos ,0,LAT,"3,00",0,0,Chapecoense,2,"0,00",0,0,0,0,"0,00",0,0,0,0,0,0,0,"0,00",0,0,0,0,0
8,25.69440476190476,Diogo Barbosa ,1,LAT,"10,91",8,34,Cruzeiro,3,"-2,30",0,0,2,0,"-1,30",0,0,16,0,0,9,3,"3,71",0,0,1,9,0
8,25.69440476190476,Douglas ,10,MEI,"16,71",8,36,Vasco,3,"4,30",1,0,1,1,"0,35",0,0,18,1,0,18,0,"5,73",0,0,7,12,0
8,25.69440476190476,Matheus Fernandes ,2,MEI,"3,69",6,5,Botafogo,3,"6,20",0,0,0,0,"1,06",0,0,10,0,0,4,0,"2,48",0,0,0,8,0
8,25.69440476190476,Willian Arão ,0,MEI,"8,10",7,25,Flamengo,1,"0,60",0,0,0,0,"-0,54",0,0,8,0,1,7,0,"1,80",0,0,0,8,2
8,25.69440476190476,Henrique Dourado ,4,ATA,"24,22",7,20,Fluminense,3,"6,40",1,0,2,8,"1,06",0,0,2,0,1,13,0,"9,46",0,0,3,16,0
8,25.69440476190476,André ,5,ATA,"8,09",7,18,Sport,3,"-0,20",6,0,0,4,"0,17",0,0,6,0,0,7,0,"4,33",0,2,0,19,3
8,25.69440476190476,Henrique Almeida ,7,ATA,"14,64",8,20,Coritiba,3,"2,00",8,0,0,2,"-0,37",0,0,9,1,0,17,0,"4,91",0,1,0,6,6
9,23.867420634920634,Rogério Ceni ,0,TEC,"9,76",9,0,São Paulo,3,"2,61",0,0,0,0,"0,10",0,0,0,0,0,0,0,"3,73",0,0,0,0,0
9,23.867420634920634,Renan Ribeiro ,0,GOL,"10,51",9,8,São Paulo,3,"4,20",0,0,1,0,"0,88",0,12,0,0,0,1,4,"4,01",8,0,0,0,0
9,23.867420634920634,Gustavo ,1,ZAG,"4,14",3,4,Avaí,3,"0,00",2,0,0,0,"-0,39",0,0,1,0,0,2,0,"-0,60",0,1,0,2,0
9,23.867420634920634,Wanderson ,0,ZAG,"7,49",3,1,Atlético-PR,3,"15,20",0,0,0,1,"2,55",0,0,2,0,0,2,3,"9,20",0,0,0,1,1
9,23.867420634920634,Victor Luis ,1,LAT,"13,12",7,15,Botafogo,3,"8,60",0,0,1,1,"0,74",0,0,14,0,0,7,4,"6,35",0,0,0,10,0
9,23.867420634920634,Dodô ,3,LAT,"9,64",9,39,Coritiba,3,"1,20",0,0,0,0,"-0,29",0,0,14,0,0,7,5,"3,75",0,2,0,14,2
9,23.867420634920634,Orejuela ,0,MEI,"10,57",6,13,Fluminense,3,"3,50",0,0,0,0,"0,15",0,0,11,0,0,16,0,"3,55",0,0,0,3,0
9,23.867420634920634,Zé Rafael  ,7,MEI,"19,56",9,25,Bahia,3,"3,30",1,0,0,1,"-0,28",0,0,20,0,3,24,0,"7,15",0,1,0,19,10
9,23.867420634920634,Jean Mota ,3,MEI,"3,76",8,22,Santos,3,"1,10",0,0,0,0,"-0,25",0,0,8,0,1,9,0,"2,51",0,0,0,3,3
9,23.867420634920634,Leandro Damião ,8,ATA,"13,22",5,4,Flamengo,2,"0,00",0,0,0,3,"0,00",0,0,4,0,0,5,0,"7,54",0,0,5,10,0
9,23.867420634920634,Eder Luis ,0,ATA,"3,00",0,0,Vasco,2,"0,00",0,0,0,0,"0,00",0,0,0,0,0,0,0,"0,00",0,0,0,0,0
9,23.867420634920634,Sassá ,0,ATA,"8,00",0,0,Botafogo,2,"0,00",0,0,0,0,"0,00",0,0,0,0,0,0,0,"0,00",0,0,0,0,0
10,17.949444444444445,Milton Mendes ,0,TEC,"9,30",10,0,Vasco,3,"0,00",0,0,0,0,"0,69",0,0,0,0,0,0,0,"3,80",0,0,0,0,0
10,17.949444444444445,Mauricio Kozlinski ,0,GOL,"8,10",9,0,Avaí,2,"0,00",0,0,0,0,"0,00",0,0,0,0,0,0,0,"3,10",0,0,0,0,0
10,17.949444444444445,Ronaldo Alves ,0,ZAG,"6,64",7,0,Sport,3,"0,00",0,0,0,0,"0,74",0,0,0,0,0,0,0,"1,79",0,0,0,0,0
10,17.949444444444445,Gustavo ,0,ZAG,"4,14",3,0,Avaí,2,"0,00",0,0,0,0,"0,00",0,0,0,0,0,0,0,"-0,60",0,0,0,0,0
10,17.949444444444445,Zeballos ,0,LAT,"3,00",0,0,Chapecoense,2,"0,00",0,0,0,0,"0,00",0,0,0,0,0,0,0,"0,00",0,0,0,0,0
10,17.949444444444445,Diogo Barbosa ,0,LAT,"14,67",9,0,Cruzeiro,3,"0,00",0,0,0,0,"3,76",0,0,0,0,0,0,0,"5,25",0,0,0,0,0
10,17.949444444444445,Douglas ,0,MEI,"16,57",10,0,Vasco,3,"0,00",0,0,0,0,"-0,02",0,0,0,0,0,0,0,"5,27",0,0,0,0,0
10,17.949444444444445,Marlone ,0,MEI,"7,77",4,0,Atlético-MG,2,"0,00",0,0,0,0,"1,55",0,0,0,0,0,0,0,"2,02",0,0,0,0,0
10,17.949444444444445,Arthur ,0,MEI,"9,04",9,0,Grêmio,2,"0,00",0,0,0,0,"0,41",0,0,0,0,0,0,0,"4,60",0,0,0,0,0
10,17.949444444444445,Henrique Dourado ,0,ATA,"23,83",9,0,Fluminense,1,"0,00",0,0,0,0,"-1,98",0,0,0,0,0,0,0,"8,94",0,0,0,0,0
10,17.949444444444445,André ,0,ATA,"8,92",9,0,Sport,3,"0,00",0,0,0,0,"-0,42",0,0,0,0,0,0,0,"4,34",0,0,0,0,0
10,17.949444444444445,Henrique Almeida ,0,ATA,"14,07",10,0,Coritiba,3,"0,00",0,0,0,0,"-0,02",0,0,0,0,0,0,0,"4,03",0,0,0,0,0
11,4.099480519480515,Mano Menezes ,0,TEC,"12,15",11,0,Cruzeiro,3,"2,35",0,0,0,0,"-0,90",0,0,0,0,0,0,0,"3,75",0,0,0,0,0
11,4.099480519480515,Fábio ,0,GOL,"12,40",11,6,Cruzeiro,3,"0,00",0,0,0,0,"-1,79",0,17,0,0,0,1,4,"4,11",12,0,0,1,0
11,4.099480519480515,Leonardo Silva ,0,ZAG,"8,93",4,10,Atlético-MG,3,"0,00",0,0,1,0,"-0,57",0,0,2,0,0,6,0,"-0,40",0,0,0,6,0
11,4.099480519480515,Réver ,1,ZAG,"11,83",10,15,Flamengo,3,"9,40",0,0,1,1,"1,52",0,0,12,0,0,8,4,"4,61",0,0,2,5,0
11,4.099480519480515,Capa ,4,LAT,"11,57",11,70,Avaí,3,"5,50",4,0,1,0,"0,22",0,0,21,0,1,28,4,"4,32",0,0,1,12,0
11,4.099480519480515,Trauco ,4,LAT,"6,91",7,28,Flamengo,3,"4,80",0,0,2,1,"0,43",0,0,5,0,0,4,4,"3,63",0,0,3,13,0
11,4.099480519480515,Alex ,1,MEI,"3,30",1,3,Cruzeiro,5,"0,00",0,0,0,0,"0,00",0,0,2,0,0,2,0,"4,20",0,0,0,0,0
11,4.099480519480515,Jean ,5,MEI,"9,48",11,22,Vasco,3,"-2,40",0,0,3,1,"-1,27",0,0,28,0,0,17,0,"4,50",0,0,4,19,0
11,4.099480519480515,Jadson ,6,MEI,"8,67",10,54,Corinthians,3,"-2,90",3,0,0,2,"-2,01",0,0,5,0,1,4,0,"1,40",0,1,0,10,3
11,4.099480519480515,André ,7,ATA,"9,15",10,19,Sport,3,"3,50",7,0,2,4,"0,23",0,0,7,1,1,13,0,"4,26",0,0,3,22,0
11,4.099480519480515,Lenis ,3,ATA,"3,23",5,7,Sport,1,"3,60",0,0,1,0,"0,62",0,0,4,0,0,5,0,"1,36",0,0,2,5,0
11,4.099480519480515,Santarém ,0,ATA,"1,00",0,0,Avaí,2,"0,00",0,0,0,0,"0,00",0,0,0,0,0,0,0,"0,00",0,0,0,0,0
12,0.0,Mano Menezes ,0,TEC,"12,56",12,0,Cruzeiro,3,"4,25",0,0,0,0,"0,41",0,0,0,0,0,0,0,"3,79",0,0,0,0,0
12,0.0,Fábio ,0,GOL,"11,77",12,6,Cruzeiro,3,"-2,30",0,0,0,0,"-0,63",0,17,0,0,0,1,4,"3,58",12,0,0,1,0
12,0.0,Betão ,1,ZAG,"8,12",11,30,Avaí,3,"10,10",0,0,0,0,"1,59",0,0,7,0,0,12,4,"2,88",0,3,0,6,1
12,0.0,Vinicius ,0,ZAG,"2,00",0,0,Vitória,2,"0,00",0,0,0,0,"0,00",0,0,0,0,0,0,0,"0,00",0,0,0,0,0
12,0.0,Daniel Guedes  ,0,LAT,"3,25",2,4,Santos,2,"0,00",0,1,0,0,"0,00",0,0,5,0,0,2,1,"3,15",0,0,1,6,0
12,0.0,Gustavo Santos ,0,LAT,"1,00",0,0,Avaí,2,"0,00",0,0,0,0,"0,00",0,0,0,0,0,0,0,"0,00",0,0,0,0,0
12,0.0,Diego ,7,MEI,"20,81",9,36,Flamengo,3,"4,60",3,0,0,4,"-1,30",0,0,9,0,2,20,0,"6,88",0,0,3,11,0
12,0.0,Dodô ,0,MEI,"5,00",0,0,Chapecoense,2,"0,00",0,0,0,0,"0,00",0,0,0,0,0,0,0,"0,00",0,0,0,0,0
12,0.0,Jailson ,0,MEI,"4,55",4,2,Grêmio,2,"0,00",0,0,0,0,"0,00",0,0,2,0,1,3,0,"2,20",0,0,0,1,0
12,0.0,Lucas Pratto ,22,ATA,"13,81",12,34,São Paulo,3,"-6,40",1,0,1,3,"-2,09",0,0,5,0,2,9,0,"3,82",0,0,10,15,0
12,0.0,Lenis ,3,ATA,"3,23",5,7,Sport,2,"0,00",0,0,0,0,"0,00",0,0,4,0,0,5,0,"1,36",0,1,0,5,2
12,0.0,Santarém ,0,ATA,"1,00",0,0,Avaí,2,"0,00",0,0,0,0,"0,00",0,0,0,0,0,0,0,"0,00",0,0,0,0,0
13,11.262210567210564,Roger Machado  ,0,TEC,"10,71",13,0,Atlético-MG,3,"1,84",0,0,0,0,"-0,17",0,0,0,0,0,0,0,"2,94",0,0,0,0,0
13,11.262210567210564,Wilson ,0,GOL,"13,42",13,9,Coritiba,3,"1,00",0,0,0,0,"-0,42",0,25,0,0,0,3,5,"5,68",13,0,0,0,0
13,11.262210567210564,David Braz ,3,ZAG,"11,32",11,28,Santos,3,"4,60",1,0,4,1,"1,21",0,0,9,0,0,4,6,"3,83",0,0,1,8,0
13,11.262210567210564,Thiago Martins ,0,ZAG,"5,00",0,0,Palmeiras,5,"0,00",0,0,0,0,"0,00",0,0,0,0,0,0,0,"0,00",0,0,0,0,0
13,11.262210567210564,Marcos Rocha ,1,LAT,"9,35",4,21,Atlético-MG,3,"-0,20",0,0,0,0,"-0,64",0,0,7,0,1,4,0,"2,40",0,0,0,7,0
13,11.262210567210564,Edílson ,1,LAT,"11,16",9,17,Grêmio,3,"6,20",1,0,0,1,"1,63",1,0,9,0,0,4,4,"3,51",0,3,0,13,1
13,11.262210567210564,Jadson ,6,MEI,"10,65",12,61,Corinthians,3,"7,00",3,0,1,3,"0,44",0,0,5,0,1,4,0,"2,24",0,0,3,10,0
13,11.262210567210564,Matheus Galdezani ,5,MEI,"7,96",12,46,Coritiba,3,"2,00",0,0,3,1,"-0,49",0,0,24,0,0,21,0,"3,67",0,0,10,22,0
13,11.262210567210564,Marcão Silva ,3,MEI,"7,23",12,22,Atlético-GO,3,"1,50",0,0,5,0,"-0,04",0,0,32,0,0,8,0,"2,99",0,0,0,19,0
13,11.262210567210564,Marcinho ,7,ATA,"5,75",13,51,São Paulo,2,"8,10",1,0,0,1,"1,52",0,0,8,0,2,11,0,"2,14",0,1,0,17,4
13,11.262210567210564,Kleber ,6,ATA,"12,46",10,29,Coritiba,3,"5,60",6,1,0,3,"0,70",0,0,4,0,1,26,0,"3,74",0,1,0,25,10
13,11.262210567210564,Wellington Paulista ,9,ATA,"9,85",13,24,Chapecoense,3,"-1,60",3,0,0,3,"-0,69",0,0,2,1,0,15,0,"2,54",0,2,0,15,10
14,21.37040404040404,Claudinei Oliveira ,0,TEC,"7,07",14,0,Avaí,3,"2,14",0,0,0,0,"0,24",0,0,0,0,0,0,0,"3,05",0,0,0,0,0
14,21.37040404040404,Léo ,0,GOL,"4,77",5,2,Grêmio,2,"0,00",0,0,0,0,"0,00",0,5,0,0,0,1,2,"2,18",7,0,0,0,0
14,21.37040404040404,Réver ,1,ZAG,"10,74",12,16,Flamengo,3,"2,20",0,0,1,1,"0,05",0,0,13,0,0,9,4,"4,18",0,0,2,5,0
14,21.37040404040404,Rodrigo ,5,ZAG,"8,07",9,14,Ponte Preta,3,"-0,20",1,1,2,0,"-0,97",0,0,8,0,0,15,3,"2,80",0,0,2,5,0
14,21.37040404040404,Jonathan ,2,LAT,"9,24",11,29,Atlético-PR,3,"11,60",0,0,3,0,"2,53",0,0,10,0,1,10,3,"3,30",0,0,0,8,0
14,21.37040404040404,William Matheus ,1,LAT,"7,48",12,38,Coritiba,3,"3,60",1,1,3,0,"1,37",0,0,10,0,0,23,4,"2,15",0,0,4,16,0
14,21.37040404040404,Renê Júnior ,9,MEI,"13,08",11,26,Bahia,3,"15,80",3,1,2,2,"0,39",0,0,31,0,0,21,0,"7,41",0,0,5,13,0
14,21.37040404040404,Jorginho ,2,MEI,"4,92",12,43,Atlético-GO,3,"-0,90",1,1,1,1,"-0,24",0,0,14,0,0,21,0,"1,33",0,0,1,15,0
14,21.37040404040404,Luiz Otávio ,0,MEI,"2,00",0,0,Atlético-PR,2,"0,00",0,0,0,0,"0,00",0,0,0,0,0,0,0,"0,00",0,0,0,0,0
14,21.37040404040404,Rodrigão ,0,ATA,"6,00",0,0,Santos,2,"0,00",0,0,0,0,"0,00",0,0,0,0,0,0,0,"0,00",0,0,0,0,0
14,21.37040404040404,Ángel Romero ,3,ATA,"13,44",12,37,Corinthians,3,"5,50",9,0,3,2,"-0,26",0,0,21,0,2,37,0,"5,38",0,0,6,15,0
14,21.37040404040404,Luan ,13,ATA,"22,49",12,55,Grêmio,3,"0,40",2,0,1,5,"-2,04",1,0,20,0,6,23,0,"8,92",0,0,13,16,0
15,21.37040404040404,Claudinei Oliveira ,0,TEC,"7,50",15,0,Avaí,3,"4,85",0,0,0,0,"0,43",0,0,0,0,0,0,0,"3,17",0,0,0,0,0
15,21.37040404040404,Léo ,0,GOL,"4,77",5,2,Grêmio,2,"0,00",0,0,0,0,"0,00",0,5,0,0,0,1,2,"2,18",7,0,0,0,0
15,21.37040404040404,Réver ,2,ZAG,"10,21",13,18,Flamengo,3,"0,60",1,0,0,1,"-0,53",0,0,14,0,0,11,4,"3,90",0,1,0,6,3
15,21.37040404040404,Rodrigo ,5,ZAG,"9,31",10,19,Ponte Preta,3,"7,40",1,1,0,0,"1,24",0,0,9,0,0,17,4,"3,26",0,2,0,5,3
15,21.37040404040404,Jonathan ,2,LAT,"8,74",12,35,Atlético-PR,2,"7,40",0,0,0,1,"-0,50",0,0,14,0,1,13,4,"3,64",0,3,0,9,0
15,21.37040404040404,William Matheus ,1,LAT,"7,08",13,42,Coritiba,3,"1,80",1,1,0,0,"-0,40",0,0,13,0,0,25,4,"2,12",0,3,0,17,5
15,21.37040404040404,Renê Júnior ,13,MEI,"13,08",11,31,Bahia,3,"0,00",3,1,0,3,"0,00",0,0,36,0,0,23,0,"7,41",0,3,0,15,5
15,21.37040404040404,Jorginho ,2,MEI,"5,21",13,48,Atlético-GO,3,"1,60",1,1,0,1,"0,29",0,0,15,0,0,25,0,"1,35",0,1,0,18,1
15,21.37040404040404,Luiz Otávio ,0,MEI,"2,00",0,0,Atlético-PR,2,"0,00",0,0,0,0,"0,00",0,0,0,0,0,0,0,"0,00",0,0,0,0,0
15,21.37040404040404,Rodrigão ,0,ATA,"6,00",0,0,Santos,2,"0,00",0,0,0,0,"0,00",0,0,0,0,0,0,0,"0,00",0,0,0,0,0
15,21.37040404040404,Ángel Romero ,3,ATA,"12,06",13,46,Corinthians,3,"-0,90",9,0,0,2,"-1,38",0,0,25,0,2,42,0,"4,90",0,4,0,15,6
15,21.37040404040404,Luan ,13,ATA,"22,49",12,57,Grêmio,3,"0,00",3,0,0,5,"0,00",1,0,20,0,6,26,0,"8,92",0,1,0,16,13
16,17.586547619047614,Jair Ventura ,0,TEC,"11,20",16,0,Botafogo,3,"1,91",0,0,0,0,"-0,37",0,0,0,0,0,0,0,"4,04",0,0,0,0,0
16,17.586547619047614,Wilson ,0,GOL,"12,93",16,9,Coritiba,3,"2,70",0,0,0,0,"0,80",0,28,0,0,0,3,5,"4,41",20,0,0,0,0
16,17.586547619047614,Luan ,2,ZAG,"7,77",7,6,Palmeiras,3,"8,10",0,0,0,0,"1,59",0,0,8,0,0,3,2,"4,11",0,1,0,6,1
16,17.586547619047614,Antônio Carlos  ,0,ZAG,"2,66",3,6,Palmeiras,2,"0,00",0,0,1,0,"0,00",0,0,1,0,0,4,0,"-0,37",0,0,0,2,0
16,17.586547619047614,Samuel Xavier ,1,LAT,"4,99",14,54,Sport,3,"4,60",1,0,0,0,"-0,69",0,0,19,0,0,16,7,"3,95",0,2,0,13,2
16,17.586547619047614,Edimar ,0,LAT,"5,13",2,2,São Paulo,3,"4,60",0,0,0,0,"-0,16",0,0,1,0,0,2,1,"5,85",0,0,0,0,0
16,17.586547619047614,Renê Júnior ,13,MEI,"10,88",12,31,Bahia,3,"1,80",3,1,3,3,"-2,20",0,0,36,0,0,23,0,"6,94",0,0,5,15,0
16,17.586547619047614,Nikão ,5,MEI,"8,46",14,37,Atlético-PR,3,"0,00",1,0,0,1,"-0,09",0,0,8,1,2,26,0,"2,79",0,2,0,16,11
16,17.586547619047614,Zé Rafael  ,11,MEI,"19,82",15,34,Bahia,3,"5,80",2,0,3,1,"0,04",0,0,34,0,3,40,0,"6,27",0,0,12,30,0
16,17.586547619047614,Júnior Viçosa ,1,ATA,"5,80",1,0,Atlético-GO,2,"1,20",0,0,0,0,"-1,20",0,0,0,0,0,1,0,"1,20",0,0,0,0,0
16,17.586547619047614,Arthur  ,13,ATA,"12,11",15,32,Chapecoense,3,"8,50",5,0,0,4,"1,52",0,0,14,1,3,30,0,"5,65",0,3,0,22,7
16,17.586547619047614,Willian ,6,ATA,"7,65",14,26,Palmeiras,5,"0,00",5,0,4,3,"0,00",1,0,11,1,1,21,0,"2,76",0,0,6,23,0
17,17.586547619047614,Jair Ventura ,0,TEC,"7,32",1,0,Botafogo,3,"1,35",0,0,0,0,"-1,68",0,0,0,0,0,0,0,"1,35",0,0,0,0,0
17,17.586547619047614,Wilson ,0,GOL,"13,37",17,10,Coritiba,3,"6,00",0,0,1,0,"0,44",0,32,0,0,0,3,5,"4,50",24,0,0,0,1
17,17.586547619047614,Luan ,3,ZAG,"7,80",8,9,Palmeiras,3,"7,30",0,0,1,0,"0,03",0,0,11,0,0,8,4,"4,51",0,0,1,10,0
17,17.586547619047614,Antônio Carlos  ,0,ZAG,"5,00",0,0,Palmeiras,2,"0,00",0,0,0,0,"0,00",0,0,0,0,0,0,0,"0,00",0,0,0,0,0
17,17.586547619047614,Samuel Xavier ,0,LAT,"2,19",1,8,Sport,3,"-4,90",0,0,1,0,"-5,81",0,0,0,0,0,0,0,"-4,90",0,0,0,1,0
17,17.586547619047614,Edimar ,1,LAT,"5,14",3,10,São Paulo,3,"4,20",0,0,0,0,"0,01",0,0,6,0,0,6,1,"5,30",0,0,1,2,0
17,17.586547619047614,Renê Júnior ,15,MEI,"11,66",13,36,Bahia,3,"6,80",3,1,0,3,"0,78",0,0,42,0,0,27,0,"6,93",0,3,0,24,6
17,17.586547619047614,Nikão ,1,MEI,"7,71",1,1,Atlético-PR,2,"1,90",0,0,0,0,"-1,29",0,0,0,0,0,1,0,"1,90",0,0,1,0,0
17,17.586547619047614,Zé Rafael  ,11,MEI,"21,30",16,36,Bahia,3,"14,70",3,0,0,1,"1,48",0,0,42,0,3,52,0,"6,80",0,3,0,34,16
17,17.586547619047614,Júnior Viçosa ,1,ATA,"5,80",1,0,Atlético-GO,2,"1,20",0,0,0,0,"-1,20",0,0,0,0,0,1,0,"1,20",0,0,0,0,0
17,17.586547619047614,Arthur  ,15,ATA,"11,23",16,36,Chapecoense,3,"3,40",5,0,3,4,"-0,88",0,0,15,1,4,36,0,"5,51",0,0,11,26,0
17,17.586547619047614,Willian ,0,ATA,"8,98",1,4,Palmeiras,3,"1,70",0,0,0,0,"-2,02",0,0,2,0,0,0,0,"1,70",0,0,0,1,0
18,15.126448624904507,Claudinei Oliveira ,0,TEC,"6,98",18,0,Avaí,3,"0,11",0,0,0,0,"-0,11",0,0,0,0,0,0,0,"3,00",0,0,0,0,0
18,15.126448624904507,Renan Ribeiro ,0,GOL,"9,25",18,14,São Paulo,3,"-1,30",0,0,1,0,"0,71",0,25,0,0,0,1,5,"2,56",24,0,0,0,0
18,15.126448624904507,Marcio ,3,ZAG,"6,51",16,28,Coritiba,3,"-0,30",1,0,3,1,"-0,14",0,0,13,0,1,8,5,"2,71",0,0,2,20,0
18,15.126448624904507,Rodrigo ,6,ZAG,"9,61",12,24,Ponte Preta,3,"6,90",1,1,2,0,"0,64",0,0,12,0,0,19,5,"3,62",0,0,4,6,0
18,15.126448624904507,Fagner Alemão ,3,LAT,"9,41",15,42,Avaí,3,"1,10",4,0,1,0,"-0,39",0,0,28,0,0,12,6,"4,43",0,0,1,7,0
18,15.126448624904507,Eduardo ,3,LAT,"6,41",17,95,Bahia,3,"2,70",2,0,3,0,"1,00",0,0,30,0,1,14,6,"2,78",0,0,1,27,0
18,15.126448624904507,Andrigo ,9,MEI,"5,79",18,66,Atlético-GO,3,"-0,10",1,0,0,2,"-0,37",0,0,25,1,2,12,0,"3,28",0,2,0,16,7
18,15.126448624904507,André Castro ,2,MEI,"2,99",15,34,Atlético-GO,3,"7,40",1,0,2,0,"1,49",0,0,21,0,0,10,0,"1,23",0,0,1,20,0
18,15.126448624904507,André Castro ,2,MEI,"2,99",15,34,Atlético-GO,3,"7,40",1,0,2,0,"1,49",0,0,21,0,0,10,0,"1,23",0,0,1,20,0
18,15.126448624904507,Túlio de Melo ,5,ATA,"4,69",11,8,Chapecoense,3,"6,10",0,0,1,2,"1,18",0,0,0,0,0,5,0,"1,43",0,0,3,10,0
18,15.126448624904507,Copete ,11,ATA,"6,41",14,51,Santos,3,"1,50",7,0,3,5,"0,21",0,0,9,0,0,17,0,"2,87",0,0,4,21,0
18,15.126448624904507,Rodrigão ,0,ATA,"6,00",0,0,Santos,2,"0,00",0,0,0,0,"0,00",0,0,0,0,0,0,0,"0,00",0,0,0,0,0
19,6.074886575412887,Renato Gaúcho ,0,TEC,"15,81",19,0,Grêmio,3,"5,13",0,0,0,0,"-0,21",0,0,0,0,0,0,0,"4,68",0,0,0,0,0
19,6.074886575412887,Douglas Friedrich ,0,GOL,"9,36",10,0,Avaí,3,"8,00",0,0,0,0,"2,39",0,28,0,0,0,3,6,"9,66",12,1,1,0,0
19,6.074886575412887,Rodrigo Caio ,3,ZAG,"9,52",14,27,São Paulo,3,"0,00",1,0,0,0,"0,00",0,0,22,1,0,8,3,"2,64",0,6,0,11,1
19,6.074886575412887,Kanu ,9,ZAG,"9,38",13,32,Vitória,3,"8,00",4,0,1,2,"1,34",0,0,18,0,1,8,4,"4,18",0,3,0,12,2
19,6.074886575412887,João Lucas ,0,LAT,"11,26",10,43,Ponte Preta,2,"0,00",1,0,1,0,"0,00",0,0,14,0,1,6,4,"3,39",0,0,1,7,0
19,6.074886575412887,Edimar ,1,LAT,"4,96",5,20,São Paulo,3,"2,50",0,0,0,0,"0,19",0,0,9,0,0,10,1,"3,90",0,0,2,5,0
19,6.074886575412887,Renê Júnior ,15,MEI,"10,56",15,45,Bahia,3,"-0,30",3,1,0,3,"-0,80",0,0,45,0,0,32,0,"6,20",0,3,0,30,7
19,6.074886575412887,Lucas Silva ,3,MEI,"4,75",10,27,Cruzeiro,4,"0,10",0,0,0,0,"-0,78",0,0,12,0,1,10,0,"0,99",0,3,0,19,1
19,6.074886575412887,Moisés ,0,MEI,"1,80",2,2,Chapecoense,2,"0,00",0,0,0,0,"0,00",0,0,2,0,0,1,0,"1,40",0,0,0,1,0
19,6.074886575412887,Fred ,7,ATA,"14,99",13,26,Atlético-MG,3,"0,00",9,0,0,5,"0,00",1,0,3,1,1,27,0,"3,49",0,2,0,22,4
19,6.074886575412887,Jô ,10,ATA,"12,75",19,45,Corinthians,2,"2,00",21,0,0,11,"-0,98",1,0,6,0,2,23,0,"4,63",0,2,0,36,11
19,6.074886575412887,David ,16,ATA,"4,37",18,50,Vitória,3,"-1,70",7,0,4,2,"-1,16",0,0,10,2,4,10,0,"2,54",0,0,6,20,0
20,2.067264283703911,Roger Machado  ,0,TEC,"11,91",1,0,Atlético-MG,2,"1,84",0,0,0,0,"-3,09",0,0,0,0,0,0,0,"1,84",0,0,0,0,0
20,2.067264283703911,Douglas Friedrich ,0,GOL,"9,72",11,0,Avaí,3,"8,50",0,0,2,0,"0,36",0,30,0,0,0,3,7,"9,55",12,0,0,1,1
20,2.067264283703911,Luan ,5,ZAG,"7,24",10,11,Palmeiras,3,"3,10",0,0,1,0,"0,16",0,0,13,0,0,10,4,"4,08",0,0,1,11,0
20,2.067264283703911,Betão ,1,ZAG,"7,28",19,41,Avaí,3,"4,10",0,0,6,0,"-0,34",0,0,14,0,0,16,9,"2,50",0,0,1,13,0
20,2.067264283703911,Thiago Carleto ,2,LAT,"4,61",6,23,Coritiba,3,"0,40",0,0,0,1,"-1,42",0,0,5,0,1,6,2,"5,25",0,0,5,5,0
20,2.067264283703911,Fagner Alemão ,4,LAT,"10,38",17,49,Avaí,3,"5,80",4,0,2,0,"-0,12",0,0,33,0,0,12,8,"4,71",0,0,1,10,0
20,2.067264283703911,Romulo ,0,MEI,"6,06",3,1,Flamengo,2,"0,00",0,0,1,0,"0,00",0,0,3,0,0,1,0,"0,60",0,0,1,5,0
20,2.067264283703911,Lucas de Sá ,0,MEI,"1,00",0,0,Avaí,2,"0,00",0,0,0,0,"0,00",0,0,0,0,0,0,0,"0,00",0,0,0,0,0
20,2.067264283703911,Pisculichi ,1,MEI,"4,13",2,6,Vitória,2,"0,00",0,0,0,0,"0,00",0,0,0,0,0,1,0,"-0,55",0,0,0,1,0
20,2.067264283703911,Leandro Damião ,0,ATA,"8,00",0,0,Flamengo,2,"0,00",0,0,0,0,"0,00",0,0,0,0,0,0,0,"0,00",0,0,0,0,0
20,2.067264283703911,Rafael Moura ,9,ATA,"6,62",16,22,Atlético-MG,3,"10,10",13,0,0,4,"1,97",1,0,3,1,0,20,0,"1,89",0,1,0,30,7
20,2.067264283703911,Ricardo Oliveira ,9,ATA,"9,58",8,10,Santos,3,"0,40",2,0,1,1,"-0,18",0,0,1,1,0,6,0,"1,56",0,0,2,12,0
21,2.067264283703911,Roger Machado  ,0,TEC,"11,91",1,0,Atlético-MG,2,"1,84",0,0,0,0,"-3,09",0,0,0,0,0,0,0,"1,84",0,0,0,0,0
21,2.067264283703911,Douglas Friedrich ,0,GOL,"10,09",12,0,Avaí,3,"10,00",0,0,0,0,"0,37",0,34,0,0,0,3,7,"9,59",13,2,1,1,0
21,2.067264283703911,Luan ,5,ZAG,"7,02",11,11,Palmeiras,3,"2,20",0,0,0,0,"-0,22",0,0,14,0,0,12,4,"3,91",0,1,0,12,1
21,2.067264283703911,Betão ,1,ZAG,"7,28",19,41,Avaí,4,"0,00",0,0,0,0,"0,00",0,0,14,0,0,16,9,"2,50",0,6,0,13,1
21,2.067264283703911,Thiago Carleto ,3,LAT,"6,03",7,24,Coritiba,3,"8,60",0,0,0,1,"1,42",0,0,6,0,1,6,3,"5,73",0,0,0,6,7
21,2.067264283703911,Fagner Alemão ,4,LAT,"9,74",18,52,Avaí,3,"2,50",4,0,0,0,"-0,64",0,0,35,0,0,12,8,"4,59",0,2,0,10,1
21,2.067264283703911,Romulo ,0,MEI,"6,06",3,1,Flamengo,2,"0,00",0,0,0,0,"0,00",0,0,3,0,0,1,0,"0,60",0,1,0,5,1
21,2.067264283703911,Lucas de Sá ,0,MEI,"1,00",0,0,Avaí,2,"0,00",0,0,0,0,"0,00",0,0,0,0,0,0,0,"0,00",0,0,0,0,0
21,2.067264283703911,Pisculichi ,1,MEI,"4,13",2,6,Vitória,2,"0,00",0,0,0,0,"0,00",0,0,0,0,0,1,0,"-0,55",0,0,0,1,0
21,2.067264283703911,Leandro Damião ,0,ATA,"8,00",0,0,Flamengo,2,"0,00",0,0,0,0,"0,00",0,0,0,0,0,0,0,"0,00",0,0,0,0,0
21,2.067264283703911,Rafael Moura ,9,ATA,"4,49",17,24,Atlético-MG,3,"-2,60",15,0,1,4,"-2,13",1,0,3,1,0,22,0,"1,63",0,0,7,34,0
21,2.067264283703911,Ricardo Oliveira ,9,ATA,"9,58",8,10,Santos,3,"0,00",2,0,0,1,"0,00",0,0,1,1,0,6,0,"1,56",0,1,0,12,2
22,19.2046484801748,Claudinei Oliveira ,0,TEC,"8,17",22,0,Avaí,3,"5,65",0,0,0,0,"0,66",0,0,0,0,0,0,0,"3,30",0,0,0,0,0
22,19.2046484801748,Vanderlei ,0,GOL,"22,07",21,7,Santos,3,"4,00",0,0,0,0,"-0,80",0,52,0,0,0,3,12,"9,70",14,2,3,1,0
22,19.2046484801748,David Braz ,5,ZAG,"10,53",18,44,Santos,3,"-3,10",2,1,6,2,"-1,53",0,0,17,0,1,9,11,"4,12",0,0,1,17,0
22,19.2046484801748,Luan ,5,ZAG,"7,03",12,11,Palmeiras,3,"1,70",0,0,0,0,"0,01",0,0,15,0,0,12,4,"3,73",0,1,0,12,1
22,19.2046484801748,Gilberto  ,7,LAT,"11,59",19,91,Vasco,3,"3,50",2,0,6,0,"0,97",0,0,54,1,1,28,4,"4,52",0,0,1,28,0
22,19.2046484801748,Jean ,13,LAT,"13,61",12,36,Palmeiras,3,"-1,00",2,0,0,1,"-0,18",1,0,12,0,1,10,4,"4,06",0,1,0,7,2
22,19.2046484801748,Rafinha ,3,MEI,"7,24",13,39,Cruzeiro,3,"10,20",1,0,0,1,"2,21",0,0,10,1,0,29,0,"2,06",0,1,0,14,3
22,19.2046484801748,Jucilei ,7,MEI,"14,40",22,56,São Paulo,3,"5,50",1,0,0,1,"1,31",0,0,54,0,0,40,0,"4,20",0,0,1,32,0
22,19.2046484801748,Yan ,0,MEI,"2,00",0,0,Santos,2,"0,00",0,0,0,0,"0,00",0,0,0,0,0,0,0,"0,00",0,0,0,0,0
22,19.2046484801748,Alison ,0,ATA,"1,00",0,0,Sport,2,"0,00",0,0,0,0,"0,00",0,0,0,0,0,0,0,"0,00",0,0,0,0,0
22,19.2046484801748,Wellington Silva ,2,ATA,"8,84",10,30,Fluminense,3,"1,00",4,0,0,2,"0,16",0,0,6,0,1,18,0,"2,96",0,0,1,4,0
22,19.2046484801748,Rafael Sobis ,12,ATA,"9,45",14,33,Cruzeiro,3,"0,10",1,1,0,2,"0,61",0,0,4,0,1,11,0,"1,41",0,3,0,19,9
23,19.2046484801748,Claudinei Oliveira ,0,TEC,"8,29",23,0,Avaí,3,"5,52",0,0,0,0,"0,12",0,0,0,0,0,0,0,"3,40",0,0,0,0,0
23,19.2046484801748,Vanderlei ,0,GOL,"24,58",22,7,Santos,3,"17,50",0,0,2,0,"2,51",0,56,0,0,0,4,13,"10,05",14,0,0,1,3
23,19.2046484801748,David Braz ,5,ZAG,"10,53",18,44,Santos,4,"0,00",2,1,0,2,"0,00",0,0,17,0,1,9,11,"4,12",0,6,0,17,1
23,19.2046484801748,Luan ,5,ZAG,"5,77",13,13,Palmeiras,3,"-5,20",0,1,2,0,"-1,26",0,0,17,0,0,12,4,"3,04",0,0,1,14,0
23,19.2046484801748,Gilberto  ,7,LAT,"11,59",19,91,Vasco,4,"0,00",2,0,0,0,"0,00",0,0,54,1,1,28,4,"4,52",0,6,0,28,1
23,19.2046484801748,Jean ,14,LAT,"14,21",13,36,Palmeiras,3,"2,90",3,0,1,1,"0,60",1,0,13,0,1,12,4,"3,97",0,0,3,9,0
23,19.2046484801748,Rafinha ,3,MEI,"7,53",14,41,Cruzeiro,2,"10,10",1,0,1,2,"0,29",0,0,11,1,0,32,0,"2,63",0,0,4,17,0
23,19.2046484801748,Jucilei ,7,MEI,"13,14",23,59,São Paulo,3,"-1,80",1,1,0,1,"-1,26",0,0,57,0,0,40,0,"3,94",0,0,0,34,1
23,19.2046484801748,Yan ,0,MEI,"2,00",0,0,Santos,2,"0,00",0,0,0,0,"0,00",0,0,0,0,0,0,0,"0,00",0,0,0,0,0
23,19.2046484801748,Alison ,0,ATA,"1,00",0,0,Sport,2,"0,00",0,0,0,0,"0,00",0,0,0,0,0,0,0,"0,00",0,0,0,0,0
23,19.2046484801748,Wellington Silva ,2,ATA,"9,32",11,33,Fluminense,3,"3,70",4,0,0,2,"0,48",0,0,9,0,1,19,0,"3,03",0,0,0,6,1
23,19.2046484801748,Rafael Sobis ,12,ATA,"9,45",14,33,Cruzeiro,3,"0,00",1,1,3,2,"0,00",0,0,4,0,1,11,0,"1,41",0,0,9,19,0
24,5.596736934563022,Mano Menezes ,0,TEC,"12,92",24,0,Cruzeiro,3,"4,40",0,0,0,0,"0,05",0,0,0,0,0,0,0,"3,87",0,0,0,0,0
24,5.596736934563022,Marcos ,0,GOL,"1,36",3,1,Atlético-GO,3,"0,70",0,0,0,0,"-0,04",0,5,0,0,0,1,1,"4,73",2,1,0,0,0
24,5.596736934563022,Felipe Santana ,2,ZAG,"9,43",9,14,Atlético-MG,2,"0,00",1,0,0,1,"0,00",0,0,12,0,1,7,2,"4,35",0,0,0,9,0
24,5.596736934563022,Tiago  ,2,ZAG,"9,28",22,40,Bahia,3,"0,20",6,0,5,2,"0,12",0,0,15,1,0,23,7,"2,47",0,0,2,31,0
24,5.596736934563022,Yago Pikachu ,4,LAT,"9,73",13,29,Vasco,3,"0,00",1,0,0,2,"0,00",0,0,9,0,1,13,4,"4,30",0,0,4,9,0
24,5.596736934563022,Leandro Silva ,8,LAT,"9,50",23,101,Avaí,3,"6,90",2,1,1,0,"0,12",0,0,32,0,3,21,10,"3,72",0,0,4,31,0
24,5.596736934563022,Andrigo ,15,MEI,"6,78",23,84,Atlético-GO,3,"6,70",1,0,0,2,"1,02",0,0,32,1,3,14,0,"2,94",0,5,0,22,8
24,5.596736934563022,Diego Souza ,10,MEI,"14,94",15,67,Sport,3,"0,00",2,0,5,6,"0,00",0,0,6,3,1,37,0,"4,04",0,0,5,25,0
24,5.596736934563022,João Victor ,0,MEI,"2,00",0,0,Sport,2,"0,00",0,0,0,0,"0,00",0,0,0,0,0,0,0,"0,00",0,0,0,0,0
24,5.596736934563022,Henrique Dourado ,9,ATA,"23,18",18,47,Fluminense,3,"10,30",6,0,4,14,"0,50",0,0,8,0,2,35,0,"6,78",0,0,9,43,0
24,5.596736934563022,Eduardo da Silva ,1,ATA,"5,87",5,5,Atlético-PR,2,"0,00",1,0,0,0,"0,00",0,0,4,0,0,1,0,"1,40",0,0,4,6,0
24,5.596736934563022,Clayton ,0,ATA,"9,00",0,0,Corinthians,2,"0,00",0,0,0,0,"0,00",0,0,0,0,0,0,0,"0,00",0,0,0,0,0
25,5.656535541752932,Mano Menezes ,0,TEC,"12,88",25,0,Cruzeiro,3,"4,11",0,0,0,0,"-0,04",0,0,0,0,0,0,0,"3,88",0,0,0,0,0
25,5.656535541752932,João Paulo ,0,GOL,"2,97",1,1,Santos,2,"0,00",0,0,0,0,"0,00",0,2,0,0,0,0,1,"10,70",0,0,0,0,0
25,5.656535541752932,Marllon ,3,ZAG,"11,60",23,40,Ponte Preta,3,"1,40",0,0,0,0,"0,03",0,0,36,1,0,24,8,"4,17",0,3,0,14,2
25,5.656535541752932,Walisson Maia ,1,ZAG,"4,44",11,23,Coritiba,3,"0,10",1,0,1,0,"-0,23",0,0,19,0,0,1,2,"2,37",0,0,0,12,2
25,5.656535541752932,Rodinei ,3,LAT,"10,54",14,29,Flamengo,3,"9,10",1,1,0,2,"1,69",0,0,12,0,3,10,6,"4,49",0,2,0,21,3
25,5.656535541752932,Samuel Xavier ,1,LAT,"4,14",18,68,Sport,2,"0,00",1,0,3,0,"0,00",0,0,24,0,0,26,7,"3,22",0,0,4,17,0
25,5.656535541752932,Gabriel ,1,MEI,"8,95",22,48,Corinthians,3,"7,10",0,1,0,1,"1,08",0,0,49,0,0,22,0,"2,96",0,4,0,29,4
25,5.656535541752932,Maicosuel ,0,MEI,"6,86",1,0,Atlético-MG,3,"1,70",0,0,0,0,"-1,14",0,0,1,0,0,0,0,"1,70",0,0,0,0,0
25,5.656535541752932,Guilherme ,7,MEI,"8,79",11,47,Atlético-PR,3,"-1,30",2,0,3,3,"-0,31",0,0,10,0,3,13,0,"3,62",0,0,4,21,0
25,5.656535541752932,Felipe ,0,ATA,"1,00",0,0,Fluminense,2,"0,00",0,0,0,0,"0,00",0,0,0,0,0,0,0,"0,00",0,0,0,0,0
25,5.656535541752932,Rafael Marques ,0,ATA,"5,00",0,0,Palmeiras,2,"0,00",0,0,0,0,"0,00",0,0,0,0,0,0,0,"0,00",0,0,0,0,0
25,5.656535541752932,Jô ,13,ATA,"12,24",23,52,Corinthians,3,"0,90",27,0,0,12,"-1,18",1,0,6,0,2,25,0,"4,18",0,2,0,42,16
26,6.081661985357632,Cuca ,0,TEC,"13,93",26,0,Palmeiras,3,"2,51",0,0,0,0,"-0,45",0,0,0,0,0,0,0,"4,02",0,0,0,0,0
26,6.081661985357632,Santos ,0,GOL,"5,43",2,1,Atlético-PR,2,"0,00",0,0,0,0,"0,00",0,2,0,0,0,0,1,"3,35",2,0,0,0,0
26,6.081661985357632,Paulo André ,0,ZAG,"4,30",15,32,Atlético-PR,2,"0,00",0,0,4,0,"0,00",0,0,13,1,0,11,4,"1,93",0,0,2,13,0
26,6.081661985357632,Gum ,0,ZAG,"7,00",0,1,Fluminense,5,"0,00",0,0,0,0,"0,00",0,0,0,0,0,2,0,"0,00",0,0,0,0,0
26,6.081661985357632,Léo ,2,LAT,"3,06",18,41,Fluminense,3,"-2,70",3,0,0,1,"-0,86",0,0,15,0,1,7,2,"1,01",0,2,0,39,2
26,6.081661985357632,Thiago Carleto ,3,LAT,"5,02",10,40,Coritiba,3,"-1,20",0,0,0,2,"-2,28",1,0,12,0,2,10,3,"5,45",0,1,0,9,8
26,6.081661985357632,Hudson ,7,MEI,"6,48",13,19,Cruzeiro,3,"0,00",0,0,1,1,"0,00",0,0,25,0,0,13,0,"3,52",0,0,1,19,0
26,6.081661985357632,Tchê Tchê ,6,MEI,"7,68",22,51,Palmeiras,3,"7,20",1,1,0,0,"1,31",0,0,28,0,2,23,0,"1,38",0,4,0,36,4
26,6.081661985357632,Moisés ,3,MEI,"8,68",7,34,Palmeiras,3,"3,00",0,0,1,0,"-0,51",0,0,13,1,0,13,0,"3,21",0,0,4,7,0
26,6.081661985357632,Copete ,16,ATA,"6,56",20,67,Santos,3,"0,80",8,0,0,5,"-0,38",0,0,15,0,1,24,0,"2,98",0,3,0,26,9
26,6.081661985357632,Rildo ,6,ATA,"10,49",23,61,Coritiba,3,"10,90",6,0,3,5,"2,20",0,0,21,0,2,84,0,"4,22",0,0,5,25,0
26,6.081661985357632,Fernandinho ,11,ATA,"11,75",20,37,Grêmio,3,"0,00",2,0,1,6,"0,00",0,0,20,0,1,61,0,"5,66",0,0,13,22,0
27,0.08922072896143796,Renato Gaúcho ,0,TEC,"15,29",26,0,Grêmio,3,"0,00",0,0,0,0,"-0,50",0,0,0,0,0,0,0,"4,22",0,0,0,0,0
27,0.08922072896143796,Douglas Friedrich ,0,GOL,"8,92",18,0,Avaí,3,"0,00",0,0,0,0,"-0,65",0,0,0,0,0,0,0,"8,32",0,0,0,0,0
27,0.08922072896143796,Murilo ,0,ZAG,"2,16",17,0,Cruzeiro,2,"0,00",0,0,0,0,"0,00",0,0,0,0,0,0,0,"2,42",0,0,0,0,0
27,0.08922072896143796,Juninho ,0,ZAG,"12,00",0,0,Coritiba,2,"0,00",0,0,0,0,"0,00",0,0,0,0,0,0,0,"0,00",0,0,0,0,0
27,0.08922072896143796,Thiago Carleto ,0,LAT,"5,63",11,0,Coritiba,1,"0,00",0,0,0,0,"0,61",0,0,0,0,0,0,0,"5,18",0,0,0,0,0
27,0.08922072896143796,Jean ,0,LAT,"14,48",16,0,Palmeiras,2,"0,00",0,0,0,0,"0,00",0,0,0,0,0,0,0,"4,73",0,0,0,0,0
27,0.08922072896143796,Renê Júnior ,0,MEI,"10,75",20,0,Bahia,3,"0,00",0,0,0,0,"-1,47",0,0,0,0,0,0,0,"6,02",0,0,0,0,0
27,0.08922072896143796,Lima ,0,MEI,"1,00",0,0,Chapecoense,2,"0,00",0,0,0,0,"0,00",0,0,0,0,0,0,0,"0,00",0,0,0,0,0
27,0.08922072896143796,Romulo ,0,MEI,"8,00",0,0,Flamengo,2,"0,00",0,0,0,0,"0,00",0,0,0,0,0,0,0,"0,00",0,0,0,0,0
27,0.08922072896143796,Lucas Silva ,0,ATA,"2,00",0,0,Flamengo,2,"0,00",0,0,0,0,"0,00",0,0,0,0,0,0,0,"0,00",0,0,0,0,0
27,0.08922072896143796,Everton ,0,ATA,"10,38",23,0,Grêmio,2,"0,00",0,0,0,0,"-1,26",0,0,0,0,0,0,0,"4,18",0,0,0,0,0
27,0.08922072896143796,Yago ,0,ATA,"2,00",0,0,Atlético-PR,2,"0,00",0,0,0,0,"0,00",0,0,0,0,0,0,0,"0,00",0,0,0,0,0
28,0.0,Renato Gaúcho ,0,TEC,"15,61",27,0,Grêmio,3,"0,00",0,0,0,0,"0,32",0,0,0,0,0,0,0,"4,24",0,0,0,0,0
28,0.0,Rafael Fachin ,0,GOL,"1,00",0,0,Coritiba,2,"0,00",0,0,0,0,"0,00",0,0,0,0,0,0,0,"0,00",0,0,0,0,0
28,0.0,Murilo ,0,ZAG,"2,16",17,0,Cruzeiro,2,"0,00",0,0,0,0,"0,00",0,0,0,0,0,0,0,"2,42",0,0,0,0,0
28,0.0,Luiz Felipe ,0,ZAG,"3,62",2,0,Santos,2,"0,00",0,0,0,0,"0,00",0,0,0,0,0,0,0,"2,05",0,0,0,0,0
28,0.0,Thiago Carleto ,0,LAT,"6,18",12,0,Coritiba,3,"0,00",0,0,0,0,"0,55",0,0,0,0,0,0,0,"5,21",0,0,0,0,0
28,0.0,Diego Tavares ,0,LAT,"5,65",12,0,Avaí,2,"0,00",0,0,0,0,"0,00",0,0,0,0,0,0,0,"2,71",0,0,0,0,0
28,0.0,Renê Júnior ,0,MEI,"12,00",21,0,Bahia,3,"0,00",0,0,0,0,"1,25",0,0,0,0,0,0,0,"6,01",0,0,0,0,0
28,0.0,Thalis  ,0,MEI,"0,81",1,0,Atlético-MG,2,"0,00",0,0,0,0,"0,00",0,0,0,0,0,0,0,"0,20",0,0,0,0,0
28,0.0,Yuri ,0,MEI,"0,79",9,0,Santos,2,"0,00",0,0,0,0,"0,00",0,0,0,0,0,0,0,"-0,67",0,0,0,0,0
28,0.0,Lucas Silva ,0,ATA,"2,00",0,0,Flamengo,2,"0,00",0,0,0,0,"0,00",0,0,0,0,0,0,0,"0,00",0,0,0,0,0
28,0.0,Everton ,0,ATA,"10,39",24,0,Grêmio,2,"0,00",0,0,0,0,"0,01",0,0,0,0,0,0,0,"4,12",0,0,0,0,0
28,0.0,Yago ,0,ATA,"2,00",0,0,Atlético-PR,2,"0,00",0,0,0,0,"0,00",0,0,0,0,0,0,0,"0,00",0,0,0,0,0
29,9.372870680044594,Roger Machado  ,0,TEC,"11,91",1,0,Atlético-MG,2,"1,84",0,0,0,0,"-3,09",0,0,0,0,0,0,0,"1,84",0,0,0,0,0
29,9.372870680044594,Douglas Friedrich ,0,GOL,"9,68",20,1,Avaí,3,"2,00",0,0,0,0,"0,10",0,48,0,0,0,7,9,"7,63",21,2,1,1,0
29,9.372870680044594,David Braz ,6,ZAG,"11,32",23,53,Santos,3,"1,90",2,1,0,2,"-0,93",0,0,28,0,1,13,13,"4,22",0,8,0,21,1
29,9.372870680044594,Igor Rabello ,5,ZAG,"9,94",23,35,Botafogo,3,"-0,20",2,0,5,0,"-0,71",0,0,34,1,0,12,7,"2,94",0,1,3,27,0
29,9.372870680044594,Moraes ,0,LAT,"1,00",0,0,Flamengo,2,"0,00",0,0,0,0,"0,00",0,0,0,0,0,0,0,"0,00",0,0,0,0,0
29,9.372870680044594,Diogo Barbosa ,4,LAT,"12,23",24,87,Cruzeiro,3,"1,10",2,0,1,0,"-1,63",0,0,41,1,3,26,10,"4,28",0,4,0,24,2
29,9.372870680044594,Marquinhos Gabriel ,5,MEI,"8,30",20,37,Corinthians,2,"-0,50",1,0,0,2,"-0,18",0,0,9,1,4,26,0,"2,59",0,4,0,12,6
29,9.372870680044594,Jorginho ,10,MEI,"5,59",27,93,Atlético-GO,3,"1,00",5,1,2,2,"-0,43",0,0,30,0,1,59,0,"1,81",0,0,3,47,0
29,9.372870680044594,Rithely ,23,MEI,"11,47",24,82,Sport,3,"4,60",1,0,0,1,"-0,01",0,0,59,0,2,26,0,"4,18",0,6,0,40,10
29,9.372870680044594,Arthur  ,22,ATA,"12,16",26,57,Chapecoense,3,"8,20",8,0,5,5,"1,75",0,0,26,1,6,55,0,"4,72",0,0,16,45,0
29,9.372870680044594,Rafael Marques ,0,ATA,"5,00",0,0,Palmeiras,2,"0,00",0,0,0,0,"0,00",0,0,0,0,0,0,0,"0,00",0,0,0,0,0
29,9.372870680044594,Copete ,17,ATA,"5,70",23,70,Santos,3,"-3,30",9,0,4,5,"-0,69",0,0,16,0,1,28,0,"2,57",0,0,9,29,0
30,9.904643719806762,Mano Menezes ,0,TEC,"12,65",29,0,Cruzeiro,3,"3,06",0,0,0,0,"0,36",0,0,0,0,0,0,0,"3,74",0,0,0,0,0
30,9.904643719806762,João Paulo ,0,GOL,"2,97",1,1,Santos,2,"0,00",0,0,0,0,"0,00",0,2,0,0,0,0,1,"10,70",0,0,0,0,0
30,9.904643719806762,David Braz ,6,ZAG,"11,98",24,55,Santos,3,"5,60",2,1,8,2,"0,66",0,0,29,0,1,13,14,"4,28",0,0,1,22,0
30,9.904643719806762,Igor Rabello ,5,ZAG,"11,87",24,35,Botafogo,3,"10,90",4,0,1,1,"1,93",0,0,36,1,0,13,7,"3,27",0,5,0,27,3
30,9.904643719806762,João Paulo ,1,LAT,"3,26",6,14,Avaí,3,"0,10",0,0,2,0,"0,06",0,0,3,0,0,3,2,"1,18",0,0,0,4,0
30,9.904643719806762,Jean ,19,LAT,"14,48",16,40,Palmeiras,1,"0,00",3,0,0,2,"0,00",1,0,15,0,1,14,6,"4,73",0,1,0,12,4
30,9.904643719806762,Rafinha ,7,MEI,"8,71",20,60,Cruzeiro,3,"13,40",1,0,0,3,"2,28",0,0,23,2,1,42,0,"3,59",0,1,0,27,5
30,9.904643719806762,Márcio Araújo ,6,MEI,"8,06",24,45,Flamengo,3,"0,00",0,0,5,0,"0,00",0,0,48,0,1,33,0,"2,90",0,0,1,31,0
30,9.904643719806762,Mateus Pet ,0,MEI,"5,02",1,1,Vasco,3,"5,10",0,0,0,0,"3,02",0,0,2,0,0,1,0,"5,10",0,0,0,1,2
30,9.904643719806762,Loran  ,0,ATA,"1,00",0,0,Flamengo,2,"0,00",0,0,0,0,"0,00",0,0,0,0,0,0,0,"0,00",0,0,0,0,0
30,9.904643719806762,Dudu ,6,ATA,"19,22",18,66,Palmeiras,3,"20,10",7,0,4,6,"3,07",0,0,18,0,1,78,0,"5,28",0,0,8,17,0
30,9.904643719806762,Walter ,20,ATA,"6,90",23,118,Atlético-GO,3,"-4,00",12,0,0,5,"-0,54",0,0,15,1,1,51,0,"2,13",0,6,0,56,17
31,9.904643719806762,Mano Menezes ,0,TEC,"12,52",30,0,Cruzeiro,3,"2,98",0,0,0,0,"-0,13",0,0,0,0,0,0,0,"3,71",0,0,0,0,0
31,9.904643719806762,João Paulo ,0,GOL,"2,97",1,1,Santos,2,"0,00",0,0,0,0,"0,00",0,2,0,0,0,0,1,"10,70",0,0,0,0,0
31,9.904643719806762,David Braz ,6,ZAG,"11,42",25,55,Santos,3,"2,70",2,1,0,2,"-0,56",0,0,30,0,1,14,14,"4,22",0,8,0,23,2
31,9.904643719806762,Igor Rabello ,5,ZAG,"10,86",25,36,Botafogo,3,"4,70",4,0,5,1,"-1,01",0,0,36,1,0,14,8,"3,33",0,1,3,28,0
31,9.904643719806762,João Paulo ,1,LAT,"3,63",7,14,Avaí,4,"2,50",0,0,0,0,"0,37",0,0,3,1,0,5,2,"1,37",0,3,0,6,1
31,9.904643719806762,Jean ,20,LAT,"14,23",17,42,Palmeiras,2,"3,50",3,0,1,2,"-0,25",1,0,17,0,1,14,6,"4,66",0,0,4,12,0
31,9.904643719806762,Rafinha ,7,MEI,"6,56",21,67,Cruzeiro,1,"0,10",2,0,1,3,"-2,15",0,0,24,2,1,43,0,"3,42",0,0,6,28,0
31,9.904643719806762,Márcio Araújo ,7,MEI,"8,21",25,49,Flamengo,2,"0,70",0,0,0,0,"0,15",0,0,49,0,1,34,0,"2,81",0,5,0,33,1
31,9.904643719806762,Mateus Pet ,0,MEI,"5,02",1,1,Vasco,3,"5,10",0,0,0,0,"3,02",0,0,2,0,0,1,0,"5,10",0,0,2,1,0
31,9.904643719806762,Loran  ,0,ATA,"1,00",0,0,Flamengo,2,"0,00",0,0,0,0,"0,00",0,0,0,0,0,0,0,"0,00",0,0,0,0,0
31,9.904643719806762,Dudu ,6,ATA,"16,64",19,75,Palmeiras,3,"4,30",7,0,0,6,"-2,58",0,0,18,0,2,79,0,"5,23",0,4,0,18,10
31,9.904643719806762,Walter ,21,ATA,"7,70",24,122,Atlético-GO,3,"1,70",13,0,7,5,"0,80",0,0,16,1,2,51,0,"2,11",0,0,17,60,0
32,1.4537624893063903,Paulo Autuori ,0,TEC,"8,23",1,0,Atlético-PR,3,"1,64",0,0,0,0,"-1,77",0,0,0,0,0,0,0,"1,64",0,0,0,0,0
32,1.4537624893063903,Weverton ,0,GOL,"4,80",29,21,Atlético-PR,3,"1,00",0,0,0,0,"-0,59",0,41,1,0,0,5,8,"3,07",35,1,0,0,0
32,1.4537624893063903,René ,1,ZAG,"2,39",11,17,Vitória,2,"0,00",0,0,3,0,"0,00",0,0,8,0,0,7,4,"1,79",0,0,1,16,0
32,1.4537624893063903,Murilo ,8,ZAG,"3,60",20,44,Cruzeiro,3,"7,60",1,0,2,0,"1,56",0,0,17,0,0,8,8,"2,40",0,0,0,26,0
32,1.4537624893063903,Norberto  ,0,LAT,"5,00",0,0,Vitória,2,"0,00",0,0,0,0,"0,00",0,0,0,0,0,0,0,"0,00",0,0,0,0,0
32,1.4537624893063903,Cascardo ,0,LAT,"3,17",9,22,Atlético-PR,2,"0,00",1,0,0,0,"0,00",0,0,7,0,0,13,3,"2,65",0,0,0,7,1
32,1.4537624893063903,Sornoza ,2,MEI,"13,05",10,28,Fluminense,3,"2,90",0,0,2,2,"0,24",0,0,14,1,0,5,0,"3,43",0,0,3,7,0
32,1.4537624893063903,Moisés ,4,MEI,"10,49",13,59,Palmeiras,3,"10,50",0,0,1,3,"2,07",0,0,18,1,2,30,0,"5,08",0,0,6,12,0
32,1.4537624893063903,Zé Rafael  ,15,MEI,"21,35",31,69,Bahia,3,"9,60",10,0,4,3,"0,31",0,0,81,0,5,104,0,"6,75",0,0,23,58,0
32,1.4537624893063903,Lenis ,6,ATA,"3,48",16,26,Sport,2,"0,00",1,0,0,2,"0,00",0,0,10,0,3,20,0,"2,75",0,3,0,14,3
32,1.4537624893063903,Rodrigo Pimpão ,14,ATA,"9,08",27,101,Botafogo,3,"10,30",7,0,5,2,"1,68",0,0,34,0,9,31,0,"3,49",0,0,15,42,0
32,1.4537624893063903,Bruno Henrique ,14,ATA,"15,16",23,74,Santos,3,"12,90",8,1,5,6,"2,48",0,0,23,1,11,67,0,"5,85",0,0,15,56,0
33,1.4537624893063903,Paulo Autuori ,0,TEC,"8,23",1,0,Atlético-PR,3,"1,64",0,0,0,0,"-1,77",0,0,0,0,0,0,0,"1,64",0,0,0,0,0
33,1.4537624893063903,Weverton ,0,GOL,"4,81",30,0,Atlético-PR,3,"0,00",0,0,0,0,"0,01",0,0,0,0,0,0,0,"3,00",0,0,0,0,0
33,1.4537624893063903,René ,0,ZAG,"2,38",12,0,Vitória,2,"0,00",0,0,0,0,"-0,01",0,0,0,0,0,0,0,"1,69",0,0,0,0,0
33,1.4537624893063903,Murilo ,0,ZAG,"3,31",21,0,Cruzeiro,3,"0,00",0,0,0,0,"-0,29",0,0,0,0,0,0,0,"2,52",0,0,0,0,0
33,1.4537624893063903,Norberto  ,0,LAT,"5,00",0,0,Vitória,2,"0,00",0,0,0,0,"0,00",0,0,0,0,0,0,0,"0,00",0,0,0,0,0
33,1.4537624893063903,Cascardo ,0,LAT,"3,17",9,0,Atlético-PR,2,"0,00",0,0,0,0,"0,00",0,0,0,0,0,0,0,"2,65",0,0,0,0,0
33,1.4537624893063903,Sornoza ,0,MEI,"12,51",11,0,Fluminense,4,"0,00",0,0,0,0,"-0,54",0,0,0,0,0,0,0,"3,09",0,0,0,0,0
33,1.4537624893063903,Moisés ,0,MEI,"9,49",14,0,Palmeiras,3,"0,00",0,0,0,0,"-1,00",0,0,0,0,0,0,0,"4,97",0,0,0,0,0
33,1.4537624893063903,Zé Rafael  ,0,MEI,"20,04",32,0,Bahia,3,"0,00",0,0,0,0,"-1,31",0,0,0,0,0,0,0,"6,58",0,0,0,0,0
33,1.4537624893063903,Lenis ,0,ATA,"4,29",17,0,Sport,2,"0,00",0,0,0,0,"0,81",0,0,0,0,0,0,0,"2,81",0,0,0,0,0
33,1.4537624893063903,Rodrigo Pimpão ,0,ATA,"7,51",28,0,Botafogo,3,"0,00",0,0,0,0,"-1,57",0,0,0,0,0,0,0,"3,37",0,0,0,0,0
33,1.4537624893063903,Bruno Henrique ,0,ATA,"12,76",24,0,Santos,4,"0,00",0,0,0,0,"-2,40",0,0,0,0,0,0,0,"5,52",0,0,0,0,0
34,0.0,Pachequinho ,0,TEC,"6,53",1,0,Coritiba,3,"7,23",0,0,0,0,"4,53",0,0,0,0,0,0,0,"7,23",0,0,0,0,0
34,0.0,Weverton ,0,GOL,"5,21",31,26,Atlético-PR,3,"3,50",0,0,0,0,"0,40",0,42,1,0,0,5,9,"3,02",36,1,0,0,0
34,0.0,René ,1,ZAG,"2,26",13,18,Vitória,2,"0,00",0,0,4,0,"-0,12",0,0,10,0,0,7,4,"1,56",0,0,1,17,0
34,0.0,Murilo ,9,ZAG,"2,85",22,47,Cruzeiro,3,"2,00",1,0,3,0,"-0,46",0,0,23,0,0,8,8,"2,50",0,0,0,28,0
34,0.0,Norberto  ,0,LAT,"5,00",0,0,Vitória,2,"0,00",0,0,0,0,"0,00",0,0,0,0,0,0,0,"0,00",0,0,0,0,0
34,0.0,Cascardo ,0,LAT,"3,17",9,22,Atlético-PR,2,"0,00",1,0,0,0,"0,00",0,0,7,0,0,13,3,"2,65",0,0,0,7,1
34,0.0,Romulo ,0,MEI,"5,08",8,5,Flamengo,2,"0,00",0,0,1,0,"0,00",0,0,5,0,0,2,0,"0,57",0,0,3,9,0
34,0.0,Moisés ,5,MEI,"10,51",15,67,Palmeiras,3,"9,70",0,0,1,3,"1,02",0,0,23,1,3,34,0,"5,29",0,0,6,13,0
34,0.0,Zé Rafael  ,16,MEI,"20,10",33,73,Bahia,3,"3,00",10,0,5,3,"0,06",0,0,85,0,5,108,0,"6,47",0,0,24,64,0
34,0.0,Lenis ,6,ATA,"3,55",18,30,Sport,2,"-0,60",1,0,0,2,"-0,74",0,0,12,0,3,23,0,"2,62",0,3,0,15,3
34,0.0,Rodrigo Pimpão ,16,ATA,"7,80",29,110,Botafogo,3,"2,40",7,0,5,2,"0,29",0,0,36,0,9,33,0,"3,34",0,0,16,45,0
34,0.0,Bruno Henrique ,14,ATA,"12,76",24,80,Santos,4,"0,00",8,1,6,6,"0,00",0,0,24,1,11,69,0,"5,52",0,0,15,58,0
35,0.0,Mano Menezes ,0,TEC,"13,08",34,0,Cruzeiro,3,"5,21",0,0,0,0,"0,05",0,0,0,0,0,0,0,"3,84",0,0,0,0,0
35,0.0,Vanderlei ,0,GOL,"20,61",34,11,Santos,3,"-3,00",0,0,0,0,"-0,34",0,74,0,0,0,6,16,"7,57",30,2,3,2,0
35,0.0,Gabriel ,6,ZAG,"9,00",23,38,Atlético-MG,3,"0,00",1,0,0,1,"0,00",0,0,29,0,0,19,7,"3,44",0,2,0,26,2
35,0.0,Nathan ,0,ZAG,"1,00",0,0,Atlético-MG,2,"0,00",0,0,0,0,"0,00",0,0,0,0,0,0,0,"0,00",0,0,0,0,0
35,0.0,Thiago Carleto ,5,LAT,"7,48",19,77,Coritiba,4,"7,40",1,0,0,2,"0,61",1,0,29,0,8,14,6,"6,21",0,3,0,15,13
35,0.0,Yago Pikachu ,7,LAT,"9,02",24,45,Vasco,2,"0,00",4,0,2,2,"-0,25",0,0,18,0,2,30,7,"3,72",0,0,8,22,0
35,0.0,Rafael Carioca ,0,MEI,"7,92",1,4,Atlético-MG,2,"-0,80",0,0,0,0,"-4,08",0,0,2,0,0,0,0,"-0,80",0,1,0,2,0
35,0.0,Diego Souza ,17,MEI,"16,46",23,91,Sport,3,"8,70",2,1,9,11,"1,52",2,0,8,3,3,53,0,"4,48",0,0,13,34,0
35,0.0,Cristian ,0,MEI,"4,00",0,0,Corinthians,2,"0,00",0,0,0,0,"0,00",0,0,0,0,0,0,0,"0,00",0,0,0,0,0
35,0.0,Lucas Fernandes ,0,ATA,"5,00",0,0,Fluminense,2,"0,00",0,0,0,0,"0,00",0,0,0,0,0,0,0,"0,00",0,0,0,0,0
35,0.0,Miller Bolaños ,0,ATA,"14,00",0,0,Grêmio,2,"0,00",0,0,0,0,"0,00",0,0,0,0,0,0,0,"0,00",0,0,0,0,0
35,0.0,Santarém ,0,ATA,"1,00",0,0,Avaí,2,"0,00",0,0,0,0,"0,00",0,0,0,0,0,0,0,"0,00",0,0,0,0,0
36,0.6982953023106488,Abel Braga ,0,TEC,"12,21",34,0,Fluminense,3,"5,45",0,0,0,0,"0,73",0,0,0,0,0,0,0,"3,16",0,0,0,0,0
36,0.6982953023106488,Diego ,0,GOL,"1,00",0,0,Botafogo,2,"0,00",0,0,0,0,"0,00",0,0,0,0,0,0,0,"0,00",0,0,0,0,0
36,0.6982953023106488,Neto ,0,ZAG,"5,00",0,0,Chapecoense,5,"0,00",0,0,0,0,"0,00",0,0,0,0,0,0,0,"0,00",0,0,0,0,0
36,0.6982953023106488,Pablo ,15,ZAG,"11,14",24,26,Corinthians,3,"2,90",0,0,0,0,"0,03",0,0,25,0,0,13,13,"4,49",0,2,0,16,3
36,0.6982953023106488,Raul Prata ,5,LAT,"5,71",13,52,Sport,3,"6,50",0,0,1,0,"0,86",0,0,30,0,1,8,4,"4,80",0,0,3,13,0
36,0.6982953023106488,Victor Luis ,8,LAT,"12,54",30,64,Botafogo,3,"4,50",1,0,0,1,"0,57",0,0,51,0,0,29,11,"4,30",0,5,0,27,2
36,0.6982953023106488,Willian Arão ,6,MEI,"10,37",28,65,Flamengo,3,"7,60",2,0,0,1,"0,90",0,0,61,1,3,20,0,"3,91",0,2,0,29,4
36,0.6982953023106488,Maicosuel ,0,MEI,"6,86",1,0,Atlético-MG,3,"1,70",0,0,0,0,"-1,14",0,0,1,0,0,0,0,"1,70",0,0,0,0,0
36,0.6982953023106488,Yago ,5,MEI,"2,27",23,49,Atlético-MG,2,"2,70",0,0,4,1,"0,05",0,0,22,0,0,10,0,"1,11",0,0,5,21,0
36,0.6982953023106488,Lucca ,32,ATA,"19,54",33,88,Ponte Preta,3,"1,40",11,0,0,11,"0,16",2,0,27,0,2,99,0,"5,33",0,5,0,40,29
36,0.6982953023106488,David ,22,ATA,"6,94",34,92,Vitória,3,"9,20",16,0,0,6,"0,31",0,0,29,3,6,18,0,"3,11",0,5,0,44,11
36,0.6982953023106488,Felipe Vizeu ,8,ATA,"5,13",16,13,Flamengo,3,"9,30",4,0,0,2,"1,61",0,0,7,1,1,12,0,"2,41",0,0,7,21,0
37,3.6637977207977213,Claudinei Oliveira ,0,TEC,"8,65",37,0,Avaí,3,"5,48",0,0,0,0,"0,21",0,0,0,0,0,0,0,"3,32",0,0,0,0,0
37,3.6637977207977213,João Paulo ,0,GOL,"2,97",1,1,Santos,2,"0,00",0,0,0,0,"0,00",0,2,0,0,0,0,1,"10,70",0,0,0,0,0
37,3.6637977207977213,Maicon ,1,ZAG,"10,54",1,5,São Paulo,3,"0,90",0,0,0,0,"-3,46",0,0,1,0,0,0,0,"0,90",0,0,0,0,0
37,3.6637977207977213,Joel Carli ,5,ZAG,"8,64",27,56,Botafogo,3,"2,10",1,0,11,1,"-0,63",0,0,29,0,2,17,7,"2,09",0,0,2,41,0
37,3.6637977207977213,Bryan ,3,LAT,"3,17",8,28,Cruzeiro,3,"-3,40",0,0,0,0,"-2,52",0,0,6,2,1,11,1,"2,37",0,2,0,9,1
37,3.6637977207977213,Yago Pikachu ,7,LAT,"10,08",26,45,Vasco,3,"6,50",4,0,2,2,"0,95",0,0,18,0,2,34,8,"3,72",0,0,9,23,0
37,3.6637977207977213,Cuéllar ,2,MEI,"7,66",24,37,Flamengo,3,"11,80",0,0,0,0,"0,94",0,0,80,0,0,17,0,"4,92",0,4,0,23,3
37,3.6637977207977213,Diego Souza ,18,MEI,"16,20",25,94,Sport,3,"7,10",2,1,9,11,"1,13",2,0,9,3,3,58,0,"4,42",0,0,18,37,0
37,3.6637977207977213,Cristian ,0,MEI,"4,00",0,0,Corinthians,2,"0,00",0,0,0,0,"0,00",0,0,0,0,0,0,0,"0,00",0,0,0,0,0
37,3.6637977207977213,Lucas Silva ,0,ATA,"2,00",0,0,Flamengo,2,"0,00",0,0,0,0,"0,00",0,0,0,0,0,0,0,"0,00",0,0,0,0,0
37,3.6637977207977213,Miller Bolaños ,0,ATA,"14,00",0,0,Grêmio,2,"0,00",0,0,0,0,"0,00",0,0,0,0,0,0,0,"0,00",0,0,0,0,0
37,3.6637977207977213,Iury ,0,ATA,"2,00",0,0,Avaí,2,"0,00",0,0,0,0,"0,00",0,0,0,0,0,0,0,"0,00",0,0,0,0,0
