round,fitness,name,position,team,situation,price,meatches,average,last_score,difference,disarms,goals,assists,no_goals,fouls_suffered,strikes_out,strikes_defended,strikes_post,difficult_defense,penalty_defense,own_goal,red_card,yellow_card,goal_suffered,penalty_lost,fouls_commited,offsides,wrong_pass
0,8.8,Mano Menezes ,0,TEC,"12,31",1,0,Cruzeiro,3,"5,40",0,0,0,0,"0,31",0,0,0,0,0,0,0,"5,40",0,0,0,0,0
0,8.8,Uilson ,0,GOL,"4,00",0,0,Atlético-MG,2,"0,00",0,0,0,0,"0,00",0,0,0,0,0,0,0,"0,00",0,0,0,0,0
0,8.8,Manoel ,0,ZAG,"10,00",0,0,Cruzeiro,2,"0,00",0,0,0,0,"0,00",0,0,0,0,0,0,0,"0,00",0,0,0,0,0
0,8.8,Victor Ramos ,0,ZAG,"5,09",1,0,Chapecoense,3,"1,20",0,0,0,0,"-0,91",0,0,1,0,0,0,0,"1,20",0,0,0,1,0
0,8.8,Jonathan ,0,LAT,"8,13",1,3,Atlético-PR,3,"2,50",0,0,0,0,"-0,87",0,0,2,0,0,0,0,"2,50",0,0,0,0,0
0,8.8,Eduardo ,0,LAT,"3,54",1,4,Bahia,3,"0,00",0,0,0,0,"-1,46",0,0,1,0,0,1,0,"0,00",0,0,0,2,0
0,8.8,Mateus Pet ,0,MEI,"5,02",1,1,Vasco,3,"5,10",0,0,0,0,"3,02",0,0,2,0,0,1,0,"5,10",0,0,2,1,0
0,8.8,Alisson ,0,MEI,"10,82",1,6,Cruzeiro,3,"7,30",0,0,0,0,"2,82",0,0,3,0,1,0,0,"7,30",0,0,1,4,0
0,8.8,Daniel ,0,MEI,"6,00",0,0,Coritiba,2,"0,00",0,0,0,0,"0,00",0,0,0,0,0,0,0,"0,00",0,0,0,0,0
0,8.8,Walter ,1,ATA,"11,67",1,4,Atlético-GO,3,"10,50",0,0,0,1,"5,67",0,0,0,0,0,5,0,"10,50",0,0,1,1,0
0,8.8,Walter ,1,ATA,"11,67",1,4,Atlético-GO,3,"10,50",0,0,0,1,"5,67",0,0,0,0,0,5,0,"10,50",0,0,1,1,0
0,8.8,Fred ,2,ATA,"21,43",1,2,Atlético-MG,3,"6,30",0,0,0,0,"-2,57",0,0,0,0,1,2,0,"6,30",0,0,0,1,0
1,8.8,Mano Menezes ,0,TEC,"12,31",1,0,Cruzeiro,3,"5,40",0,0,0,0,"0,31",0,0,0,0,0,0,0,"5,40",0,0,0,0,0
1,8.8,Uilson ,0,GOL,"4,00",0,0,Atlético-MG,2,"0,00",0,0,0,0,"0,00",0,0,0,0,0,0,0,"0,00",0,0,0,0,0
1,8.8,Manoel ,0,ZAG,"10,00",0,0,Cruzeiro,2,"0,00",0,0,0,0,"0,00",0,0,0,0,0,0,0,"0,00",0,0,0,0,0
1,8.8,Victor Ramos ,0,ZAG,"5,09",1,0,Chapecoense,3,"1,20",0,0,0,0,"-0,91",0,0,1,0,0,0,0,"1,20",0,0,0,1,0
1,8.8,Jonathan ,0,LAT,"8,13",1,3,Atlético-PR,3,"2,50",0,0,0,0,"-0,87",0,0,2,0,0,0,0,"2,50",0,0,0,0,0
1,8.8,Eduardo ,0,LAT,"3,54",1,4,Bahia,3,"0,00",0,0,0,0,"-1,46",0,0,1,0,0,1,0,"0,00",0,0,0,2,0
1,8.8,Mateus Pet ,0,MEI,"5,02",1,1,Vasco,3,"5,10",0,0,0,0,"3,02",0,0,2,0,0,1,0,"5,10",0,0,0,1,2
1,8.8,Alisson ,0,MEI,"10,82",1,6,Cruzeiro,3,"7,30",0,0,0,0,"2,82",0,0,3,0,1,0,0,"7,30",0,0,0,4,1
1,8.8,Daniel ,0,MEI,"6,00",0,0,Coritiba,2,"0,00",0,0,0,0,"0,00",0,0,0,0,0,0,0,"0,00",0,0,0,0,0
1,8.8,Walter ,1,ATA,"11,67",1,4,Atlético-GO,3,"10,50",0,0,0,1,"5,67",0,0,0,0,0,5,0,"10,50",0,0,0,1,1
1,8.8,Walter ,1,ATA,"11,67",1,4,Atlético-GO,3,"10,50",0,0,0,1,"5,67",0,0,0,0,0,5,0,"10,50",0,0,0,1,1
1,8.8,Fred ,2,ATA,"21,43",1,2,Atlético-MG,3,"6,30",0,0,0,0,"-2,57",0,0,0,0,1,2,0,"6,30",0,0,0,1,0
2,48.28999999999999,Vagner Mancini ,0,TEC,"7,14",2,0,Chapecoense,3,"3,98",0,0,0,0,"0,63",0,0,0,0,0,0,0,"3,09",0,0,0,0,0
2,48.28999999999999,Júlio César ,0,GOL,"7,00",0,0,Fluminense,2,"0,00",0,0,0,0,"0,00",0,0,0,0,0,0,0,"0,00",0,0,0,0,0
2,48.28999999999999,Paulo André ,0,ZAG,"6,00",0,0,Atlético-PR,2,"0,00",0,0,0,0,"0,00",0,0,0,0,0,0,0,"0,00",0,0,0,0,0
2,48.28999999999999,Murilo ,0,ZAG,"1,00",0,0,Cruzeiro,2,"0,00",0,0,0,0,"0,00",0,0,0,0,0,0,0,"0,00",0,0,0,0,0
2,48.28999999999999,Júnior Tavares ,1,LAT,"10,47",2,8,São Paulo,3,"3,40",0,0,0,0,"0,57",0,0,3,0,0,2,1,"4,70",0,0,1,2,0
2,48.28999999999999,Jean ,1,LAT,"19,24",1,4,Palmeiras,3,"0,00",1,0,0,1,"0,00",0,0,1,0,0,0,1,"15,20",0,0,2,1,0
2,48.28999999999999,Diguinho ,0,MEI,"3,00",0,0,Vasco,2,"0,00",0,0,0,0,"0,00",0,0,0,0,0,0,0,"0,00",0,0,0,0,0
2,48.28999999999999,Willians ,0,MEI,"4,00",0,0,Cruzeiro,2,"0,00",0,0,0,0,"0,00",0,0,0,0,0,0,0,"0,00",0,0,0,0,0
2,48.28999999999999,Lucas de Sá ,0,MEI,"1,00",0,0,Avaí,2,"0,00",0,0,0,0,"0,00",0,0,0,0,0,0,0,"0,00",0,0,0,0,0
2,48.28999999999999,Luan ,3,ATA,"19,24",2,9,Grêmio,3,"11,20",0,0,0,1,"1,34",0,0,3,0,0,4,0,"7,75",0,0,2,2,0
2,48.28999999999999,Borja ,2,ATA,"22,71",1,1,Palmeiras,3,"0,00",2,0,0,2,"0,00",0,0,0,0,0,2,0,"16,10",0,0,0,2,0
2,48.28999999999999,Henrique Dourado ,1,ATA,"21,82",2,6,Fluminense,3,"11,00",1,0,0,3,"4,91",0,0,0,0,1,2,0,"13,45",0,0,1,5,0
3,29.94,Vagner Mancini ,0,TEC,"8,42",3,0,Chapecoense,3,"6,09",0,0,0,0,"1,28",0,0,0,0,0,0,0,"4,09",0,0,0,0,0
3,29.94,Wilson ,0,GOL,"9,84",3,2,Coritiba,3,"5,70",0,0,0,0,"1,13",0,3,0,0,0,2,1,"3,47",2,0,0,0,0
3,29.94,Léo ,0,ZAG,"9,28",3,7,Cruzeiro,3,"0,80",0,0,0,0,"-0,60",0,0,3,0,0,2,2,"2,83",0,2,0,3,0
3,29.94,Yerry Mina ,0,ZAG,"15,27",2,5,Palmeiras,3,"2,90",1,0,0,0,"-2,13",0,0,5,0,0,0,1,"4,75",0,1,0,2,1
3,29.94,Eduardo ,0,LAT,"3,64",3,11,Bahia,3,"-1,50",0,0,0,0,"-1,22",0,0,5,0,0,2,0,"1,23",0,0,0,5,0
3,29.94,Wallace Oliveira ,0,LAT,"5,00",0,0,Grêmio,2,"0,00",0,0,0,0,"0,00",0,0,0,0,0,0,0,"0,00",0,0,0,0,0
3,29.94,Matheus Anjos ,0,MEI,"2,00",0,0,Atlético-PR,2,"0,00",0,0,0,0,"0,00",0,0,0,0,0,0,0,"0,00",0,0,0,0,0
3,29.94,Élber ,0,MEI,"5,00",0,0,Cruzeiro,2,"0,00",0,0,0,0,"0,00",0,0,0,0,0,0,0,"0,00",0,0,0,0,0
3,29.94,Thiago Maia ,1,MEI,"6,27",3,9,Santos,3,"1,10",0,0,0,0,"-0,17",0,0,8,0,0,4,0,"2,03",0,1,0,11,0
3,29.94,Henrique Dourado ,2,ATA,"26,12",3,8,Fluminense,3,"18,30",1,0,0,5,"4,30",0,0,1,0,1,4,0,"15,07",0,0,0,6,1
3,29.94,Mendoza ,0,ATA,"2,00",0,0,Corinthians,2,"0,00",0,0,0,0,"0,00",0,0,0,0,0,0,0,"0,00",0,0,0,0,0
3,29.94,Vladimir Hernández ,1,ATA,"10,58",3,5,Santos,3,"0,40",1,0,0,1,"-0,68",0,0,1,0,0,9,0,"3,47",0,1,0,3,1
4,29.94,Vagner Mancini ,0,TEC,"9,11",4,0,Chapecoense,3,"5,28",0,0,0,0,"0,69",0,0,0,0,0,0,0,"4,39",0,0,0,0,0
4,29.94,Wilson ,0,GOL,"11,09",4,4,Coritiba,3,"7,40",0,0,0,0,"1,25",0,4,0,0,0,2,2,"4,45",2,0,0,0,0
4,29.94,Léo ,0,ZAG,"8,86",4,11,Cruzeiro,3,"0,30",0,0,2,0,"-0,42",0,0,3,0,0,4,2,"2,20",0,0,1,4,0
4,29.94,Yerry Mina ,2,ZAG,"17,41",3,5,Palmeiras,2,"10,50",1,0,1,0,"2,14",0,0,8,0,0,2,2,"6,67",0,0,1,6,0
4,29.94,Eduardo ,0,LAT,"4,43",4,18,Bahia,3,"2,60",2,0,0,0,"0,79",0,0,6,0,0,3,1,"1,57",0,0,0,8,0
4,29.94,Wallace Oliveira ,0,LAT,"5,00",0,0,Grêmio,2,"0,00",0,0,0,0,"0,00",0,0,0,0,0,0,0,"0,00",0,0,0,0,0
4,29.94,Matheus Anjos ,0,MEI,"2,00",0,0,Atlético-PR,2,"0,00",0,0,0,0,"0,00",0,0,0,0,0,0,0,"0,00",0,0,0,0,0
4,29.94,Élber ,0,MEI,"5,00",0,0,Cruzeiro,2,"0,00",0,0,0,0,"0,00",0,0,0,0,0,0,0,"0,00",0,0,0,0,0
4,29.94,Thiago Maia ,1,MEI,"6,55",4,13,Santos,3,"2,20",0,0,1,0,"0,28",0,0,10,0,0,5,0,"2,07",0,0,0,12,0
4,29.94,Henrique Dourado ,2,ATA,"26,23",4,13,Fluminense,2,"9,20",1,0,0,6,"0,11",0,0,2,0,1,6,0,"13,60",0,0,2,8,0
4,29.94,Mendoza ,0,ATA,"2,00",0,0,Corinthians,2,"0,00",0,0,0,0,"0,00",0,0,0,0,0,0,0,"0,00",0,0,0,0,0
4,29.94,Vladimir Hernández ,1,ATA,"10,59",4,5,Santos,3,"1,70",1,0,1,1,"0,01",0,0,2,0,0,10,0,"3,03",0,0,1,4,0
5,31.84833333333333,Pachequinho ,0,TEC,"9,70",5,0,Coritiba,3,"5,17",0,0,0,0,"0,31",0,0,0,0,0,0,0,"4,72",0,0,0,0,0
5,31.84833333333333,Rafael ,0,GOL,"10,00",0,0,Cruzeiro,2,"0,00",0,0,0,0,"0,00",0,0,0,0,0,0,0,"0,00",0,0,0,0,0
5,31.84833333333333,Douglas ,0,ZAG,"4,00",0,0,São Paulo,2,"0,00",0,0,0,0,"0,00",0,0,0,0,0,0,0,"0,00",0,0,0,0,0
5,31.84833333333333,Airton  ,0,ZAG,"1,00",0,0,Avaí,2,"0,00",0,0,0,0,"0,00",0,0,0,0,0,0,0,"0,00",0,0,0,0,0
5,31.84833333333333,Guilherme Arana ,0,LAT,"8,03",5,18,Corinthians,3,"4,60",2,0,0,0,"0,56",0,0,2,0,2,6,3,"4,50",0,0,0,5,0
5,31.84833333333333,Reinaldo ,2,LAT,"14,57",5,30,Chapecoense,3,"9,00",0,0,0,2,"0,90",0,0,10,0,0,4,3,"7,88",0,0,0,6,0
5,31.84833333333333,Gabriel Xavier ,0,MEI,"4,94",2,3,Vitória,3,"1,60",0,0,0,0,"-0,44",0,0,3,0,0,5,0,"3,35",0,0,0,2,1
5,31.84833333333333,Tomas Bastos ,3,MEI,"14,79",4,13,Coritiba,3,"0,00",0,0,1,2,"0,00",0,0,4,0,0,3,0,"4,88",0,0,3,8,0
5,31.84833333333333,Renê Júnior ,3,MEI,"8,26",3,10,Bahia,3,"3,90",2,0,0,1,"-1,14",0,0,9,0,0,7,0,"7,13",0,1,0,5,1
5,31.84833333333333,Luan ,4,ATA,"25,71",4,16,Grêmio,3,"29,90",1,0,0,3,"6,05",0,0,5,0,4,12,0,"13,75",0,0,2,6,0
5,31.84833333333333,Lucas Pratto ,7,ATA,"19,00",5,19,São Paulo,3,"17,70",1,0,0,3,"3,91",0,0,2,0,2,3,0,"8,32",0,0,0,6,7
5,31.84833333333333,Jô ,1,ATA,"14,12",5,12,Corinthians,3,"12,30",6,0,0,4,"1,34",0,0,0,0,2,6,0,"7,32",0,0,2,9,0
6,36.06333333333333,Guto Ferreira ,0,TEC,"8,76",1,0,Bahia,3,"8,39",0,0,0,0,"4,76",0,0,0,0,0,0,0,"8,39",0,0,0,0,0
6,36.06333333333333,Fábio ,0,GOL,"12,76",6,3,Cruzeiro,3,"4,40",0,0,0,0,"0,17",0,7,0,0,0,0,3,"4,43",4,0,0,1,0
6,36.06333333333333,Gabriel ,0,ZAG,"9,99",5,9,Atlético-MG,5,"0,00",0,0,0,1,"0,00",0,0,6,0,0,3,2,"5,00",0,0,0,4,0
6,36.06333333333333,Betão ,1,ZAG,"6,13",6,17,Avaí,3,"0,90",0,0,0,0,"-0,20",0,0,5,0,0,8,2,"2,02",0,2,0,4,0
6,36.06333333333333,Guilherme Arana ,0,LAT,"6,98",6,20,Corinthians,3,"-0,90",2,0,1,0,"-1,05",0,0,3,0,2,8,3,"3,60",0,0,0,7,0
6,36.06333333333333,Reinaldo ,2,LAT,"11,92",6,34,Chapecoense,3,"-4,20",0,0,1,2,"-2,65",0,0,10,0,0,4,3,"5,87",0,0,0,8,0
6,36.06333333333333,Gabriel Xavier ,0,MEI,"4,02",3,5,Vitória,3,"-2,10",0,0,0,0,"-0,92",0,0,3,0,0,5,0,"1,53",0,0,1,5,0
6,36.06333333333333,Tomas Bastos ,3,MEI,"14,79",4,13,Coritiba,2,"0,00",0,0,0,2,"0,00",0,0,4,0,0,3,0,"4,88",0,1,0,8,3
6,36.06333333333333,Renê Júnior ,3,MEI,"9,17",4,11,Bahia,3,"6,50",2,0,1,1,"0,91",0,0,13,0,0,7,0,"6,97",0,0,1,5,0
6,36.06333333333333,Luan ,7,ATA,"23,41",5,17,Grêmio,3,"8,90",1,0,0,3,"-2,30",0,0,8,0,4,14,0,"12,78",0,0,0,8,4
6,36.06333333333333,Lucas Pratto ,8,ATA,"16,71",6,20,São Paulo,3,"2,10",1,0,0,3,"-2,29",0,0,3,0,2,3,0,"7,28",0,0,8,8,0
6,36.06333333333333,Everaldo ,3,ATA,"8,28",6,12,Atlético-GO,3,"0,60",1,0,0,2,"-2,51",0,0,1,0,1,8,0,"4,70",0,0,7,7,0
7,18.185,Zé Ricardo ,0,TEC,"11,63",7,0,Flamengo,3,"8,48",0,0,0,0,"1,32",0,0,0,0,0,0,0,"4,14",0,0,0,0,0
7,18.185,Marcelo Grohe ,0,GOL,"9,18",6,1,Grêmio,3,"5,00",0,1,0,0,"0,22",0,0,0,0,0,0,5,"1,95",3,1,0,0,0
7,18.185,Tiago  ,0,ZAG,"10,93",7,16,Bahia,3,"7,20",3,0,1,1,"1,55",0,0,7,0,0,5,3,"3,37",0,0,1,13,0
7,18.185,Lucão ,2,ZAG,"5,57",5,12,São Paulo,3,"4,40",0,0,0,0,"1,05",0,0,4,0,0,2,3,"3,72",0,0,0,6,1
7,18.185,William Matheus ,1,LAT,"7,93",6,20,Coritiba,3,"0,00",1,0,3,0,"0,00",0,0,8,0,0,14,3,"3,80",0,0,4,10,0
7,18.185,Dodô ,2,LAT,"10,28",7,26,Coritiba,3,"5,50",0,0,0,0,"1,05",0,0,11,0,0,6,4,"4,26",0,1,0,11,2
7,18.185,Arrascaeta ,3,MEI,"9,34",3,13,Cruzeiro,5,"0,00",0,0,0,0,"0,00",0,0,5,0,0,8,0,"3,90",0,0,0,4,3
7,18.185,Everton Felipe ,0,MEI,"3,39",4,26,Sport,2,"-1,60",0,0,0,0,"-0,86",0,0,3,0,0,3,0,"0,33",0,0,0,5,5
7,18.185,Arthur ,0,MEI,"9,26",6,10,Grêmio,3,"8,90",0,0,0,0,"1,07",0,0,20,0,0,7,0,"5,17",0,1,0,5,1
7,18.185,Roger ,5,ATA,"7,54",6,17,Botafogo,3,"2,50",8,0,0,1,"-0,94",0,0,6,0,1,7,0,"3,68",0,0,0,6,4
7,18.185,Robinho ,2,ATA,"14,39",6,25,Atlético-MG,3,"1,60",4,0,0,1,"-0,29",0,0,10,0,0,10,0,"3,15",0,1,0,4,1
7,18.185,Rodrigo Pimpão ,2,ATA,"6,21",7,35,Botafogo,3,"4,50",1,0,0,0,"0,90",0,0,7,0,2,13,0,"1,47",0,1,0,13,0
8,23.509642857142854,Mano Menezes ,0,TEC,"12,59",8,0,Cruzeiro,3,"6,85",0,0,0,0,"1,02",0,0,0,0,0,0,0,"3,82",0,0,0,0,0
8,23.509642857142854,Vanderlei ,0,GOL,"19,76",8,3,Santos,3,"11,00",0,0,0,0,"-1,39",0,20,0,0,0,0,5,"9,89",6,0,1,0,0
8,23.509642857142854,Marcus Winícius ,0,ZAG,"3,00",0,0,Atlético-GO,2,"0,00",0,0,0,0,"0,00",0,0,0,0,0,0,0,"0,00",0,0,0,0,0
8,23.509642857142854,Marllon ,1,ZAG,"10,99",8,13,Ponte Preta,3,"5,70",0,0,2,0,"0,12",0,0,11,1,0,8,3,"4,00",0,0,0,4,0
8,23.509642857142854,Bruno Cortez ,0,LAT,"10,47",7,16,Grêmio,3,"2,00",0,0,2,1,"-1,25",0,0,10,0,0,7,5,"5,75",0,0,0,9,0
8,23.509642857142854,Apodi ,2,LAT,"7,22",8,17,Chapecoense,3,"3,30",2,0,2,0,"0,10",0,0,8,0,0,9,3,"2,36",0,0,2,15,0
8,23.509642857142854,Diego ,4,MEI,"19,87",5,23,Flamengo,3,"8,90",1,0,0,1,"0,57",0,0,6,0,1,15,0,"4,92",0,0,0,5,1
8,23.509642857142854,Jean Lucas ,0,MEI,"2,00",0,0,Flamengo,2,"0,00",0,0,0,0,"0,00",0,0,0,0,0,0,0,"0,00",0,0,0,0,0
8,23.509642857142854,Alan Santos ,1,MEI,"5,50",7,21,Coritiba,3,"3,30",1,0,0,0,"-0,06",0,0,15,0,0,2,0,"2,27",0,1,0,9,2
8,23.509642857142854,Rodrigo Pimpão ,2,ATA,"7,48",8,38,Botafogo,3,"8,80",1,0,0,1,"1,27",0,0,8,0,2,14,0,"2,39",0,1,0,14,0
8,23.509642857142854,Bruno Henrique ,2,ATA,"11,54",7,29,Santos,3,"-0,60",4,1,2,0,"-1,39",0,0,10,1,3,17,0,"3,24",0,0,6,18,0
8,23.509642857142854,Daniel dos Anjos ,0,ATA,"3,00",0,0,Atlético-GO,2,"0,00",0,0,0,0,"0,00",0,0,0,0,0,0,0,"0,00",0,0,0,0,0
9,36.49440476190475,Claudinei Oliveira ,0,TEC,"5,63",9,0,Avaí,3,"0,24",0,0,0,0,"-0,37",0,0,0,0,0,0,0,"2,12",0,0,0,0,0
9,36.49440476190475,Jean ,0,GOL,"9,03",9,9,Bahia,3,"-6,60",0,0,0,0,"-0,99",0,15,0,0,0,1,3,"3,53",13,0,0,0,0
9,36.49440476190475,Wanderson ,0,ZAG,"7,49",3,1,Atlético-PR,3,"15,20",0,0,0,1,"2,55",0,0,2,0,0,2,3,"9,20",0,0,0,1,1
9,36.49440476190475,Fred ,5,ZAG,"4,67",8,25,Vitória,3,"4,70",0,0,2,0,"0,64",0,0,11,0,0,2,1,"1,96",0,0,3,8,0
9,36.49440476190475,Henrique ,1,LAT,"7,72",9,23,Vasco,3,"1,80",0,0,0,0,"-1,03",0,0,14,0,1,17,1,"3,45",0,1,0,10,2
9,36.49440476190475,Dodô ,3,LAT,"9,64",9,39,Coritiba,3,"1,20",0,0,0,0,"-0,29",0,0,14,0,0,7,5,"3,75",0,2,0,14,2
9,36.49440476190475,Fellipe Bastos ,1,MEI,"4,25",1,1,Corinthians,2,"0,00",0,0,0,0,"0,00",0,0,0,0,0,0,0,"1,40",0,0,1,0,0
9,36.49440476190475,Elias ,1,MEI,"11,85",8,24,Atlético-MG,3,"-1,20",2,0,0,1,"-0,54",0,0,9,0,0,7,0,"1,85",0,1,0,9,2
9,36.49440476190475,Diego Souza ,1,MEI,"17,13",4,24,Sport,3,"7,70",0,0,1,3,"0,38",0,0,2,0,0,13,0,"5,60",0,0,2,10,0
9,36.49440476190475,Everaldo ,8,ATA,"9,50",9,23,Atlético-GO,3,"-1,10",2,0,0,4,"-0,41",1,0,2,1,1,14,0,"5,34",0,0,0,12,9
9,36.49440476190475,Luis Fabiano ,11,ATA,"15,16",7,8,Vasco,3,"6,80",5,0,0,5,"0,98",0,0,2,0,2,11,0,"8,03",0,2,0,11,4
9,36.49440476190475,Rodrigo Pimpão ,3,ATA,"6,40",9,46,Botafogo,3,"1,20",1,0,0,1,"-1,08",0,0,10,0,2,16,0,"2,26",0,1,0,17,0
10,19.230396825396827,Milton Mendes ,0,TEC,"9,30",10,0,Vasco,3,"0,00",0,0,0,0,"0,69",0,0,0,0,0,0,0,"3,80",0,0,0,0,0
10,19.230396825396827,Cássio ,0,GOL,"13,59",10,0,Corinthians,3,"0,00",0,0,0,0,"2,26",0,0,0,0,0,0,0,"5,90",0,0,0,0,0
10,19.230396825396827,Renan Fonseca ,0,ZAG,"3,00",0,0,Botafogo,2,"0,00",0,0,0,0,"0,00",0,0,0,0,0,0,0,"0,00",0,0,0,0,0
10,19.230396825396827,Pedro Geromel ,0,ZAG,"13,78",8,0,Grêmio,2,"0,00",0,0,0,0,"-0,09",0,0,0,0,0,0,0,"7,78",0,0,0,0,0
10,19.230396825396827,Diego Renan ,0,LAT,"5,12",2,0,Chapecoense,3,"0,00",0,0,0,0,"0,00",0,0,0,0,0,0,0,"0,20",0,0,0,0,0
10,19.230396825396827,Guilherme Arana ,0,LAT,"9,46",10,0,Corinthians,3,"0,00",0,0,0,0,"0,52",0,0,0,0,0,0,0,"4,57",0,0,0,0,0
10,19.230396825396827,Renato Cajá ,0,MEI,"7,45",6,0,Ponte Preta,4,"0,00",0,0,0,0,"0,20",0,0,0,0,0,0,0,"2,17",0,0,0,0,0
10,19.230396825396827,Juninho ,0,MEI,"10,35",9,0,Bahia,3,"0,00",0,0,0,0,"-0,60",0,0,0,0,0,0,0,"2,51",0,0,0,0,0
10,19.230396825396827,Elias ,0,MEI,"11,85",8,0,Atlético-MG,3,"0,00",0,0,0,0,"0,00",0,0,0,0,0,0,0,"1,85",0,0,0,0,0
10,19.230396825396827,Osvaldo ,0,ATA,"6,47",10,0,Sport,3,"0,00",0,0,0,0,"0,43",0,0,0,0,0,0,0,"3,51",0,0,0,0,0
10,19.230396825396827,André ,0,ATA,"8,92",9,0,Sport,3,"0,00",0,0,0,0,"-0,42",0,0,0,0,0,0,0,"4,34",0,0,0,0,0
10,19.230396825396827,Pedro Rocha ,0,ATA,"9,36",9,0,Grêmio,2,"0,00",0,0,0,0,"-1,09",0,0,0,0,0,0,0,"4,09",0,0,0,0,0
11,29.894329004329013,Renato Gaúcho ,0,TEC,"15,09",11,0,Grêmio,3,"-0,53",0,0,0,0,"-0,78",0,0,0,0,0,0,0,"5,20",0,0,0,0,0
11,29.894329004329013,Felipe Garcia ,0,GOL,"7,74",10,6,Atlético-GO,3,"-2,00",0,0,1,0,"-0,71",0,22,0,0,0,1,1,"3,98",14,0,0,0,0
11,29.894329004329013,Joel Carli ,1,ZAG,"9,19",7,24,Botafogo,3,"0,00",1,0,0,1,"0,00",0,0,8,0,0,2,3,"2,73",0,3,0,11,0
11,29.894329004329013,Rodrigo Becão ,1,ZAG,"3,42",5,8,Bahia,3,"0,00",0,0,0,0,"0,00",0,0,5,0,0,4,1,"2,16",0,1,0,4,1
11,29.894329004329013,Gilberto  ,3,LAT,"11,18",11,53,Vasco,3,"1,70",1,0,0,0,"-1,24",0,0,31,1,1,15,2,"4,85",0,2,0,16,1
11,29.894329004329013,Júnior Tavares ,4,LAT,"13,18",11,42,São Paulo,3,"6,10",0,0,0,0,"0,87",0,0,14,0,3,23,4,"4,82",0,1,0,13,1
11,29.894329004329013,Robinho ,7,MEI,"8,73",6,39,Cruzeiro,3,"1,50",1,0,0,1,"0,04",0,0,8,0,0,4,0,"2,13",0,2,0,5,3
11,29.894329004329013,Wendel ,2,MEI,"12,82",9,21,Fluminense,3,"4,80",1,0,0,2,"-0,68",0,0,12,1,1,25,0,"5,83",0,0,0,11,6
11,29.894329004329013,Matheus Galdezani ,5,MEI,"7,66",10,46,Coritiba,3,"1,80",0,0,0,1,"-0,74",0,0,22,0,0,21,0,"3,66",0,3,0,22,8
11,29.894329004329013,Toshi ,0,ATA,"3,00",0,0,Avaí,2,"0,00",0,0,0,0,"0,00",0,0,0,0,0,0,0,"0,00",0,0,0,0,0
11,29.894329004329013,Lucca ,9,ATA,"21,97",11,29,Ponte Preta,3,"8,40",4,0,0,7,"-0,17",0,0,12,0,1,37,0,"8,64",0,1,0,13,8
11,29.894329004329013,Willians ,0,ATA,"5,00",0,0,Atlético-GO,2,"0,00",0,0,0,0,"0,00",0,0,0,0,0,0,0,"0,00",0,0,0,0,0
12,29.64113636363636,Milton Mendes ,0,TEC,"8,48",12,0,Vasco,3,"0,05",0,0,0,0,"-0,45",0,0,0,0,0,0,0,"3,39",0,0,0,0,0
12,29.64113636363636,Vanderlei ,0,GOL,"19,46",12,3,Santos,3,"1,70",0,0,0,0,"-1,37",0,26,0,0,0,1,6,"8,90",8,0,2,1,0
12,29.64113636363636,Tiago  ,0,ZAG,"9,60",12,28,Bahia,3,"0,70",5,0,0,1,"-0,32",0,0,10,0,0,11,4,"2,43",0,2,0,16,1
12,29.64113636363636,Roger Carvalho ,4,ZAG,"9,09",12,23,Atlético-GO,3,"10,50",0,0,0,0,"1,84",0,0,15,0,0,21,1,"3,20",0,0,0,18,0
12,29.64113636363636,William Matheus ,1,LAT,"6,11",11,35,Coritiba,3,"-5,90",1,0,3,0,"-0,96",0,0,10,0,0,20,4,"2,02",0,0,4,13,0
12,29.64113636363636,Henrique ,1,LAT,"8,17",12,29,Vasco,3,"1,00",1,0,1,0,"-0,57",0,0,17,0,2,17,2,"3,61",0,0,2,13,0
12,29.64113636363636,Luiz Fernando  ,2,MEI,"2,59",10,19,Atlético-GO,3,"-0,30",4,0,1,1,"-0,54",0,0,4,0,0,9,0,"1,02",0,0,4,9,0
12,29.64113636363636,Lucas Mineiro ,1,MEI,"2,35",4,2,Chapecoense,3,"1,60",0,0,0,0,"0,47",0,0,1,0,0,3,0,"-0,28",0,1,0,8,0
12,29.64113636363636,Andrei Girotto ,8,MEI,"5,21",11,19,Chapecoense,3,"-0,40",1,0,0,1,"-2,17",0,0,15,0,2,12,0,"2,86",0,4,0,24,3
12,29.64113636363636,Luis Henrique ,0,ATA,"4,00",0,0,Atlético-PR,2,"0,00",0,0,0,0,"0,00",0,0,0,0,0,0,0,"0,00",0,0,0,0,0
12,29.64113636363636,Marcos Calazans ,2,ATA,"7,78",7,17,Fluminense,3,"8,60",2,0,0,0,"1,08",0,0,20,0,2,10,0,"6,63",0,1,0,13,2
12,29.64113636363636,Rogério ,3,ATA,"7,17",8,18,Sport,3,"7,20",0,0,0,0,"1,24",0,0,2,0,0,10,0,"1,92",0,0,0,2,4
13,9.86789321789322,Zé Ricardo ,0,TEC,"11,71",13,0,Flamengo,3,"2,00",0,0,0,0,"-0,58",0,0,0,0,0,0,0,"4,40",0,0,0,0,0
13,9.86789321789322,Mauricio Kozlinski ,0,GOL,"8,10",9,4,Avaí,2,"0,00",0,0,0,0,"0,00",0,15,0,0,0,0,2,"3,10",13,0,0,0,0
13,9.86789321789322,Roger Carvalho ,5,ZAG,"7,43",13,26,Atlético-GO,3,"-0,10",0,0,0,0,"-1,66",0,0,16,1,1,23,1,"2,95",0,0,0,19,0
13,9.86789321789322,Marcio ,3,ZAG,"6,50",12,21,Coritiba,3,"-2,80",1,0,0,1,"-1,13",0,0,10,0,1,6,5,"3,50",0,2,0,13,2
13,9.86789321789322,Eduardo ,2,LAT,"7,00",13,65,Bahia,3,"5,60",2,0,0,0,"0,84",0,0,22,0,1,10,4,"3,30",0,1,0,18,0
13,9.86789321789322,Geferson ,1,LAT,"10,26",8,13,Vitória,3,"-3,40",2,0,0,0,"-1,78",0,0,20,0,0,5,2,"3,55",0,3,0,11,1
13,9.86789321789322,Rodrigo Lindoso ,2,MEI,"10,37",10,23,Botafogo,3,"4,60",0,0,0,1,"0,32",0,0,17,0,0,8,0,"3,84",0,1,0,5,3
13,9.86789321789322,Fernando Bob ,0,MEI,"9,20",7,21,Ponte Preta,3,"5,40",1,0,2,0,"0,66",0,0,16,0,0,7,0,"2,83",0,0,0,11,0
13,9.86789321789322,Nikão ,4,MEI,"8,92",11,29,Atlético-PR,3,"0,50",1,0,0,1,"-0,51",0,0,7,1,2,21,0,"3,55",0,1,0,12,9
13,9.86789321789322,Emerson Sheik ,4,ATA,"4,82",8,18,Ponte Preta,3,"1,00",0,0,4,0,"-0,04",0,0,4,0,1,26,0,"1,52",0,0,2,10,0
13,9.86789321789322,Lucca ,10,ATA,"21,37",13,32,Ponte Preta,3,"5,70",4,0,0,7,"0,96",1,0,13,0,1,40,0,"7,71",0,1,0,13,8
13,9.86789321789322,Robinho ,4,ATA,"13,65",11,35,Atlético-MG,3,"0,00",7,0,0,1,"-1,38",0,0,15,0,2,12,0,"2,94",0,2,0,8,2
14,16.649835164835164,Jair Ventura ,0,TEC,"11,66",14,0,Botafogo,3,"4,86",0,0,0,0,"-0,01",0,0,0,0,0,0,0,"4,13",0,0,0,0,0
14,16.649835164835164,Cássio ,0,GOL,"12,02",14,6,Corinthians,3,"-1,00",0,0,2,0,"-0,88",0,11,0,0,0,4,10,"5,87",5,0,0,0,2
14,16.649835164835164,Wanderson ,0,ZAG,"5,41",8,12,Atlético-PR,3,"-0,60",1,0,1,2,"0,01",0,0,5,0,0,2,3,"4,22",0,0,3,6,0
14,16.649835164835164,Léo ,2,ZAG,"8,91",13,30,Cruzeiro,3,"1,40",0,0,3,0,"-0,76",0,0,9,0,1,10,5,"2,62",0,0,1,10,0
14,16.649835164835164,Fernandinho ,0,LAT,"5,26",4,9,Ponte Preta,1,"0,00",2,0,1,0,"0,00",0,0,2,1,0,0,2,"2,43",0,0,0,3,0
14,16.649835164835164,Marcos Rocha ,3,LAT,"9,35",4,27,Atlético-MG,3,"0,00",0,0,0,0,"0,00",0,0,8,0,1,5,0,"2,40",0,0,0,11,0
14,16.649835164835164,Luiz Fernando  ,2,MEI,"2,44",12,20,Atlético-GO,2,"-0,60",4,0,1,1,"-0,15",0,0,4,0,0,11,0,"0,80",0,0,4,11,0
14,16.649835164835164,Lucas Mineiro ,2,MEI,"1,98",6,7,Chapecoense,3,"0,00",0,0,0,0,"0,17",0,0,4,0,0,4,0,"-0,40",0,2,0,13,0
14,16.649835164835164,Andrei Girotto ,10,MEI,"4,85",13,21,Chapecoense,3,"-2,40",1,0,0,1,"-1,06",0,0,19,0,2,13,0,"2,50",0,5,0,30,3
14,16.649835164835164,Luis Henrique ,0,ATA,"4,00",0,0,Atlético-PR,2,"0,00",0,0,0,0,"0,00",0,0,0,0,0,0,0,"0,00",0,0,0,0,0
14,16.649835164835164,Marcos Calazans ,3,ATA,"6,85",8,21,Fluminense,3,"0,00",2,0,0,0,"0,00",0,0,28,0,2,13,0,"6,05",0,2,0,17,2
14,16.649835164835164,Henrique Dourado ,8,ATA,"23,53",10,28,Fluminense,3,"0,00",1,0,0,9,"0,00",0,0,3,0,2,21,0,"8,29",0,3,0,23,6
15,24.175367965367972,Renato Gaúcho ,0,TEC,"15,46",15,0,Grêmio,3,"3,21",0,0,0,0,"-0,57",0,0,0,0,0,0,0,"4,83",0,0,0,0,0
15,24.175367965367972,Aranha ,0,GOL,"13,03",15,6,Ponte Preta,3,"14,00",0,0,0,0,"2,43",0,24,0,0,0,2,6,"3,95",21,0,0,0,0
15,24.175367965367972,Balbuena ,3,ZAG,"10,60",12,23,Corinthians,3,"6,40",2,0,0,2,"0,44",0,0,11,0,0,10,9,"6,33",0,1,0,4,1
15,24.175367965367972,Pedro Geromel ,3,ZAG,"13,66",11,26,Grêmio,3,"0,00",0,0,2,0,"0,00",0,0,26,0,1,7,7,"7,05",0,0,3,7,0
15,24.175367965367972,Apodi ,7,LAT,"8,23",14,31,Chapecoense,3,"8,90",2,0,4,0,"0,61",0,0,16,0,0,29,4,"2,56",0,0,2,29,0
15,24.175367965367972,Mayke ,1,LAT,"7,57",11,20,Palmeiras,3,"5,50",3,0,1,1,"-0,63",0,0,18,0,0,6,3,"3,57",0,0,0,17,0
15,24.175367965367972,Fernando Bob ,1,MEI,"8,36",9,32,Ponte Preta,5,"0,90",1,0,0,0,"-0,49",0,0,24,0,0,12,0,"2,60",0,2,0,20,0
15,24.175367965367972,Rodrigo Lindoso ,2,MEI,"10,31",12,35,Botafogo,3,"1,30",0,0,0,2,"-2,22",0,0,27,0,0,13,0,"4,52",0,1,0,12,3
15,24.175367965367972,João Paulo ,5,MEI,"2,90",14,55,Botafogo,3,"2,00",1,0,0,0,"0,06",0,0,16,1,3,21,0,"1,77",0,4,0,30,5
15,24.175367965367972,Luiz Araújo ,1,ATA,"8,91",1,1,São Paulo,1,"2,60",0,0,0,0,"-1,09",0,0,1,0,0,0,0,"2,60",0,0,1,1,0
15,24.175367965367972,Gustavo ,1,ATA,"5,09",1,0,Bahia,1,"1,20",0,0,0,0,"-0,91",0,0,0,0,0,1,0,"1,20",0,0,0,0,0
15,24.175367965367972,Copete ,7,ATA,"6,19",11,39,Santos,3,"1,10",6,0,3,5,"-0,06",0,0,5,0,0,12,0,"3,10",0,0,4,17,0
16,14.859723609723613,Zé Ricardo ,0,TEC,"12,32",16,0,Flamengo,3,"5,18",0,0,0,0,"0,31",0,0,0,0,0,0,0,"4,36",0,0,0,0,0
16,14.859723609723613,Renan Ribeiro ,0,GOL,"10,98",16,13,São Paulo,3,"7,00",0,0,1,0,"-0,18",0,21,0,0,0,1,5,"3,34",18,0,0,0,0
16,14.859723609723613,Luan Peres  ,0,ZAG,"2,16",2,4,Ponte Preta,2,"0,00",0,0,1,0,"0,00",0,0,1,0,0,1,1,"1,75",0,0,0,1,0
16,14.859723609723613,Marllon ,3,ZAG,"12,22",16,26,Ponte Preta,3,"4,90",0,0,2,0,"0,34",0,0,22,1,0,17,6,"4,54",0,0,1,6,0
16,14.859723609723613,Diogo Barbosa ,2,LAT,"12,87",15,54,Cruzeiro,3,"4,20",1,0,2,0,"1,03",0,0,24,1,2,17,5,"4,54",0,0,2,13,0
16,14.859723609723613,Trauco ,6,LAT,"6,46",11,45,Flamengo,3,"2,70",0,0,3,1,"0,16",0,0,8,0,0,5,5,"2,82",0,0,3,17,0
16,14.859723609723613,Jean ,6,MEI,"9,92",15,32,Vasco,3,"0,90",0,0,0,1,"-0,68",0,0,35,0,0,22,0,"4,10",0,3,0,23,5
16,14.859723609723613,Wendel ,4,MEI,"13,56",13,27,Fluminense,3,"7,20",1,0,0,2,"1,26",0,0,16,1,2,32,0,"5,74",0,0,6,11,0
16,14.859723609723613,Marcão Silva ,4,MEI,"8,40",14,29,Atlético-GO,3,"0,00",0,0,5,0,"0,00",0,0,44,0,0,10,0,"3,63",0,0,0,26,0
16,14.859723609723613,Joel ,0,ATA,"2,62",1,1,Botafogo,2,"-0,30",0,0,0,0,"-1,38",0,0,0,0,0,0,0,"-0,30",0,0,0,0,0
16,14.859723609723613,Lucas Pratto ,26,ATA,"15,49",16,52,São Paulo,3,"2,80",3,0,2,5,"-0,67",1,0,5,0,2,19,0,"4,28",0,0,14,20,0
16,14.859723609723613,Pedrinho ,1,ATA,"1,16",6,3,Corinthians,2,"-0,30",0,0,0,0,"-0,64",0,0,3,0,0,1,0,"1,35",0,0,3,0,0
17,28.038942307692302,Paulo Autuori ,0,TEC,"8,23",1,0,Atlético-PR,3,"1,64",0,0,0,0,"-1,77",0,0,0,0,0,0,0,"1,64",0,0,0,0,0
17,28.038942307692302,Vanderlei ,0,GOL,"22,71",16,7,Santos,3,"10,40",0,0,2,0,"-1,52",0,45,0,0,0,2,9,"10,83",11,0,0,1,3
17,28.038942307692302,Douglas Grolli ,0,ZAG,"7,00",0,0,Chapecoense,2,"0,00",0,0,0,0,"0,00",0,0,0,0,0,0,0,"0,00",0,0,0,0,0
17,28.038942307692302,Alan Costa ,0,ZAG,"8,49",1,0,Vitória,3,"5,00",0,0,0,0,"1,49",0,0,0,0,0,0,1,"5,00",0,0,0,0,0
17,28.038942307692302,Guilherme Arana ,2,LAT,"9,39",16,49,Corinthians,3,"-0,20",4,0,3,1,"-1,11",0,0,8,0,2,20,12,"4,76",0,0,2,12,0
17,28.038942307692302,Egídio ,0,LAT,"9,12",10,48,Palmeiras,3,"11,40",2,0,0,0,"0,60",0,0,22,0,1,13,5,"5,80",0,0,0,7,3
17,28.038942307692302,Renato Cajá ,0,MEI,"9,00",0,0,Ponte Preta,2,"0,00",0,0,0,0,"0,00",0,0,0,0,0,0,0,"0,00",0,0,0,0,0
17,28.038942307692302,Wendel ,5,MEI,"13,56",13,29,Fluminense,3,"0,00",1,0,0,2,"0,00",0,0,19,1,2,36,0,"5,74",0,0,0,11,6
17,28.038942307692302,Alisson ,8,MEI,"14,12",13,42,Cruzeiro,3,"0,00",2,0,0,1,"0,00",0,0,16,2,5,26,0,"5,17",0,0,0,18,4
17,28.038942307692302,Rogério ,0,ATA,"8,21",1,2,Sport,3,"2,60",0,0,0,0,"-0,79",0,0,1,0,0,4,0,"2,60",0,0,0,1,0
17,28.038942307692302,Lucca ,15,ATA,"24,02",16,46,Ponte Preta,3,"0,00",6,0,0,10,"0,00",1,0,17,0,1,56,0,"8,67",0,1,0,17,17
17,28.038942307692302,Ricardo Oliveira ,3,ATA,"16,34",1,0,Santos,3,"3,10",1,0,1,0,"-3,66",0,0,0,1,0,1,0,"3,10",0,0,1,3,0
18,28.038942307692302,Paulo Autuori ,0,TEC,"8,23",1,0,Atlético-PR,3,"1,64",0,0,0,0,"-1,77",0,0,0,0,0,0,0,"1,64",0,0,0,0,0
18,28.038942307692302,Vanderlei ,0,GOL,"21,83",17,7,Santos,3,"2,50",0,0,0,0,"-0,88",0,47,0,0,0,3,9,"10,34",13,2,3,1,0
18,28.038942307692302,Douglas Grolli ,1,ZAG,"6,28",9,15,Chapecoense,3,"-0,40",1,0,0,1,"0,11",0,0,8,0,0,1,2,"1,48",0,3,0,17,0
18,28.038942307692302,Alan Costa ,2,ZAG,"8,16",7,12,Vitória,2,"0,00",1,0,0,0,"0,00",0,0,8,0,1,3,1,"2,91",0,0,0,4,0
18,28.038942307692302,Guilherme Arana ,2,LAT,"10,27",17,54,Corinthians,3,"4,00",4,0,0,1,"0,88",0,0,8,0,2,21,13,"4,72",0,3,0,12,2
18,28.038942307692302,Egídio ,0,LAT,"7,15",11,53,Palmeiras,2,"-1,80",2,0,1,0,"-1,97",0,0,23,0,1,16,5,"5,11",0,0,3,10,0
18,28.038942307692302,Renato Cajá ,7,MEI,"6,41",11,39,Ponte Preta,3,"-2,70",1,1,1,1,"-1,37",0,0,7,0,2,12,0,"1,50",0,0,1,12,0
18,28.038942307692302,Wendel ,5,MEI,"12,74",14,31,Fluminense,3,"2,10",1,0,0,2,"-0,82",0,0,20,1,2,38,0,"5,48",0,0,6,11,0
18,28.038942307692302,Alisson ,8,MEI,"14,12",13,42,Cruzeiro,3,"0,00",2,0,0,1,"0,00",0,0,16,2,5,26,0,"5,17",0,0,4,18,0
18,28.038942307692302,Rogério ,3,ATA,"6,21",11,31,Sport,5,"0,00",0,0,0,1,"0,00",0,0,3,0,1,22,0,"2,23",0,0,0,5,5
18,28.038942307692302,Lucca ,15,ATA,"21,60",17,51,Ponte Preta,3,"1,50",6,0,1,10,"-2,42",1,0,17,0,1,60,0,"8,25",0,0,18,17,0
18,28.038942307692302,Ricardo Oliveira ,7,ATA,"10,91",6,7,Santos,3,"7,70",1,0,0,1,"1,84",0,0,0,1,0,5,0,"1,80",0,1,0,11,2
19,13.745579485873602,Jair Ventura ,0,TEC,"11,38",19,0,Botafogo,3,"3,62",0,0,0,0,"0,51",0,0,0,0,0,0,0,"3,86",0,0,0,0,0
19,13.745579485873602,Cássio ,0,GOL,"13,58",19,7,Corinthians,2,"6,70",0,0,0,0,"-0,24",0,18,0,0,0,5,13,"5,87",9,2,2,0,0
19,13.745579485873602,Joel Carli ,2,ZAG,"8,29",13,34,Botafogo,2,"0,00",1,0,0,1,"0,00",0,0,14,0,1,6,5,"2,19",0,7,0,26,0
19,13.745579485873602,Roger Carvalho ,10,ZAG,"7,51",19,41,Atlético-GO,5,"0,90",0,0,0,0,"-0,03",0,0,24,1,1,31,1,"2,63",0,0,0,29,0
19,13.745579485873602,Leonan ,0,LAT,"2,69",3,6,Atlético-MG,2,"4,90",0,0,0,0,"0,51",0,0,4,0,0,7,1,"3,17",0,1,0,4,0
19,13.745579485873602,Jean ,12,LAT,"15,27",9,26,Palmeiras,3,"7,90",1,0,0,1,"-0,27",1,0,11,0,0,10,4,"5,31",0,0,0,5,2
19,13.745579485873602,Rodriguinho ,9,MEI,"15,54",15,53,Corinthians,2,"11,80",1,0,0,3,"0,00",0,0,14,1,3,29,0,"4,01",0,4,0,25,10
19,13.745579485873602,Wellington ,0,MEI,"3,00",0,0,São Paulo,2,"0,00",0,0,0,0,"0,00",0,0,0,0,0,0,0,"0,00",0,0,0,0,0
19,13.745579485873602,Uillian Correia ,8,MEI,"5,30",16,22,Vitória,3,"0,00",1,0,0,3,"0,00",0,0,27,0,0,7,0,"3,39",0,3,0,25,1
19,13.745579485873602,Lucca ,16,ATA,"21,36",18,52,Ponte Preta,3,"2,60",6,0,0,10,"-0,24",1,0,18,0,1,64,0,"7,94",0,1,0,20,18
19,13.745579485873602,Emerson Sheik ,5,ATA,"5,18",12,32,Ponte Preta,2,"0,90",2,0,0,2,"-0,35",0,0,5,0,1,37,0,"2,11",0,6,0,17,5
19,13.745579485873602,Henrique Dourado ,8,ATA,"22,77",13,39,Fluminense,3,"8,60",1,0,3,10,"1,07",0,0,6,0,2,26,0,"7,06",0,0,6,30,0
20,13.745579485873602,Jair Ventura ,0,TEC,"12,51",20,0,Botafogo,3,"9,20",0,0,0,0,"1,13",0,0,0,0,0,0,0,"4,13",0,0,0,0,0
20,13.745579485873602,Cássio ,0,GOL,"13,58",19,7,Corinthians,2,"0,00",0,0,2,0,"0,00",0,18,0,0,0,5,13,"5,87",9,0,0,0,2
20,13.745579485873602,Joel Carli ,2,ZAG,"8,29",13,34,Botafogo,2,"0,00",1,0,7,1,"0,00",0,0,14,0,1,6,5,"2,19",0,0,0,26,0
20,13.745579485873602,Roger Carvalho ,10,ZAG,"7,51",19,41,Atlético-GO,5,"0,00",0,0,0,0,"0,00",0,0,24,1,1,31,1,"2,63",0,0,0,29,0
20,13.745579485873602,Leonan ,0,LAT,"2,69",3,6,Atlético-MG,2,"0,00",0,0,1,0,"0,00",0,0,4,0,0,7,1,"3,17",0,0,0,4,0
20,13.745579485873602,Jean ,12,LAT,"14,31",10,29,Palmeiras,3,"1,60",1,0,1,1,"-0,96",1,0,11,0,1,10,4,"4,94",0,0,2,6,0
20,13.745579485873602,Rodriguinho ,9,MEI,"15,54",15,53,Corinthians,2,"0,00",1,0,4,3,"0,00",0,0,14,1,3,29,0,"4,01",0,0,10,25,0
20,13.745579485873602,Wellington ,0,MEI,"3,00",0,0,São Paulo,2,"0,00",0,0,0,0,"0,00",0,0,0,0,0,0,0,"0,00",0,0,0,0,0
20,13.745579485873602,Uillian Correia ,8,MEI,"5,57",17,28,Vitória,3,"3,80",1,0,3,3,"0,27",0,0,30,0,0,7,0,"3,41",0,0,2,26,0
20,13.745579485873602,Lucca ,17,ATA,"21,15",19,53,Ponte Preta,1,"1,60",6,0,2,10,"-0,21",1,0,19,0,1,65,0,"7,61",0,0,20,22,0
20,13.745579485873602,Emerson Sheik ,5,ATA,"5,18",12,32,Ponte Preta,2,"0,00",2,0,6,2,"0,00",0,0,5,0,1,37,0,"2,11",0,0,5,17,0
20,13.745579485873602,Henrique Dourado ,8,ATA,"20,95",14,41,Fluminense,3,"-2,10",1,0,0,10,"-1,82",0,0,6,0,2,29,0,"6,41",0,4,0,34,7
21,45.192518305567845,Mano Menezes ,0,TEC,"13,01",21,0,Cruzeiro,3,"6,93",0,0,0,0,"0,72",0,0,0,0,0,0,0,"3,84",0,0,0,0,0
21,45.192518305567845,Vanderlei ,0,GOL,"22,87",20,7,Santos,3,"11,00",0,0,2,0,"0,78",0,50,0,0,0,3,12,"9,99",13,0,0,1,3
21,45.192518305567845,Henrique ,1,ZAG,"8,33",18,32,Fluminense,3,"1,90",0,0,3,0,"-1,11",0,0,18,2,0,23,2,"1,98",0,0,1,19,0
21,45.192518305567845,Lucas Veríssimo ,3,ZAG,"8,31",19,33,Santos,3,"7,90",1,0,0,0,"0,58",0,0,21,0,0,11,12,"4,37",0,4,0,12,4
21,45.192518305567845,Apodi ,10,LAT,"8,41",18,39,Chapecoense,3,"9,50",2,0,6,0,"1,51",0,0,24,0,0,35,5,"2,81",0,0,5,40,0
21,45.192518305567845,Reinaldo ,4,LAT,"13,21",17,79,Chapecoense,3,"10,50",1,0,0,3,"0,59",0,0,29,0,2,14,4,"4,35",0,4,0,20,3
21,45.192518305567845,Uillian Correia ,8,MEI,"5,60",18,32,Vitória,3,"3,90",1,0,3,3,"0,03",0,0,33,0,0,7,0,"3,44",0,0,2,26,0
21,45.192518305567845,Matheus Galdezani ,11,MEI,"7,35",20,81,Coritiba,3,"2,10",1,0,6,1,"-0,45",0,0,32,0,1,38,0,"2,48",0,0,13,42,0
21,45.192518305567845,Kaio ,1,MEI,"4,29",4,10,Grêmio,3,"6,20",0,0,1,0,"0,99",0,0,6,0,0,15,0,"2,98",0,0,2,7,0
21,45.192518305567845,Alecsandro ,2,ATA,"2,70",14,18,Coritiba,3,"0,20",4,0,5,1,"-0,06",1,0,7,0,0,18,0,"0,14",0,0,3,21,0
21,45.192518305567845,Luis Fabiano ,17,ATA,"11,82",11,15,Vasco,3,"-3,60",6,0,0,5,"-1,23",0,0,4,0,2,22,0,"5,19",0,5,0,22,6
21,45.192518305567845,Jô ,10,ATA,"12,14",20,51,Corinthians,3,"0,20",22,0,2,11,"-0,61",1,0,6,0,2,24,0,"4,41",0,0,14,38,0
22,33.607942159319876,Jair Ventura ,0,TEC,"11,78",22,0,Botafogo,3,"4,03",0,0,0,0,"0,28",0,0,0,0,0,0,0,"4,10",0,0,0,0,0
22,33.607942159319876,Cássio ,0,GOL,"13,09",21,7,Corinthians,3,"4,00",0,0,2,0,"0,65",0,21,0,0,0,5,13,"5,55",11,0,0,0,2
22,33.607942159319876,Joel Carli ,3,ZAG,"8,79",15,37,Botafogo,3,"1,40",1,0,7,1,"0,21",0,0,15,0,1,7,5,"2,03",0,0,0,26,0
22,33.607942159319876,Lucas Veríssimo ,3,ZAG,"6,96",20,34,Santos,3,"-1,10",1,0,5,0,"-1,35",0,0,22,0,0,11,12,"4,10",0,0,4,13,0
22,33.607942159319876,Apodi ,10,LAT,"7,38",19,40,Chapecoense,3,"1,90",2,0,0,0,"-1,03",0,0,25,0,0,38,5,"2,76",0,6,0,44,6
22,33.607942159319876,Reinaldo ,6,LAT,"12,10",18,86,Chapecoense,3,"2,20",1,0,5,3,"-1,11",0,0,31,0,2,17,4,"4,23",0,0,4,22,0
22,33.607942159319876,Rodriguinho ,14,MEI,"14,56",17,60,Corinthians,3,"5,00",2,0,4,3,"0,42",0,0,16,1,3,35,0,"4,06",0,0,13,28,0
22,33.607942159319876,Wellington ,0,MEI,"3,00",0,0,São Paulo,2,"0,00",0,0,0,0,"0,00",0,0,0,0,0,0,0,"0,00",0,0,0,0,0
22,33.607942159319876,Uillian Correia ,9,MEI,"4,69",19,34,Vitória,3,"-1,90",1,0,3,3,"-0,91",0,0,33,0,0,8,0,"3,16",0,0,2,31,0
22,33.607942159319876,Lucca ,18,ATA,"20,16",20,55,Ponte Preta,4,"0,00",6,0,3,10,"0,00",1,0,19,0,1,67,0,"7,16",0,0,20,23,0
22,33.607942159319876,Emerson Sheik ,6,ATA,"5,09",14,39,Ponte Preta,3,"-1,90",2,0,8,4,"-2,50",0,0,5,0,1,42,0,"2,71",0,0,6,20,0
22,33.607942159319876,Henrique Dourado ,8,ATA,"21,31",16,43,Fluminense,3,"-0,30",4,0,0,12,"-2,12",0,0,7,0,2,31,0,"6,49",0,4,0,41,8
23,33.607942159319876,Jair Ventura ,0,TEC,"12,43",23,0,Botafogo,3,"7,16",0,0,0,0,"0,65",0,0,0,0,0,0,0,"4,23",0,0,0,0,0
23,33.607942159319876,Cássio ,0,GOL,"13,33",22,7,Corinthians,3,"5,00",0,0,0,0,"0,24",0,24,0,0,0,5,13,"5,53",13,2,2,0,0
23,33.607942159319876,Joel Carli ,3,ZAG,"8,79",15,37,Botafogo,5,"0,00",1,0,0,1,"0,00",0,0,15,0,1,7,5,"2,03",0,7,0,26,0
23,33.607942159319876,Lucas Veríssimo ,3,ZAG,"7,81",21,35,Santos,3,"3,90",1,0,0,0,"0,85",0,0,23,0,0,11,13,"4,09",0,6,0,14,4
23,33.607942159319876,Apodi ,11,LAT,"7,51",20,43,Chapecoense,3,"2,50",2,0,6,0,"0,13",0,0,26,0,0,40,5,"2,75",0,0,6,44,0
23,33.607942159319876,Reinaldo ,6,LAT,"12,10",18,86,Chapecoense,4,"0,00",1,0,0,3,"0,00",0,0,31,0,2,17,4,"4,23",0,5,0,22,4
23,33.607942159319876,Rodriguinho ,16,MEI,"14,38",18,65,Corinthians,3,"3,60",2,0,0,3,"-0,18",0,0,17,1,3,38,0,"4,03",0,4,0,29,14
23,33.607942159319876,Wellington ,0,MEI,"3,00",0,0,São Paulo,2,"0,00",0,0,0,0,"0,00",0,0,0,0,0,0,0,"0,00",0,0,0,0,0
23,33.607942159319876,Uillian Correia ,10,MEI,"5,64",20,37,Vitória,3,"3,70",1,0,0,3,"0,95",0,0,35,0,0,9,0,"3,19",0,3,0,31,2
23,33.607942159319876,Lucca ,19,ATA,"21,34",21,57,Ponte Preta,1,"5,50",6,0,0,10,"1,18",1,0,21,0,1,71,0,"7,08",0,3,0,23,20
23,33.607942159319876,Emerson Sheik ,8,ATA,"5,68",15,45,Ponte Preta,3,"1,80",2,0,0,4,"0,59",0,0,6,0,1,43,0,"2,65",0,8,0,20,6
23,33.607942159319876,Henrique Dourado ,8,ATA,"22,68",17,45,Fluminense,3,"7,90",5,0,4,13,"1,37",0,0,7,0,2,32,0,"6,57",0,0,9,42,0
24,27.53639751552795,Jair Ventura ,0,TEC,"12,59",24,0,Botafogo,3,"7,35",0,0,0,0,"0,16",0,0,0,0,0,0,0,"4,36",0,0,0,0,0
24,27.53639751552795,Cássio ,0,GOL,"14,49",23,7,Corinthians,3,"11,00",0,0,2,0,"1,16",0,26,0,0,0,5,14,"5,77",13,0,0,0,2
24,27.53639751552795,Joel Carli ,3,ZAG,"8,79",15,37,Botafogo,3,"0,00",1,0,7,1,"0,00",0,0,15,0,1,7,5,"2,03",0,0,0,26,0
24,27.53639751552795,Lucas Veríssimo ,3,ZAG,"7,81",21,35,Santos,3,"0,00",1,0,6,0,"0,00",0,0,23,0,0,11,13,"4,09",0,0,4,14,0
24,27.53639751552795,Apodi ,11,LAT,"7,76",21,46,Chapecoense,3,"3,80",2,0,0,0,"0,25",0,0,27,0,0,40,6,"2,80",0,7,0,46,7
24,27.53639751552795,Reinaldo ,6,LAT,"13,72",19,93,Chapecoense,3,"11,50",1,0,5,3,"1,62",0,0,34,0,3,17,5,"4,61",0,0,4,25,0
24,27.53639751552795,Rodriguinho ,19,MEI,"13,94",19,71,Corinthians,3,"1,30",2,0,4,3,"-0,44",0,0,17,1,3,38,0,"3,89",0,0,15,29,0
24,27.53639751552795,Wellington ,0,MEI,"3,00",0,0,São Paulo,2,"0,00",0,0,0,0,"0,00",0,0,0,0,0,0,0,"0,00",0,0,0,0,0
24,27.53639751552795,Jucilei ,7,MEI,"13,14",23,59,São Paulo,1,"0,00",1,1,0,1,"0,00",0,0,57,0,0,40,0,"3,94",0,0,0,34,1
24,27.53639751552795,Rildo ,6,ATA,"9,67",21,52,Coritiba,3,"7,40",5,0,0,4,"1,06",0,0,20,0,2,76,0,"4,15",0,3,0,24,5
24,27.53639751552795,Bruno Paulo ,0,ATA,"2,00",0,0,Corinthians,2,"0,00",0,0,0,0,"0,00",0,0,0,0,0,0,0,"0,00",0,0,0,0,0
24,27.53639751552795,Henrique Dourado ,9,ATA,"23,18",18,47,Fluminense,3,"10,30",6,0,0,14,"0,50",0,0,8,0,2,35,0,"6,78",0,4,0,43,9
25,17.0637215320911,Renato Gaúcho ,0,TEC,"15,07",24,0,Grêmio,3,"1,85",0,0,0,0,"-0,23",0,0,0,0,0,0,0,"4,28",0,0,0,0,0
25,17.0637215320911,Douglas Friedrich ,0,GOL,"11,68",16,1,Avaí,3,"13,00",0,0,2,0,"1,65",0,45,0,0,0,5,9,"9,67",15,0,0,1,1
25,17.0637215320911,Joel Carli ,3,ZAG,"8,73",16,42,Botafogo,3,"1,90",1,0,8,1,"-0,06",0,0,17,0,1,9,5,"2,02",0,0,1,26,0
25,17.0637215320911,Betão ,1,ZAG,"6,36",23,50,Avaí,3,"-2,20",0,0,0,0,"-0,42",0,0,15,0,0,20,11,"2,46",0,6,0,17,1
25,17.0637215320911,Jean ,18,LAT,"15,51",15,37,Palmeiras,3,"8,40",3,0,0,2,"-0,86",1,0,14,0,1,14,6,"4,98",0,1,0,11,4
25,17.0637215320911,William Matheus ,2,LAT,"7,32",20,66,Coritiba,3,"0,00",2,1,6,0,"0,00",0,0,25,0,0,43,6,"2,39",0,0,5,29,0
25,17.0637215320911,Wendel ,7,MEI,"12,48",21,52,Fluminense,3,"-0,10",2,0,2,4,"0,31",0,0,28,2,2,53,0,"4,92",0,0,7,22,0
25,17.0637215320911,Cazares ,20,MEI,"9,65",20,69,Atlético-MG,3,"8,20",1,0,0,3,"1,76",1,0,6,0,6,11,0,"3,23",0,0,16,21,0
25,17.0637215320911,Amaral ,0,MEI,"5,00",0,0,Chapecoense,5,"0,00",0,0,0,0,"0,00",0,0,0,0,0,0,0,"0,00",0,0,0,0,0
25,17.0637215320911,Osman ,4,ATA,"2,99",7,4,Chapecoense,5,"0,00",0,0,2,1,"0,00",0,0,0,0,1,1,0,"1,23",0,0,0,5,0
25,17.0637215320911,Paulinho ,1,ATA,"6,15",1,5,Vitória,3,"2,70",0,0,0,0,"0,15",0,0,0,1,0,0,0,"2,70",0,0,0,0,0
25,17.0637215320911,Arthur  ,18,ATA,"12,12",23,53,Chapecoense,3,"7,00",5,0,0,5,"-0,81",0,0,24,1,5,53,0,"5,08",0,4,0,38,14
26,21.649241228070178,Roger Machado  ,0,TEC,"11,91",1,0,Atlético-MG,2,"1,84",0,0,0,0,"-3,09",0,0,0,0,0,0,0,"1,84",0,0,0,0,0
26,21.649241228070178,Vanderlei ,0,GOL,"23,02",25,8,Santos,3,"5,00",0,0,0,0,"-0,64",0,61,0,0,0,4,15,"9,68",16,2,3,1,0
26,21.649241228070178,Marcus Winícius ,0,ZAG,"3,00",0,0,Atlético-GO,2,"0,00",0,0,0,0,"0,00",0,0,0,0,0,0,0,"0,00",0,0,0,0,0
26,21.649241228070178,Igor Rabello ,4,ZAG,"10,47",20,33,Botafogo,3,"1,40",1,0,4,0,"0,38",0,0,29,1,0,12,7,"3,28",0,1,3,19,0
26,21.649241228070178,Capa ,10,LAT,"12,72",25,134,Avaí,3,"5,60",4,0,5,0,"0,73",0,0,56,0,1,72,10,"4,62",0,1,2,44,0
26,21.649241228070178,Jean ,19,LAT,"14,48",16,40,Palmeiras,3,"1,00",3,0,1,2,"-1,03",1,0,15,0,1,14,6,"4,73",0,0,4,12,0
26,21.649241228070178,Vinícius Pacheco ,0,MEI,"3,89",1,0,Avaí,2,"0,50",0,0,0,0,"-1,11",0,0,0,0,0,1,0,"0,50",0,0,0,0,0
26,21.649241228070178,Gustavo Scarpa ,22,MEI,"12,56",24,134,Fluminense,3,"3,30",2,0,0,1,"0,85",0,0,22,2,7,38,0,"3,91",0,0,22,17,0
26,21.649241228070178,Gustavo Scarpa ,22,MEI,"12,56",24,134,Fluminense,3,"3,30",2,0,0,1,"0,85",0,0,22,2,7,38,0,"3,91",0,0,0,17,22
26,21.649241228070178,Grafite ,0,ATA,"12,00",0,0,Atlético-PR,2,"0,00",0,0,0,0,"0,00",0,0,0,0,0,0,0,"0,00",0,0,0,0,0
26,21.649241228070178,Willian ,7,ATA,"7,45",19,31,Palmeiras,3,"1,90",6,1,0,5,"-0,06",1,0,17,1,3,27,0,"3,68",0,4,0,28,7
26,21.649241228070178,Lucca ,22,ATA,"20,07",24,65,Ponte Preta,3,"-2,40",7,0,0,10,"-0,61",2,0,23,0,1,83,0,"6,49",0,3,0,27,24
27,15.600861718690664,Guto Ferreira ,0,TEC,"8,76",1,0,Bahia,3,"8,39",0,0,0,0,"4,76",0,0,0,0,0,0,0,"8,39",0,0,0,0,0
27,15.600861718690664,Magrão ,0,GOL,"6,14",23,0,Sport,3,"0,00",0,0,0,0,"-0,16",0,0,0,0,0,0,0,"3,04",0,0,0,0,0
27,15.600861718690664,Gabriel ,0,ZAG,"9,92",17,0,Atlético-MG,3,"0,00",0,0,0,0,"0,57",0,0,0,0,0,0,0,"3,88",0,0,0,0,0
27,15.600861718690664,Werley ,0,ZAG,"8,05",15,0,Coritiba,3,"0,00",0,0,0,0,"0,52",0,0,0,0,0,0,0,"3,39",0,0,0,0,0
27,15.600861718690664,Jean ,0,LAT,"14,48",16,0,Palmeiras,2,"0,00",0,0,0,0,"0,00",0,0,0,0,0,0,0,"4,73",0,0,0,0,0
27,15.600861718690664,Guilherme Arana ,0,LAT,"9,20",23,0,Corinthians,3,"0,00",0,0,0,0,"0,17",0,0,0,0,0,0,0,"3,94",0,0,0,0,0
27,15.600861718690664,Renê Júnior ,0,MEI,"10,75",20,0,Bahia,3,"0,00",0,0,0,0,"-1,47",0,0,0,0,0,0,0,"6,02",0,0,0,0,0
27,15.600861718690664,Carlos Eduardo ,0,MEI,"3,00",0,0,Atlético-MG,2,"0,00",0,0,0,0,"0,00",0,0,0,0,0,0,0,"0,00",0,0,0,0,0
27,15.600861718690664,Zé Rafael  ,0,MEI,"21,40",26,0,Bahia,3,"0,00",0,0,0,0,"-1,29",0,0,0,0,0,0,0,"6,90",0,0,0,0,0
27,15.600861718690664,Ricardo Oliveira ,0,ATA,"11,08",13,0,Santos,3,"0,00",0,0,0,0,"-0,25",0,0,0,0,0,0,0,"3,07",0,0,0,0,0
27,15.600861718690664,Guilherme ,0,ATA,"7,02",21,0,Botafogo,2,"0,00",0,0,0,0,"-0,60",0,0,0,0,0,0,0,"3,77",0,0,0,0,0
27,15.600861718690664,João Paulo ,0,ATA,"3,35",9,0,Bahia,2,"0,00",0,0,0,0,"0,00",0,0,0,0,0,0,0,"2,55",0,0,0,0,0
28,15.600861718690664,Guto Ferreira ,0,TEC,"8,76",1,0,Bahia,3,"8,39",0,0,0,0,"4,76",0,0,0,0,0,0,0,"8,39",0,0,0,0,0
28,15.600861718690664,Magrão ,0,GOL,"5,82",24,0,Sport,3,"0,00",0,0,0,0,"-0,32",0,0,0,0,0,0,0,"2,96",0,0,0,0,0
28,15.600861718690664,Gabriel ,0,ZAG,"9,02",18,0,Atlético-MG,3,"0,00",0,0,0,0,"-0,90",0,0,0,0,0,0,0,"3,73",0,0,0,0,0
28,15.600861718690664,Werley ,0,ZAG,"9,26",16,0,Coritiba,3,"0,00",0,0,0,0,"1,21",0,0,0,0,0,0,0,"3,75",0,0,0,0,0
28,15.600861718690664,Jean ,0,LAT,"14,48",16,0,Palmeiras,2,"0,00",0,0,0,0,"0,00",0,0,0,0,0,0,0,"4,73",0,0,0,0,0
28,15.600861718690664,Guilherme Arana ,0,LAT,"9,52",24,0,Corinthians,3,"0,00",0,0,0,0,"0,32",0,0,0,0,0,0,0,"3,83",0,0,0,0,0
28,15.600861718690664,Renê Júnior ,0,MEI,"12,00",21,0,Bahia,3,"0,00",0,0,0,0,"1,25",0,0,0,0,0,0,0,"6,01",0,0,0,0,0
28,15.600861718690664,Carlos Eduardo ,0,MEI,"3,00",0,0,Atlético-MG,2,"0,00",0,0,0,0,"0,00",0,0,0,0,0,0,0,"0,00",0,0,0,0,0
28,15.600861718690664,Zé Rafael  ,0,MEI,"20,01",27,0,Bahia,3,"0,00",0,0,0,0,"-1,39",0,0,0,0,0,0,0,"6,69",0,0,0,0,0
28,15.600861718690664,Ricardo Oliveira ,0,ATA,"10,72",14,0,Santos,3,"0,00",0,0,0,0,"-0,36",0,0,0,0,0,0,0,"3,21",0,0,0,0,0
28,15.600861718690664,Guilherme ,0,ATA,"6,19",22,0,Botafogo,2,"0,00",0,0,0,0,"-0,83",0,0,0,0,0,0,0,"3,61",0,0,0,0,0
28,15.600861718690664,João Paulo ,0,ATA,"3,35",9,0,Bahia,2,"0,00",0,0,0,0,"0,00",0,0,0,0,0,0,0,"2,55",0,0,0,0,0
29,15.600861718690664,Guto Ferreira ,0,TEC,"8,76",1,0,Bahia,3,"8,39",0,0,0,0,"4,76",0,0,0,0,0,0,0,"8,39",0,0,0,0,0
29,15.600861718690664,Magrão ,0,GOL,"5,72",25,8,Sport,3,"0,70",0,0,0,0,"-0,10",0,33,2,0,0,1,7,"2,87",32,0,0,0,0
29,15.600861718690664,Gabriel ,6,ZAG,"8,69",19,35,Atlético-MG,3,"-0,30",1,0,0,1,"-0,33",0,0,23,0,0,16,6,"3,52",0,1,0,23,2
29,15.600861718690664,Werley ,7,ZAG,"9,03",17,43,Coritiba,3,"7,10",1,1,0,2,"-0,23",0,0,18,1,0,7,6,"3,95",0,0,0,8,1
29,15.600861718690664,Jean ,19,LAT,"14,48",16,40,Palmeiras,2,"0,00",3,0,0,2,"0,00",1,0,15,0,1,14,6,"4,73",0,1,0,12,4
29,15.600861718690664,Guilherme Arana ,4,LAT,"10,34",25,84,Corinthians,3,"6,40",4,0,4,2,"0,82",0,0,13,0,2,30,15,"3,93",0,0,2,18,0
29,15.600861718690664,Renê Júnior ,22,MEI,"11,79",22,52,Bahia,3,"4,50",3,1,5,4,"-0,21",0,0,62,0,0,44,0,"5,94",0,0,8,40,0
29,15.600861718690664,Carlos Eduardo ,0,MEI,"3,00",0,0,Atlético-MG,2,"0,00",0,0,0,0,"0,00",0,0,0,0,0,0,0,"0,00",0,0,0,0,0
29,15.600861718690664,Zé Rafael  ,14,MEI,"20,36",28,63,Bahia,3,"4,30",8,0,4,3,"0,35",0,0,70,0,4,94,0,"6,60",0,0,22,52,0
29,15.600861718690664,Ricardo Oliveira ,13,ATA,"11,36",15,19,Santos,3,"8,50",8,0,0,5,"0,64",0,0,3,1,0,14,0,"3,56",0,1,0,21,11
29,15.600861718690664,Guilherme ,11,ATA,"6,64",23,52,Botafogo,2,"3,10",0,0,0,4,"0,45",0,0,19,1,1,39,0,"3,59",0,1,0,16,8
29,15.600861718690664,João Paulo ,5,ATA,"3,35",9,5,Bahia,2,"0,00",0,0,0,2,"0,00",0,0,0,0,0,12,0,"2,55",0,1,0,4,3
30,10.953806093748002,Guto Ferreira ,0,TEC,"8,76",1,0,Bahia,3,"8,39",0,0,0,0,"4,76",0,0,0,0,0,0,0,"8,39",0,0,0,0,0
30,10.953806093748002,Magrão ,0,GOL,"6,43",26,9,Sport,3,"4,70",0,0,0,0,"0,71",0,36,2,0,0,1,7,"2,94",34,0,0,0,0
30,10.953806093748002,Gabriel ,6,ZAG,"8,89",20,36,Atlético-MG,3,"1,10",1,0,2,1,"0,20",0,0,25,0,0,17,6,"3,40",0,0,2,24,0
30,10.953806093748002,Werley ,7,ZAG,"7,88",18,45,Coritiba,3,"-0,10",1,1,0,2,"-1,15",0,0,18,1,0,8,6,"3,73",0,0,1,8,0
30,10.953806093748002,Jean ,19,LAT,"14,48",16,40,Palmeiras,1,"0,00",3,0,1,2,"0,00",1,0,15,0,1,14,6,"4,73",0,0,4,12,0
30,10.953806093748002,Guilherme Arana ,4,LAT,"10,30",26,88,Corinthians,3,"5,50",4,0,0,2,"-0,04",0,0,14,0,3,30,15,"3,99",0,4,0,18,2
30,10.953806093748002,Renê Júnior ,22,MEI,"12,33",23,54,Bahia,3,"7,20",3,1,0,4,"0,54",0,0,66,0,0,47,0,"5,99",0,5,0,41,8
30,10.953806093748002,Carlos Eduardo ,0,MEI,"3,00",0,0,Atlético-MG,2,"0,00",0,0,0,0,"0,00",0,0,0,0,0,0,0,"0,00",0,0,0,0,0
30,10.953806093748002,Zé Rafael  ,14,MEI,"20,67",29,65,Bahia,3,"6,00",8,0,0,3,"0,31",0,0,73,0,4,98,0,"6,58",0,4,0,53,22
30,10.953806093748002,Ricardo Oliveira ,14,ATA,"11,81",16,21,Santos,3,"10,10",9,0,1,6,"0,45",0,0,3,1,0,15,0,"3,97",0,0,13,21,0
30,10.953806093748002,Guilherme ,11,ATA,"6,31",24,52,Botafogo,2,"1,00",0,0,1,4,"-0,33",0,0,19,1,1,40,0,"3,48",0,0,9,17,0
30,10.953806093748002,Paulinho ,1,ATA,"6,15",1,5,Vitória,3,"2,70",0,0,0,0,"0,15",0,0,0,1,0,0,0,"2,70",0,0,0,0,0
31,15.818324475089181,Renato Gaúcho ,0,TEC,"15,25",30,0,Grêmio,3,"3,84",0,0,0,0,"0,21",0,0,0,0,0,0,0,"4,19",0,0,0,0,0
31,15.818324475089181,Marcos ,0,GOL,"4,44",10,2,Atlético-GO,3,"14,00",0,0,0,0,"0,44",0,20,0,0,0,1,2,"5,79",12,1,2,0,0
31,15.818324475089181,Tiago  ,2,ZAG,"9,04",28,45,Bahia,3,"-1,30",6,0,0,2,"-1,24",0,0,22,1,0,30,9,"2,63",0,7,0,36,4
31,15.818324475089181,Matheus Ferraz ,1,ZAG,"4,10",1,3,Sport,3,"-0,20",0,0,0,0,"-1,90",0,0,0,0,0,0,0,"-0,20",0,0,0,0,0
31,15.818324475089181,Reinaldo ,12,LAT,"13,09",26,114,Chapecoense,3,"3,10",1,0,0,4,"-1,68",0,0,47,0,5,21,8,"5,33",0,6,0,37,8
31,15.818324475089181,Fagner Alemão ,6,LAT,"10,38",27,66,Avaí,3,"6,10",8,0,4,0,"0,64",0,0,47,0,1,26,9,"4,03",0,0,2,17,0
31,15.818324475089181,Marcão Silva ,4,MEI,"8,27",17,31,Atlético-GO,1,"8,20",0,0,0,0,"0,77",0,0,49,0,0,15,0,"3,57",0,5,0,27,0
31,15.818324475089181,Gabriel Xavier ,0,MEI,"5,00",0,0,Vitória,5,"0,00",0,0,0,0,"0,00",0,0,0,0,0,0,0,"0,00",0,0,0,0,0
31,15.818324475089181,Thiago Lopes ,0,MEI,"4,00",0,0,Coritiba,2,"0,00",0,0,0,0,"0,00",0,0,0,0,0,0,0,"0,00",0,0,0,0,0
31,15.818324475089181,Walter ,21,ATA,"7,70",24,122,Atlético-GO,3,"1,70",13,0,7,5,"0,80",0,0,16,1,2,51,0,"2,11",0,0,17,60,0
31,15.818324475089181,Júnior Dutra ,24,ATA,"8,08",24,81,Avaí,3,"0,20",4,0,3,7,"-1,94",0,0,22,2,2,38,0,"4,31",0,0,9,39,0
31,15.818324475089181,Romulo ,13,ATA,"8,02",27,58,Avaí,3,"-1,10",7,0,0,3,"-1,62",0,0,18,0,0,34,0,"1,65",0,4,0,35,10
32,27.253797088154702,Jair Ventura ,0,TEC,"11,90",32,0,Botafogo,3,"2,22",0,0,0,0,"-0,39",0,0,0,0,0,0,0,"4,17",0,0,0,0,0
32,27.253797088154702,Fernando Prass ,0,GOL,"15,40",28,11,Palmeiras,3,"7,00",0,0,0,0,"1,43",0,48,1,0,0,8,7,"4,23",33,2,1,0,0
32,27.253797088154702,Lucas Veríssimo ,5,ZAG,"8,16",29,45,Santos,3,"3,10",1,0,0,0,"0,27",0,0,36,0,0,17,16,"4,17",0,7,0,21,6
32,27.253797088154702,Réver ,6,ZAG,"11,40",24,28,Flamengo,5,"0,00",2,0,2,5,"0,00",0,0,31,0,0,22,7,"5,27",0,0,5,16,0
32,27.253797088154702,Marcelo Oliveira ,0,LAT,"7,20",11,18,Grêmio,3,"-0,20",1,0,0,0,"-0,01",1,0,12,0,0,8,3,"1,95",0,1,0,13,0
32,27.253797088154702,Fabrício ,0,LAT,"5,00",0,0,Cruzeiro,2,"0,00",0,0,0,0,"0,00",0,0,0,0,0,0,0,"0,00",0,0,0,0,0
32,27.253797088154702,Matheus Fernandes ,8,MEI,"5,76",20,36,Botafogo,3,"5,70",0,0,0,0,"-0,29",0,0,53,0,0,21,0,"3,80",0,4,0,25,1
32,27.253797088154702,Willian Arão ,4,MEI,"9,36",25,62,Flamengo,3,"1,90",2,0,2,1,"-0,40",0,0,54,1,2,19,0,"3,74",0,0,4,25,0
32,27.253797088154702,Zé Rafael  ,15,MEI,"21,35",31,69,Bahia,3,"9,60",10,0,0,3,"0,31",0,0,81,0,5,104,0,"6,75",0,4,0,58,23
32,27.253797088154702,Edigar Junio ,6,ATA,"10,21",20,43,Bahia,3,"6,00",1,0,2,7,"-0,70",0,0,13,1,1,32,0,"4,23",0,0,10,30,0
32,27.253797088154702,Rossi ,0,ATA,"9,48",1,1,Chapecoense,3,"5,40",0,0,0,0,"1,48",0,0,1,1,0,1,0,"5,40",0,0,0,0,0
32,27.253797088154702,Arthur  ,23,ATA,"11,08",29,63,Chapecoense,3,"1,10",10,0,0,6,"0,00",0,0,29,1,6,57,0,"4,58",0,5,0,49,16
33,14.851523068247205,Mano Menezes ,0,TEC,"12,50",32,0,Cruzeiro,3,"0,00",0,0,0,0,"-0,76",0,0,0,0,0,0,0,"3,75",0,0,0,0,0
33,14.851523068247205,Léo Lopes ,0,GOL,"1,00",0,0,Avaí,2,"0,00",0,0,0,0,"0,00",0,0,0,0,0,0,0,"0,00",0,0,0,0,0
33,14.851523068247205,Durval ,0,ZAG,"5,70",19,0,Sport,4,"0,00",0,0,0,0,"-0,17",0,0,0,0,0,0,0,"2,59",0,0,0,0,0
33,14.851523068247205,Pedro Geromel ,0,ZAG,"13,12",18,0,Grêmio,3,"0,00",0,0,0,0,"0,00",0,0,0,0,0,0,0,"6,55",0,0,0,0,0
33,14.851523068247205,Yago Pikachu ,0,LAT,"9,21",22,0,Vasco,3,"0,00",0,0,0,0,"0,10",0,0,0,0,0,0,0,"3,98",0,0,0,0,0
33,14.851523068247205,Raul Prata ,0,LAT,"5,18",11,0,Sport,2,"0,00",0,0,0,0,"0,00",0,0,0,0,0,0,0,"4,94",0,0,0,0,0
33,14.851523068247205,Gabriel ,0,MEI,"8,14",27,0,Corinthians,3,"0,00",0,0,0,0,"0,00",0,0,0,0,0,0,0,"3,07",0,0,0,0,0
33,14.851523068247205,Wellington Simião ,0,MEI,"2,97",27,0,Avaí,3,"0,00",0,0,0,0,"0,42",0,0,0,0,0,0,0,"1,19",0,0,0,0,0
33,14.851523068247205,Jucilei ,0,MEI,"13,58",30,0,São Paulo,3,"0,00",0,0,0,0,"0,07",0,0,0,0,0,0,0,"3,58",0,0,0,0,0
33,14.851523068247205,Rogério ,0,ATA,"7,17",22,0,Sport,3,"0,00",0,0,0,0,"0,31",0,0,0,0,0,0,0,"2,91",0,0,0,0,0
33,14.851523068247205,Ricardo Oliveira ,0,ATA,"11,93",19,0,Santos,3,"0,00",0,0,0,0,"0,17",0,0,0,0,0,0,0,"4,14",0,0,0,0,0
33,14.851523068247205,Jael ,0,ATA,"3,94",9,0,Grêmio,1,"0,00",0,0,0,0,"0,13",0,0,0,0,0,0,0,"0,28",0,0,0,0,0
34,20.929970096784984,Petkovic ,0,TEC,"5,94",1,0,Vitória,3,"3,39",0,0,0,0,"0,94",0,0,0,0,0,0,0,"3,39",0,0,0,0,0
34,20.929970096784984,Magrão ,0,GOL,"4,90",30,11,Sport,3,"-4,30",0,0,0,0,"-0,68",0,42,3,0,0,2,7,"2,60",43,0,0,0,0
34,20.929970096784984,Rodrigo ,12,ZAG,"8,91",20,45,Ponte Preta,3,"1,40",2,1,5,0,"-0,31",0,0,23,0,0,34,8,"3,88",0,0,9,13,0
34,20.929970096784984,Rafael Marques ,1,ZAG,"2,50",14,32,Vasco,3,"3,10",2,0,3,0,"0,42",0,0,15,1,0,6,1,"1,15",0,0,1,12,0
34,20.929970096784984,Reinaldo ,13,LAT,"14,10",29,123,Chapecoense,3,"7,90",1,0,6,5,"-1,03",0,0,52,0,6,22,9,"5,54",0,0,8,43,0
34,20.929970096784984,Jeferson ,4,LAT,"5,34",19,75,Ponte Preta,3,"-0,20",0,0,4,0,"-0,24",0,0,20,0,2,10,9,"2,91",0,0,0,22,0
34,20.929970096784984,João Paulo ,11,MEI,"3,24",27,104,Botafogo,3,"-0,80",1,0,7,1,"-0,14",0,0,38,1,4,55,0,"2,52",0,0,8,51,0
34,20.929970096784984,Nenê ,20,MEI,"12,48",27,124,Vasco,3,"1,10",7,0,5,5,"-2,25",0,0,19,1,4,75,0,"3,56",0,0,13,28,0
34,20.929970096784984,Zé Rafael  ,16,MEI,"20,10",33,73,Bahia,3,"3,00",10,0,5,3,"0,06",0,0,85,0,5,108,0,"6,47",0,0,24,64,0
34,20.929970096784984,Guilherme ,14,ATA,"6,08",28,60,Botafogo,2,"0,60",2,0,0,4,"0,16",0,0,19,1,1,44,0,"3,03",0,1,0,20,11
34,20.929970096784984,Crysan ,0,ATA,"4,00",0,0,Atlético-PR,2,"0,00",0,0,0,0,"0,00",0,0,0,0,0,0,0,"0,00",0,0,0,0,0
34,20.929970096784984,Edigar Junio ,7,ATA,"12,74",22,51,Bahia,3,"18,30",1,0,0,11,"0,43",0,0,14,1,1,36,0,"5,46",0,2,0,33,13
35,14.642205750608019,Petkovic ,0,TEC,"5,94",1,0,Vitória,3,"3,39",0,0,0,0,"0,94",0,0,0,0,0,0,0,"3,39",0,0,0,0,0
35,14.642205750608019,Magrão ,0,GOL,"3,80",31,11,Sport,3,"-10,00",0,0,0,0,"-1,10",0,42,3,0,0,2,7,"2,19",48,0,0,0,0
35,14.642205750608019,Durval ,1,ZAG,"5,99",20,30,Sport,3,"0,70",2,0,0,0,"0,29",0,0,23,0,1,14,4,"2,50",0,3,0,20,4
35,14.642205750608019,Pedro Geromel ,6,ZAG,"13,91",20,47,Grêmio,2,"7,30",0,0,0,0,"0,48",0,0,48,0,2,12,11,"6,52",0,4,0,15,3
35,14.642205750608019,Reinaldo ,13,LAT,"14,38",30,131,Chapecoense,3,"8,50",1,0,0,5,"0,28",0,0,54,0,7,25,9,"5,64",0,6,0,45,10
35,14.642205750608019,Jeferson ,4,LAT,"5,16",20,79,Ponte Preta,3,"-1,20",0,0,0,0,"-0,18",0,0,20,0,2,11,9,"2,70",0,4,0,23,0
35,14.642205750608019,João Paulo ,12,MEI,"5,88",28,108,Botafogo,3,"14,30",1,0,0,2,"2,64",0,0,42,1,4,55,0,"2,94",0,7,0,51,8
35,14.642205750608019,Nenê ,21,MEI,"12,94",28,125,Vasco,3,"3,60",7,0,0,5,"0,46",0,0,20,1,4,76,0,"3,56",0,5,0,28,14
35,14.642205750608019,Zé Rafael  ,16,MEI,"19,85",34,76,Bahia,3,"1,30",11,0,0,3,"-0,25",0,0,86,0,5,112,0,"6,32",0,5,0,68,25
35,14.642205750608019,Guilherme ,16,ATA,"5,68",29,67,Botafogo,1,"-1,70",2,0,2,4,"-0,40",0,0,19,1,1,47,0,"2,87",0,0,11,21,0
35,14.642205750608019,Crysan ,0,ATA,"4,00",0,0,Atlético-PR,2,"0,00",0,0,0,0,"0,00",0,0,0,0,0,0,0,"0,00",0,0,0,0,0
35,14.642205750608019,Edigar Junio ,7,ATA,"12,16",23,51,Bahia,3,"12,70",1,0,2,12,"-0,58",0,0,15,1,1,41,0,"5,77",0,0,14,34,0
36,20.68072022804781,Petkovic ,0,TEC,"5,94",1,0,Vitória,3,"3,39",0,0,0,0,"0,94",0,0,0,0,0,0,0,"3,39",0,0,0,0,0
36,20.68072022804781,Weverton ,0,GOL,"5,25",33,26,Atlético-PR,3,"4,00",0,0,0,0,"1,29",0,44,1,0,0,5,9,"2,84",39,1,0,0,0
36,20.68072022804781,Lucas Veríssimo ,7,ZAG,"8,55",33,52,Santos,3,"5,90",2,0,9,0,"1,22",0,0,40,0,0,21,17,"3,86",0,0,7,27,0
36,20.68072022804781,Juan ,6,ZAG,"6,12",13,14,Flamengo,3,"0,00",0,0,0,0,"0,00",0,0,19,1,2,7,3,"4,02",0,5,0,10,3
36,20.68072022804781,Victor Ferraz ,3,LAT,"9,55",21,68,Santos,3,"3,30",0,0,0,2,"-0,37",0,0,21,0,0,14,9,"3,42",0,3,0,19,2
36,20.68072022804781,Lucas ,6,LAT,"3,00",28,85,Fluminense,3,"3,60",9,0,0,0,"0,86",0,0,36,0,2,24,2,"1,09",0,9,0,47,5
36,20.68072022804781,João Paulo ,12,MEI,"3,96",29,114,Botafogo,3,"1,80",1,0,8,2,"-1,92",0,0,45,1,4,59,0,"2,90",0,0,8,54,0
36,20.68072022804781,Nenê ,22,MEI,"13,22",29,126,Vasco,3,"5,30",7,0,5,5,"0,28",0,0,22,1,4,79,0,"3,62",0,0,14,28,0
36,20.68072022804781,Zé Rafael  ,16,MEI,"20,12",35,80,Bahia,3,"3,50",11,0,5,3,"0,27",0,0,87,0,5,117,0,"6,24",0,0,26,69,0
36,20.68072022804781,Guilherme ,17,ATA,"6,88",30,70,Botafogo,1,"5,60",2,0,0,4,"1,20",0,0,23,1,1,49,0,"2,96",0,2,0,25,11
36,20.68072022804781,Crysan ,0,ATA,"4,00",0,0,Atlético-PR,2,"0,00",0,0,0,0,"0,00",0,0,0,0,0,0,0,"0,00",0,0,0,0,0
36,20.68072022804781,Edigar Junio ,7,ATA,"10,07",24,52,Bahia,3,"-0,30",1,0,0,12,"-2,09",0,0,15,1,1,43,0,"5,52",0,2,0,38,15
37,4.146980186480187,Abel Braga ,0,TEC,"11,78",35,0,Fluminense,3,"2,59",0,0,0,0,"-0,43",0,0,0,0,0,0,0,"3,14",0,0,0,0,0
37,4.146980186480187,Rafael Fachin ,0,GOL,"1,00",0,0,Coritiba,2,"0,00",0,0,0,0,"0,00",0,0,0,0,0,0,0,"0,00",0,0,0,0,0
37,4.146980186480187,Ronaldo Alves ,4,ZAG,"7,71",24,58,Sport,2,"0,00",3,0,5,1,"0,00",0,0,23,0,1,41,8,"3,31",0,0,5,25,0
37,4.146980186480187,Henrique ,1,ZAG,"8,65",26,41,Fluminense,3,"2,00",1,0,0,1,"-1,03",0,0,34,2,0,25,3,"2,76",0,4,0,21,2
37,4.146980186480187,Leandro Salino ,2,LAT,"5,87",7,22,Vitória,2,"0,00",0,0,1,0,"0,00",0,0,15,0,0,16,1,"3,40",0,0,0,15,0
37,4.146980186480187,Victor Luis ,8,LAT,"12,54",30,64,Botafogo,3,"0,00",1,0,0,1,"0,00",0,0,51,0,0,29,11,"4,30",0,5,0,27,2
37,4.146980186480187,Allione ,3,MEI,"9,57",25,81,Bahia,3,"2,50",5,0,0,0,"0,50",0,0,27,1,7,34,0,"2,28",0,5,0,27,4
37,4.146980186480187,Luiz Fernando  ,5,MEI,"4,19",32,62,Atlético-GO,3,"0,00",8,0,0,9,"-1,30",0,0,19,1,1,40,0,"2,78",0,7,0,41,10
37,4.146980186480187,Douglas ,3,MEI,"15,21",1,4,Vasco,3,"9,50",0,0,0,0,"3,21",0,0,3,1,0,2,0,"9,50",0,1,0,0,1
37,4.146980186480187,Rildo ,9,ATA,"9,02",33,85,Coritiba,3,"2,20",9,0,6,6,"0,84",0,0,33,0,2,112,0,"3,66",0,0,8,42,0
37,4.146980186480187,Keno ,14,ATA,"9,21",30,82,Palmeiras,3,"10,00",6,0,0,8,"0,33",0,0,29,2,5,36,0,"4,51",0,2,0,26,7
37,4.146980186480187,Lourency ,0,ATA,"3,00",0,0,Chapecoense,2,"0,00",0,0,0,0,"0,00",0,0,0,0,0,0,0,"0,00",0,0,0,0,0
