round,fitness,name,position,team,situation,price,meatches,average,last_score,difference,disarms,goals,assists,no_goals,fouls_suffered,strikes_out,strikes_defended,strikes_post,difficult_defense,penalty_defense,own_goal,red_card,yellow_card,goal_suffered,penalty_lost,fouls_commited,offsides,wrong_pass
0,10.53,Ney Franco ,0,TEC,"2,28",1,0,Sport,3,"-0,77",0,0,0,0,"-1,72",0,0,0,0,0,0,0,"-0,77",0,0,0,0,0
0,10.53,Martín Silva ,0,GOL,"12,73",1,0,Vasco,3,"4,00",0,0,0,0,"-1,27",0,4,0,0,0,0,0,"4,00",4,0,0,0,0
0,10.53,Yerry Mina ,0,ZAG,"17,40",1,2,Palmeiras,3,"6,60",0,0,0,0,"-0,60",0,0,1,0,0,0,1,"6,60",0,0,1,1,0
0,10.53,Durval ,0,ZAG,"6,00",0,0,Sport,2,"0,00",0,0,0,0,"0,00",0,0,0,0,0,0,0,"0,00",0,0,0,0,0
0,10.53,Sidcley ,0,LAT,"11,60",1,0,Atlético-PR,3,"9,40",0,0,0,0,"4,60",0,0,2,0,1,3,0,"9,40",0,0,0,1,0
0,10.53,Léo ,0,LAT,"5,80",1,1,Fluminense,3,"2,20",0,0,1,0,"-0,20",0,0,0,0,1,1,0,"2,20",0,0,1,4,0
0,10.53,Renato ,0,MEI,"8,42",1,2,Santos,3,"-0,10",0,0,0,0,"-3,58",0,0,0,0,0,1,0,"-0,10",0,0,0,0,0
0,10.53,Luiz Antonio  ,1,MEI,"6,44",1,2,Chapecoense,3,"0,10",0,0,0,0,"-2,56",0,0,0,0,0,0,0,"0,10",0,0,0,0,0
0,10.53,Arrascaeta ,1,MEI,"8,56",1,9,Cruzeiro,3,"7,10",0,0,0,0,"3,56",0,0,3,0,0,5,0,"7,10",0,0,2,1,0
0,10.53,Judivan  ,0,ATA,"4,00",0,0,Cruzeiro,2,"0,00",0,0,0,0,"0,00",0,0,0,0,0,0,0,"0,00",0,0,0,0,0
0,10.53,Romulo ,1,ATA,"9,48",1,3,Avaí,3,"6,40",0,0,0,0,"2,48",0,0,3,0,0,1,0,"6,40",0,0,1,0,0
0,10.53,Rafaelson ,2,ATA,"3,25",1,1,Vitória,3,"1,60",0,0,0,0,"0,25",0,0,0,0,0,1,0,"1,60",0,0,1,2,0
1,20.43,Ney Franco ,0,TEC,"2,28",1,0,Sport,3,"-0,77",0,0,0,0,"-1,72",0,0,0,0,0,0,0,"-0,77",0,0,0,0,0
1,20.43,Martín Silva ,0,GOL,"12,73",1,0,Vasco,3,"4,00",0,0,0,0,"-1,27",0,4,0,0,0,0,0,"4,00",4,0,0,0,0
1,20.43,Yerry Mina ,0,ZAG,"17,40",1,2,Palmeiras,3,"6,60",0,0,0,0,"-0,60",0,0,1,0,0,0,1,"6,60",0,0,0,1,1
1,20.43,Durval ,0,ZAG,"6,00",0,0,Sport,2,"0,00",0,0,0,0,"0,00",0,0,0,0,0,0,0,"0,00",0,0,0,0,0
1,20.43,Sidcley ,0,LAT,"11,60",1,0,Atlético-PR,3,"9,40",0,0,0,0,"4,60",0,0,2,0,1,3,0,"9,40",0,0,0,1,0
1,20.43,Léo ,0,LAT,"5,80",1,1,Fluminense,3,"2,20",0,0,0,0,"-0,20",0,0,0,0,1,1,0,"2,20",0,1,0,4,1
1,20.43,Renato ,0,MEI,"8,42",1,2,Santos,3,"-0,10",0,0,0,0,"-3,58",0,0,0,0,0,1,0,"-0,10",0,0,0,0,0
1,20.43,Luiz Antonio  ,1,MEI,"6,44",1,2,Chapecoense,3,"0,10",0,0,0,0,"-2,56",0,0,0,0,0,0,0,"0,10",0,0,0,0,0
1,20.43,Vinícius ,0,MEI,"2,00",0,0,Sport,2,"0,00",0,0,0,0,"0,00",0,0,0,0,0,0,0,"0,00",0,0,0,0,0
1,20.43,Walterson ,0,ATA,"3,32",1,0,Atlético-GO,3,"2,70",0,0,0,0,"1,32",0,0,1,0,0,1,0,"2,70",0,0,0,1,1
1,20.43,Romulo ,1,ATA,"9,48",1,3,Avaí,3,"6,40",0,0,0,0,"2,48",0,0,3,0,0,1,0,"6,40",0,0,0,0,1
1,20.43,Henrique Dourado ,0,ATA,"16,91",1,2,Fluminense,3,"15,90",0,0,0,2,"8,91",0,0,0,0,0,2,0,"15,90",0,0,0,1,0
2,47.87,Ney Franco ,0,TEC,"2,15",2,0,Sport,3,"1,62",0,0,0,0,"-0,13",0,0,0,0,0,0,0,"0,42",0,0,0,0,0
2,47.87,Felipe Garcia ,0,GOL,"4,69",1,1,Atlético-GO,3,"5,70",0,0,0,0,"1,69",0,4,0,0,0,0,0,"5,70",3,0,0,0,0
2,47.87,Rodrigo Caio ,0,ZAG,"10,63",2,3,São Paulo,3,"7,30",0,0,0,0,"0,30",0,0,4,0,0,0,1,"3,45",0,1,0,4,0
2,47.87,Marcio ,0,ZAG,"1,94",1,2,Coritiba,3,"1,10",0,0,0,0,"-0,06",0,0,1,0,0,2,0,"1,10",0,0,0,2,0
2,47.87,Guilherme Arana ,0,LAT,"4,87",2,8,Corinthians,3,"4,60",0,0,0,0,"0,84",0,0,1,0,0,1,1,"2,15",0,0,0,1,0
2,47.87,Jean ,1,LAT,"19,24",1,4,Palmeiras,3,"0,00",1,0,0,1,"0,00",0,0,1,0,0,0,1,"15,20",0,0,2,1,0
2,47.87,Yuri ,0,MEI,"1,00",0,0,Botafogo,2,"0,00",0,0,0,0,"0,00",0,0,0,0,0,0,0,"0,00",0,0,0,0,0
2,47.87,Cícero ,0,MEI,"8,95",1,2,São Paulo,3,"2,10",0,0,0,0,"-2,05",0,0,1,0,0,2,0,"2,10",0,0,0,0,0
2,47.87,Zé Rafael  ,1,MEI,"16,93",2,0,Bahia,3,"3,40",1,0,0,1,"2,15",0,0,3,0,1,2,0,"9,65",0,0,1,2,0
2,47.87,Henrique Dourado ,1,ATA,"21,82",2,6,Fluminense,3,"11,00",1,0,0,3,"4,91",0,0,0,0,1,2,0,"13,45",0,0,1,5,0
2,47.87,André Lima ,0,ATA,"8,00",0,0,Vitória,5,"0,00",0,0,0,0,"0,00",0,0,0,0,0,0,0,"0,00",0,0,0,0,0
2,47.87,Marcinho ,1,ATA,"3,94",2,2,São Paulo,3,"5,90",0,0,0,0,"2,24",0,0,1,0,1,2,0,"3,15",0,0,1,5,0
3,22.286666666666665,Dorival Júnior ,0,TEC,"10,94",3,0,Santos,3,"1,26",0,0,0,0,"-0,99",0,0,0,0,0,0,0,"2,97",0,0,0,0,0
3,22.286666666666665,Renan Ribeiro ,0,GOL,"9,92",3,3,São Paulo,3,"4,70",0,0,0,0,"0,62",0,2,0,0,0,0,2,"4,37",1,0,0,0,0
3,22.286666666666665,Werley ,1,ZAG,"6,15",3,7,Coritiba,3,"4,10",0,0,0,0,"1,00",0,0,2,0,0,0,1,"2,33",0,0,0,0,0
3,22.286666666666665,Rodrigo Caio ,0,ZAG,"10,60",3,9,São Paulo,3,"4,10",0,0,2,0,"-0,03",0,0,6,0,0,0,2,"3,67",0,0,0,5,0
3,22.286666666666665,Guilherme Arana ,0,LAT,"7,78",3,10,Corinthians,3,"10,40",1,0,0,0,"2,91",0,0,1,0,1,4,2,"4,90",0,0,0,1,0
3,22.286666666666665,Jean ,2,LAT,"16,51",2,10,Palmeiras,3,"-2,40",1,0,0,1,"-2,73",1,0,2,0,0,1,1,"6,40",0,0,0,1,2
3,22.286666666666665,Yuri ,0,MEI,"1,00",0,0,Botafogo,2,"0,00",0,0,0,0,"0,00",0,0,0,0,0,0,0,"0,00",0,0,0,0,0
3,22.286666666666665,Mateus Pet ,0,MEI,"5,02",1,1,Vasco,3,"5,10",0,0,0,0,"3,02",0,0,2,0,0,1,0,"5,10",0,0,0,1,2
3,22.286666666666665,Arrascaeta ,3,MEI,"9,34",3,13,Cruzeiro,5,"1,60",0,0,0,0,"-0,30",0,0,5,0,0,8,0,"3,90",0,0,0,4,3
3,22.286666666666665,Matheus Peixoto ,0,ATA,"1,00",0,0,Bahia,2,"0,00",0,0,0,0,"0,00",0,0,0,0,0,0,0,"0,00",0,0,0,0,0
3,22.286666666666665,Romulo ,3,ATA,"8,39",3,13,Avaí,3,"0,80",0,0,0,0,"-0,45",0,0,3,0,0,7,0,"2,43",0,0,0,1,1
3,22.286666666666665,Henrique Dourado ,2,ATA,"26,12",3,8,Fluminense,3,"18,30",1,0,0,5,"4,30",0,0,1,0,1,4,0,"15,07",0,0,0,6,1
4,3.479999999999998,Cuca ,0,TEC,"13,71",4,0,Palmeiras,3,"3,80",0,0,0,0,"0,42",0,0,0,0,0,0,0,"3,74",0,0,0,0,0
4,3.479999999999998,Deijair  ,0,GOL,"1,00",0,0,Bahia,2,"0,00",0,0,0,0,"0,00",0,0,0,0,0,0,0,"0,00",0,0,0,0,0
4,3.479999999999998,Thiago Heleno ,1,ZAG,"8,53",3,3,Atlético-PR,2,"2,50",0,0,0,1,"-0,45",0,0,4,0,0,2,0,"3,87",0,1,0,4,0
4,3.479999999999998,Victor Ramos ,0,ZAG,"8,56",4,14,Chapecoense,1,"2,40",0,0,0,0,"-0,04",0,0,6,0,0,0,3,"4,37",0,1,0,3,0
4,3.479999999999998,César ,0,LAT,"1,00",0,0,Atlético-MG,2,"0,00",0,0,0,0,"0,00",0,0,0,0,0,0,0,"0,00",0,0,0,0,0
4,3.479999999999998,Rodrigo Ramos ,0,LAT,"4,00",0,0,Coritiba,2,"0,00",0,0,0,0,"0,00",0,0,0,0,0,0,0,"0,00",0,0,0,0,0
4,3.479999999999998,Maxi Rodríguez ,0,MEI,"6,00",0,0,Grêmio,2,"0,00",0,0,0,0,"0,00",0,0,0,0,0,0,0,"0,00",0,0,0,0,0
4,3.479999999999998,Moisés ,0,MEI,"2,00",0,0,Chapecoense,2,"0,00",0,0,0,0,"0,00",0,0,0,0,0,0,0,"0,00",0,0,0,0,0
4,3.479999999999998,Luiz Antonio  ,1,MEI,"10,22",4,8,Chapecoense,3,"6,70",0,0,0,1,"1,20",0,0,3,1,1,0,0,"5,10",0,0,3,5,0
4,3.479999999999998,Maikon Leite ,0,ATA,"2,15",2,0,Bahia,2,"0,00",1,0,0,0,"0,00",0,0,0,0,0,1,0,"-0,50",0,0,0,2,0
4,3.479999999999998,Pedrinho ,0,ATA,"1,00",0,0,Corinthians,2,"0,00",0,0,0,0,"0,00",0,0,0,0,0,0,0,"0,00",0,0,0,0,0
4,3.479999999999998,Rogério ,0,ATA,"6,93",4,11,Sport,3,"0,50",0,0,0,0,"-0,39",0,0,2,0,0,8,0,"1,65",0,0,3,1,0
5,1.370000000000001,Pachequinho ,0,TEC,"9,70",5,0,Coritiba,3,"5,17",0,0,0,0,"0,31",0,0,0,0,0,0,0,"4,72",0,0,0,0,0
5,1.370000000000001,Léo Lopes ,0,GOL,"1,00",0,0,Avaí,2,"0,00",0,0,0,0,"0,00",0,0,0,0,0,0,0,"0,00",0,0,0,0,0
5,1.370000000000001,Ricardo Silva ,2,ZAG,"2,94",4,11,Atlético-GO,2,"0,00",0,0,1,0,"0,00",0,0,5,0,0,1,0,"0,28",0,0,0,8,0
5,1.370000000000001,Joel Carli ,0,ZAG,"9,15",3,7,Botafogo,3,"-2,90",0,0,0,0,"-1,83",0,0,4,0,0,1,2,"2,90",0,2,0,5,0
5,1.370000000000001,Egídio ,0,LAT,"5,63",2,8,Palmeiras,3,"0,40",0,0,0,0,"-1,03",0,0,3,0,0,1,1,"3,60",0,0,0,2,0
5,1.370000000000001,Guilherme Arana ,0,LAT,"8,03",5,18,Corinthians,3,"4,60",2,0,0,0,"0,56",0,0,2,0,2,6,3,"4,50",0,0,0,5,0
5,1.370000000000001,Jean Lucas ,0,MEI,"2,00",0,0,Flamengo,2,"0,00",0,0,0,0,"0,00",0,0,0,0,0,0,0,"0,00",0,0,0,0,0
5,1.370000000000001,Renato ,0,MEI,"6,77",4,6,Santos,3,"2,10",0,0,0,0,"0,13",0,0,2,0,0,7,0,"1,27",0,0,0,0,0
5,1.370000000000001,Jucilei ,1,MEI,"13,38",5,13,São Paulo,3,"6,80",0,0,0,0,"1,22",0,0,17,0,0,11,0,"4,74",0,0,0,15,0
5,1.370000000000001,Fernandinho ,0,ATA,"11,80",1,2,Grêmio,2,"0,00",0,0,0,2,"0,00",0,0,1,0,0,8,0,"21,10",0,0,0,0,0
5,1.370000000000001,Lucca ,3,ATA,"19,11",5,16,Ponte Preta,3,"2,10",1,0,0,4,"-1,50",0,0,5,0,0,13,0,"8,76",0,0,0,8,4
5,1.370000000000001,Maikon Leite ,0,ATA,"2,15",2,0,Bahia,2,"0,00",1,0,0,0,"0,00",0,0,0,0,0,1,0,"-0,50",0,0,0,2,0
6,3.9499999999999984,Zé Ricardo ,0,TEC,"10,31",6,0,Flamengo,3,"2,75",0,0,0,0,"0,11",0,0,0,0,0,0,0,"3,42",0,0,0,0,0
6,3.9499999999999984,Caio ,0,GOL,"1,00",0,0,Atlético-PR,2,"0,00",0,0,0,0,"0,00",0,0,0,0,0,0,0,"0,00",0,0,0,0,0
6,3.9499999999999984,Maicon ,2,ZAG,"9,20",5,16,São Paulo,3,"0,80",0,0,1,0,"-0,84",0,0,5,0,0,0,2,"2,82",0,0,1,0,0
6,3.9499999999999984,Paulão ,5,ZAG,"4,53",5,8,Vasco,3,"1,30",0,0,0,0,"0,05",0,0,3,0,0,3,0,"0,74",0,0,0,8,0
6,3.9499999999999984,Henrique ,1,LAT,"7,06",6,17,Vasco,3,"0,90",0,0,0,0,"-1,05",0,0,9,0,1,12,0,"3,23",0,0,1,7,0
6,3.9499999999999984,Cedric ,0,LAT,"2,00",0,0,Vitória,2,"0,00",0,0,0,0,"0,00",0,0,0,0,0,0,0,"0,00",0,0,0,0,0
6,3.9499999999999984,Rafael Carioca ,0,MEI,"7,16",6,12,Atlético-MG,3,"4,30",0,0,0,0,"0,53",0,0,10,0,0,10,0,"2,32",0,1,0,5,0
6,3.9499999999999984,Danilo Barcelos ,0,MEI,"5,30",1,4,Atlético-MG,2,"-0,20",0,0,0,0,"-1,70",0,0,0,0,0,0,0,"-0,20",0,0,1,0,0
6,3.9499999999999984,Michel  ,2,MEI,"7,89",5,14,Grêmio,3,"4,00",0,0,0,2,"-1,61",0,0,12,0,0,6,0,"6,12",0,0,0,12,0
6,3.9499999999999984,Lucca ,3,ATA,"21,96",6,19,Ponte Preta,3,"14,80",2,0,0,5,"2,85",0,0,6,0,1,17,0,"9,77",0,0,4,9,0
6,3.9499999999999984,Romulo ,6,ATA,"11,83",6,18,Avaí,3,"10,70",1,0,0,2,"2,36",0,0,6,0,0,14,0,"4,83",0,0,1,7,0
6,3.9499999999999984,Willian ,0,ATA,"5,85",6,11,Palmeiras,3,"6,60",2,0,1,0,"1,32",1,0,6,0,1,8,0,"0,65",0,0,1,13,0
7,10.975714285714282,Zé Ricardo ,0,TEC,"11,63",7,0,Flamengo,3,"8,48",0,0,0,0,"1,32",0,0,0,0,0,0,0,"4,14",0,0,0,0,0
7,10.975714285714282,Caio ,0,GOL,"1,00",0,0,Atlético-PR,2,"0,00",0,0,0,0,"0,00",0,0,0,0,0,0,0,"0,00",0,0,0,0,0
7,10.975714285714282,Maicon ,2,ZAG,"10,44",6,19,São Paulo,3,"7,00",0,0,0,0,"1,24",0,0,7,0,0,0,3,"3,52",0,1,0,1,1
7,10.975714285714282,Paulão ,5,ZAG,"4,21",6,10,Vasco,3,"0,10",0,0,0,0,"-0,32",0,0,4,0,0,4,0,"0,63",0,0,0,11,0
7,10.975714285714282,Henrique ,1,LAT,"6,85",7,18,Vasco,3,"0,60",0,0,0,0,"-0,21",0,0,11,0,1,13,0,"2,85",0,1,0,9,1
7,10.975714285714282,Cedric ,0,LAT,"2,00",0,0,Vitória,2,"0,00",0,0,0,0,"0,00",0,0,0,0,0,0,0,"0,00",0,0,0,0,0
7,10.975714285714282,Rafael Carioca ,0,MEI,"6,02",7,15,Atlético-MG,3,"-1,40",0,0,1,0,"-1,14",0,0,10,0,0,10,0,"1,79",0,0,0,6,0
7,10.975714285714282,Jorginho ,2,MEI,"7,32",7,29,Atlético-GO,3,"9,40",1,0,0,1,"2,34",0,0,12,0,0,14,0,"2,95",0,1,0,12,1
7,10.975714285714282,João Paulo ,2,MEI,"2,46",7,26,Botafogo,3,"4,80",1,0,0,0,"0,18",0,0,7,0,1,11,0,"1,14",0,2,0,15,4
7,10.975714285714282,Lucca ,5,ATA,"20,08",7,20,Ponte Preta,3,"3,10",2,0,0,5,"-1,88",0,0,6,0,1,19,0,"8,82",0,0,0,11,6
7,10.975714285714282,Romulo ,7,ATA,"10,38",7,20,Avaí,3,"1,30",2,0,0,2,"-1,45",0,0,7,0,0,14,0,"4,33",0,0,0,7,1
7,10.975714285714282,Willian ,1,ATA,"4,86",7,13,Palmeiras,3,"0,30",3,0,0,0,"-0,99",1,0,7,0,1,8,0,"0,60",0,2,0,15,3
8,46.71571428571429,Vagner Mancini ,0,TEC,"8,51",8,0,Chapecoense,3,"1,58",0,0,0,0,"-0,31",0,0,0,0,0,0,0,"3,28",0,0,0,0,0
8,46.71571428571429,Fernando Prass ,0,GOL,"16,60",8,4,Palmeiras,3,"8,00",0,0,0,0,"0,53",0,18,0,0,0,1,2,"5,91",8,0,0,0,0
8,46.71571428571429,Luiz Otávio  ,3,ZAG,"6,00",7,18,Chapecoense,3,"0,90",0,1,0,0,"-0,63",0,0,9,0,1,0,2,"2,36",0,2,0,7,2
8,46.71571428571429,Rodrigo Becão ,0,ZAG,"3,80",3,1,Bahia,3,"4,30",0,0,0,0,"0,04",0,0,3,0,0,2,1,"3,60",0,0,1,2,0
8,46.71571428571429,Reinaldo ,2,LAT,"12,02",8,42,Chapecoense,3,"0,70",0,0,0,2,"-0,23",0,0,12,0,0,6,3,"4,59",0,1,0,9,0
8,46.71571428571429,William Matheus ,1,LAT,"9,32",7,23,Coritiba,3,"9,00",1,0,3,0,"1,39",0,0,10,0,0,17,4,"4,54",0,0,4,10,0
8,46.71571428571429,Maycon ,4,MEI,"6,94",8,27,Corinthians,3,"0,20",0,0,0,1,"-0,43",0,0,12,0,0,2,0,"2,96",0,0,0,3,1
8,46.71571428571429,Renato ,1,MEI,"6,89",7,12,Santos,3,"2,20",0,0,0,0,"-0,21",0,0,7,0,0,11,0,"1,79",0,0,0,4,0
8,46.71571428571429,Diego Souza ,1,MEI,"16,75",3,18,Sport,3,"7,10",0,0,0,2,"-0,53",0,0,2,0,0,8,0,"4,90",0,1,0,6,1
8,46.71571428571429,Kleber ,6,ATA,"10,49",7,23,Coritiba,3,"0,00",5,1,0,1,"0,00",0,0,3,0,1,17,0,"1,84",0,1,0,21,9
8,46.71571428571429,Wellington Nem ,0,ATA,"8,25",4,3,São Paulo,3,"0,50",2,0,0,1,"-0,39",0,0,2,0,0,6,0,"3,00",0,0,0,1,0
8,46.71571428571429,Henrique Dourado ,4,ATA,"24,22",7,20,Fluminense,3,"6,40",1,0,0,8,"1,06",0,0,2,0,1,13,0,"9,46",0,2,0,16,3
9,27.353968253968247,Vagner Mancini ,0,TEC,"8,53",9,0,Chapecoense,3,"1,79",0,0,0,0,"0,02",0,0,0,0,0,0,0,"3,11",0,0,0,0,0
9,27.353968253968247,Fernando Prass ,0,GOL,"16,96",9,4,Palmeiras,3,"8,00",0,0,0,0,"0,36",0,19,0,0,0,1,3,"6,14",8,0,0,0,0
9,27.353968253968247,Marcio ,2,ZAG,"7,56",8,17,Coritiba,3,"2,60",1,0,0,1,"0,14",0,0,7,0,1,5,5,"5,09",0,2,0,9,1
9,27.353968253968247,Tiago  ,0,ZAG,"9,96",9,25,Bahia,3,"1,80",5,0,0,1,"0,12",0,0,10,0,0,10,3,"2,88",0,1,0,16,1
9,27.353968253968247,Reinaldo ,3,LAT,"11,72",9,47,Chapecoense,3,"0,20",0,0,1,2,"-0,30",0,0,12,0,0,6,3,"4,10",0,0,1,9,0
9,27.353968253968247,William Matheus ,1,LAT,"8,12",8,25,Coritiba,3,"0,90",1,0,0,0,"-1,20",0,0,10,0,0,20,4,"4,08",0,3,0,10,4
9,27.353968253968247,Maycon ,4,MEI,"6,75",9,29,Corinthians,3,"-0,10",0,0,0,1,"-0,19",0,0,12,0,0,3,0,"2,62",0,0,1,3,0
9,27.353968253968247,Renato ,1,MEI,"6,25",8,15,Santos,3,"-0,90",0,0,0,0,"-0,64",0,0,7,0,0,12,0,"1,45",0,0,0,5,0
9,27.353968253968247,Diego Souza ,1,MEI,"17,13",4,24,Sport,3,"7,70",0,0,1,3,"0,38",0,0,2,0,0,13,0,"5,60",0,0,2,10,0
9,27.353968253968247,Kleber ,6,ATA,"10,49",7,23,Coritiba,4,"0,00",5,1,1,1,"0,00",0,0,3,0,1,17,0,"1,84",0,0,9,21,0
9,27.353968253968247,Wellington Nem ,1,ATA,"7,38",5,3,São Paulo,2,"-2,80",2,0,1,1,"-0,87",0,0,2,0,0,6,0,"1,84",0,0,0,4,0
9,27.353968253968247,Henrique Dourado ,7,ATA,"25,81",8,22,Fluminense,3,"13,20",1,0,2,9,"1,59",0,0,3,0,1,16,0,"9,93",0,0,4,17,0
10,0.0,Cuca ,0,TEC,"13,45",10,0,Palmeiras,3,"0,00",0,0,0,0,"-0,50",0,0,0,0,0,0,0,"3,84",0,0,0,0,0
10,0.0,Fernando Prass ,0,GOL,"16,48",10,0,Palmeiras,3,"0,00",0,0,0,0,"-0,48",0,0,0,0,0,0,0,"5,93",0,0,0,0,0
10,0.0,Marcus Winícius ,0,ZAG,"3,00",0,0,Atlético-GO,2,"0,00",0,0,0,0,"0,00",0,0,0,0,0,0,0,"0,00",0,0,0,0,0
10,0.0,Tiago  ,0,ZAG,"9,61",10,0,Bahia,3,"0,00",0,0,0,0,"-0,35",0,0,0,0,0,0,0,"2,61",0,0,0,0,0
10,0.0,Euller  ,0,LAT,"6,31",2,0,Vitória,2,"0,00",0,0,0,0,"0,00",0,0,0,0,0,0,0,"2,35",0,0,0,0,0
10,0.0,Guilherme Arana ,0,LAT,"9,46",10,0,Corinthians,3,"0,00",0,0,0,0,"0,52",0,0,0,0,0,0,0,"4,57",0,0,0,0,0
10,0.0,Jadson ,0,MEI,"10,68",9,0,Corinthians,3,"0,00",0,0,0,0,"2,12",0,0,0,0,0,0,0,"1,88",0,0,0,0,0
10,0.0,Machado ,0,MEI,"4,11",1,0,Grêmio,2,"0,00",0,0,0,0,"0,00",0,0,0,0,0,0,0,"9,70",0,0,0,0,0
10,0.0,Seijas ,0,MEI,"7,21",8,0,Chapecoense,2,"0,00",0,0,0,0,"0,00",0,0,0,0,0,0,0,"3,08",0,0,0,0,0
10,0.0,Edigar Junio ,0,ATA,"9,52",10,0,Bahia,3,"0,00",0,0,0,0,"0,06",0,0,0,0,0,0,0,"2,75",0,0,0,0,0
10,0.0,Henrique Almeida ,0,ATA,"14,07",10,0,Coritiba,3,"0,00",0,0,0,0,"-0,02",0,0,0,0,0,0,0,"4,03",0,0,0,0,0
10,0.0,Judivan  ,0,ATA,"4,00",0,0,Cruzeiro,2,"0,00",0,0,0,0,"0,00",0,0,0,0,0,0,0,"0,00",0,0,0,0,0
11,20.950681818181817,Vagner Mancini ,0,TEC,"8,82",11,0,Chapecoense,3,"3,79",0,0,0,0,"0,66",0,0,0,0,0,0,0,"2,89",0,0,0,0,0
11,20.950681818181817,Fábio ,0,GOL,"12,40",11,6,Cruzeiro,3,"0,00",0,0,0,0,"-1,79",0,17,0,0,0,1,4,"4,11",12,0,0,1,0
11,20.950681818181817,Paulão ,6,ZAG,"5,33",10,20,Vasco,3,"3,10",0,0,2,0,"-0,16",0,0,7,0,1,7,2,"1,70",0,0,1,17,0
11,20.950681818181817,Henrique ,1,ZAG,"8,11",10,23,Fluminense,3,"-0,20",0,0,0,0,"-0,18",0,0,7,1,0,15,1,"1,22",0,2,0,13,1
11,20.950681818181817,Léo Moura ,2,LAT,"11,81",4,11,Grêmio,2,"0,00",1,0,0,0,"0,00",0,0,5,0,0,6,3,"6,02",0,0,1,2,0
11,20.950681818181817,Pará ,1,LAT,"8,93",8,18,Flamengo,3,"4,60",1,0,0,0,"-0,05",0,0,3,0,1,5,4,"2,67",0,0,0,12,0
11,20.950681818181817,Henrique ,1,MEI,"3,77",6,13,Cruzeiro,3,"0,00",0,1,2,0,"0,00",0,0,6,0,0,4,0,"-0,50",0,0,0,6,0
11,20.950681818181817,Renê Júnior ,6,MEI,"9,11",8,20,Bahia,3,"2,00",3,1,2,1,"0,58",0,0,24,0,0,18,0,"5,31",0,0,2,10,0
11,20.950681818181817,Wendel ,2,MEI,"12,82",9,21,Fluminense,3,"4,80",1,0,0,2,"-0,68",0,0,12,1,1,25,0,"5,83",0,0,6,11,0
11,20.950681818181817,Lucca ,9,ATA,"21,97",11,29,Ponte Preta,3,"8,40",4,0,0,7,"-0,17",0,0,12,0,1,37,0,"8,64",0,1,0,13,8
11,20.950681818181817,Wellington Paulista ,7,ATA,"10,54",11,19,Chapecoense,3,"1,20",3,0,2,3,"-0,06",0,0,2,1,0,15,0,"3,01",0,0,8,14,0
11,20.950681818181817,Emerson Sheik ,4,ATA,"4,53",6,17,Ponte Preta,4,"0,00",0,0,3,0,"0,00",0,0,4,0,1,20,0,"1,67",0,0,1,9,0
12,16.537763347763345,Marcelo Cabo ,0,TEC,"3,25",1,0,Atlético-GO,3,"2,60",0,0,0,0,"1,25",0,0,0,0,0,0,0,"2,60",0,0,0,0,0
12,16.537763347763345,Fábio ,0,GOL,"11,77",12,6,Cruzeiro,3,"-2,30",0,0,0,0,"-0,63",0,17,0,0,0,1,4,"3,58",12,0,0,1,0
12,16.537763347763345,Paulão ,6,ZAG,"4,39",11,20,Vasco,3,"-2,10",0,0,0,0,"-0,94",0,0,7,0,1,7,2,"1,35",0,2,0,17,1
12,16.537763347763345,Henrique ,1,ZAG,"8,27",11,23,Fluminense,3,"1,10",0,0,2,0,"0,16",0,0,7,1,0,15,1,"1,21",0,0,1,13,0
12,16.537763347763345,Léo Moura ,2,LAT,"11,81",4,11,Grêmio,5,"0,00",1,0,0,0,"0,00",0,0,5,0,0,6,3,"6,02",0,0,0,2,1
12,16.537763347763345,Pará ,1,LAT,"8,93",8,18,Flamengo,2,"0,00",1,0,0,0,"0,00",0,0,3,0,1,5,4,"2,67",0,0,0,12,0
12,16.537763347763345,Andrei Girotto ,8,MEI,"5,21",11,19,Chapecoense,3,"-0,40",1,0,4,1,"-2,17",0,0,15,0,2,12,0,"2,86",0,0,3,24,0
12,16.537763347763345,Renê Júnior ,6,MEI,"9,73",9,20,Bahia,3,"4,80",3,1,2,1,"0,62",0,0,24,0,0,18,0,"5,25",0,0,2,10,0
12,16.537763347763345,Jucilei ,4,MEI,"15,66",12,34,São Paulo,3,"9,60",0,0,0,1,"1,04",0,0,33,0,0,26,0,"5,86",0,0,1,20,0
12,16.537763347763345,Henrique Dourado ,7,ATA,"23,53",10,27,Fluminense,3,"2,40",1,0,2,9,"-0,30",0,0,3,0,1,20,0,"8,29",0,0,6,20,0
12,16.537763347763345,Wellington Paulista ,7,ATA,"10,54",12,19,Chapecoense,3,"1,40",3,0,0,3,"0,00",0,0,2,1,0,15,0,"2,88",0,2,0,14,8
12,16.537763347763345,Emerson Sheik ,4,ATA,"4,86",7,17,Ponte Preta,3,"1,20",0,0,0,0,"0,33",0,0,4,0,1,20,0,"1,60",0,3,0,9,1
13,23.378296703296694,Zé Ricardo ,0,TEC,"11,71",13,0,Flamengo,3,"2,00",0,0,0,0,"-0,58",0,0,0,0,0,0,0,"4,40",0,0,0,0,0
13,23.378296703296694,Jean ,0,GOL,"13,92",13,11,Bahia,3,"17,00",0,0,0,0,"3,64",0,20,0,0,0,1,4,"4,94",15,0,0,0,0
13,23.378296703296694,Kannemann ,1,ZAG,"10,56",10,22,Grêmio,3,"5,30",1,0,2,0,"0,57",0,0,9,1,0,5,5,"3,47",0,0,0,13,0
13,23.378296703296694,Henrique ,0,ZAG,"3,00",0,0,Avaí,2,"0,00",0,0,0,0,"0,00",0,0,0,0,0,0,0,"0,00",0,0,0,0,0
13,23.378296703296694,Reinaldo ,4,LAT,"11,77",13,55,Chapecoense,3,"-0,50",0,0,0,2,"-0,57",0,0,16,0,1,10,3,"3,77",0,1,0,12,3
13,23.378296703296694,Capa ,4,LAT,"11,49",13,72,Avaí,3,"2,90",4,0,2,0,"-0,48",0,0,23,0,1,30,5,"4,37",0,0,1,13,0
13,23.378296703296694,Jadson ,6,MEI,"10,65",12,61,Corinthians,3,"7,00",3,0,0,3,"0,44",0,0,5,0,1,4,0,"2,24",0,1,0,10,3
13,23.378296703296694,Thiago Maia ,5,MEI,"8,98",12,40,Santos,3,"6,20",0,0,0,1,"1,33",0,0,26,0,1,10,0,"3,61",0,4,0,21,2
13,23.378296703296694,André Castro ,1,MEI,"1,17",10,17,Atlético-GO,3,"-1,20",1,0,0,0,"-0,34",0,0,10,0,0,5,0,"0,48",0,2,0,11,1
13,23.378296703296694,Dudu ,1,ATA,"15,14",6,14,Palmeiras,3,"-2,50",3,0,0,0,"-0,40",0,0,5,0,0,17,0,"1,25",0,1,0,2,1
13,23.378296703296694,Rafael Sobis ,5,ATA,"10,62",7,10,Cruzeiro,3,"-0,70",1,0,2,2,"-0,20",0,0,0,0,1,9,0,"3,26",0,0,6,8,0
13,23.378296703296694,Arthur  ,12,ATA,"10,84",13,24,Chapecoense,3,"0,00",4,0,2,4,"-0,55",0,0,11,1,3,27,0,"5,80",0,0,7,19,0
14,15.309195526695525,Mano Menezes ,0,TEC,"12,33",14,0,Cruzeiro,3,"1,74",0,0,0,0,"-0,65",0,0,0,0,0,0,0,"3,79",0,0,0,0,0
14,15.309195526695525,Fábio ,0,GOL,"11,86",14,7,Cruzeiro,3,"-2,00",0,0,0,0,"-1,72",0,18,0,0,0,1,5,"3,50",13,0,0,1,0
14,15.309195526695525,Luan ,2,ZAG,"6,82",5,5,Palmeiras,2,"0,00",0,0,0,0,"0,00",0,0,7,0,0,1,2,"4,16",0,0,0,3,0
14,15.309195526695525,Rodrigo Caio ,0,ZAG,"8,45",10,22,São Paulo,3,"-3,80",0,0,0,0,"-1,41",0,0,20,0,0,6,2,"2,67",0,3,0,8,0
14,15.309195526695525,Zeca ,1,LAT,"11,45",2,1,Santos,5,"0,00",0,0,0,0,"0,00",0,0,0,0,0,1,1,"2,45",0,0,0,2,0
14,15.309195526695525,Trauco ,5,LAT,"5,68",9,41,Flamengo,4,"0,00",0,0,0,1,"0,00",0,0,6,0,0,5,5,"2,88",0,3,0,16,3
14,15.309195526695525,Renê Júnior ,9,MEI,"13,08",11,26,Bahia,3,"15,80",3,1,2,2,"0,39",0,0,31,0,0,21,0,"7,41",0,0,5,13,0
14,15.309195526695525,Lucas Mineiro ,2,MEI,"1,98",6,7,Chapecoense,3,"0,00",0,0,2,0,"0,17",0,0,4,0,0,4,0,"-0,40",0,0,0,13,0
14,15.309195526695525,Cuéllar ,0,MEI,"3,78",9,16,Flamengo,3,"-0,30",0,0,0,0,"-0,09",0,0,18,0,0,2,0,"2,17",0,2,0,10,2
14,15.309195526695525,Henrique Dourado ,8,ATA,"23,53",10,28,Fluminense,3,"0,00",1,0,3,9,"0,00",0,0,3,0,2,21,0,"8,29",0,0,6,23,0
14,15.309195526695525,Wellington Nem ,2,ATA,"7,04",8,5,São Paulo,3,"-2,10",2,0,0,1,"-0,91",0,0,3,0,0,15,0,"1,43",0,1,0,8,0
14,15.309195526695525,Luan ,13,ATA,"22,49",12,55,Grêmio,3,"0,40",2,0,0,5,"-2,04",1,0,20,0,6,23,0,"8,92",0,1,0,16,13
15,32.53551282051281,Milton Mendes ,0,TEC,"8,73",15,0,Vasco,3,"1,24",0,0,0,0,"-0,65",0,0,0,0,0,0,0,"3,39",0,0,0,0,0
15,32.53551282051281,Jean ,0,GOL,"14,35",15,13,Bahia,3,"18,00",0,0,1,0,"3,59",0,29,0,0,0,1,6,"5,31",16,0,0,0,0
15,32.53551282051281,Balbuena ,3,ZAG,"10,60",12,23,Corinthians,3,"6,40",2,0,0,2,"0,44",0,0,11,0,0,10,9,"6,33",0,1,0,4,1
15,32.53551282051281,Pedro Geromel ,3,ZAG,"13,66",11,26,Grêmio,3,"0,00",0,0,0,0,"0,00",0,0,26,0,1,7,7,"7,05",0,2,0,7,3
15,32.53551282051281,João Lucas ,0,LAT,"11,26",10,43,Ponte Preta,2,"0,00",1,0,0,0,"0,00",0,0,14,0,1,6,4,"3,39",0,1,0,7,1
15,32.53551282051281,Léo Moura ,2,LAT,"11,81",4,11,Grêmio,5,"0,00",1,0,0,0,"0,00",0,0,5,0,0,6,3,"6,02",0,0,0,2,1
15,32.53551282051281,Lucas Marques ,2,MEI,"1,76",5,16,Chapecoense,3,"0,30",0,0,0,2,"-1,10",0,0,5,1,0,2,0,"3,42",0,2,0,9,0
15,32.53551282051281,Nikão ,5,MEI,"8,55",13,37,Atlético-PR,3,"0,50",1,0,0,1,"-0,10",0,0,8,1,2,26,0,"3,00",0,2,0,16,11
15,32.53551282051281,Matheus Fernandes ,5,MEI,"5,16",11,15,Botafogo,3,"8,10",0,0,0,0,"0,77",0,0,25,0,0,8,0,"3,24",0,1,0,16,0
15,32.53551282051281,Richarlison  ,6,ATA,"13,50",12,30,Fluminense,3,"6,10",11,0,3,5,"-1,35",0,0,20,0,2,32,0,"6,23",0,0,6,30,0
15,32.53551282051281,Fernandinho ,4,ATA,"12,83",11,20,Grêmio,3,"16,50",0,0,1,4,"2,67",0,0,8,0,1,30,0,"5,63",0,0,7,11,0
15,32.53551282051281,Douglas Coutinho  ,5,ATA,"2,74",13,25,Atlético-PR,3,"2,20",3,0,0,0,"0,47",0,0,5,0,1,8,0,"1,16",0,0,7,8,0
16,5.4788636363636325,Zé Ricardo ,0,TEC,"12,32",16,0,Flamengo,3,"5,18",0,0,0,0,"0,31",0,0,0,0,0,0,0,"4,36",0,0,0,0,0
16,5.4788636363636325,Wilson ,0,GOL,"12,93",16,9,Coritiba,3,"2,70",0,0,0,0,"0,80",0,28,0,0,0,3,5,"4,41",20,0,0,0,0
16,5.4788636363636325,Luan ,2,ZAG,"7,77",7,6,Palmeiras,3,"8,10",0,0,0,0,"1,59",0,0,8,0,0,3,2,"4,11",0,1,0,6,1
16,5.4788636363636325,Rodrigo Caio ,1,ZAG,"8,94",12,25,São Paulo,3,"-0,30",1,0,0,0,"-0,90",0,0,20,0,0,7,3,"2,67",0,4,0,10,0
16,5.4788636363636325,Zeca ,1,LAT,"11,45",2,1,Santos,5,"0,00",0,0,0,0,"0,00",0,0,0,0,0,1,1,"2,45",0,0,0,2,0
16,5.4788636363636325,Trauco ,6,LAT,"6,46",11,45,Flamengo,3,"2,70",0,0,0,1,"0,16",0,0,8,0,0,5,5,"2,82",0,3,0,17,3
16,5.4788636363636325,Renê Júnior ,13,MEI,"10,88",12,31,Bahia,3,"1,80",3,1,3,3,"-2,20",0,0,36,0,0,23,0,"6,94",0,0,5,15,0
16,5.4788636363636325,Abuda ,0,MEI,"5,39",1,2,Atlético-GO,2,"0,00",0,0,0,0,"0,00",0,0,2,0,0,1,0,"3,30",0,0,0,0,0
16,5.4788636363636325,Yan ,0,MEI,"1,00",0,0,Coritiba,2,"0,00",0,0,0,0,"0,00",0,0,0,0,0,0,0,"0,00",0,0,0,0,0
16,5.4788636363636325,Henrique Dourado ,8,ATA,"21,99",11,28,Fluminense,2,"-0,10",1,0,3,9,"-1,54",0,0,3,0,2,21,0,"7,53",0,0,6,23,0
16,5.4788636363636325,Rafael Sobis ,6,ATA,"10,77",9,14,Cruzeiro,3,"3,30",1,0,0,2,"0,64",0,0,0,0,1,10,0,"2,64",0,3,0,10,6
16,5.4788636363636325,Arthur  ,13,ATA,"12,11",15,32,Chapecoense,3,"8,50",5,0,0,4,"1,52",0,0,14,1,3,30,0,"5,65",0,3,0,22,7
17,19.484875418698945,Zé Ricardo ,0,TEC,"9,51",1,0,Flamengo,3,"2,45",0,0,0,0,"-1,49",0,0,0,0,0,0,0,"2,45",0,0,0,0,0
17,19.484875418698945,Wilson ,0,GOL,"13,37",17,10,Coritiba,3,"6,00",0,0,0,0,"0,44",0,32,0,0,0,3,5,"4,50",24,1,1,0,0
17,19.484875418698945,Luan ,3,ZAG,"7,80",8,9,Palmeiras,3,"7,30",0,0,1,0,"0,03",0,0,11,0,0,8,4,"4,51",0,0,1,10,0
17,19.484875418698945,Fabián Noguera ,2,ZAG,"5,29",4,4,Santos,2,"0,00",0,0,0,0,"0,00",0,0,4,0,1,1,2,"5,50",0,0,0,1,0
17,19.484875418698945,Breno ,0,LAT,"1,00",0,0,Atlético-PR,2,"0,00",0,0,0,0,"0,00",0,0,0,0,0,0,0,"0,00",0,0,0,0,0
17,19.484875418698945,Mena ,1,LAT,"5,94",7,16,Sport,3,"4,70",3,1,0,1,"0,50",0,0,15,0,4,6,3,"7,13",0,2,0,16,1
17,19.484875418698945,Renê Júnior ,15,MEI,"11,66",13,36,Bahia,3,"6,80",3,1,0,3,"0,78",0,0,42,0,0,27,0,"6,93",0,3,0,24,6
17,19.484875418698945,Abuda ,0,MEI,"6,00",0,0,Atlético-GO,2,"0,00",0,0,0,0,"0,00",0,0,0,0,0,0,0,"0,00",0,0,0,0,0
17,19.484875418698945,Gabriel Xavier ,0,MEI,"5,00",0,0,Vitória,5,"0,00",0,0,0,0,"0,00",0,0,0,0,0,0,0,"0,00",0,0,0,0,0
17,19.484875418698945,Henrique Dourado ,8,ATA,"21,99",11,34,Fluminense,3,"0,00",1,0,0,9,"0,00",0,0,4,0,2,22,0,"7,53",0,3,0,24,6
17,19.484875418698945,Rafael Sobis ,0,ATA,"13,00",0,0,Cruzeiro,5,"0,00",0,0,0,0,"0,00",0,0,0,0,0,0,0,"0,00",0,0,0,0,0
17,19.484875418698945,Arthur  ,15,ATA,"11,23",16,36,Chapecoense,3,"3,40",5,0,3,4,"-0,88",0,0,15,1,4,36,0,"5,51",0,0,11,26,0
18,0.0,Rogério Ceni ,0,TEC,"7,39",1,0,São Paulo,3,"2,45",0,0,0,0,"-0,61",0,0,0,0,0,0,0,"2,45",0,0,0,0,0
18,0.0,Wilson ,0,GOL,"14,71",18,10,Coritiba,3,"11,00",0,0,2,0,"1,34",0,37,0,0,0,3,5,"4,86",25,0,0,0,1
18,0.0,Luan ,5,ZAG,"7,08",9,10,Palmeiras,2,"1,60",0,0,0,0,"-0,72",0,0,11,0,0,9,4,"4,19",0,1,0,10,1
18,0.0,Fabián Noguera ,2,ZAG,"5,29",4,4,Santos,3,"0,00",0,0,0,0,"0,00",0,0,4,0,1,1,2,"5,50",0,0,0,1,0
18,0.0,Breno ,0,LAT,"1,00",0,0,Atlético-PR,2,"0,00",0,0,0,0,"0,00",0,0,0,0,0,0,0,"0,00",0,0,0,0,0
18,0.0,Mena ,1,LAT,"5,12",8,18,Sport,4,"-0,90",3,1,3,1,"-0,82",0,0,16,0,4,8,3,"6,13",0,0,1,18,0
18,0.0,Renê Júnior ,15,MEI,"11,36",14,40,Bahia,3,"3,20",3,1,3,3,"-0,30",0,0,44,0,0,30,0,"6,66",0,0,7,27,0
18,0.0,Lucas Otávio  ,0,MEI,"3,21",6,3,Avaí,2,"0,00",0,0,0,0,"0,00",0,0,4,0,0,1,0,"0,90",0,0,0,2,0
18,0.0,Rodrigo Lindoso ,2,MEI,"9,73",14,41,Botafogo,2,"-2,80",0,0,0,2,"-1,58",0,0,30,0,1,13,0,"4,22",0,2,0,15,3
18,0.0,Kayke ,9,ATA,"4,35",15,37,Santos,2,"-0,50",8,0,0,3,"-0,65",1,0,3,0,1,6,0,"1,59",0,0,7,16,0
18,0.0,Raniel ,1,ATA,"0,79",6,1,Cruzeiro,2,"0,50",0,0,1,0,"0,01",0,0,0,0,0,7,0,"0,15",0,0,0,2,0
18,0.0,Ricardo Oliveira ,7,ATA,"10,91",6,7,Santos,3,"7,70",1,0,0,1,"1,84",0,0,0,1,0,5,0,"1,80",0,1,0,11,2
19,0.0,Rogério Ceni ,0,TEC,"7,39",1,0,São Paulo,3,"2,45",0,0,0,0,"-0,61",0,0,0,0,0,0,0,"2,45",0,0,0,0,0
19,0.0,Fábio ,0,GOL,"13,04",19,9,Cruzeiro,1,"4,40",0,0,0,0,"-0,67",0,23,0,0,0,2,8,"3,95",16,0,0,1,0
19,0.0,Rodrigo Caio ,3,ZAG,"9,52",14,27,São Paulo,3,"0,00",1,0,0,0,"0,00",0,0,22,1,0,8,3,"2,64",0,6,0,11,1
19,0.0,David Braz ,5,ZAG,"12,13",16,42,Santos,3,"0,00",2,1,5,2,"0,00",0,0,16,0,1,8,10,"4,41",0,0,1,15,0
19,0.0,Diego Renan ,3,LAT,"4,82",6,17,Chapecoense,2,"-0,10",0,0,1,0,"-0,65",0,0,2,0,1,6,1,"1,98",0,0,3,5,0
19,0.0,Sidcley ,4,LAT,"13,61",17,63,Atlético-PR,3,"5,10",9,0,0,3,"-0,31",0,0,24,0,3,29,7,"5,87",0,1,0,20,3
19,0.0,Julio dos Santos ,0,MEI,"5,00",0,0,Vasco,2,"0,00",0,0,0,0,"0,00",0,0,0,0,0,0,0,"0,00",0,0,0,0,0
19,0.0,Tchê Tchê ,3,MEI,"6,96",15,38,Palmeiras,2,"4,10",1,1,0,0,"0,87",0,0,17,0,2,14,0,"0,94",0,3,0,28,3
19,0.0,Ederson ,1,MEI,"4,25",5,8,Flamengo,5,"0,00",0,0,0,0,"0,00",0,0,2,0,0,9,0,"0,94",0,0,0,5,1
19,0.0,Henrique Dourado ,8,ATA,"22,77",13,39,Fluminense,3,"8,60",1,0,0,10,"1,07",0,0,6,0,2,26,0,"7,06",0,3,0,30,6
19,0.0,Rafael Sobis ,9,ATA,"9,69",12,27,Cruzeiro,3,"-1,40",1,0,3,2,"-0,51",0,0,4,0,1,11,0,"2,08",0,0,8,16,0
19,0.0,Arthur  ,16,ATA,"11,82",18,41,Chapecoense,2,"5,10",5,0,3,4,"-0,39",0,0,18,1,5,43,0,"5,58",0,0,13,31,0
20,3.684722222222224,Abel Braga ,0,TEC,"12,05",18,0,Fluminense,3,"3,86",0,0,0,0,"0,09",0,0,0,0,0,0,0,"3,30",0,0,0,0,0
20,3.684722222222224,Wilson ,0,GOL,"12,58",20,12,Coritiba,3,"-2,00",0,0,2,0,"-1,56",0,38,0,0,0,3,6,"4,64",26,0,0,0,1
20,3.684722222222224,Luan ,5,ZAG,"7,24",10,11,Palmeiras,3,"3,10",0,0,0,0,"0,16",0,0,13,0,0,10,4,"4,08",0,1,0,11,1
20,3.684722222222224,Renato Chaves ,0,ZAG,"4,56",4,5,Fluminense,3,"9,50",1,0,0,1,"1,90",0,0,4,0,0,1,1,"3,58",0,1,0,6,1
20,3.684722222222224,Guilherme Arana ,2,LAT,"11,24",18,58,Corinthians,2,"0,00",4,0,0,2,"0,00",0,0,9,0,2,23,13,"4,99",0,3,0,12,2
20,3.684722222222224,Mena ,1,LAT,"6,78",9,22,Sport,3,"8,90",3,1,3,1,"1,66",0,0,19,0,4,9,4,"6,44",0,0,1,19,0
20,3.684722222222224,Renê Júnior ,16,MEI,"11,87",16,46,Bahia,3,"7,00",3,1,3,3,"1,31",0,0,48,0,0,36,0,"6,25",0,0,7,31,0
20,3.684722222222224,Lucas Otávio  ,0,MEI,"3,21",6,3,Avaí,2,"0,00",0,0,0,0,"0,00",0,0,4,0,0,1,0,"0,90",0,0,0,2,0
20,3.684722222222224,Rodrigo Lindoso ,2,MEI,"9,80",15,43,Botafogo,2,"0,00",0,0,0,2,"0,00",0,0,30,0,1,13,0,"3,90",0,2,0,15,3
20,3.684722222222224,Patrick ,0,ATA,"1,00",0,0,Sport,2,"0,00",0,0,0,0,"0,00",0,0,0,0,0,0,0,"0,00",0,0,0,0,0
20,3.684722222222224,Everaldo ,1,ATA,"6,30",1,1,Atlético-GO,3,"4,90",1,0,0,0,"2,30",0,0,0,0,0,0,0,"4,90",0,0,5,0,0
20,3.684722222222224,Ricardo Oliveira ,9,ATA,"9,58",8,10,Santos,3,"0,40",2,0,0,1,"-0,18",0,0,1,1,0,6,0,"1,56",0,1,0,12,2
21,17.917881373872078,Ney Franco ,0,TEC,"2,28",1,0,Sport,3,"-0,77",0,0,0,0,"-1,72",0,0,0,0,0,0,0,"-0,77",0,0,0,0,0
21,17.917881373872078,Jean ,0,GOL,"11,89",21,15,Bahia,3,"4,70",0,0,2,0,"0,45",0,39,0,0,0,1,7,"4,17",28,0,0,1,0
21,17.917881373872078,Lucas Veríssimo ,3,ZAG,"8,31",19,33,Santos,3,"7,90",1,0,4,0,"0,58",0,0,21,0,0,11,12,"4,37",0,0,4,12,0
21,17.917881373872078,Pedro Geromel ,3,ZAG,"13,74",13,31,Grêmio,5,"0,00",0,0,0,0,"0,00",0,0,31,0,2,8,7,"6,74",0,3,0,8,3
21,17.917881373872078,Eduardo ,3,LAT,"7,57",20,105,Bahia,3,"10,00",2,0,0,0,"1,60",0,0,37,0,1,19,7,"2,91",0,5,0,30,1
21,17.917881373872078,Mena ,1,LAT,"5,35",10,27,Sport,3,"0,20",3,1,0,1,"-1,43",0,0,20,0,4,10,4,"5,82",0,3,0,20,1
21,17.917881373872078,Renê Júnior ,16,MEI,"11,06",17,47,Bahia,3,"2,70",3,1,0,3,"-0,81",0,0,48,0,0,40,0,"6,04",0,3,0,31,8
21,17.917881373872078,Rithely ,15,MEI,"10,95",18,61,Sport,3,"2,00",1,0,4,1,"-0,61",0,0,44,0,2,17,0,"4,36",0,0,6,25,0
21,17.917881373872078,Otávio  ,0,MEI,"12,00",0,0,Atlético-PR,2,"0,00",0,0,0,0,"0,00",0,0,0,0,0,0,0,"0,00",0,0,0,0,0
21,17.917881373872078,Lucca ,18,ATA,"20,16",20,55,Ponte Preta,3,"-1,40",6,0,0,10,"-0,99",1,0,19,0,1,67,0,"7,16",0,3,0,23,20
21,17.917881373872078,Léo Santos ,0,ATA,"3,00",0,0,Coritiba,2,"0,00",0,0,0,0,"0,00",0,0,0,0,0,0,0,"0,00",0,0,0,0,0
21,17.917881373872078,David ,16,ATA,"4,57",20,53,Vitória,3,"0,30",7,0,4,2,"-0,13",0,0,11,2,4,11,0,"2,32",0,0,6,21,0
22,0.0,Ney Franco ,0,TEC,"2,28",1,0,Sport,3,"-0,77",0,0,0,0,"-1,72",0,0,0,0,0,0,0,"-0,77",0,0,0,0,0
22,0.0,Jean ,0,GOL,"11,45",22,18,Bahia,3,"1,10",0,0,0,0,"-0,44",0,41,0,0,0,1,7,"4,03",30,2,0,1,0
22,0.0,Lucas Veríssimo ,3,ZAG,"6,96",20,34,Santos,3,"-1,10",1,0,0,0,"-1,35",0,0,22,0,0,11,12,"4,10",0,5,0,13,4
22,0.0,Pedro Geromel ,3,ZAG,"13,74",13,31,Grêmio,5,"0,00",0,0,3,0,"0,00",0,0,31,0,2,8,7,"6,74",0,0,3,8,0
22,0.0,Eduardo ,3,LAT,"6,13",21,111,Bahia,3,"0,10",2,0,5,0,"-1,44",0,0,39,0,1,19,7,"2,78",0,0,1,33,0
22,0.0,Mena ,1,LAT,"5,35",10,27,Sport,2,"0,00",3,1,3,1,"0,00",0,0,20,0,4,10,4,"5,82",0,0,1,20,0
22,0.0,Renê Júnior ,17,MEI,"13,35",18,48,Bahia,3,"14,20",3,1,3,4,"2,29",0,0,52,0,0,40,0,"6,49",0,0,8,33,0
22,0.0,Adilson ,2,MEI,"4,06",12,22,Atlético-MG,3,"0,90",1,0,4,0,"0,15",0,0,14,0,0,10,0,"0,30",0,0,0,23,0
22,0.0,Otávio  ,0,MEI,"12,00",0,0,Atlético-PR,2,"0,00",0,0,0,0,"0,00",0,0,0,0,0,0,0,"0,00",0,0,0,0,0
22,0.0,Lucca ,18,ATA,"20,16",20,55,Ponte Preta,4,"0,00",6,0,3,10,"0,00",1,0,19,0,1,67,0,"7,16",0,0,20,23,0
22,0.0,Eduardo da Silva ,1,ATA,"5,87",5,5,Atlético-PR,2,"0,00",1,0,0,0,"0,00",0,0,4,0,0,1,0,"1,40",0,0,4,6,0
22,0.0,David ,16,ATA,"4,49",21,54,Vitória,3,"-0,30",9,0,0,2,"-0,08",0,0,11,2,4,12,0,"2,20",0,4,0,22,7
23,5.4935629968810735,Ney Franco ,0,TEC,"2,28",1,0,Sport,3,"-0,77",0,0,0,0,"-1,72",0,0,0,0,0,0,0,"-0,77",0,0,0,0,0
23,5.4935629968810735,Jean ,0,GOL,"11,95",23,18,Bahia,3,"4,00",0,0,2,0,"0,50",0,43,0,0,0,1,7,"4,03",31,0,0,1,0
23,5.4935629968810735,Lucas Veríssimo ,3,ZAG,"7,81",21,35,Santos,3,"3,90",1,0,6,0,"0,85",0,0,23,0,0,11,13,"4,09",0,0,4,14,0
23,5.4935629968810735,Pedro Geromel ,3,ZAG,"13,74",13,31,Grêmio,2,"0,00",0,0,0,0,"0,00",0,0,31,0,2,8,7,"6,74",0,3,0,8,3
23,5.4935629968810735,Eduardo ,4,LAT,"6,39",22,115,Bahia,3,"1,70",2,0,0,0,"0,26",0,0,40,0,1,20,7,"2,73",0,5,0,33,1
23,5.4935629968810735,Mena ,1,LAT,"6,15",11,28,Sport,3,"4,50",3,1,0,1,"0,80",0,0,24,0,4,11,4,"5,70",0,4,0,21,1
23,5.4935629968810735,Renê Júnior ,20,MEI,"12,22",19,49,Bahia,3,"5,90",3,1,0,4,"-1,13",0,0,55,0,0,40,0,"6,46",0,3,0,35,8
23,5.4935629968810735,Adilson ,2,MEI,"4,06",13,23,Atlético-MG,3,"0,90",1,0,0,0,"0,00",0,0,15,0,0,11,0,"0,35",0,4,0,25,0
23,5.4935629968810735,Otávio  ,0,MEI,"12,00",0,0,Atlético-PR,2,"0,00",0,0,0,0,"0,00",0,0,0,0,0,0,0,"0,00",0,0,0,0,0
23,5.4935629968810735,Daniel dos Anjos ,0,ATA,"3,00",0,0,Atlético-GO,2,"0,00",0,0,0,0,"0,00",0,0,0,0,0,0,0,"0,00",0,0,0,0,0
23,5.4935629968810735,Eduardo da Silva ,1,ATA,"5,87",5,5,Atlético-PR,2,"0,00",1,0,0,0,"0,00",0,0,4,0,0,1,0,"1,40",0,0,0,6,4
23,5.4935629968810735,David ,17,ATA,"4,34",22,56,Vitória,3,"-0,90",10,0,4,2,"-0,15",0,0,11,2,4,12,0,"2,06",0,0,7,23,0
24,2.551482873851296,Abel Braga ,0,TEC,"11,47",22,0,Fluminense,3,"0,94",0,0,0,0,"-0,17",0,0,0,0,0,0,0,"3,05",0,0,0,0,0
24,2.551482873851296,Felipe Garcia ,0,GOL,"3,00",0,0,Atlético-GO,2,"0,00",0,0,0,0,"0,00",0,0,0,0,0,0,0,"0,00",0,0,0,0,0
24,2.551482873851296,David Braz ,5,ZAG,"10,53",18,44,Santos,3,"0,00",2,1,6,2,"0,00",0,0,17,0,1,9,11,"4,12",0,0,1,17,0
24,2.551482873851296,Rodrigo Caio ,7,ZAG,"8,78",19,39,São Paulo,3,"-0,20",1,0,7,0,"0,20",0,0,28,1,0,12,3,"2,41",0,0,1,12,0
24,2.551482873851296,Reinaldo ,6,LAT,"13,72",19,93,Chapecoense,3,"11,50",1,0,5,3,"1,62",0,0,34,0,3,17,5,"4,61",0,0,4,25,0
24,2.551482873851296,Fagner ,3,LAT,"13,80",19,93,Corinthians,3,"8,30",2,0,0,0,"1,20",0,0,34,2,2,30,12,"5,48",0,5,0,20,1
24,2.551482873851296,Rithely ,17,MEI,"10,84",20,65,Sport,3,"0,90",1,0,5,1,"-0,56",0,0,48,0,2,19,0,"4,18",0,0,7,29,0
24,2.551482873851296,Judson ,9,MEI,"4,09",21,47,Avaí,3,"1,10",0,0,0,0,"0,07",0,0,34,0,1,12,0,"1,15",0,7,0,50,2
24,2.551482873851296,Daniel ,0,MEI,"1,00",0,0,Atlético-MG,2,"0,00",0,0,0,0,"0,00",0,0,0,0,0,0,0,"0,00",0,0,0,0,0
24,2.551482873851296,Rossi ,0,ATA,"9,48",1,1,Chapecoense,3,"5,40",0,0,0,0,"1,48",0,0,1,1,0,1,0,"5,40",0,0,0,0,0
24,2.551482873851296,Maranhão ,0,ATA,"3,00",0,0,Fluminense,2,"0,00",0,0,0,0,"0,00",0,0,0,0,0,0,0,"0,00",0,0,0,0,0
24,2.551482873851296,Lucas Barrios ,3,ATA,"9,33",12,18,Grêmio,2,"0,70",7,0,3,4,"-0,46",0,0,8,0,1,15,0,"3,57",0,0,5,15,0
25,23.93739629459023,Dorival Júnior ,0,TEC,"12,19",1,0,Santos,3,"2,23",0,0,0,0,"-2,81",0,0,0,0,0,0,0,"2,23",0,0,0,0,0
25,23.93739629459023,Victor ,0,GOL,"9,78",23,13,Atlético-MG,3,"-6,30",0,0,0,0,"-0,98",0,36,0,0,0,3,4,"3,86",29,3,4,2,0
25,23.93739629459023,Paulo André ,0,ZAG,"4,30",15,32,Atlético-PR,3,"0,80",0,0,0,0,"-0,55",0,0,13,1,0,11,4,"1,93",0,4,0,13,2
25,23.93739629459023,Marcão ,0,ZAG,"4,39",1,1,Atlético-PR,4,"3,20",0,1,0,1,"1,39",0,0,0,0,0,0,0,"3,20",0,0,2,3,0
25,23.93739629459023,Leandro Silva ,8,LAT,"8,05",24,105,Avaí,3,"-1,70",2,1,1,0,"-1,45",0,0,32,0,3,21,10,"3,49",0,0,4,32,0
25,23.93739629459023,Egídio ,2,LAT,"9,55",14,59,Palmeiras,3,"12,10",2,0,0,1,"0,78",0,0,31,0,1,18,7,"5,89",0,3,0,14,3
25,23.93739629459023,Matheus Galdezani ,14,MEI,"8,04",23,92,Coritiba,3,"4,90",1,0,0,1,"0,66",0,0,40,0,1,41,0,"2,70",0,6,0,45,13
25,23.93739629459023,Guilherme ,7,MEI,"8,79",11,47,Atlético-PR,3,"-1,30",2,0,3,3,"-0,31",0,0,10,0,3,13,0,"3,62",0,0,4,21,0
25,23.93739629459023,Diego Souza ,10,MEI,"13,95",16,67,Sport,3,"-6,50",2,1,0,6,"-0,99",0,0,6,3,1,38,0,"3,38",0,6,0,25,5
25,23.93739629459023,Luis Henrique ,0,ATA,"4,00",0,0,Atlético-PR,2,"0,00",0,0,0,0,"0,00",0,0,0,0,0,0,0,"0,00",0,0,0,0,0
25,23.93739629459023,Luan ,6,ATA,"5,30",12,22,Atlético-MG,3,"-2,30",0,0,2,0,"-0,55",0,0,6,1,1,15,0,"1,23",0,0,3,16,0
25,23.93739629459023,Bruno Henrique ,11,ATA,"15,24",19,59,Santos,3,"14,50",5,1,3,6,"1,05",0,0,18,1,7,51,0,"5,74",0,0,12,44,0
26,13.131317821067825,Milton Mendes ,0,TEC,"5,74",1,0,Vasco,3,"2,11",0,0,0,0,"-0,26",0,0,0,0,0,0,0,"2,11",0,0,0,0,0
26,13.131317821067825,Cássio ,0,GOL,"13,11",25,8,Corinthians,3,"1,20",0,0,2,0,"-0,40",0,29,0,0,0,7,14,"5,54",15,0,0,0,2
26,13.131317821067825,Juan ,5,ZAG,"7,02",9,12,Flamengo,3,"0,00",0,0,0,0,"0,00",0,0,12,1,2,5,2,"4,47",0,3,0,6,3
26,13.131317821067825,Douglas ,0,ZAG,"4,00",0,0,São Paulo,2,"0,00",0,0,0,0,"0,00",0,0,0,0,0,0,0,"0,00",0,0,0,0,0
26,13.131317821067825,Fábio Santos ,5,LAT,"4,41",22,82,Atlético-MG,3,"5,20",2,0,0,3,"0,90",0,0,25,0,0,41,5,"2,80",0,7,0,33,2
26,13.131317821067825,Egídio ,2,LAT,"9,55",14,59,Palmeiras,3,"0,00",2,0,3,1,"0,00",0,0,31,0,1,18,7,"5,89",0,0,3,14,0
26,13.131317821067825,Matheus Galdezani ,14,MEI,"9,05",24,95,Coritiba,3,"9,30",1,0,6,1,"1,01",0,0,46,0,1,42,0,"2,98",0,0,13,46,0
26,13.131317821067825,Guilherme ,7,MEI,"9,02",12,53,Atlético-PR,3,"-0,10",2,0,0,3,"0,23",0,0,11,0,3,13,0,"3,31",0,3,0,21,4
26,13.131317821067825,Diego Souza ,10,MEI,"13,95",16,67,Sport,3,"0,00",2,1,6,6,"0,00",0,0,6,3,1,38,0,"3,38",0,0,5,25,0
26,13.131317821067825,Luis Henrique ,0,ATA,"4,00",0,0,Atlético-PR,2,"0,00",0,0,0,0,"0,00",0,0,0,0,0,0,0,"0,00",0,0,0,0,0
26,13.131317821067825,Paulinho ,1,ATA,"6,15",1,5,Vitória,3,"2,70",0,0,0,0,"0,15",0,0,0,1,0,0,0,"2,70",0,0,0,0,0
26,13.131317821067825,Guilherme ,10,ATA,"7,62",20,43,Botafogo,2,"0,00",0,0,0,4,"0,00",0,0,15,1,1,31,0,"3,71",0,1,0,15,8
27,0.0,Milton Mendes ,0,TEC,"5,74",1,0,Vasco,3,"2,11",0,0,0,0,"-0,26",0,0,0,0,0,0,0,"2,11",0,0,0,0,0
27,0.0,Cássio ,0,GOL,"14,12",26,0,Corinthians,3,"0,00",0,0,0,0,"1,01",0,0,0,0,0,0,0,"5,60",0,0,0,0,0
27,0.0,Juan ,0,ZAG,"6,53",10,0,Flamengo,3,"0,00",0,0,0,0,"-0,49",0,0,0,0,0,0,0,"4,30",0,0,0,0,0
27,0.0,Douglas ,0,ZAG,"4,00",0,0,São Paulo,2,"0,00",0,0,0,0,"0,00",0,0,0,0,0,0,0,"0,00",0,0,0,0,0
27,0.0,Zeca ,0,LAT,"9,89",11,0,Santos,3,"0,00",0,0,0,0,"-1,55",0,0,0,0,0,0,0,"4,35",0,0,0,0,0
27,0.0,Capa ,0,LAT,"12,27",26,0,Avaí,3,"0,00",0,0,0,0,"-0,45",0,0,0,0,0,0,0,"4,55",0,0,0,0,0
27,0.0,Flávio ,0,MEI,"2,12",1,0,Vitória,2,"0,00",0,0,0,0,"-0,88",0,0,0,0,0,0,0,"0,00",0,0,0,0,0
27,0.0,Guilherme ,0,MEI,"10,55",13,0,Atlético-PR,3,"0,00",0,0,0,0,"1,53",0,0,0,0,0,0,0,"3,72",0,0,0,0,0
27,0.0,Diego Souza ,0,MEI,"17,17",17,0,Sport,3,"0,00",0,0,0,0,"3,22",0,0,0,0,0,0,0,"3,92",0,0,0,0,0
27,0.0,Luis Henrique ,0,ATA,"4,00",0,0,Atlético-PR,2,"0,00",0,0,0,0,"0,00",0,0,0,0,0,0,0,"0,00",0,0,0,0,0
27,0.0,Paulinho ,1,ATA,"6,15",1,5,Vitória,3,"2,70",0,0,0,0,"0,15",0,0,0,1,0,0,0,"2,70",0,0,0,0,0
27,0.0,Guilherme ,0,ATA,"7,02",21,0,Botafogo,2,"0,00",0,0,0,0,"-0,60",0,0,0,0,0,0,0,"3,77",0,0,0,0,0
28,0.0,Renato Gaúcho ,0,TEC,"15,61",27,0,Grêmio,3,"0,00",0,0,0,0,"0,32",0,0,0,0,0,0,0,"4,24",0,0,0,0,0
28,0.0,Jean ,0,GOL,"13,42",28,0,Bahia,3,"0,00",0,0,0,0,"1,97",0,0,0,0,0,0,0,"4,33",0,0,0,0,0
28,0.0,Felipe Santana ,0,ZAG,"8,39",11,0,Atlético-MG,3,"0,00",0,0,0,0,"-1,13",0,0,0,0,0,0,0,"4,53",0,0,0,0,0
28,0.0,Lucas Veríssimo ,0,ZAG,"8,41",25,0,Santos,3,"0,00",0,0,0,0,"0,10",0,0,0,0,0,0,0,"4,32",0,0,0,0,0
28,0.0,Leandro Salino ,0,LAT,"5,87",7,0,Vitória,2,"0,00",0,0,0,0,"0,00",0,0,0,0,0,0,0,"3,40",0,0,0,0,0
28,0.0,Riuler ,0,LAT,"2,00",0,0,Atlético-PR,2,"0,00",0,0,0,0,"0,00",0,0,0,0,0,0,0,"0,00",0,0,0,0,0
28,0.0,Thallyson ,0,MEI,"0,83",15,0,Sport,2,"0,00",0,0,0,0,"0,00",0,0,0,0,0,0,0,"0,48",0,0,0,0,0
28,0.0,Hudson ,0,MEI,"7,11",14,0,Cruzeiro,3,"0,00",0,0,0,0,"0,00",0,0,0,0,0,0,0,"3,49",0,0,0,0,0
28,0.0,Danielzinho ,0,MEI,"2,00",0,0,Fluminense,2,"0,00",0,0,0,0,"0,00",0,0,0,0,0,0,0,"0,00",0,0,0,0,0
28,0.0,Vinícius Tanque ,0,ATA,"2,16",4,0,Botafogo,2,"0,00",0,0,0,0,"-1,23",0,0,0,0,0,0,0,"4,02",0,0,0,0,0
28,0.0,Rodrigo Pimpão ,0,ATA,"7,91",23,0,Botafogo,3,"0,00",0,0,0,0,"-0,09",0,0,0,0,0,0,0,"3,51",0,0,0,0,0
28,0.0,Rodrigo Pimpão ,0,ATA,"7,91",23,0,Botafogo,3,"0,00",0,0,0,0,"-0,09",0,0,0,0,0,0,0,"3,51",0,0,0,0,0
29,6.981412637929663,Mano Menezes ,0,TEC,"12,29",28,0,Cruzeiro,3,"0,85",0,0,0,0,"-1,08",0,0,0,0,0,0,0,"3,76",0,0,0,0,0
29,6.981412637929663,Fernando Prass ,0,GOL,"15,40",25,9,Palmeiras,3,"5,50",0,0,2,0,"-0,27",0,43,1,0,0,6,7,"4,61",27,0,0,0,1
29,6.981412637929663,Thiago Martins ,0,ZAG,"5,00",0,0,Palmeiras,5,"0,00",0,0,0,0,"0,00",0,0,0,0,0,0,0,"0,00",0,0,0,0,0
29,6.981412637929663,Marcus Winícius ,0,ZAG,"3,00",0,0,Atlético-GO,2,"0,00",0,0,0,0,"0,00",0,0,0,0,0,0,0,"0,00",0,0,0,0,0
29,6.981412637929663,Victor Luis ,7,LAT,"12,04",24,50,Botafogo,3,"1,40",1,0,4,1,"-0,56",0,0,41,0,0,25,9,"4,36",0,0,0,24,0
29,6.981412637929663,Madson ,2,LAT,"4,69",12,33,Vasco,3,"6,80",1,0,0,0,"-0,01",0,0,8,0,1,18,5,"2,91",0,2,0,9,0
29,6.981412637929663,Cuéllar ,0,MEI,"5,98",17,24,Flamengo,3,"7,50",0,0,0,0,"-0,59",0,0,44,0,0,11,0,"3,74",0,2,0,15,2
29,6.981412637929663,Rafinha ,5,MEI,"6,43",19,58,Cruzeiro,3,"0,60",1,0,0,3,"-0,49",0,0,20,1,0,42,0,"3,07",0,1,0,25,5
29,6.981412637929663,Evander ,2,MEI,"1,26",4,1,Vasco,2,"0,00",0,0,0,0,"0,00",0,0,1,0,0,0,0,"0,07",0,1,0,3,1
29,6.981412637929663,Santarém ,0,ATA,"1,00",0,0,Avaí,2,"0,00",0,0,0,0,"0,00",0,0,0,0,0,0,0,"0,00",0,0,0,0,0
29,6.981412637929663,Grafite ,0,ATA,"12,00",0,0,Atlético-PR,2,"0,00",0,0,0,0,"0,00",0,0,0,0,0,0,0,"0,00",0,0,0,0,0
29,6.981412637929663,Rildo ,6,ATA,"9,05",26,73,Coritiba,3,"2,10",8,0,3,5,"-0,56",0,0,26,0,2,96,0,"4,05",0,0,6,30,0
30,11.177436192617977,Claudinei Oliveira ,0,TEC,"7,91",30,0,Avaí,3,"2,70",0,0,0,0,"-0,11",0,0,0,0,0,0,0,"3,14",0,0,0,0,0
30,11.177436192617977,Fábio ,0,GOL,"11,69",26,12,Cruzeiro,3,"-3,00",0,0,0,0,"-0,76",0,32,0,0,0,2,10,"3,73",23,0,0,1,0
30,11.177436192617977,Rodrigo ,9,ZAG,"8,77",16,36,Ponte Preta,3,"0,80",2,1,4,0,"-0,69",0,0,19,0,0,26,7,"3,96",0,0,6,9,0
30,11.177436192617977,Thiago Heleno ,8,ZAG,"8,59",21,38,Atlético-PR,3,"3,60",1,0,6,3,"0,70",0,0,17,0,0,11,6,"2,94",0,0,2,21,0
30,11.177436192617977,Leandro Silva ,11,LAT,"9,03",29,121,Avaí,3,"3,00",3,1,2,0,"0,02",0,0,48,0,3,26,10,"3,58",0,0,5,43,0
30,11.177436192617977,Jonathan ,2,LAT,"8,17",21,60,Atlético-PR,3,"0,00",0,0,0,2,"0,00",0,0,23,0,2,20,5,"3,44",0,3,0,14,2
30,11.177436192617977,Elias ,7,MEI,"10,56",23,77,Atlético-MG,3,"0,00",3,2,0,3,"0,00",0,0,38,0,0,20,0,"2,37",0,3,0,31,7
30,11.177436192617977,Gustavo Scarpa ,31,MEI,"12,52",28,151,Fluminense,3,"2,80",3,0,0,1,"-1,17",0,0,26,2,8,44,0,"4,03",0,0,0,18,26
30,11.177436192617977,Thiago Lopes ,0,MEI,"4,00",0,0,Coritiba,2,"0,00",0,0,0,0,"0,00",0,0,0,0,0,0,0,"0,00",0,0,0,0,0
30,11.177436192617977,Crysan ,0,ATA,"4,00",0,0,Atlético-PR,2,"0,00",0,0,0,0,"0,00",0,0,0,0,0,0,0,"0,00",0,0,0,0,0
30,11.177436192617977,Patrick ,0,ATA,"1,00",0,0,Sport,2,"0,00",0,0,0,0,"0,00",0,0,0,0,0,0,0,"0,00",0,0,0,0,0
30,11.177436192617977,Rafael Moura ,9,ATA,"4,52",21,29,Atlético-MG,2,"0,00",17,0,0,4,"0,00",1,0,4,1,0,22,0,"1,23",0,1,0,38,8
31,15.111326963735685,Claudinei Oliveira ,0,TEC,"8,23",31,0,Avaí,3,"4,78",0,0,0,0,"0,32",0,0,0,0,0,0,0,"3,19",0,0,0,0,0
31,15.111326963735685,Fábio ,0,GOL,"13,38",27,12,Cruzeiro,3,"8,00",0,0,0,0,"1,69",0,36,0,0,0,2,10,"3,89",25,0,0,1,0
31,15.111326963735685,Rodrigo ,9,ZAG,"9,81",17,39,Ponte Preta,3,"7,30",2,1,0,0,"1,04",0,0,20,0,0,28,8,"4,16",0,4,0,10,7
31,15.111326963735685,Thiago Heleno ,9,ZAG,"9,43",22,43,Atlético-PR,5,"8,60",2,0,0,3,"0,84",0,0,19,0,0,12,7,"3,20",0,6,0,21,3
31,15.111326963735685,Leandro Silva ,11,LAT,"10,79",30,122,Avaí,3,"13,30",3,1,0,1,"1,76",0,0,51,0,3,26,10,"3,90",0,2,0,46,7
31,15.111326963735685,Jonathan ,2,LAT,"8,51",22,65,Atlético-PR,3,"4,70",1,0,3,2,"0,34",0,0,24,0,2,20,6,"3,50",0,0,2,14,0
31,15.111326963735685,Elias ,9,MEI,"10,67",24,79,Atlético-MG,3,"-1,70",3,2,4,3,"0,11",0,0,38,0,0,21,0,"2,20",0,0,7,33,0
31,15.111326963735685,Gustavo Scarpa ,31,MEI,"13,67",29,156,Fluminense,3,"10,00",3,0,0,2,"1,15",0,0,26,2,8,45,0,"4,24",0,0,29,18,0
31,15.111326963735685,Thiago Lopes ,0,MEI,"4,00",0,0,Coritiba,2,"0,00",0,0,0,0,"0,00",0,0,0,0,0,0,0,"0,00",0,0,0,0,0
31,15.111326963735685,Crysan ,0,ATA,"4,00",0,0,Atlético-PR,2,"0,00",0,0,0,0,"0,00",0,0,0,0,0,0,0,"0,00",0,0,0,0,0
31,15.111326963735685,Patrick ,0,ATA,"1,00",0,0,Sport,2,"0,00",0,0,0,0,"0,00",0,0,0,0,0,0,0,"0,00",0,0,0,0,0
31,15.111326963735685,Rildo ,7,ATA,"9,19",28,77,Coritiba,3,"2,10",8,0,3,6,"-1,39",0,0,27,0,2,103,0,"4,21",0,0,7,32,0
32,35.36443527547309,Claudinei Oliveira ,0,TEC,"8,06",32,0,Avaí,3,"3,19",0,0,0,0,"-0,17",0,0,0,0,0,0,0,"3,19",0,0,0,0,0
32,35.36443527547309,Cássio ,0,GOL,"11,54",31,9,Corinthians,3,"-6,00",0,0,3,0,"-1,18",0,36,0,0,0,8,15,"4,74",23,0,0,0,2
32,35.36443527547309,Rodrigo ,9,ZAG,"9,16",18,39,Ponte Preta,3,"2,70",2,1,4,0,"-0,65",0,0,21,0,0,31,8,"4,08",0,0,7,11,0
32,35.36443527547309,Rodrigo Caio ,9,ZAG,"10,31",27,46,São Paulo,3,"7,10",2,0,0,0,"0,88",0,0,43,1,0,16,6,"3,07",0,8,0,19,2
32,35.36443527547309,Sidcley ,6,LAT,"12,69",29,84,Atlético-PR,3,"0,30",13,0,0,4,"-0,78",0,0,31,0,4,51,9,"4,62",0,3,0,30,7
32,35.36443527547309,Yago Pikachu ,4,LAT,"9,11",21,43,Vasco,3,"-0,10",2,0,0,2,"-1,63",0,0,17,0,2,28,7,"4,14",0,2,0,20,8
32,35.36443527547309,Adilson ,4,MEI,"4,31",22,38,Atlético-MG,3,"0,00",1,0,5,0,"-0,10",0,0,37,0,0,21,0,"1,29",0,0,0,52,0
32,35.36443527547309,Rafinha ,8,MEI,"6,61",22,72,Cruzeiro,1,"0,40",2,0,2,3,"0,05",0,0,25,2,1,45,0,"3,28",0,0,7,29,0
32,35.36443527547309,Gabriel ,2,MEI,"8,14",27,55,Corinthians,3,"1,00",0,1,0,1,"-0,64",0,0,60,1,0,29,0,"3,07",0,6,0,36,5
32,35.36443527547309,Arthur  ,23,ATA,"11,08",29,63,Chapecoense,3,"1,10",10,0,5,6,"0,00",0,0,29,1,6,57,0,"4,58",0,0,16,49,0
32,35.36443527547309,André ,33,ATA,"11,73",28,73,Sport,3,"8,20",24,0,5,12,"-0,26",0,0,25,1,1,49,0,"4,84",0,0,12,54,0
32,35.36443527547309,Henrique Dourado ,12,ATA,"21,73",25,65,Fluminense,3,"5,90",8,0,5,16,"0,99",0,0,9,0,3,51,0,"5,61",0,0,14,65,0
33,0.0,Claudinei Oliveira ,0,TEC,"8,35",33,0,Avaí,3,"0,00",0,0,0,0,"0,29",0,0,0,0,0,0,0,"3,23",0,0,0,0,0
33,0.0,Helton Leite ,0,GOL,"3,32",1,0,Botafogo,2,"0,00",0,0,0,0,"0,00",0,0,0,0,0,0,0,"1,00",0,0,0,0,0
33,0.0,Frazan ,0,ZAG,"1,06",6,0,Fluminense,2,"0,00",0,0,0,0,"0,00",0,0,0,0,0,0,0,"-1,08",0,0,0,0,0
33,0.0,Nathan ,0,ZAG,"1,00",0,0,Atlético-MG,2,"0,00",0,0,0,0,"0,00",0,0,0,0,0,0,0,"0,00",0,0,0,0,0
33,0.0,Sidcley ,0,LAT,"12,69",29,0,Atlético-PR,2,"0,00",0,0,0,0,"0,00",0,0,0,0,0,0,0,"4,62",0,0,0,0,0
33,0.0,Eduardo ,0,LAT,"7,23",31,0,Bahia,3,"0,00",0,0,0,0,"-0,71",0,0,0,0,0,0,0,"3,19",0,0,0,0,0
33,0.0,Bruno Ramires ,0,MEI,"5,00",0,0,Vitória,5,"0,00",0,0,0,0,"0,00",0,0,0,0,0,0,0,"0,00",0,0,0,0,0
33,0.0,Bruno Mota ,1,MEI,"3,40",1,2,Atlético-PR,3,"1,80",0,0,0,0,"0,40",0,0,1,0,0,1,0,"1,80",0,0,0,1,0
33,0.0,Gabriel ,0,MEI,"8,14",27,0,Corinthians,3,"0,00",0,0,0,0,"0,00",0,0,0,0,0,0,0,"3,07",0,0,0,0,0
33,0.0,Willian ,0,ATA,"8,50",22,0,Palmeiras,1,"0,00",0,0,0,0,"0,00",0,0,0,0,0,0,0,"4,64",0,0,0,0,0
33,0.0,Joel ,0,ATA,"2,62",1,1,Botafogo,2,"-0,30",0,0,0,0,"-1,38",0,0,0,0,0,0,0,"-0,30",0,0,0,0,0
33,0.0,Thiago Santos ,0,ATA,"2,00",0,0,Flamengo,2,"0,00",0,0,0,0,"0,00",0,0,0,0,0,0,0,"0,00",0,0,0,0,0
34,7.360707478005867,Jair Ventura ,0,TEC,"11,99",34,0,Botafogo,3,"3,13",0,0,0,0,"-0,12",0,0,0,0,0,0,0,"4,12",0,0,0,0,0
34,7.360707478005867,Matheus ,0,GOL,"1,00",0,0,Avaí,2,"0,00",0,0,0,0,"0,00",0,0,0,0,0,0,0,"0,00",0,0,0,0,0
34,7.360707478005867,Yago ,4,ZAG,"4,78",6,4,Ponte Preta,3,"-0,30",0,0,1,0,"-0,51",0,0,2,0,0,1,2,"2,00",0,0,2,7,0
34,7.360707478005867,Kanu ,10,ZAG,"8,23",22,47,Vitória,3,"-0,40",5,0,6,4,"-0,40",0,0,24,1,1,12,6,"3,88",0,1,4,17,0
34,7.360707478005867,Eduardo ,7,LAT,"7,16",32,151,Bahia,3,"3,10",2,0,7,0,"-0,07",0,0,61,0,1,37,10,"3,19",0,0,2,44,0
34,7.360707478005867,Cedric ,0,LAT,"2,00",0,0,Vitória,2,"0,00",0,0,0,0,"0,00",0,0,0,0,0,0,0,"0,00",0,0,0,0,0
34,7.360707478005867,Tomas Bastos ,8,MEI,"11,25",12,28,Coritiba,2,"0,00",1,0,2,2,"0,00",0,0,8,0,1,8,0,"2,45",0,0,6,16,0
34,7.360707478005867,Jean ,11,MEI,"12,15",31,60,Vasco,3,"12,50",0,0,0,1,"1,35",0,0,85,0,1,43,0,"4,06",0,9,0,62,6
34,7.360707478005867,Lucas Lima ,10,MEI,"3,88",24,121,Santos,3,"-1,70",1,0,0,1,"-0,94",0,0,27,0,6,68,0,"2,24",0,11,0,43,9
34,7.360707478005867,Lucca ,31,ATA,"20,80",31,84,Ponte Preta,3,"8,70",11,0,0,11,"0,92",2,0,27,0,2,96,0,"5,64",0,5,0,38,28
34,7.360707478005867,Lucas Pratto ,40,ATA,"14,35",33,101,São Paulo,3,"0,50",6,1,2,7,"-0,73",1,0,20,0,5,35,0,"3,67",0,0,27,41,0
34,7.360707478005867,João Pedro ,0,ATA,"4,00",0,0,Atlético-GO,2,"0,00",0,0,0,0,"0,00",0,0,0,0,0,0,0,"0,00",0,0,0,0,0
35,0.8360461760461746,Vagner Mancini ,0,TEC,"6,51",1,0,Chapecoense,3,"2,20",0,0,0,0,"-0,49",0,0,0,0,0,0,0,"2,20",0,0,0,0,0
35,0.8360461760461746,Wilson ,0,GOL,"15,55",35,19,Coritiba,3,"10,40",0,0,2,1,"1,67",0,67,0,0,0,7,10,"5,32",44,0,0,0,3
35,0.8360461760461746,Rodrigo Caio ,10,ZAG,"9,23",30,48,São Paulo,3,"0,90",2,0,0,0,"0,05",0,0,44,1,0,18,6,"2,80",0,8,0,22,2
35,0.8360461760461746,Betão ,2,ZAG,"7,16",33,64,Avaí,3,"2,50",1,0,7,1,"0,25",0,0,24,0,1,24,11,"2,35",0,0,1,23,0
35,0.8360461760461746,Pará ,7,LAT,"9,06",27,70,Flamengo,3,"3,10",1,0,1,1,"0,42",0,0,28,0,1,22,10,"3,11",0,1,0,26,0
35,0.8360461760461746,Jeferson ,4,LAT,"5,16",20,79,Ponte Preta,3,"-1,20",0,0,0,0,"-0,18",0,0,20,0,2,11,9,"2,70",0,4,0,23,0
35,0.8360461760461746,Marcão Silva ,4,MEI,"7,06",20,33,Atlético-GO,2,"-1,00",0,0,5,0,"-1,35",0,0,55,0,1,18,0,"3,68",0,0,0,33,0
35,0.8360461760461746,Elias ,9,MEI,"11,13",28,86,Atlético-MG,3,"1,40",3,2,5,3,"-1,21",0,0,46,0,0,26,0,"2,19",0,0,7,40,0
35,0.8360461760461746,Gustavo Scarpa ,38,MEI,"12,24",33,175,Fluminense,3,"-0,10",3,0,0,2,"-0,93",0,0,28,3,10,49,0,"4,17",0,1,0,23,30
35,0.8360461760461746,Iury ,0,ATA,"2,00",0,0,Avaí,2,"0,00",0,0,0,0,"0,00",0,0,0,0,0,0,0,"0,00",0,0,0,0,0
35,0.8360461760461746,Santarém ,0,ATA,"1,00",0,0,Avaí,2,"0,00",0,0,0,0,"0,00",0,0,0,0,0,0,0,"0,00",0,0,0,0,0
35,0.8360461760461746,Caio Monteiro ,1,ATA,"2,25",6,2,Vasco,2,"2,70",0,0,2,2,"-0,55",0,0,1,0,0,1,0,"2,38",0,0,2,4,0
36,12.563701137876446,Abel Braga ,0,TEC,"12,21",34,0,Fluminense,3,"5,45",0,0,0,0,"0,73",0,0,0,0,0,0,0,"3,16",0,0,0,0,0
36,12.563701137876446,Vanderlei ,0,GOL,"22,93",35,11,Santos,3,"11,50",0,0,0,0,"2,32",0,76,0,0,0,7,17,"7,68",30,2,3,2,0
36,12.563701137876446,Yago ,4,ZAG,"4,25",8,10,Ponte Preta,3,"-3,10",0,0,2,0,"-0,66",0,0,3,0,0,1,2,"1,18",0,0,2,8,0
36,12.563701137876446,Kanu ,10,ZAG,"7,86",23,48,Vitória,3,"-2,10",6,0,7,4,"-0,37",0,0,25,1,1,12,6,"3,62",0,1,4,19,0
36,12.563701137876446,Eduardo ,7,LAT,"7,31",34,155,Bahia,3,"3,70",2,0,8,0,"0,35",0,0,66,0,1,39,10,"3,16",0,0,2,46,0
36,12.563701137876446,Thiago Carleto ,5,LAT,"7,48",19,77,Coritiba,4,"0,00",1,0,0,2,"0,00",1,0,29,0,8,14,6,"6,21",0,3,0,15,13
36,12.563701137876446,Michel Bastos ,13,MEI,"5,79",16,52,Palmeiras,3,"3,70",3,0,0,0,"0,50",0,0,22,0,2,12,0,"2,19",0,4,0,11,3
36,12.563701137876446,João Paulo ,12,MEI,"3,96",29,114,Botafogo,3,"1,80",1,0,0,2,"-1,92",0,0,45,1,4,59,0,"2,90",0,8,0,54,8
36,12.563701137876446,Hyoran ,0,MEI,"3,59",3,5,Palmeiras,2,"0,00",0,0,0,1,"0,00",0,0,2,0,0,1,0,"3,47",0,0,1,2,0
36,12.563701137876446,David ,22,ATA,"6,94",34,92,Vitória,3,"9,20",16,0,0,6,"0,31",0,0,29,3,6,18,0,"3,11",0,5,0,44,11
36,12.563701137876446,Dudu ,9,ATA,"16,94",24,91,Palmeiras,3,"3,30",7,0,0,8,"-2,71",0,0,21,0,5,91,0,"5,77",0,5,0,20,13
36,12.563701137876446,Gilberto ,5,ATA,"3,32",17,11,São Paulo,2,"-2,00",5,0,2,2,"-0,25",0,0,4,0,0,11,0,"1,32",0,0,5,9,0
37,0.406552928066084,Jair Ventura ,0,TEC,"11,95",37,0,Botafogo,3,"2,17",0,0,0,0,"-0,51",0,0,0,0,0,0,0,"4,09",0,0,0,0,0
37,0.406552928066084,Ronaldo ,0,GOL,"1,00",0,0,Vitória,2,"0,00",0,0,0,0,"0,00",0,0,0,0,0,0,0,"0,00",0,0,0,0,0
37,0.406552928066084,Kanu ,10,ZAG,"7,59",24,52,Vitória,3,"-3,20",6,0,1,4,"-0,27",0,0,25,1,1,12,6,"3,34",0,8,0,21,5
37,0.406552928066084,Lucas Veríssimo ,7,ZAG,"8,55",33,52,Santos,3,"0,00",2,0,0,0,"0,00",0,0,40,0,0,21,17,"3,86",0,9,0,27,7
37,0.406552928066084,João Paulo ,2,LAT,"4,05",12,27,Avaí,3,"4,60",0,0,3,0,"0,30",0,0,8,1,0,9,3,"1,50",0,0,1,14,0
37,0.406552928066084,Edimar ,1,LAT,"5,03",18,57,São Paulo,3,"1,80",0,0,4,0,"-1,15",0,0,23,0,0,25,5,"2,58",0,0,4,19,0
37,0.406552928066084,Felipe Gedoz  ,9,MEI,"7,52",16,43,Atlético-PR,1,"0,50",4,0,1,3,"-0,62",1,0,4,2,2,22,0,"2,77",0,0,5,11,0
37,0.406552928066084,Cristian ,0,MEI,"4,00",0,0,Corinthians,2,"0,00",0,0,0,0,"0,00",0,0,0,0,0,0,0,"0,00",0,0,0,0,0
37,0.406552928066084,Diego ,17,MEI,"18,05",26,100,Flamengo,3,"-1,10",9,0,5,9,"-1,58",1,0,31,0,2,81,0,"5,12",0,0,13,38,0
37,0.406552928066084,Bruno Paulo ,0,ATA,"2,00",0,0,Corinthians,2,"0,00",0,0,0,0,"0,00",0,0,0,0,0,0,0,"0,00",0,0,0,0,0
37,0.406552928066084,André Lima ,9,ATA,"8,30",19,22,Vitória,3,"9,20",5,1,1,5,"1,63",0,0,5,1,3,12,0,"3,01",0,0,5,22,0
37,0.406552928066084,Crysan ,0,ATA,"4,00",0,0,Atlético-PR,2,"0,00",0,0,0,0,"0,00",0,0,0,0,0,0,0,"0,00",0,0,0,0,0
