round,fitness,name,position,team,situation,price,meatches,average,last_score,difference,disarms,goals,assists,no_goals,fouls_suffered,strikes_out,strikes_defended,strikes_post,difficult_defense,penalty_defense,own_goal,red_card,yellow_card,goal_suffered,penalty_lost,fouls_commited,offsides,wrong_pass
0,2.529999999999994,Pachequinho ,0,TEC,"6,53",1,0,Coritiba,3,"7,23",0,0,0,0,"4,53",0,0,0,0,0,0,0,"7,23",0,0,0,0,0
0,2.529999999999994,João Paulo ,0,GOL,"1,00",0,0,Santos,2,"0,00",0,0,0,0,"0,00",0,0,0,0,0,0,0,"0,00",0,0,0,0,0
0,2.529999999999994,Victor Ramos ,0,ZAG,"5,09",1,0,Chapecoense,3,"1,20",0,0,0,0,"-0,91",0,0,1,0,0,0,0,"1,20",0,0,0,1,0
0,2.529999999999994,Betão ,0,ZAG,"6,58",1,4,Avaí,3,"4,30",0,0,0,0,"1,58",0,0,0,0,0,1,1,"4,30",0,0,0,0,0
0,2.529999999999994,Jeferson ,0,LAT,"5,00",0,0,Ponte Preta,2,"0,00",0,0,0,0,"0,00",0,0,0,0,0,0,0,"0,00",0,0,0,0,0
0,2.529999999999994,Fábio Santos ,0,LAT,"1,49",1,3,Atlético-MG,3,"-2,90",0,0,1,0,"-3,51",0,0,0,0,0,1,0,"-2,90",0,0,0,1,0
0,2.529999999999994,Ramiro ,2,MEI,"16,98",1,2,Grêmio,3,"17,00",0,0,1,2,"9,98",0,0,1,0,0,2,0,"17,00",0,0,0,1,0
0,2.529999999999994,Marquinhos ,0,MEI,"4,95",1,9,Avaí,3,"-1,00",0,0,0,0,"-3,05",0,0,1,0,0,0,0,"-1,00",0,0,0,0,0
0,2.529999999999994,Ravanelli ,0,MEI,"9,27",1,7,Ponte Preta,3,"7,10",0,0,0,0,"3,27",0,0,1,0,1,6,0,"7,10",0,0,0,1,0
0,2.529999999999994,Luis Fabiano ,1,ATA,"8,28",1,0,Vasco,3,"0,70",1,0,0,0,"-2,72",0,0,0,0,0,1,0,"0,70",0,0,0,0,0
0,2.529999999999994,Edigar Junio ,0,ATA,"9,83",1,1,Bahia,1,"8,90",0,0,0,1,"4,83",0,0,1,0,0,0,0,"8,90",0,0,0,1,0
0,2.529999999999994,Santarém ,0,ATA,"1,00",0,0,Avaí,2,"0,00",0,0,0,0,"0,00",0,0,0,0,0,0,0,"0,00",0,0,0,0,0
1,7.630000000000001,Ney Franco ,0,TEC,"2,28",1,0,Sport,3,"-0,77",0,0,0,0,"-1,72",0,0,0,0,0,0,0,"-0,77",0,0,0,0,0
1,7.630000000000001,Fernando Miguel ,0,GOL,"8,13",1,0,Vitória,3,"5,50",0,0,0,0,"2,13",0,0,0,0,0,1,1,"5,50",0,0,0,0,0
1,7.630000000000001,Betão ,0,ZAG,"6,58",1,4,Avaí,3,"4,30",0,0,0,0,"1,58",0,0,0,0,0,1,1,"4,30",0,0,0,0,0
1,7.630000000000001,Donatti ,0,ZAG,"8,00",0,0,Flamengo,5,"0,00",0,0,0,0,"0,00",0,0,0,0,0,0,0,"0,00",0,0,0,0,0
1,7.630000000000001,Capa ,2,LAT,"7,78",1,8,Avaí,3,"7,00",0,0,0,0,"3,78",0,0,0,0,0,4,1,"7,00",0,0,0,0,1
1,7.630000000000001,Marcinho ,0,LAT,"3,00",0,0,Botafogo,5,"0,00",0,0,0,0,"0,00",0,0,0,0,0,0,0,"0,00",0,0,0,0,0
1,7.630000000000001,Fabrício Baiano ,0,MEI,"2,00",0,0,Coritiba,2,"0,00",0,0,0,0,"0,00",0,0,0,0,0,0,0,"0,00",0,0,0,0,0
1,7.630000000000001,Marquinhos ,0,MEI,"4,95",1,9,Avaí,3,"-1,00",0,0,0,0,"-3,05",0,0,1,0,0,0,0,"-1,00",0,0,0,0,0
1,7.630000000000001,Ravanelli ,0,MEI,"9,27",1,7,Ponte Preta,3,"7,10",0,0,0,0,"3,27",0,0,1,0,1,6,0,"7,10",0,0,0,1,0
1,7.630000000000001,Luis Fabiano ,1,ATA,"8,28",1,0,Vasco,3,"0,70",1,0,0,0,"-2,72",0,0,0,0,0,1,0,"0,70",0,0,0,0,0
1,7.630000000000001,Edigar Junio ,0,ATA,"9,83",1,1,Bahia,1,"8,90",0,0,0,1,"4,83",0,0,1,0,0,0,0,"8,90",0,0,0,1,0
1,7.630000000000001,Henrique Dourado ,0,ATA,"16,91",1,2,Fluminense,3,"15,90",0,0,0,2,"8,91",0,0,0,0,0,2,0,"15,90",0,0,0,1,0
2,33.27,Ney Franco ,0,TEC,"2,15",2,0,Sport,3,"1,62",0,0,0,0,"-0,13",0,0,0,0,0,0,0,"0,42",0,0,0,0,0
2,33.27,Fernando Miguel ,0,GOL,"8,90",2,3,Vitória,3,"3,10",0,0,0,0,"0,77",0,2,0,0,0,1,1,"4,30",1,0,0,0,0
2,33.27,Betão ,0,ZAG,"5,76",2,7,Avaí,3,"-0,70",0,0,1,0,"-0,82",0,0,1,0,0,2,1,"1,80",0,0,0,0,0
2,33.27,Donatti ,0,ZAG,"8,00",0,0,Flamengo,5,"0,00",0,0,0,0,"0,00",0,0,0,0,0,0,0,"0,00",0,0,0,0,0
2,33.27,Capa ,2,LAT,"8,87",2,14,Avaí,3,"2,60",1,0,0,0,"1,09",0,0,2,0,0,7,1,"4,80",0,0,1,0,0
2,33.27,Fábio Santos ,0,LAT,"1,49",1,3,Atlético-MG,3,"-2,90",0,0,1,0,"-3,51",0,0,0,0,0,1,0,"-2,90",0,0,0,1,0
2,33.27,Ramiro ,2,MEI,"18,90",2,6,Grêmio,3,"3,50",1,0,2,2,"1,92",0,0,2,0,1,4,0,"10,25",0,0,0,2,0
2,33.27,Machado ,0,MEI,"1,00",0,0,Grêmio,2,"0,00",0,0,0,0,"0,00",0,0,0,0,0,0,0,"0,00",0,0,0,0,0
2,33.27,Ravanelli ,1,MEI,"8,98",2,14,Ponte Preta,2,"0,30",1,0,0,0,"-0,29",0,0,2,0,1,7,0,"3,70",0,0,0,1,0
2,33.27,Luis Fabiano ,2,ATA,"12,08",2,2,Vasco,3,"13,30",3,0,1,1,"3,80",0,0,1,0,1,3,0,"7,00",0,0,2,3,0
2,33.27,Edigar Junio ,0,ATA,"9,65",2,2,Bahia,3,"-0,30",0,0,0,1,"-0,18",0,0,1,0,0,1,0,"4,30",0,0,0,2,0
2,33.27,Henrique Dourado ,1,ATA,"21,82",2,6,Fluminense,3,"11,00",1,0,0,3,"4,91",0,0,0,0,1,2,0,"13,45",0,0,1,5,0
3,38.77333333333333,Roger Machado  ,0,TEC,"10,74",3,0,Atlético-MG,3,"4,83",0,0,0,0,"0,50",0,0,0,0,0,0,0,"2,99",0,0,0,0,0
3,38.77333333333333,Fernando Miguel ,0,GOL,"11,42",3,4,Vitória,3,"9,70",0,0,0,0,"2,52",0,6,0,0,0,1,1,"6,10",2,0,0,0,0
3,38.77333333333333,Betão ,0,ZAG,"5,66",3,11,Avaí,3,"1,00",0,0,0,0,"-0,10",0,0,2,0,0,3,1,"1,53",0,1,0,0,0
3,38.77333333333333,Donatti ,0,ZAG,"8,00",0,0,Flamengo,5,"0,00",0,0,0,0,"0,00",0,0,0,0,0,0,0,"0,00",0,0,0,0,0
3,38.77333333333333,Capa ,3,LAT,"8,42",3,23,Avaí,3,"0,90",1,0,0,0,"-0,45",0,0,4,0,0,8,1,"3,50",0,0,0,2,1
3,38.77333333333333,Fábio Santos ,1,LAT,"0,74",3,10,Atlético-MG,3,"-1,70",2,0,0,0,"0,01",0,0,1,0,0,8,0,"-1,37",0,2,0,5,0
3,38.77333333333333,Ramiro ,2,MEI,"18,90",2,6,Grêmio,3,"0,00",1,0,0,2,"0,00",0,0,2,0,1,4,0,"10,25",0,2,0,2,0
3,38.77333333333333,Machado ,0,MEI,"4,11",1,4,Grêmio,2,"9,70",0,0,0,0,"3,11",0,0,7,0,0,0,0,"9,70",0,0,0,2,0
3,38.77333333333333,Ravanelli ,1,MEI,"8,16",3,15,Ponte Preta,3,"-0,30",1,0,0,0,"-0,82",0,0,2,0,1,7,0,"2,37",0,0,0,1,0
3,38.77333333333333,Luis Fabiano ,3,ATA,"12,24",3,3,Vasco,3,"5,40",4,0,0,2,"0,16",0,0,1,0,1,3,0,"6,47",0,2,0,4,2
3,38.77333333333333,Edigar Junio ,0,ATA,"9,27",3,4,Bahia,3,"0,90",1,0,0,1,"-0,38",0,0,1,0,0,3,0,"3,17",0,0,0,4,2
3,38.77333333333333,Henrique Dourado ,2,ATA,"26,12",3,8,Fluminense,3,"18,30",1,0,0,5,"4,30",0,0,1,0,1,4,0,"15,07",0,0,0,6,1
4,38.77333333333333,Roger Machado  ,0,TEC,"11,17",4,0,Atlético-MG,3,"4,67",0,0,0,0,"0,43",0,0,0,0,0,0,0,"3,41",0,0,0,0,0
4,38.77333333333333,Fernando Miguel ,0,GOL,"10,19",4,4,Vitória,3,"0,50",0,0,1,0,"-1,23",0,8,0,0,0,2,1,"4,70",4,0,0,0,0
4,38.77333333333333,Betão ,0,ZAG,"6,81",4,14,Avaí,3,"5,00",0,0,2,0,"1,15",0,0,4,0,0,4,2,"2,40",0,0,0,2,0
4,38.77333333333333,Donatti ,0,ZAG,"8,00",0,0,Flamengo,5,"0,00",0,0,0,0,"0,00",0,0,0,0,0,0,0,"0,00",0,0,0,0,0
4,38.77333333333333,Capa ,3,LAT,"12,54",4,27,Avaí,3,"14,90",1,0,0,0,"4,12",0,0,7,0,1,11,2,"6,35",0,0,1,3,0
4,38.77333333333333,Fábio Santos ,2,LAT,"2,05",4,16,Atlético-MG,3,"6,30",2,0,2,0,"1,31",0,0,3,0,0,8,1,"0,55",0,0,0,7,0
4,38.77333333333333,Ramiro ,4,MEI,"17,69",3,8,Grêmio,3,"2,00",1,0,2,2,"-1,21",0,0,3,0,1,6,0,"7,50",0,0,0,5,0
4,38.77333333333333,Machado ,0,MEI,"4,11",1,4,Grêmio,2,"0,00",0,0,0,0,"0,00",0,0,7,0,0,0,0,"9,70",0,0,0,2,0
4,38.77333333333333,Ravanelli ,1,MEI,"8,16",3,15,Ponte Preta,2,"0,00",1,0,0,0,"0,00",0,0,2,0,1,7,0,"2,37",0,0,0,1,0
4,38.77333333333333,Luis Fabiano ,3,ATA,"12,24",3,3,Vasco,3,"0,00",4,0,2,2,"0,00",0,0,1,0,1,3,0,"6,47",0,0,2,4,0
4,38.77333333333333,Edigar Junio ,0,ATA,"8,74",4,6,Bahia,3,"-0,10",1,0,0,1,"-0,53",0,0,1,0,0,7,0,"2,35",0,0,2,7,0
4,38.77333333333333,Henrique Dourado ,2,ATA,"26,23",4,13,Fluminense,2,"9,20",1,0,0,6,"0,11",0,0,2,0,1,6,0,"13,60",0,0,2,8,0
5,28.10666666666667,Roger Machado  ,0,TEC,"11,48",5,0,Atlético-MG,3,"5,25",0,0,0,0,"0,31",0,0,0,0,0,0,0,"3,78",0,0,0,0,0
5,28.10666666666667,Fernando Miguel ,0,GOL,"11,75",5,5,Vitória,3,"7,70",0,0,0,0,"1,56",0,12,0,0,0,2,1,"5,30",6,1,0,0,0
5,28.10666666666667,Betão ,0,ZAG,"6,33",5,16,Avaí,3,"1,60",0,0,0,0,"-0,48",0,0,5,0,0,6,2,"2,24",0,2,0,3,0
5,28.10666666666667,Scalon ,0,ZAG,"2,00",0,0,Chapecoense,2,"0,00",0,0,0,0,"0,00",0,0,0,0,0,0,0,"0,00",0,0,0,0,0
5,28.10666666666667,Capa ,3,LAT,"10,60",5,30,Avaí,3,"1,30",2,0,0,0,"-1,94",0,0,8,0,1,13,2,"5,34",0,0,0,3,1
5,28.10666666666667,Fábio Santos ,2,LAT,"2,04",5,20,Atlético-MG,3,"3,00",2,0,0,0,"-0,01",0,0,4,0,0,9,2,"1,04",0,3,0,9,0
5,28.10666666666667,Ramiro ,4,MEI,"18,63",4,12,Grêmio,3,"7,70",1,0,0,2,"0,94",0,0,5,0,2,8,0,"7,55",0,2,0,6,0
5,28.10666666666667,Douglas ,8,MEI,"15,87",5,24,Vasco,3,"5,80",1,0,1,0,"0,92",0,0,10,1,0,10,0,"4,78",0,0,4,3,0
5,28.10666666666667,Ravanelli ,1,MEI,"8,16",3,15,Ponte Preta,2,"0,00",1,0,0,0,"0,00",0,0,2,0,1,7,0,"2,37",0,0,0,1,0
5,28.10666666666667,Luis Fabiano ,6,ATA,"16,15",4,5,Vasco,3,"19,20",4,0,0,4,"3,91",0,0,2,0,1,4,0,"9,65",0,2,0,7,3
5,28.10666666666667,Edigar Junio ,1,ATA,"11,54",5,7,Bahia,3,"11,90",1,0,0,2,"2,80",0,0,1,1,0,8,0,"4,26",0,0,0,10,3
5,28.10666666666667,Henrique Dourado ,2,ATA,"26,23",4,13,Fluminense,2,"0,00",1,0,0,6,"0,00",0,0,2,0,1,6,0,"13,60",0,0,0,8,2
6,17.209999999999994,Roger Machado  ,0,TEC,"10,70",6,0,Atlético-MG,3,"1,14",0,0,0,0,"-0,78",0,0,0,0,0,0,0,"3,34",0,0,0,0,0
6,17.209999999999994,Fernando Miguel ,0,GOL,"12,36",6,6,Vitória,3,"7,70",0,0,1,0,"0,61",0,13,0,0,0,2,2,"5,70",6,0,0,0,0
6,17.209999999999994,Betão ,1,ZAG,"6,13",6,17,Avaí,3,"0,90",0,0,2,0,"-0,20",0,0,5,0,0,8,2,"2,02",0,0,0,4,0
6,17.209999999999994,Scalon ,0,ZAG,"2,00",0,0,Chapecoense,2,"0,00",0,0,0,0,"0,00",0,0,0,0,0,0,0,"0,00",0,0,0,0,0
6,17.209999999999994,Capa ,4,LAT,"11,03",6,33,Avaí,3,"3,70",3,0,0,0,"0,43",0,0,10,0,1,16,2,"5,07",0,0,1,4,0
6,17.209999999999994,Fábio Santos ,2,LAT,"2,04",5,20,Atlético-MG,3,"0,00",2,0,3,0,"0,00",0,0,4,0,0,9,2,"1,04",0,0,0,9,0
6,17.209999999999994,Ramiro ,5,MEI,"16,54",5,21,Grêmio,3,"-1,80",1,0,2,2,"-2,09",0,0,6,0,2,8,0,"5,68",0,0,0,9,0
6,17.209999999999994,Lucas Cândido ,0,MEI,"4,00",0,0,Atlético-MG,5,"0,00",0,0,0,0,"0,00",0,0,0,0,0,0,0,"0,00",0,0,0,0,0
6,17.209999999999994,João Victor ,0,MEI,"2,00",0,0,Sport,2,"0,00",0,0,0,0,"0,00",0,0,0,0,0,0,0,"0,00",0,0,0,0,0
6,17.209999999999994,Luis Fabiano ,6,ATA,"15,52",5,7,Vasco,3,"8,90",4,0,2,5,"-0,63",0,0,2,0,1,7,0,"9,50",0,0,4,9,0
6,17.209999999999994,Edigar Junio ,1,ATA,"10,60",6,10,Bahia,3,"3,70",1,0,0,2,"-0,94",0,0,4,1,0,9,0,"4,17",0,0,3,12,0
6,17.209999999999994,Henrique Dourado ,3,ATA,"25,14",5,15,Fluminense,3,"6,60",1,0,1,7,"-1,09",0,0,2,0,1,9,0,"12,20",0,0,3,12,0
7,13.423333333333332,Roger Machado  ,0,TEC,"10,55",7,0,Atlético-MG,3,"1,57",0,0,0,0,"-0,15",0,0,0,0,0,0,0,"3,09",0,0,0,0,0
7,13.423333333333332,Thiago ,0,GOL,"4,92",2,1,Flamengo,3,"11,00",0,0,0,0,"2,45",0,3,0,0,0,0,1,"5,85",1,0,0,0,0
7,13.423333333333332,Bonfim  ,0,ZAG,"4,00",0,0,Atlético-GO,2,"0,00",0,0,0,0,"0,00",0,0,0,0,0,0,0,"0,00",0,0,0,0,0
7,13.423333333333332,Tiago  ,0,ZAG,"10,93",7,16,Bahia,3,"7,20",3,0,0,1,"1,55",0,0,7,0,0,5,3,"3,37",0,1,0,13,1
7,13.423333333333332,Capa ,4,LAT,"10,67",7,40,Avaí,3,"2,00",3,0,0,0,"-0,36",0,0,13,0,1,19,2,"4,63",0,1,0,5,1
7,13.423333333333332,Fábio Santos ,3,LAT,"1,95",6,25,Atlético-MG,3,"1,40",2,0,0,0,"-0,09",0,0,5,0,0,10,2,"1,10",0,3,0,9,0
7,13.423333333333332,Ramiro ,5,MEI,"16,65",6,24,Grêmio,3,"2,00",1,0,0,2,"0,11",0,0,8,0,2,9,0,"5,07",0,2,0,11,0
7,13.423333333333332,Lucas Cândido ,0,MEI,"4,00",0,0,Atlético-MG,5,"0,00",0,0,0,0,"0,00",0,0,0,0,0,0,0,"0,00",0,0,0,0,0
7,13.423333333333332,João Victor ,0,MEI,"2,00",0,0,Sport,2,"0,00",0,0,0,0,"0,00",0,0,0,0,0,0,0,"0,00",0,0,0,0,0
7,13.423333333333332,Luis Fabiano ,6,ATA,"15,52",5,7,Vasco,1,"0,00",4,0,0,5,"0,00",0,0,2,0,1,7,0,"9,50",0,2,0,9,4
7,13.423333333333332,Edigar Junio ,2,ATA,"9,82",7,10,Bahia,3,"0,20",1,0,0,2,"-0,78",0,0,4,1,0,9,0,"3,60",0,0,0,13,3
7,13.423333333333332,Henrique Dourado ,4,ATA,"23,16",6,18,Fluminense,3,"-1,20",1,0,0,7,"-1,98",0,0,2,0,1,12,0,"9,97",0,2,0,13,3
8,23.03773809523809,Vagner Mancini ,0,TEC,"8,51",8,0,Chapecoense,3,"1,58",0,0,0,0,"-0,31",0,0,0,0,0,0,0,"3,28",0,0,0,0,0
8,23.03773809523809,Júlio César ,0,GOL,"3,32",4,5,Fluminense,3,"-2,50",0,0,0,0,"-0,52",0,3,0,0,0,4,0,"-1,62",8,0,0,0,0
8,23.03773809523809,Lucas Veríssimo ,1,ZAG,"6,48",8,15,Santos,3,"8,00",0,0,2,0,"0,97",0,0,8,0,0,2,5,"3,66",0,0,1,7,0
8,23.03773809523809,Betão ,1,ZAG,"5,99",7,19,Avaí,3,"0,00",0,0,3,0,"0,00",0,0,7,0,0,10,2,"1,85",0,0,0,6,0
8,23.03773809523809,Jeferson ,0,LAT,"5,03",2,7,Ponte Preta,2,"3,30",0,0,1,0,"-0,16",0,0,2,0,0,0,2,"3,90",0,0,0,3,0
8,23.03773809523809,Victor Ferraz ,1,LAT,"10,77",6,19,Santos,3,"7,80",0,0,2,2,"0,63",0,0,4,0,0,5,3,"4,72",0,0,0,6,0
8,23.03773809523809,Bruno Silva ,4,MEI,"13,48",7,25,Botafogo,3,"8,50",0,0,0,4,"-0,48",0,0,14,0,1,14,0,"7,30",0,5,0,10,3
8,23.03773809523809,Cueva ,2,MEI,"9,51",4,17,São Paulo,3,"2,30",1,0,0,0,"-1,06",0,0,5,0,0,8,0,"1,57",0,1,0,4,2
8,23.03773809523809,Willians ,0,MEI,"4,00",0,0,Cruzeiro,2,"0,00",0,0,0,0,"0,00",0,0,0,0,0,0,0,"0,00",0,0,0,0,0
8,23.03773809523809,Henrique Almeida ,7,ATA,"14,64",8,20,Coritiba,3,"2,00",8,0,0,2,"-0,37",0,0,9,1,0,17,0,"4,91",0,1,0,6,6
8,23.03773809523809,Luan ,8,ATA,"22,03",7,29,Grêmio,3,"0,50",1,0,0,4,"-1,63",0,0,10,0,4,17,0,"10,49",0,0,5,11,0
8,23.03773809523809,Neilton ,0,ATA,"5,00",0,0,São Paulo,2,"0,00",0,0,0,0,"0,00",0,0,0,0,0,0,0,"0,00",0,0,0,0,0
9,23.03773809523809,Vagner Mancini ,0,TEC,"8,53",9,0,Chapecoense,3,"1,79",0,0,0,0,"0,02",0,0,0,0,0,0,0,"3,11",0,0,0,0,0
9,23.03773809523809,Júlio César ,0,GOL,"6,70",5,5,Fluminense,3,"14,00",0,0,0,0,"3,38",0,6,0,0,0,4,1,"1,50",8,0,0,0,0
9,23.03773809523809,Lucas Veríssimo ,2,ZAG,"6,48",9,16,Santos,3,"5,40",0,0,0,0,"0,00",0,0,8,0,0,2,6,"3,85",0,2,0,7,1
9,23.03773809523809,Betão ,1,ZAG,"5,77",8,22,Avaí,3,"0,60",0,0,0,0,"-0,22",0,0,7,0,0,11,2,"1,69",0,3,0,6,1
9,23.03773809523809,Jeferson ,0,LAT,"5,03",2,7,Ponte Preta,2,"0,00",0,0,0,0,"0,00",0,0,2,0,0,0,2,"3,90",0,1,0,3,0
9,23.03773809523809,Victor Ferraz ,1,LAT,"11,06",7,23,Santos,3,"7,00",0,0,0,2,"0,29",0,0,5,0,0,8,4,"5,05",0,2,0,6,0
9,23.03773809523809,Bruno Silva ,4,MEI,"13,27",8,26,Botafogo,3,"5,40",0,0,5,4,"-0,21",0,0,15,0,2,15,0,"7,06",0,0,3,13,0
9,23.03773809523809,Cueva ,3,MEI,"9,81",5,24,São Paulo,3,"3,70",2,0,1,0,"0,30",0,0,8,0,0,8,0,"2,00",0,0,3,5,0
9,23.03773809523809,Willians ,0,MEI,"4,00",0,0,Cruzeiro,2,"0,00",0,0,0,0,"0,00",0,0,0,0,0,0,0,"0,00",0,0,0,0,0
9,23.03773809523809,Henrique Almeida ,9,ATA,"14,09",9,26,Coritiba,3,"0,10",8,0,1,2,"-0,55",0,0,9,1,0,18,0,"4,38",0,0,6,6,0
9,23.03773809523809,Luan ,8,ATA,"24,80",8,34,Grêmio,3,"14,70",2,0,0,4,"2,77",0,0,11,0,6,18,0,"11,02",0,0,0,14,11
9,23.03773809523809,Neilton ,0,ATA,"5,00",0,0,São Paulo,2,"0,00",0,0,0,0,"0,00",0,0,0,0,0,0,0,"0,00",0,0,0,0,0
10,3.0609126984127006,Rogério Ceni ,0,TEC,"10,19",10,0,São Paulo,3,"0,00",0,0,0,0,"0,43",0,0,0,0,0,0,0,"3,78",0,0,0,0,0
10,3.0609126984127006,Fernando Prass ,0,GOL,"16,48",10,0,Palmeiras,3,"0,00",0,0,0,0,"-0,48",0,0,0,0,0,0,0,"5,93",0,0,0,0,0
10,3.0609126984127006,Ricardo Silva ,0,ZAG,"2,94",4,0,Atlético-GO,2,"0,00",0,0,0,0,"0,00",0,0,0,0,0,0,0,"0,28",0,0,0,0,0
10,3.0609126984127006,Yerry Mina ,0,ZAG,"15,15",6,0,Palmeiras,4,"0,00",0,0,0,0,"-0,81",0,0,0,0,0,0,0,"5,38",0,0,0,0,0
10,3.0609126984127006,Breno ,0,LAT,"1,00",0,0,Atlético-PR,2,"0,00",0,0,0,0,"0,00",0,0,0,0,0,0,0,"0,00",0,0,0,0,0
10,3.0609126984127006,William Matheus ,0,LAT,"7,45",9,0,Coritiba,3,"0,00",0,0,0,0,"-0,67",0,0,0,0,0,0,0,"3,40",0,0,0,0,0
10,3.0609126984127006,Éder Militão ,0,MEI,"2,46",7,0,São Paulo,2,"0,00",0,0,0,0,"0,00",0,0,0,0,0,0,0,"1,84",0,0,0,0,0
10,3.0609126984127006,Maycon ,0,MEI,"6,59",10,0,Corinthians,3,"0,00",0,0,0,0,"-0,16",0,0,0,0,0,0,0,"2,32",0,0,0,0,0
10,3.0609126984127006,Jean Lucas ,0,MEI,"2,00",0,0,Flamengo,2,"0,00",0,0,0,0,"0,00",0,0,0,0,0,0,0,"0,00",0,0,0,0,0
10,3.0609126984127006,David ,0,ATA,"3,88",10,0,Vitória,1,"0,00",0,0,0,0,"0,85",0,0,0,0,0,0,0,"1,42",0,0,0,0,0
10,3.0609126984127006,Roger ,0,ATA,"8,53",9,0,Botafogo,2,"0,00",0,0,0,0,"-1,66",0,0,0,0,0,0,0,"4,59",0,0,0,0,0
10,3.0609126984127006,Osvaldo ,0,ATA,"6,47",10,0,Sport,3,"0,00",0,0,0,0,"0,43",0,0,0,0,0,0,0,"3,51",0,0,0,0,0
11,13.581201298701297,Fábio Carille ,0,TEC,"11,03",11,0,Corinthians,3,"4,06",0,0,0,0,"0,00",0,0,0,0,0,0,0,"4,52",0,0,0,0,0
11,13.581201298701297,Cássio ,0,GOL,"12,28",11,5,Corinthians,3,"5,50",0,0,1,0,"-1,31",0,10,0,0,0,2,8,"5,86",5,0,0,0,1
11,13.581201298701297,Airton  ,2,ZAG,"2,11",2,5,Avaí,3,"0,00",0,0,0,0,"0,00",0,0,2,0,0,0,1,"3,40",0,0,0,3,0
11,13.581201298701297,Tiago  ,0,ZAG,"9,92",11,28,Bahia,3,"2,40",5,0,0,1,"0,31",0,0,10,0,0,11,4,"2,59",0,2,0,16,1
11,13.581201298701297,Mayke ,1,LAT,"8,28",8,17,Palmeiras,3,"11,80",3,0,0,0,"2,44",0,0,12,0,0,6,3,"3,31",0,0,0,12,0
11,13.581201298701297,Marcelo Oliveira ,0,LAT,"7,90",2,3,Grêmio,3,"-0,80",0,0,0,0,"-2,07",0,0,1,0,0,4,1,"2,15",0,1,0,3,0
11,13.581201298701297,Thallyson ,0,MEI,"0,78",7,11,Sport,2,"0,00",1,0,0,0,"0,00",0,0,3,0,0,7,0,"-0,53",0,2,0,9,0
11,13.581201298701297,Douglas ,14,MEI,"15,94",11,42,Vasco,3,"0,60",1,0,3,1,"-0,63",0,0,23,1,0,23,0,"4,85",0,0,9,17,0
11,13.581201298701297,Rithely ,8,MEI,"11,24",9,27,Sport,3,"7,00",0,0,0,0,"0,73",0,0,22,0,1,13,0,"4,48",0,1,0,14,3
11,13.581201298701297,Thalles ,1,ATA,"5,47",3,0,Vasco,3,"10,20",0,0,0,1,"2,25",0,0,1,0,0,4,0,"3,30",0,0,0,7,1
11,13.581201298701297,Marco Túlio ,0,ATA,"1,00",0,0,Atlético-MG,2,"0,00",0,0,0,0,"0,00",0,0,0,0,0,0,0,"0,00",0,0,0,0,0
11,13.581201298701297,Luan ,10,ATA,"23,12",9,40,Grêmio,2,"0,00",2,0,0,4,"0,00",1,0,14,0,6,20,0,"10,15",0,0,0,14,12
12,10.979484126984126,Mano Menezes ,0,TEC,"12,56",12,0,Cruzeiro,3,"4,25",0,0,0,0,"0,41",0,0,0,0,0,0,0,"3,79",0,0,0,0,0
12,10.979484126984126,Vanderlei ,0,GOL,"19,46",12,3,Santos,3,"1,70",0,0,0,0,"-1,37",0,26,0,0,0,1,6,"8,90",8,0,0,1,2
12,10.979484126984126,Roger Carvalho ,4,ZAG,"9,09",12,23,Atlético-GO,3,"10,50",0,0,0,0,"1,84",0,0,15,0,0,21,1,"3,20",0,0,0,18,0
12,10.979484126984126,Joel Carli ,1,ZAG,"9,10",8,24,Botafogo,3,"0,00",1,0,3,1,"-0,09",0,0,8,0,0,2,3,"2,39",0,0,0,11,0
12,10.979484126984126,Diego Tavares ,4,LAT,"7,58",9,15,Avaí,2,"0,00",1,0,0,0,"0,00",0,0,6,0,0,12,4,"3,33",0,0,0,8,0
12,10.979484126984126,Marcos Rocha ,1,LAT,"9,99",3,16,Atlético-MG,3,"3,10",0,0,0,0,"-1,34",0,0,4,0,1,3,0,"3,27",0,0,0,5,0
12,10.979484126984126,Marcos Vinícius ,0,MEI,"6,00",0,0,Cruzeiro,5,"0,00",0,0,0,0,"0,00",0,0,0,0,0,0,0,"0,00",0,0,0,0,0
12,10.979484126984126,Alex ,1,MEI,"3,30",1,3,Cruzeiro,2,"0,00",0,0,0,0,"0,00",0,0,2,0,0,2,0,"4,20",0,0,0,0,0
12,10.979484126984126,Henrique ,1,MEI,"4,88",7,13,Cruzeiro,3,"6,00",0,1,2,0,"1,11",0,0,6,0,0,4,0,"0,43",0,0,0,6,0
12,10.979484126984126,Arthur  ,10,ATA,"11,39",12,20,Chapecoense,3,"2,70",4,0,2,4,"-2,33",0,0,11,1,3,24,0,"6,28",0,0,6,19,0
12,10.979484126984126,Negueba ,0,ATA,"6,00",0,0,Atlético-GO,2,"0,00",0,0,0,0,"0,00",0,0,0,0,0,0,0,"0,00",0,0,0,0,0
12,10.979484126984126,Kleber ,6,ATA,"11,76",9,27,Coritiba,3,"1,90",6,1,1,3,"-2,20",0,0,4,0,1,21,0,"3,53",0,0,9,23,0
13,10.979484126984126,Mano Menezes ,0,TEC,"12,98",13,0,Cruzeiro,3,"5,91",0,0,0,0,"0,42",0,0,0,0,0,0,0,"3,95",0,0,0,0,0
13,10.979484126984126,Vanderlei ,0,GOL,"23,89",13,4,Santos,3,"24,00",0,0,0,0,"4,43",0,28,0,0,0,1,6,"10,06",10,0,2,1,0
13,10.979484126984126,Roger Carvalho ,5,ZAG,"7,43",13,26,Atlético-GO,3,"-0,10",0,0,0,0,"-1,66",0,0,16,1,1,23,1,"2,95",0,0,0,19,0
13,10.979484126984126,Joel Carli ,2,ZAG,"9,11",9,27,Botafogo,3,"0,70",1,0,0,1,"0,01",0,0,9,0,0,5,3,"2,20",0,4,0,13,0
13,10.979484126984126,Diego Tavares ,4,LAT,"7,58",9,15,Avaí,2,"0,00",1,0,0,0,"0,00",0,0,6,0,0,12,4,"3,33",0,0,0,8,0
13,10.979484126984126,Marcos Rocha ,1,LAT,"9,35",4,21,Atlético-MG,3,"-0,20",0,0,0,0,"-0,64",0,0,7,0,1,4,0,"2,40",0,0,0,7,0
13,10.979484126984126,Marcos Vinícius ,0,MEI,"6,00",0,0,Cruzeiro,5,"0,00",0,0,0,0,"0,00",0,0,0,0,0,0,0,"0,00",0,0,0,0,0
13,10.979484126984126,Alex ,1,MEI,"3,30",1,3,Cruzeiro,2,"0,00",0,0,0,0,"0,00",0,0,2,0,0,2,0,"4,20",0,0,0,0,0
13,10.979484126984126,Henrique ,1,MEI,"4,64",8,15,Cruzeiro,3,"3,40",0,1,0,0,"-0,24",0,0,9,0,0,6,0,"0,80",0,2,0,7,1
13,10.979484126984126,Arthur  ,12,ATA,"10,84",13,24,Chapecoense,3,"0,00",4,0,0,4,"-0,55",0,0,11,1,3,27,0,"5,80",0,2,0,19,7
13,10.979484126984126,Negueba ,0,ATA,"6,00",0,0,Atlético-GO,2,"0,00",0,0,0,0,"0,00",0,0,0,0,0,0,0,"0,00",0,0,0,0,0
13,10.979484126984126,Kleber ,6,ATA,"12,46",10,29,Coritiba,3,"5,60",6,1,0,3,"0,70",0,0,4,0,1,26,0,"3,74",0,1,0,25,10
14,10.979484126984126,Mano Menezes ,0,TEC,"12,33",14,0,Cruzeiro,3,"1,74",0,0,0,0,"-0,65",0,0,0,0,0,0,0,"3,79",0,0,0,0,0
14,10.979484126984126,Vanderlei ,0,GOL,"23,89",13,4,Santos,5,"0,00",0,0,0,0,"0,00",0,32,0,0,0,1,7,"10,06",10,0,0,1,3
14,10.979484126984126,Roger Carvalho ,6,ZAG,"7,71",14,31,Atlético-GO,3,"1,70",0,0,0,0,"0,28",0,0,17,1,1,23,1,"2,86",0,0,0,21,0
14,10.979484126984126,Joel Carli ,2,ZAG,"10,31",10,28,Botafogo,3,"6,90",1,0,5,1,"1,20",0,0,9,0,0,5,4,"2,67",0,0,0,17,0
14,10.979484126984126,Diego Tavares ,4,LAT,"7,58",9,15,Avaí,1,"0,00",1,0,0,0,"0,00",0,0,6,0,0,12,4,"3,33",0,0,0,8,0
14,10.979484126984126,Marcos Rocha ,3,LAT,"9,35",4,27,Atlético-MG,3,"0,00",0,0,0,0,"0,00",0,0,8,0,1,5,0,"2,40",0,0,0,11,0
14,10.979484126984126,Marcos Vinícius ,0,MEI,"6,00",0,0,Cruzeiro,5,"0,00",0,0,0,0,"0,00",0,0,0,0,0,0,0,"0,00",0,0,0,0,0
14,10.979484126984126,Alex ,1,MEI,"3,30",1,3,Cruzeiro,2,"0,00",0,0,0,0,"0,00",0,0,2,0,0,2,0,"4,20",0,0,0,0,0
14,10.979484126984126,Henrique ,2,MEI,"4,64",8,18,Cruzeiro,4,"0,00",0,1,3,0,"0,00",0,0,12,0,0,8,0,"0,80",0,0,1,8,0
14,10.979484126984126,Arthur  ,13,ATA,"10,84",13,31,Chapecoense,4,"0,00",4,0,3,4,"0,00",0,0,13,1,3,28,0,"5,80",0,0,7,20,0
14,10.979484126984126,Negueba ,0,ATA,"6,00",0,0,Atlético-GO,2,"0,00",0,0,0,0,"0,00",0,0,0,0,0,0,0,"0,00",0,0,0,0,0
14,10.979484126984126,Kleber ,6,ATA,"12,46",10,32,Coritiba,4,"0,00",6,1,1,4,"0,00",0,0,4,0,1,26,0,"3,74",0,0,10,28,0
15,18.782600732600734,Jair Ventura ,0,TEC,"11,57",15,0,Botafogo,3,"4,93",0,0,0,0,"-0,09",0,0,0,0,0,0,0,"4,18",0,0,0,0,0
15,18.782600732600734,Fábio ,0,GOL,"12,67",15,7,Cruzeiro,3,"4,50",0,0,0,0,"0,81",0,20,0,0,0,2,5,"3,57",15,0,0,1,0
15,18.782600732600734,Reginaldo ,1,ZAG,"4,52",10,33,Fluminense,5,"0,00",0,0,0,0,"0,00",0,0,27,0,0,7,1,"3,92",0,0,0,12,0
15,18.782600732600734,Tiago  ,0,ZAG,"10,22",14,32,Bahia,3,"5,70",5,0,0,1,"0,47",0,0,10,0,0,17,6,"2,63",0,3,0,19,1
15,18.782600732600734,Matheus Ribeiro ,1,LAT,"5,76",4,6,Santos,2,"4,30",0,0,1,0,"-0,06",0,0,2,0,0,1,4,"5,20",0,0,1,2,0
15,18.782600732600734,Guilherme Arana ,1,LAT,"10,61",14,44,Corinthians,3,"8,10",4,0,0,1,"-0,39",0,0,7,0,2,19,11,"5,05",0,3,0,10,2
15,18.782600732600734,Gabriel ,0,MEI,"7,51",14,30,Corinthians,3,"0,80",0,1,2,1,"-0,19",0,0,26,0,0,15,0,"2,44",0,0,3,21,0
15,18.782600732600734,Cuéllar ,0,MEI,"4,89",10,18,Flamengo,3,"6,00",0,0,2,0,"1,11",0,0,22,0,0,3,0,"2,55",0,0,2,12,0
15,18.782600732600734,Bruno Silva ,7,MEI,"13,79",12,44,Botafogo,3,"9,50",0,0,5,4,"0,75",0,0,27,0,2,22,0,"6,14",0,0,3,20,0
15,18.782600732600734,Jô ,8,ATA,"12,45",15,37,Corinthians,3,"1,20",15,0,2,9,"-3,01",1,0,3,0,2,16,0,"4,77",0,0,10,26,0
15,18.782600732600734,Sassá ,0,ATA,"8,00",0,0,Botafogo,2,"0,00",0,0,0,0,"0,00",0,0,0,0,0,0,0,"0,00",0,0,0,0,0
15,18.782600732600734,Kayke ,8,ATA,"4,06",13,37,Santos,3,"-1,90",8,0,0,3,"-0,39",1,0,2,0,1,5,0,"1,61",0,0,6,14,0
16,9.273737373737374,Jair Ventura ,0,TEC,"11,20",16,0,Botafogo,3,"1,91",0,0,0,0,"-0,37",0,0,0,0,0,0,0,"4,04",0,0,0,0,0
16,9.273737373737374,Thiago ,0,GOL,"4,24",11,2,Flamengo,3,"-2,30",0,0,0,0,"-2,00",0,11,0,0,1,1,4,"3,59",8,0,0,0,0
16,9.273737373737374,Lucas Veríssimo ,3,ZAG,"7,28",14,22,Santos,4,"0,00",1,0,3,0,"0,00",0,0,14,0,0,5,9,"4,21",0,0,3,9,0
16,9.273737373737374,Betão ,1,ZAG,"7,30",15,35,Avaí,3,"4,50",0,0,4,0,"0,68",0,0,11,0,0,14,6,"2,59",0,0,1,9,0
16,9.273737373737374,Jeferson ,2,LAT,"6,22",6,22,Ponte Preta,3,"6,60",0,0,2,0,"-0,07",0,0,5,0,1,1,4,"4,73",0,0,0,6,0
16,9.273737373737374,Caju ,0,LAT,"4,00",0,0,Santos,5,"0,00",0,0,0,0,"0,00",0,0,0,0,0,0,0,"0,00",0,0,0,0,0
16,9.273737373737374,Gabriel ,0,MEI,"7,73",15,30,Corinthians,3,"1,80",0,1,0,1,"0,22",0,0,26,0,0,15,0,"2,40",0,2,0,21,3
16,9.273737373737374,Arthur ,0,MEI,"10,10",14,26,Grêmio,3,"7,30",0,0,0,1,"0,02",0,0,30,0,0,23,0,"4,64",0,1,0,8,1
16,9.273737373737374,Danilo Barcelos ,0,MEI,"7,00",0,0,Atlético-MG,2,"0,00",0,0,0,0,"0,00",0,0,0,0,0,0,0,"0,00",0,0,0,0,0
16,9.273737373737374,Arthur  ,13,ATA,"12,11",15,32,Chapecoense,3,"8,50",5,0,0,4,"1,52",0,0,14,1,3,30,0,"5,65",0,3,0,22,7
16,9.273737373737374,Borja ,8,ATA,"16,20",9,13,Palmeiras,4,"0,00",3,0,3,3,"0,00",0,0,4,0,0,11,0,"3,22",0,0,4,11,0
16,9.273737373737374,Keno ,5,ATA,"7,29",14,32,Palmeiras,3,"9,10",2,0,1,2,"1,78",0,0,8,1,0,8,0,"2,32",0,0,1,11,0
17,10.486753246753246,Zé Ricardo ,0,TEC,"9,51",1,0,Flamengo,3,"2,45",0,0,0,0,"-1,49",0,0,0,0,0,0,0,"2,45",0,0,0,0,0
17,10.486753246753246,Jefferson ,0,GOL,"9,33",5,6,Botafogo,2,"0,00",0,0,1,0,"0,00",0,11,0,0,0,0,2,"8,04",3,0,0,0,1
17,10.486753246753246,Gustavo Henrique ,0,ZAG,"6,00",0,0,Santos,5,"0,00",0,0,0,0,"0,00",0,0,0,0,0,0,0,"0,00",0,0,0,0,0
17,10.486753246753246,Balbuena ,3,ZAG,"11,98",14,25,Corinthians,3,"10,30",2,0,2,3,"-0,20",0,0,15,0,1,13,10,"7,09",0,0,1,5,0
17,10.486753246753246,Dodô ,1,LAT,"7,36",1,3,Coritiba,3,"4,40",0,0,0,0,"1,36",0,0,3,0,0,0,0,"4,40",0,0,0,1,0
17,10.486753246753246,Fagner Alemão ,3,LAT,"9,80",14,40,Avaí,3,"4,60",4,0,0,0,"-1,19",0,0,27,0,0,11,6,"4,67",0,1,0,6,1
17,10.486753246753246,Nikão ,1,MEI,"7,71",1,1,Atlético-PR,2,"1,90",0,0,0,0,"-1,29",0,0,0,0,0,1,0,"1,90",0,0,1,0,0
17,10.486753246753246,Jean Mota ,1,MEI,"3,04",1,3,Santos,3,"-0,70",0,0,0,0,"-1,96",0,0,0,0,0,0,0,"-0,70",0,0,0,1,0
17,10.486753246753246,Mantuan ,0,MEI,"1,00",0,0,Corinthians,2,"0,00",0,0,0,0,"0,00",0,0,0,0,0,0,0,"0,00",0,0,0,0,0
17,10.486753246753246,Henrique Dourado ,8,ATA,"21,99",11,34,Fluminense,3,"0,00",1,0,3,9,"0,00",0,0,4,0,2,22,0,"7,53",0,0,6,24,0
17,10.486753246753246,Luan ,14,ATA,"21,66",14,70,Grêmio,3,"1,80",3,0,0,5,"-0,61",1,0,21,0,6,34,0,"7,97",0,1,0,16,15
17,10.486753246753246,Túlio de Melo ,0,ATA,"7,00",0,0,Chapecoense,2,"0,00",0,0,0,0,"0,00",0,0,0,0,0,0,0,"0,00",0,0,0,0,0
18,6.631883116883116,Zé Ricardo ,0,TEC,"12,13",18,0,Flamengo,3,"3,35",0,0,0,0,"0,28",0,0,0,0,0,0,0,"4,24",0,0,0,0,0
18,6.631883116883116,Jefferson ,0,GOL,"9,33",5,6,Botafogo,2,"0,00",0,0,0,0,"0,00",0,11,0,0,0,0,2,"8,04",3,1,1,0,0
18,6.631883116883116,Gustavo Henrique ,0,ZAG,"6,00",0,0,Santos,2,"0,00",0,0,0,0,"0,00",0,0,0,0,0,0,0,"0,00",0,0,0,0,0
18,6.631883116883116,Balbuena ,3,ZAG,"11,55",15,30,Corinthians,3,"5,20",2,0,0,3,"-0,43",0,0,16,0,1,14,11,"6,96",0,2,0,6,1
18,6.631883116883116,Dodô ,3,LAT,"9,34",11,47,Coritiba,2,"0,00",0,0,2,0,"0,00",0,0,18,0,0,7,5,"3,33",0,0,2,17,0
18,6.631883116883116,Fagner Alemão ,3,LAT,"9,41",15,42,Avaí,3,"1,10",4,0,1,0,"-0,39",0,0,28,0,0,12,6,"4,43",0,0,1,7,0
18,6.631883116883116,Nikão ,5,MEI,"8,93",16,50,Atlético-PR,3,"1,50",1,0,0,1,"-0,72",0,0,14,1,2,29,0,"2,99",0,2,0,18,13
18,6.631883116883116,Jean Mota ,5,MEI,"5,30",16,40,Santos,3,"2,70",0,0,0,0,"0,08",0,0,26,0,2,14,0,"3,14",0,1,0,7,3
18,6.631883116883116,Danilo Barcelos ,0,MEI,"7,00",0,0,Atlético-MG,2,"0,00",0,0,0,0,"0,00",0,0,0,0,0,0,0,"0,00",0,0,0,0,0
18,6.631883116883116,Henrique Dourado ,8,ATA,"21,70",12,37,Fluminense,3,"0,30",1,0,0,9,"-0,29",0,0,5,0,2,23,0,"6,93",0,3,0,26,6
18,6.631883116883116,Luan ,14,ATA,"21,66",14,70,Grêmio,1,"0,00",3,0,1,5,"0,00",1,0,21,0,6,34,0,"7,97",0,0,15,16,0
18,6.631883116883116,Túlio de Melo ,5,ATA,"4,69",11,8,Chapecoense,3,"6,10",0,0,1,2,"1,18",0,0,0,0,0,5,0,"1,43",0,0,3,10,0
19,6.631883116883116,Zé Ricardo ,0,TEC,"9,51",1,0,Flamengo,3,"2,45",0,0,0,0,"-1,49",0,0,0,0,0,0,0,"2,45",0,0,0,0,0
19,6.631883116883116,Jefferson ,0,GOL,"9,33",5,6,Botafogo,1,"0,00",0,0,1,0,"0,00",0,11,0,0,0,0,2,"8,04",3,0,0,0,1
19,6.631883116883116,Gustavo Henrique ,0,ZAG,"6,00",0,0,Santos,2,"0,00",0,0,0,0,"0,00",0,0,0,0,0,0,0,"0,00",0,0,0,0,0
19,6.631883116883116,Balbuena ,3,ZAG,"11,89",16,34,Corinthians,2,"7,30",2,0,2,3,"0,34",0,0,21,0,1,14,11,"6,98",0,0,1,6,0
19,6.631883116883116,Dodô ,3,LAT,"9,34",11,47,Coritiba,2,"0,00",0,0,0,0,"0,00",0,0,18,0,0,7,5,"3,33",0,2,0,17,2
19,6.631883116883116,Fagner Alemão ,4,LAT,"10,50",16,46,Avaí,3,"7,80",4,0,0,0,"1,09",0,0,32,0,0,12,7,"4,64",0,2,0,10,1
19,6.631883116883116,Nikão ,5,MEI,"8,44",17,51,Atlético-PR,3,"-0,30",1,0,2,1,"-0,49",0,0,14,1,2,29,0,"2,80",0,0,13,18,0
19,6.631883116883116,Jean Mota ,5,MEI,"6,37",17,48,Santos,1,"8,40",0,0,1,0,"1,07",0,0,30,0,2,20,0,"3,45",0,0,4,7,0
19,6.631883116883116,Danilo Barcelos ,0,MEI,"7,00",0,0,Atlético-MG,2,"0,00",0,0,0,0,"0,00",0,0,0,0,0,0,0,"0,00",0,0,0,0,0
19,6.631883116883116,Henrique Dourado ,8,ATA,"22,77",13,39,Fluminense,3,"8,60",1,0,3,10,"1,07",0,0,6,0,2,26,0,"7,06",0,0,6,30,0
19,6.631883116883116,Luan ,14,ATA,"20,87",15,75,Grêmio,2,"-1,00",3,0,0,5,"-0,79",1,0,21,0,6,36,0,"7,37",0,1,0,17,15
19,6.631883116883116,Túlio de Melo ,5,ATA,"3,68",12,8,Chapecoense,2,"0,00",0,0,0,2,"-1,01",0,0,0,0,0,5,0,"1,31",0,1,0,10,3
20,5.850269976411616,Cuca ,0,TEC,"13,45",20,0,Palmeiras,3,"2,02",0,0,0,0,"-0,22",0,0,0,0,0,0,0,"3,80",0,0,0,0,0
20,5.850269976411616,João Paulo ,0,GOL,"2,97",1,1,Santos,2,"0,00",0,0,0,0,"0,00",0,2,0,0,0,0,1,"10,70",0,0,0,0,0
20,5.850269976411616,Tiago  ,0,ZAG,"9,78",19,39,Bahia,3,"4,00",6,0,4,1,"1,25",0,0,15,1,0,21,6,"2,25",0,0,2,28,0
20,5.850269976411616,Gabriel ,3,ZAG,"8,82",12,24,Atlético-MG,3,"1,00",0,0,1,1,"-0,18",0,0,15,0,0,9,4,"3,66",0,0,1,16,0
20,5.850269976411616,Fagner ,1,LAT,"13,67",15,67,Corinthians,2,"0,00",2,0,4,0,"0,00",0,0,26,0,2,24,11,"5,72",0,0,1,16,0
20,5.850269976411616,Fagner Alemão ,4,LAT,"10,38",17,49,Avaí,3,"5,80",4,0,2,0,"-0,12",0,0,33,0,0,12,8,"4,71",0,0,1,10,0
20,5.850269976411616,Wenderson ,0,MEI,"0,76",1,0,Botafogo,2,"0,00",0,0,0,0,"0,00",0,0,0,0,0,0,0,"0,00",0,0,0,0,0
20,5.850269976411616,Matheus Galdezani ,11,MEI,"7,80",19,80,Coritiba,3,"4,40",1,0,0,1,"1,02",0,0,30,0,1,36,0,"2,50",0,5,0,40,12
20,5.850269976411616,Tchê Tchê ,3,MEI,"6,19",16,40,Palmeiras,2,"-0,60",1,1,0,0,"-0,77",0,0,17,0,2,15,0,"0,84",0,3,0,29,3
20,5.850269976411616,Walter ,11,ATA,"6,04",14,56,Atlético-GO,3,"-6,60",4,0,0,1,"-1,38",0,0,5,1,0,33,0,"1,06",0,4,0,25,10
20,5.850269976411616,Everton ,10,ATA,"10,31",17,16,Grêmio,3,"2,60",1,0,1,5,"-0,37",0,0,9,1,2,8,0,"4,53",0,0,9,9,0
20,5.850269976411616,Luis Fabiano ,17,ATA,"13,05",10,13,Vasco,3,"1,70",6,0,4,5,"-0,99",0,0,4,0,2,21,0,"6,07",0,0,6,19,0
21,22.95442740266269,Renato Gaúcho ,0,TEC,"15,56",21,0,Grêmio,3,"4,77",0,0,0,0,"0,20",0,0,0,0,0,0,0,"4,56",0,0,0,0,0
21,22.95442740266269,Aranha ,0,GOL,"10,98",20,7,Ponte Preta,3,"-4,00",0,0,2,0,"-2,45",0,32,1,0,0,3,9,"4,41",25,0,0,0,0
21,22.95442740266269,Luan ,5,ZAG,"7,02",11,11,Palmeiras,3,"2,20",0,0,1,0,"-0,22",0,0,14,0,0,12,4,"3,91",0,0,1,12,0
21,22.95442740266269,Pedro Henrique ,3,ZAG,"9,46",13,18,Corinthians,3,"6,70",0,0,0,1,"-0,15",0,0,13,0,0,7,7,"5,02",0,0,0,4,2
21,22.95442740266269,Marcelo Oliveira ,0,LAT,"9,02",7,7,Grêmio,3,"10,60",1,0,1,0,"1,51",1,0,8,0,0,6,3,"2,71",0,0,0,9,0
21,22.95442740266269,Cascardo ,0,LAT,"3,17",9,22,Atlético-PR,3,"0,00",1,0,0,0,"0,00",0,0,7,0,0,13,3,"2,65",0,0,1,7,0
21,22.95442740266269,Lucas Lima ,6,MEI,"3,53",14,65,Santos,3,"-1,00",0,0,0,0,"-0,89",0,0,19,0,3,30,0,"1,82",0,8,0,25,7
21,22.95442740266269,Elias ,4,MEI,"12,23",17,58,Atlético-MG,3,"4,80",2,0,1,2,"0,42",0,0,27,0,0,14,0,"2,72",0,0,6,22,0
21,22.95442740266269,Lincoln ,1,MEI,"2,98",8,14,Grêmio,3,"1,30",0,0,0,0,"0,16",0,0,3,0,1,15,0,"1,20",0,0,0,9,0
21,22.95442740266269,Pedro ,2,ATA,"4,04",7,6,Fluminense,2,"0,00",1,0,0,1,"0,00",0,0,3,0,0,8,0,"1,82",0,1,0,7,2
21,22.95442740266269,Fernandinho ,4,ATA,"11,11",17,32,Grêmio,3,"-0,30",1,0,0,6,"-0,51",0,0,17,0,1,47,0,"5,81",0,1,0,17,11
21,22.95442740266269,Everaldo ,1,ATA,"6,30",1,1,Atlético-GO,3,"4,90",1,0,0,0,"2,30",0,0,0,0,0,0,0,"4,90",0,0,0,0,5
22,22.95442740266269,Renato Gaúcho ,0,TEC,"15,56",21,0,Grêmio,2,"0,00",0,0,0,0,"0,00",0,0,0,0,0,0,0,"4,56",0,0,0,0,0
22,22.95442740266269,Aranha ,0,GOL,"11,39",21,8,Ponte Preta,3,"-1,30",0,0,0,0,"0,41",0,33,1,0,0,3,9,"4,14",27,2,0,0,0
22,22.95442740266269,Luan ,5,ZAG,"7,03",12,11,Palmeiras,3,"1,70",0,0,0,0,"0,01",0,0,15,0,0,12,4,"3,73",0,1,0,12,1
22,22.95442740266269,Pedro Henrique ,3,ZAG,"9,12",14,18,Corinthians,3,"3,40",0,0,0,1,"-0,34",0,0,15,0,0,8,7,"4,90",0,0,2,5,0
22,22.95442740266269,Marcelo Oliveira ,0,LAT,"9,02",7,7,Grêmio,5,"0,00",1,0,0,0,"0,00",1,0,8,0,0,6,3,"2,71",0,1,0,9,0
22,22.95442740266269,Cascardo ,0,LAT,"3,17",9,22,Atlético-PR,2,"0,00",1,0,0,0,"0,00",0,0,7,0,0,13,3,"2,65",0,0,0,7,1
22,22.95442740266269,Lucas Lima ,6,MEI,"3,77",15,71,Santos,3,"0,40",0,0,8,0,"0,24",0,0,20,0,3,34,0,"1,73",0,0,7,28,0
22,22.95442740266269,Elias ,4,MEI,"13,61",18,60,Atlético-MG,3,"11,00",2,0,0,3,"1,38",0,0,30,0,0,15,0,"3,18",0,2,0,22,6
22,22.95442740266269,Lincoln ,1,MEI,"2,98",8,14,Grêmio,2,"0,00",0,0,0,0,"0,00",0,0,3,0,1,15,0,"1,20",0,0,0,9,0
22,22.95442740266269,Pedro ,2,ATA,"4,04",7,6,Fluminense,2,"0,00",1,0,1,1,"0,00",0,0,3,0,0,8,0,"1,82",0,0,2,7,0
22,22.95442740266269,Fernandinho ,4,ATA,"11,11",17,32,Grêmio,2,"0,00",1,0,1,6,"0,00",0,0,17,0,1,47,0,"5,81",0,0,11,17,0
22,22.95442740266269,Everaldo ,1,ATA,"6,30",1,1,Atlético-GO,3,"4,90",1,0,0,0,"2,30",0,0,0,0,0,0,0,"4,90",0,0,5,0,0
23,18.228519538596935,Fábio Carille ,0,TEC,"11,47",22,0,Corinthians,3,"1,14",0,0,0,0,"-0,46",0,0,0,0,0,0,0,"4,51",0,0,0,0,0
23,18.228519538596935,Victor ,0,GOL,"12,33",21,11,Atlético-MG,3,"7,40",0,0,0,0,"0,75",0,36,0,0,0,2,4,"4,61",25,3,4,2,0
23,18.228519538596935,Kanu ,10,ZAG,"10,48",17,41,Vitória,3,"9,80",5,0,1,4,"-0,60",0,0,21,1,1,10,6,"5,02",0,4,0,14,3
23,18.228519538596935,Marllon ,3,ZAG,"11,94",21,40,Ponte Preta,3,"2,60",0,0,2,0,"0,20",0,0,33,1,0,23,8,"4,47",0,0,2,11,0
23,18.228519538596935,Jonathan ,2,LAT,"2,60",10,18,Atlético-GO,3,"3,70",0,0,0,0,"-0,81",0,0,9,0,0,3,2,"1,88",0,1,0,6,1
23,18.228519538596935,Victor Luis ,4,LAT,"12,74",18,42,Botafogo,3,"6,50",0,0,0,1,"0,59",0,0,30,0,0,17,8,"4,59",0,3,0,18,0
23,18.228519538596935,Lucas Lima ,6,MEI,"4,59",16,83,Santos,3,"4,90",0,0,0,1,"0,82",0,0,20,0,3,41,0,"1,93",0,9,0,30,7
23,18.228519538596935,Elias ,5,MEI,"12,42",19,62,Atlético-MG,3,"3,00",2,0,2,3,"-1,19",0,0,32,0,0,15,0,"3,17",0,0,6,23,0
23,18.228519538596935,Lincoln ,0,MEI,"4,00",0,0,Grêmio,2,"0,00",0,0,0,0,"0,00",0,0,0,0,0,0,0,"0,00",0,0,0,0,0
23,18.228519538596935,Paulinho ,1,ATA,"6,15",1,5,Vitória,3,"2,70",0,0,0,0,"0,15",0,0,0,1,0,0,0,"2,70",0,0,0,0,0
23,18.228519538596935,Marcelo ,0,ATA,"2,00",0,0,Atlético-PR,2,"0,00",0,0,0,0,"0,00",0,0,0,0,0,0,0,"0,00",0,0,0,0,0
23,18.228519538596935,Lucas Pratto ,31,ATA,"15,55",22,63,São Paulo,3,"6,80",4,1,2,5,"0,41",1,0,11,0,4,25,0,"3,77",0,0,18,29,0
24,16.502280805298707,Mano Menezes ,0,TEC,"12,92",24,0,Cruzeiro,3,"4,40",0,0,0,0,"0,05",0,0,0,0,0,0,0,"3,87",0,0,0,0,0
24,16.502280805298707,Cássio ,0,GOL,"14,49",23,7,Corinthians,3,"11,00",0,0,2,0,"1,16",0,26,0,0,0,5,14,"5,77",13,0,0,0,2
24,16.502280805298707,Luan ,5,ZAG,"5,77",13,13,Palmeiras,2,"0,00",0,1,0,0,"0,00",0,0,17,0,0,12,4,"3,04",0,2,0,14,1
24,16.502280805298707,Igor Rabello ,4,ZAG,"12,07",18,28,Botafogo,3,"0,00",1,0,1,0,"0,00",0,0,27,1,0,11,7,"3,60",0,4,0,16,3
24,16.502280805298707,Matheus Ribeiro ,1,LAT,"5,76",4,6,Santos,2,"0,00",0,0,1,0,"0,00",0,0,2,0,0,1,4,"5,20",0,0,1,2,0
24,16.502280805298707,Raul Prata ,4,LAT,"4,86",6,25,Sport,3,"4,90",0,0,0,0,"-0,67",0,0,12,0,0,7,3,"4,78",0,1,0,7,0
24,16.502280805298707,Wendel ,7,MEI,"12,17",20,46,Fluminense,3,"-2,90",2,0,2,4,"-2,38",0,0,27,2,2,49,0,"5,17",0,0,7,18,0
24,16.502280805298707,Edinho ,0,MEI,"3,60",4,4,Coritiba,2,"0,00",0,0,1,0,"0,00",0,0,0,0,0,3,0,"-0,68",0,0,0,2,0
24,16.502280805298707,Mancuello ,2,MEI,"6,11",6,7,Flamengo,3,"0,00",1,0,0,1,"0,00",0,0,5,0,0,3,0,"2,13",0,2,0,4,2
24,16.502280805298707,Willian ,7,ATA,"7,37",17,29,Palmeiras,3,"0,00",6,1,0,5,"0,00",1,0,15,1,3,24,0,"3,83",0,4,0,27,6
24,16.502280805298707,Henrique Dourado ,9,ATA,"23,18",18,47,Fluminense,3,"10,30",6,0,4,14,"0,50",0,0,8,0,2,35,0,"6,78",0,0,9,43,0
24,16.502280805298707,Lucas Pratto ,32,ATA,"14,82",23,63,São Paulo,3,"2,40",4,1,0,5,"-0,73",1,0,12,0,4,26,0,"3,71",0,2,0,32,19
25,15.837969924812029,Abel Braga ,0,TEC,"11,24",23,0,Fluminense,3,"0,15",0,0,0,0,"-0,23",0,0,0,0,0,0,0,"2,92",0,0,0,0,0
25,15.837969924812029,Sidão ,0,GOL,"5,79",5,4,São Paulo,3,"4,00",0,0,1,0,"-0,88",0,11,0,0,0,1,0,"2,86",9,0,0,0,0
25,15.837969924812029,Balbuena ,5,ZAG,"10,71",20,43,Corinthians,3,"0,50",3,0,4,3,"-1,06",0,0,28,0,1,15,12,"6,10",0,0,1,9,0
25,15.837969924812029,Gabriel ,6,ZAG,"9,92",15,28,Atlético-MG,3,"8,00",1,0,0,1,"1,21",0,0,21,0,0,14,4,"3,77",0,1,0,19,2
25,15.837969924812029,Fábio Santos ,5,LAT,"3,51",21,77,Atlético-MG,3,"0,50",2,0,7,3,"0,66",0,0,24,0,0,39,4,"2,69",0,0,2,31,0
25,15.837969924812029,Victor Luis ,5,LAT,"11,99",20,45,Botafogo,3,"1,10",0,0,0,1,"-1,22",0,0,34,0,0,21,9,"4,62",0,4,0,22,0
25,15.837969924812029,Lucas Lima ,6,MEI,"4,59",16,83,Santos,5,"0,00",0,0,0,1,"0,00",0,0,20,0,3,41,0,"1,93",0,9,0,30,7
25,15.837969924812029,Elias ,6,MEI,"11,21",20,69,Atlético-MG,4,"0,00",2,1,2,3,"0,00",0,0,34,0,0,15,0,"2,84",0,0,6,24,0
25,15.837969924812029,Edson ,8,MEI,"14,71",13,22,Bahia,3,"9,50",2,1,2,1,"1,26",0,0,36,0,1,16,0,"4,93",0,0,3,20,0
25,15.837969924812029,Henrique Dourado ,9,ATA,"21,17",19,50,Fluminense,3,"-1,20",6,0,0,14,"-2,01",0,0,9,0,2,36,0,"6,36",0,4,0,48,9
25,15.837969924812029,Clayton ,0,ATA,"9,00",0,0,Corinthians,2,"0,00",0,0,0,0,"0,00",0,0,0,0,0,0,0,"0,00",0,0,0,0,0
25,15.837969924812029,Wellington Paulista ,16,ATA,"9,41",20,42,Chapecoense,3,"1,70",6,0,5,3,"-0,21",0,0,4,2,1,23,0,"2,17",0,0,16,25,0
26,20.12298913043478,Fábio Carille ,0,TEC,"11,72",25,0,Corinthians,3,"1,81",0,0,0,0,"-0,07",0,0,0,0,0,0,0,"4,36",0,0,0,0,0
26,20.12298913043478,Fernando Prass ,0,GOL,"14,31",22,7,Palmeiras,3,"-1,30",0,0,0,0,"-1,92",0,36,1,0,0,5,6,"4,33",24,2,1,0,0
26,20.12298913043478,Wanderson ,2,ZAG,"6,63",16,22,Atlético-PR,3,"4,70",2,0,1,2,"0,99",0,0,12,0,0,4,6,"3,73",0,0,7,15,0
26,20.12298913043478,Marllon ,3,ZAG,"12,81",24,41,Ponte Preta,3,"7,40",0,0,3,0,"1,21",0,0,37,1,0,26,9,"4,30",0,0,2,14,0
26,20.12298913043478,Fagner Alemão ,5,LAT,"9,92",22,59,Avaí,3,"2,60",4,0,3,0,"0,18",0,0,39,0,0,15,9,"4,16",0,0,1,12,0
26,20.12298913043478,Leandro Silva ,8,LAT,"9,27",25,107,Avaí,3,"5,00",2,1,1,0,"1,22",0,0,35,0,3,23,10,"3,55",0,0,4,33,0
26,20.12298913043478,Diego Jardel ,0,MEI,"6,00",0,0,Avaí,2,"0,00",0,0,0,0,"0,00",0,0,0,0,0,0,0,"0,00",0,0,0,0,0
26,20.12298913043478,Douglas ,1,MEI,"3,12",5,19,Fluminense,3,"-1,00",0,0,0,0,"-0,81",0,0,10,0,0,2,0,"1,10",0,2,0,9,1
26,20.12298913043478,João Filipe ,0,MEI,"5,00",0,0,Atlético-GO,2,"0,00",0,0,0,0,"0,00",0,0,0,0,0,0,0,"0,00",0,0,0,0,0
26,20.12298913043478,Leandro Damião ,0,ATA,"8,00",0,0,Flamengo,2,"0,00",0,0,0,0,"0,00",0,0,0,0,0,0,0,"0,00",0,0,0,0,0
26,20.12298913043478,Crysan ,0,ATA,"4,00",0,0,Atlético-PR,2,"0,00",0,0,0,0,"0,00",0,0,0,0,0,0,0,"0,00",0,0,0,0,0
26,20.12298913043478,Rildo ,6,ATA,"10,49",23,61,Coritiba,3,"10,90",6,0,0,5,"2,20",0,0,21,0,2,84,0,"4,22",0,3,0,25,5
27,15.837969924812029,Abel Braga ,0,TEC,"11,62",25,0,Fluminense,3,"0,00",0,0,0,0,"0,01",0,0,0,0,0,0,0,"2,83",0,0,0,0,0
27,15.837969924812029,Sidão ,0,GOL,"9,04",7,0,São Paulo,3,"0,00",0,0,0,0,"1,42",0,0,0,0,0,0,0,"6,63",0,0,0,0,0
27,15.837969924812029,Balbuena ,0,ZAG,"10,29",22,0,Corinthians,3,"0,00",0,0,0,0,"0,04",0,0,0,0,0,0,0,"5,38",0,0,0,0,0
27,15.837969924812029,Gabriel ,0,ZAG,"9,92",17,0,Atlético-MG,3,"0,00",0,0,0,0,"0,57",0,0,0,0,0,0,0,"3,88",0,0,0,0,0
27,15.837969924812029,Fábio Santos ,0,LAT,"5,78",23,0,Atlético-MG,3,"0,00",0,0,0,0,"1,37",0,0,0,0,0,0,0,"3,20",0,0,0,0,0
27,15.837969924812029,Victor Luis ,0,LAT,"12,09",22,0,Botafogo,3,"0,00",0,0,0,0,"-0,90",0,0,0,0,0,0,0,"4,50",0,0,0,0,0
27,15.837969924812029,Lucas Lima ,0,MEI,"5,23",1,2,Santos,3,"-0,60",0,0,0,0,"-2,77",0,0,0,0,0,3,0,"-0,60",0,1,0,1,1
27,15.837969924812029,Elias ,0,MEI,"11,65",21,0,Atlético-MG,3,"0,00",0,0,0,0,"0,00",0,0,0,0,0,0,0,"2,70",0,0,0,0,0
27,15.837969924812029,Edson ,0,MEI,"13,16",14,0,Bahia,3,"0,00",0,0,0,0,"0,00",0,0,0,0,0,0,0,"4,51",0,0,0,0,0
27,15.837969924812029,Henrique Dourado ,0,ATA,"21,54",21,0,Fluminense,3,"0,00",0,0,0,0,"0,30",0,0,0,0,0,0,0,"5,76",0,0,0,0,0
27,15.837969924812029,Clayton ,0,ATA,"9,00",0,0,Corinthians,2,"0,00",0,0,0,0,"0,00",0,0,0,0,0,0,0,"0,00",0,0,0,0,0
27,15.837969924812029,Wellington Paulista ,0,ATA,"9,29",22,0,Chapecoense,3,"0,00",0,0,0,0,"0,26",0,0,0,0,0,0,0,"1,97",0,0,0,0,0
28,0.0,Abel Braga ,0,TEC,"12,33",26,0,Fluminense,3,"0,00",0,0,0,0,"0,71",0,0,0,0,0,0,0,"2,97",0,0,0,0,0
28,0.0,Sidão ,0,GOL,"6,13",8,0,São Paulo,3,"0,00",0,0,0,0,"-2,91",0,0,0,0,0,0,0,"5,89",0,0,0,0,0
28,0.0,Balbuena ,0,ZAG,"11,00",23,0,Corinthians,3,"0,00",0,0,0,0,"0,71",0,0,0,0,0,0,0,"5,30",0,0,0,0,0
28,0.0,Gabriel ,0,ZAG,"9,02",18,0,Atlético-MG,3,"0,00",0,0,0,0,"-0,90",0,0,0,0,0,0,0,"3,73",0,0,0,0,0
28,0.0,Fábio Santos ,0,LAT,"4,77",24,0,Atlético-MG,3,"0,00",0,0,0,0,"-1,01",0,0,0,0,0,0,0,"3,27",0,0,0,0,0
28,0.0,Apodi ,0,LAT,"8,16",25,0,Chapecoense,3,"0,00",0,0,0,0,"-0,45",0,0,0,0,0,0,0,"3,12",0,0,0,0,0
28,0.0,Lucas Lima ,0,MEI,"3,75",18,0,Santos,3,"0,00",0,0,0,0,"-0,09",0,0,0,0,0,0,0,"1,71",0,0,0,0,0
28,0.0,Elias ,0,MEI,"11,78",22,0,Atlético-MG,3,"0,00",0,0,0,0,"0,13",0,0,0,0,0,0,0,"2,67",0,0,0,0,0
28,0.0,Renan Paulino ,0,MEI,"3,00",0,0,Atlético-PR,2,"0,00",0,0,0,0,"0,00",0,0,0,0,0,0,0,"0,00",0,0,0,0,0
28,0.0,Henrique Dourado ,0,ATA,"22,01",22,0,Fluminense,3,"0,00",0,0,0,0,"0,47",0,0,0,0,0,0,0,"5,75",0,0,0,0,0
28,0.0,Maranhão ,0,ATA,"3,00",0,0,Fluminense,2,"0,00",0,0,0,0,"0,00",0,0,0,0,0,0,0,"0,00",0,0,0,0,0
28,0.0,Wellington Paulista ,0,ATA,"9,45",23,0,Chapecoense,3,"0,00",0,0,0,0,"0,16",0,0,0,0,0,0,0,"1,99",0,0,0,0,0
29,24.259795514554096,Cuca ,0,TEC,"15,09",1,0,Palmeiras,3,"8,34",0,0,0,0,"2,09",0,0,0,0,0,0,0,"8,34",0,0,0,0,0
29,24.259795514554096,Sidão ,0,GOL,"5,45",9,9,São Paulo,3,"-2,80",0,0,1,0,"-0,68",0,23,0,0,0,2,1,"4,92",14,0,0,0,0
29,24.259795514554096,Balbuena ,5,ZAG,"11,67",24,56,Corinthians,3,"7,50",5,0,5,3,"0,67",0,0,34,0,1,16,13,"5,39",0,0,1,12,0
29,24.259795514554096,Gabriel ,6,ZAG,"8,69",19,35,Atlético-MG,3,"-0,30",1,0,0,1,"-0,33",0,0,23,0,0,16,6,"3,52",0,1,0,23,2
29,24.259795514554096,Fábio Santos ,5,LAT,"5,51",25,89,Atlético-MG,3,"8,70",2,0,7,4,"0,74",0,0,29,0,1,47,6,"3,49",0,0,2,33,0
29,24.259795514554096,Apodi ,15,LAT,"8,35",26,60,Chapecoense,3,"5,00",2,0,0,1,"0,19",0,0,33,0,0,50,7,"3,19",0,8,0,49,8
29,24.259795514554096,Lucas Lima ,7,MEI,"3,61",19,99,Santos,3,"-0,70",0,0,0,1,"-0,14",0,0,21,0,3,52,0,"1,58",0,10,0,34,7
29,24.259795514554096,Elias ,7,MEI,"10,56",23,77,Atlético-MG,3,"-4,30",3,2,3,3,"-1,22",0,0,38,0,0,20,0,"2,37",0,0,7,31,0
29,24.259795514554096,Guilherme Costa ,1,MEI,"4,94",8,8,Vasco,2,"0,00",0,0,1,1,"0,00",0,0,1,0,2,8,0,"2,25",0,0,1,6,0
29,24.259795514554096,Henrique Dourado ,11,ATA,"22,26",23,60,Fluminense,3,"7,60",8,0,0,16,"0,25",0,0,9,0,2,45,0,"5,83",0,5,0,61,13
29,24.259795514554096,Ángel Romero ,6,ATA,"12,83",22,82,Corinthians,3,"8,30",13,0,8,2,"0,85",0,0,45,0,2,65,0,"3,94",0,0,9,29,0
29,24.259795514554096,Wellington Paulista ,20,ATA,"10,91",24,55,Chapecoense,3,"10,90",8,0,5,4,"1,46",0,0,7,2,1,28,0,"2,36",0,0,19,31,0
30,14.285842830648658,Jair Ventura ,0,TEC,"12,27",30,0,Botafogo,3,"4,57",0,0,0,0,"0,25",0,0,0,0,0,0,0,"4,20",0,0,0,0,0
30,14.285842830648658,Wilson ,0,GOL,"13,89",30,15,Coritiba,3,"3,70",0,0,2,0,"-0,63",0,58,0,0,0,6,8,"4,66",38,0,0,0,1
30,14.285842830648658,Lucas Veríssimo ,5,ZAG,"8,82",27,41,Santos,3,"7,30",1,0,0,0,"1,18",0,0,33,0,0,15,16,"4,30",0,7,0,21,6
30,14.285842830648658,Réver ,6,ZAG,"11,40",24,28,Flamengo,5,"0,40",2,0,2,5,"-2,79",0,0,31,0,0,22,7,"5,27",0,0,5,16,0
30,14.285842830648658,Ezequiel  ,3,LAT,"5,26",17,35,Cruzeiro,3,"-0,20",0,0,5,0,"-0,05",0,0,19,0,1,14,5,"2,34",0,0,2,26,0
30,14.285842830648658,Marcos Rocha ,4,LAT,"12,07",15,68,Atlético-MG,3,"10,30",1,0,4,0,"1,20",0,0,48,0,3,25,3,"5,71",0,0,2,29,0
30,14.285842830648658,Rodrigo Lindoso ,7,MEI,"10,15",23,75,Botafogo,4,"1,80",0,0,0,3,"-0,11",0,0,45,1,1,23,0,"3,70",0,3,0,30,3
30,14.285842830648658,Fábio Braga ,0,MEI,"3,00",0,0,Ponte Preta,2,"0,00",0,0,0,0,"0,00",0,0,0,0,0,0,0,"0,00",0,0,0,0,0
30,14.285842830648658,Julio dos Santos ,0,MEI,"5,00",0,0,Vasco,2,"0,00",0,0,0,0,"0,00",0,0,0,0,0,0,0,"0,00",0,0,0,0,0
30,14.285842830648658,Rildo ,7,ATA,"10,58",27,74,Coritiba,3,"10,60",8,0,0,6,"1,53",0,0,27,0,2,98,0,"4,29",0,3,0,31,6
30,14.285842830648658,Douglas Coutinho  ,7,ATA,"2,74",19,33,Atlético-PR,3,"-0,10",3,0,0,2,"-1,89",0,0,7,0,1,14,0,"1,96",0,0,10,13,0
30,14.285842830648658,Ángel Romero ,7,ATA,"11,62",23,82,Corinthians,3,"0,70",13,0,0,2,"-1,21",0,0,45,0,2,68,0,"3,80",0,8,0,32,9
31,22.015339388086886,Jair Ventura ,0,TEC,"12,29",31,0,Botafogo,3,"5,11",0,0,0,0,"0,02",0,0,0,0,0,0,0,"4,23",0,0,0,0,0
31,22.015339388086886,Wilson ,0,GOL,"16,02",31,17,Coritiba,3,"16,40",0,0,0,0,"2,13",0,61,0,0,0,6,8,"5,04",41,2,3,0,0
31,22.015339388086886,Lucas Veríssimo ,5,ZAG,"7,89",28,44,Santos,3,"1,80",1,0,7,0,"-0,93",0,0,34,0,0,17,16,"4,21",0,0,6,21,0
31,22.015339388086886,Réver ,6,ZAG,"11,40",24,28,Flamengo,5,"0,00",2,0,0,5,"0,00",0,0,31,0,0,22,7,"5,27",0,2,0,16,5
31,22.015339388086886,Reinaldo ,12,LAT,"13,09",26,114,Chapecoense,3,"3,10",1,0,6,4,"-1,68",0,0,47,0,5,21,8,"5,33",0,0,8,37,0
31,22.015339388086886,Eduardo ,6,LAT,"6,71",29,138,Bahia,3,"1,70",2,0,0,0,"-0,19",0,0,53,0,1,34,9,"3,00",0,7,0,40,2
31,22.015339388086886,Fabrício Baiano ,0,MEI,"2,00",0,0,Coritiba,2,"0,00",0,0,0,0,"0,00",0,0,0,0,0,0,0,"0,00",0,0,0,0,0
31,22.015339388086886,Elton ,6,MEI,"5,29",21,46,Ponte Preta,3,"2,30",3,1,4,1,"0,66",0,0,28,0,1,18,0,"1,23",0,0,1,41,0
31,22.015339388086886,Julio dos Santos ,0,MEI,"5,00",0,0,Vasco,2,"0,00",0,0,0,0,"0,00",0,0,0,0,0,0,0,"0,00",0,0,0,0,0
31,22.015339388086886,Rildo ,7,ATA,"9,19",28,77,Coritiba,3,"2,10",8,0,3,6,"-1,39",0,0,27,0,2,103,0,"4,21",0,0,7,32,0
31,22.015339388086886,Douglas Coutinho  ,7,ATA,"2,54",20,33,Atlético-PR,3,"-1,00",3,0,0,2,"-0,20",0,0,7,0,1,14,0,"1,81",0,0,0,15,10
31,22.015339388086886,Ángel Romero ,7,ATA,"11,54",24,83,Corinthians,3,"1,20",13,0,8,2,"-0,08",0,0,45,0,2,72,0,"3,69",0,0,9,33,0
32,22.015339388086886,Jair Ventura ,0,TEC,"11,90",32,0,Botafogo,3,"2,22",0,0,0,0,"-0,39",0,0,0,0,0,0,0,"4,17",0,0,0,0,0
32,22.015339388086886,Wilson ,0,GOL,"16,87",32,17,Coritiba,3,"19,00",0,0,2,1,"0,85",0,63,0,0,0,6,9,"5,48",41,0,0,0,3
32,22.015339388086886,Lucas Veríssimo ,5,ZAG,"8,16",29,45,Santos,3,"3,10",1,0,0,0,"0,27",0,0,36,0,0,17,16,"4,17",0,7,0,21,6
32,22.015339388086886,Réver ,6,ZAG,"11,40",24,28,Flamengo,5,"0,00",2,0,2,5,"0,00",0,0,31,0,0,22,7,"5,27",0,0,5,16,0
32,22.015339388086886,Reinaldo ,13,LAT,"12,54",27,116,Chapecoense,3,"-0,40",1,0,0,4,"-0,55",0,0,47,0,5,22,8,"5,12",0,6,0,39,8
32,22.015339388086886,Eduardo ,7,LAT,"7,94",30,142,Bahia,3,"8,40",2,0,7,0,"1,23",0,0,55,0,1,35,10,"3,18",0,0,2,40,0
32,22.015339388086886,Fabrício Baiano ,0,MEI,"2,00",0,0,Coritiba,2,"0,00",0,0,0,0,"0,00",0,0,0,0,0,0,0,"0,00",0,0,0,0,0
32,22.015339388086886,Elton ,6,MEI,"4,94",22,50,Ponte Preta,3,"0,00",3,1,0,1,"-0,35",0,0,29,0,1,19,0,"1,17",0,4,0,43,1
32,22.015339388086886,Julio dos Santos ,0,MEI,"5,00",0,0,Vasco,2,"0,00",0,0,0,0,"0,00",0,0,0,0,0,0,0,"0,00",0,0,0,0,0
32,22.015339388086886,Rildo ,7,ATA,"9,71",29,78,Coritiba,3,"4,80",9,0,0,6,"0,52",0,0,30,0,2,105,0,"4,23",0,3,0,33,7
32,22.015339388086886,Douglas Coutinho  ,7,ATA,"2,54",20,33,Atlético-PR,3,"0,00",3,0,0,2,"0,00",0,0,7,0,1,14,0,"1,81",0,0,10,15,0
32,22.015339388086886,Ángel Romero ,7,ATA,"13,43",25,86,Corinthians,3,"11,70",13,0,0,3,"1,89",0,0,48,0,2,76,0,"4,01",0,9,0,36,10
33,22.015339388086886,Jair Ventura ,0,TEC,"12,11",33,0,Botafogo,3,"0,00",0,0,0,0,"0,21",0,0,0,0,0,0,0,"4,15",0,0,0,0,0
33,22.015339388086886,Wilson ,0,GOL,"13,82",33,0,Coritiba,3,"0,00",0,0,0,0,"-3,05",0,0,0,0,0,0,0,"5,30",0,0,0,0,0
33,22.015339388086886,Lucas Veríssimo ,0,ZAG,"8,64",30,0,Santos,3,"0,00",0,0,0,0,"0,48",0,0,0,0,0,0,0,"4,21",0,0,0,0,0
33,22.015339388086886,Réver ,0,ZAG,"11,40",24,0,Flamengo,5,"0,00",0,0,0,0,"0,00",0,0,0,0,0,0,0,"5,27",0,0,0,0,0
33,22.015339388086886,Reinaldo ,0,LAT,"15,13",28,0,Chapecoense,3,"0,00",0,0,0,0,"2,59",0,0,0,0,0,0,0,"5,46",0,0,0,0,0
33,22.015339388086886,Eduardo ,0,LAT,"7,23",31,0,Bahia,3,"0,00",0,0,0,0,"-0,71",0,0,0,0,0,0,0,"3,19",0,0,0,0,0
33,22.015339388086886,Fabrício Baiano ,0,MEI,"2,00",0,0,Coritiba,2,"0,00",0,0,0,0,"0,00",0,0,0,0,0,0,0,"0,00",0,0,0,0,0
33,22.015339388086886,Elton ,0,MEI,"5,26",23,0,Ponte Preta,3,"0,00",0,0,0,0,"0,32",0,0,0,0,0,0,0,"1,20",0,0,0,0,0
33,22.015339388086886,Julio dos Santos ,0,MEI,"5,00",0,0,Vasco,2,"0,00",0,0,0,0,"0,00",0,0,0,0,0,0,0,"0,00",0,0,0,0,0
33,22.015339388086886,Rildo ,0,ATA,"8,98",30,0,Coritiba,3,"0,00",0,0,0,0,"-0,73",0,0,0,0,0,0,0,"4,10",0,0,0,0,0
33,22.015339388086886,Douglas Coutinho  ,0,ATA,"2,87",21,0,Atlético-PR,3,"0,00",0,0,0,0,"0,33",0,0,0,0,0,0,0,"1,78",0,0,0,0,0
33,22.015339388086886,Ángel Romero ,0,ATA,"13,93",26,0,Corinthians,3,"0,00",0,0,0,0,"0,50",0,0,0,0,0,0,0,"4,36",0,0,0,0,0
34,13.034156324235742,Jair Ventura ,0,TEC,"11,99",34,0,Botafogo,3,"3,13",0,0,0,0,"-0,12",0,0,0,0,0,0,0,"4,12",0,0,0,0,0
34,13.034156324235742,Wilson ,0,GOL,"13,88",34,17,Coritiba,3,"1,00",0,0,2,1,"0,06",0,65,0,0,0,7,9,"5,17",44,0,0,0,3
34,13.034156324235742,Lucas Veríssimo ,6,ZAG,"7,12",31,50,Santos,3,"-3,20",2,0,0,0,"-1,52",0,0,39,0,0,18,16,"3,97",0,8,0,23,7
34,13.034156324235742,Réver ,6,ZAG,"11,40",24,28,Flamengo,5,"0,00",2,0,2,5,"0,00",0,0,31,0,0,22,7,"5,27",0,0,5,16,0
34,13.034156324235742,Capa ,10,LAT,"11,37",29,149,Avaí,3,"0,00",4,0,5,0,"0,00",0,0,61,0,1,79,10,"4,17",0,1,2,48,0
34,13.034156324235742,Eduardo ,7,LAT,"7,16",32,151,Bahia,3,"3,10",2,0,7,0,"-0,07",0,0,61,0,1,37,10,"3,19",0,0,2,44,0
34,13.034156324235742,Sornoza ,2,MEI,"12,51",11,28,Fluminense,4,"0,00",0,0,0,2,"0,00",0,0,15,1,0,6,0,"3,09",0,3,0,8,3
34,13.034156324235742,Wellington ,0,MEI,"3,00",0,0,São Paulo,2,"0,00",0,0,0,0,"0,00",0,0,0,0,0,0,0,"0,00",0,0,0,0,0
34,13.034156324235742,Julio dos Santos ,0,MEI,"5,00",0,0,Vasco,2,"0,00",0,0,0,0,"0,00",0,0,0,0,0,0,0,"0,00",0,0,0,0,0
34,13.034156324235742,Rildo ,7,ATA,"8,76",31,80,Coritiba,3,"-0,40",9,0,0,6,"-0,22",0,0,32,0,2,108,0,"3,95",0,5,0,36,8
34,13.034156324235742,Douglas Coutinho  ,9,ATA,"2,87",21,34,Atlético-PR,3,"0,00",3,0,0,2,"0,00",0,0,7,0,1,14,0,"1,78",0,0,10,15,0
34,13.034156324235742,Ángel Romero ,8,ATA,"12,24",27,93,Corinthians,3,"2,90",13,0,0,3,"-1,69",0,0,53,0,3,81,0,"4,31",0,10,0,37,14
35,13.034156324235742,Jair Ventura ,0,TEC,"12,10",35,0,Botafogo,3,"3,39",0,0,0,0,"0,11",0,0,0,0,0,0,0,"4,10",0,0,0,0,0
35,13.034156324235742,Wilson ,0,GOL,"15,55",35,19,Coritiba,3,"10,40",0,0,0,1,"1,67",0,67,0,0,0,7,10,"5,32",44,2,3,0,0
35,13.034156324235742,Lucas Veríssimo ,6,ZAG,"7,33",32,52,Santos,3,"-1,60",2,0,8,0,"0,21",0,0,39,0,0,19,16,"3,80",0,0,7,26,0
35,13.034156324235742,Réver ,6,ZAG,"11,40",24,28,Flamengo,5,"0,00",2,0,0,5,"0,00",0,0,31,0,0,22,7,"5,27",0,2,0,16,5
35,13.034156324235742,Capa ,10,LAT,"11,37",29,149,Avaí,2,"0,00",4,0,1,0,"0,00",0,0,61,0,1,79,10,"4,17",0,5,0,48,2
35,13.034156324235742,Eduardo ,7,LAT,"6,96",33,153,Bahia,3,"1,60",2,0,0,0,"-0,20",0,0,62,0,1,38,10,"3,14",0,7,0,44,2
35,13.034156324235742,Sornoza ,2,MEI,"12,57",12,30,Fluminense,3,"1,10",0,0,3,2,"0,06",0,0,16,1,0,6,0,"2,92",0,0,3,8,0
35,13.034156324235742,Wellington ,0,MEI,"3,00",0,0,São Paulo,2,"0,00",0,0,0,0,"0,00",0,0,0,0,0,0,0,"0,00",0,0,0,0,0
35,13.034156324235742,Julio dos Santos ,0,MEI,"5,00",0,0,Vasco,2,"0,00",0,0,0,0,"0,00",0,0,0,0,0,0,0,"0,00",0,0,0,0,0
35,13.034156324235742,Rildo ,8,ATA,"8,18",32,81,Coritiba,4,"-3,60",9,0,6,6,"-0,58",0,0,32,0,2,108,0,"3,71",0,0,8,40,0
35,13.034156324235742,Douglas Coutinho  ,9,ATA,"3,46",22,34,Atlético-PR,2,"4,50",3,0,0,2,"0,59",0,0,7,0,2,14,0,"1,90",0,0,0,16,10
35,13.034156324235742,Ángel Romero ,9,ATA,"12,00",28,98,Corinthians,3,"1,20",13,0,10,3,"-0,24",0,0,53,0,3,86,0,"4,20",0,0,14,38,0
36,11.426789044289045,Dorival Júnior ,0,TEC,"12,19",1,0,Santos,3,"2,23",0,0,0,0,"-2,81",0,0,0,0,0,0,0,"2,23",0,0,0,0,0
36,11.426789044289045,Cláudio Vitor ,0,GOL,"1,00",0,0,Avaí,2,"0,00",0,0,0,0,"0,00",0,0,0,0,0,0,0,"0,00",0,0,0,0,0
36,11.426789044289045,Lucas Veríssimo ,7,ZAG,"8,55",33,52,Santos,3,"5,90",2,0,0,0,"1,22",0,0,40,0,0,21,17,"3,86",0,9,0,27,7
36,11.426789044289045,Juan ,6,ZAG,"6,12",13,14,Flamengo,3,"0,00",0,0,5,0,"0,00",0,0,19,1,2,7,3,"4,02",0,0,3,10,0
36,11.426789044289045,Reinaldo ,13,LAT,"13,92",31,137,Chapecoense,3,"5,40",3,0,0,5,"-0,46",0,0,55,0,8,26,9,"5,63",0,6,0,45,11
36,11.426789044289045,Gilberto  ,11,LAT,"10,96",25,104,Vasco,3,"3,00",2,0,0,0,"0,42",0,0,60,1,1,33,5,"4,13",0,6,0,30,3
36,11.426789044289045,Moisés ,6,MEI,"10,00",17,73,Palmeiras,3,"5,20",0,0,0,3,"-0,14",0,0,29,1,3,39,0,"5,35",0,1,0,13,6
36,11.426789044289045,Rafinha ,12,MEI,"7,29",25,79,Cruzeiro,3,"3,70",2,0,2,3,"-0,54",0,0,32,2,1,51,0,"3,49",0,0,7,30,0
36,11.426789044289045,Wesley ,0,MEI,"5,00",0,0,São Paulo,5,"0,00",0,0,0,0,"0,00",0,0,0,0,0,0,0,"0,00",0,0,0,0,0
36,11.426789044289045,Luis Henrique ,0,ATA,"4,00",0,0,Atlético-PR,2,"0,00",0,0,0,0,"0,00",0,0,0,0,0,0,0,"0,00",0,0,0,0,0
36,11.426789044289045,David ,22,ATA,"6,94",34,92,Vitória,3,"9,20",16,0,5,6,"0,31",0,0,29,3,6,18,0,"3,11",0,0,11,44,0
36,11.426789044289045,Morato ,0,ATA,"3,00",0,0,São Paulo,5,"0,00",0,0,0,0,"0,00",0,0,0,0,0,0,0,"0,00",0,0,0,0,0
37,0.0,Dorival Júnior ,0,TEC,"12,19",1,0,Santos,3,"2,23",0,0,0,0,"-2,81",0,0,0,0,0,0,0,"2,23",0,0,0,0,0
37,0.0,Douglas Friedrich ,0,GOL,"10,28",27,3,Avaí,3,"7,70",0,0,3,0,"1,33",0,58,0,0,0,9,10,"5,97",33,0,0,3,1
37,0.0,Wanderson ,2,ZAG,"4,32",23,38,Atlético-PR,1,"0,00",2,0,2,2,"0,00",0,0,14,0,0,5,7,"2,37",0,1,9,21,0
37,0.0,Lucas Veríssimo ,7,ZAG,"8,55",33,52,Santos,3,"0,00",2,0,9,0,"0,00",0,0,40,0,0,21,17,"3,86",0,0,7,27,0
37,0.0,Reinaldo ,13,LAT,"14,00",32,140,Chapecoense,3,"5,50",3,0,7,5,"0,08",0,0,57,0,8,26,10,"5,63",0,0,13,49,0
37,0.0,Eduardo ,8,LAT,"7,05",35,159,Bahia,4,"1,90",2,0,0,0,"-0,26",0,0,68,0,1,43,10,"3,12",0,9,0,48,2
37,0.0,Fabrício Baiano ,0,MEI,"2,00",0,0,Coritiba,2,"0,00",0,0,0,0,"0,00",0,0,0,0,0,0,0,"0,00",0,0,0,0,0
37,0.0,Allione ,3,MEI,"9,57",25,81,Bahia,3,"2,50",5,0,5,0,"0,50",0,0,27,1,7,34,0,"2,28",0,0,4,27,0
37,0.0,Diego Souza ,18,MEI,"16,20",25,94,Sport,3,"7,10",2,1,0,11,"1,13",2,0,9,3,3,58,0,"4,42",0,9,0,37,18
37,0.0,Gustavo ,1,ATA,"5,09",1,0,Bahia,1,"1,20",0,0,0,0,"-0,91",0,0,0,0,0,1,0,"1,20",0,0,0,0,0
37,0.0,Borja ,26,ATA,"15,91",24,31,Palmeiras,5,"7,90",4,0,0,6,"0,96",0,0,10,0,1,18,0,"3,27",0,3,0,27,12
37,0.0,Muriqui ,0,ATA,"5,00",0,0,Vasco,2,"0,00",0,0,0,0,"0,00",0,0,0,0,0,0,0,"0,00",0,0,0,0,0
