round,fitness,name,position,team,situation,price,meatches,average,last_score,difference,disarms,goals,assists,no_goals,fouls_suffered,strikes_out,strikes_defended,strikes_post,difficult_defense,penalty_defense,own_goal,red_card,yellow_card,goal_suffered,penalty_lost,fouls_commited,offsides,wrong_pass
0,0.5300000000000011,Renato Gaúcho ,0,TEC,"13,53",1,0,Grêmio,3,"6,13",0,0,0,0,"0,53",0,0,0,0,0,0,0,"6,13",0,0,0,0,0
0,0.5300000000000011,Renan Ribeiro ,0,GOL,"8,49",1,0,São Paulo,3,"4,00",0,0,0,0,"0,49",0,2,0,0,0,0,0,"4,00",1,0,0,0,0
0,0.5300000000000011,Marcio ,0,ZAG,"2,00",0,0,Coritiba,2,"0,00",0,0,0,0,"0,00",0,0,0,0,0,0,0,"0,00",0,0,0,0,0
0,0.5300000000000011,Luis Caicedo ,0,ZAG,"6,00",0,0,Cruzeiro,2,"0,00",0,0,0,0,"0,00",0,0,0,0,0,0,0,"0,00",0,0,0,0,0
0,0.5300000000000011,Capa ,2,LAT,"7,78",1,8,Avaí,3,"7,00",0,0,0,0,"3,78",0,0,0,0,0,4,1,"7,00",0,0,1,0,0
0,0.5300000000000011,Henrique ,0,LAT,"5,09",1,5,Vasco,3,"1,20",0,0,0,0,"-0,91",0,0,1,0,0,2,0,"1,20",0,0,1,2,0
0,0.5300000000000011,Willian Arão ,0,MEI,"9,62",1,5,Flamengo,3,"3,60",0,0,0,0,"-0,38",0,0,3,0,0,0,0,"3,60",0,0,0,0,0
0,0.5300000000000011,Araruna ,0,MEI,"2,00",0,0,São Paulo,2,"0,00",0,0,0,0,"0,00",0,0,0,0,0,0,0,"0,00",0,0,0,0,0
0,0.5300000000000011,Hudson ,0,MEI,"6,37",1,3,Cruzeiro,3,"2,00",0,0,0,0,"-0,63",0,0,2,0,0,0,0,"2,00",0,0,0,1,0
0,0.5300000000000011,Henrique Almeida ,2,ATA,"13,30",1,5,Coritiba,3,"11,80",1,0,0,1,"6,30",0,0,2,0,0,2,0,"11,80",0,0,0,0,0
0,0.5300000000000011,Miller Bolaños ,0,ATA,"14,00",0,0,Grêmio,2,"0,00",0,0,0,0,"0,00",0,0,0,0,0,0,0,"0,00",0,0,0,0,0
0,0.5300000000000011,Fred ,2,ATA,"21,43",1,2,Atlético-MG,3,"6,30",0,0,0,0,"-2,57",0,0,0,0,1,2,0,"6,30",0,0,0,1,0
1,6.139999999999999,Roger Machado  ,0,TEC,"11,91",1,0,Atlético-MG,2,"1,84",0,0,0,0,"-3,09",0,0,0,0,0,0,0,"1,84",0,0,0,0,0
1,6.139999999999999,Uilson ,0,GOL,"4,00",0,0,Atlético-MG,2,"0,00",0,0,0,0,"0,00",0,0,0,0,0,0,0,"0,00",0,0,0,0,0
1,6.139999999999999,Léo ,0,ZAG,"10,19",1,1,Cruzeiro,3,"6,40",0,0,0,0,"2,19",0,0,1,0,0,0,1,"6,40",0,0,0,0,0
1,6.139999999999999,Paulão ,0,ZAG,"6,00",0,0,Vasco,2,"0,00",0,0,0,0,"0,00",0,0,0,0,0,0,0,"0,00",0,0,0,0,0
1,6.139999999999999,Renato ,0,LAT,"5,00",0,0,Fluminense,2,"0,00",0,0,0,0,"0,00",0,0,0,0,0,0,0,"0,00",0,0,0,0,0
1,6.139999999999999,João Lucas ,0,LAT,"10,89",1,5,Ponte Preta,3,"11,40",0,0,0,0,"6,89",0,0,2,0,1,0,1,"11,40",0,0,0,1,0
1,6.139999999999999,Douglas ,3,MEI,"15,21",1,4,Vasco,3,"9,50",0,0,1,0,"3,21",0,0,3,1,0,2,0,"9,50",0,0,1,0,0
1,6.139999999999999,Rodrigo ,0,MEI,"4,10",1,2,Sport,3,"-0,20",0,0,0,0,"-1,90",0,0,2,0,0,1,0,"-0,20",0,1,0,3,0
1,6.139999999999999,Zé Rafael  ,1,MEI,"14,78",1,0,Bahia,3,"15,90",1,0,0,1,"9,78",0,0,1,0,1,2,0,"15,90",0,0,0,2,1
1,6.139999999999999,Luis Fabiano ,1,ATA,"8,28",1,0,Vasco,3,"0,70",1,0,0,0,"-2,72",0,0,0,0,0,1,0,"0,70",0,0,0,0,0
1,6.139999999999999,Marcinho ,1,ATA,"1,70",1,1,São Paulo,1,"0,40",0,0,0,0,"-0,30",0,0,0,0,0,1,0,"0,40",0,0,0,3,1
1,6.139999999999999,Vladimir Hernández ,1,ATA,"11,46",1,0,Santos,2,"10,20",1,0,0,1,"5,46",0,0,0,0,0,3,0,"10,20",0,0,0,1,1
2,45.27,Roger Machado  ,0,TEC,"10,24",2,0,Atlético-MG,3,"2,29",0,0,0,0,"-1,67",0,0,0,0,0,0,0,"2,07",0,0,0,0,0
2,45.27,Uilson ,0,GOL,"4,00",0,0,Atlético-MG,2,"0,00",0,0,0,0,"0,00",0,0,0,0,0,0,0,"0,00",0,0,0,0,0
2,45.27,Léo ,0,ZAG,"9,88",2,3,Cruzeiro,3,"1,30",0,0,1,0,"-0,31",0,0,3,0,0,2,1,"3,85",0,0,0,1,0
2,45.27,Marcio ,0,ZAG,"1,94",1,2,Coritiba,3,"1,10",0,0,0,0,"-0,06",0,0,1,0,0,2,0,"1,10",0,0,0,2,0
2,45.27,Zeca ,1,LAT,"13,67",1,0,Santos,3,"6,20",0,0,0,0,"-1,33",0,0,0,0,0,1,1,"6,20",0,0,0,0,0
2,45.27,Jonathan ,0,LAT,"6,49",2,6,Atlético-PR,3,"-0,40",0,0,0,0,"-1,64",0,0,2,0,0,1,0,"1,05",0,0,0,0,0
2,45.27,Tomas Bastos ,2,MEI,"16,61",2,12,Coritiba,3,"2,50",0,0,0,2,"2,53",0,0,3,0,0,2,0,"10,20",0,0,3,5,0
2,45.27,Rodrigo ,0,MEI,"4,10",1,2,Sport,3,"-0,20",0,0,1,0,"-1,90",0,0,2,0,0,1,0,"-0,20",0,0,0,3,0
2,45.27,Zé Rafael  ,1,MEI,"16,93",2,0,Bahia,3,"3,40",1,0,0,1,"2,15",0,0,3,0,1,2,0,"9,65",0,0,1,2,0
2,45.27,Luis Fabiano ,2,ATA,"12,08",2,2,Vasco,3,"13,30",3,0,1,1,"3,80",0,0,1,0,1,3,0,"7,00",0,0,2,3,0
2,45.27,Marcinho ,1,ATA,"3,94",2,2,São Paulo,3,"5,90",0,0,0,0,"2,24",0,0,1,0,1,2,0,"3,15",0,0,1,5,0
2,45.27,Vladimir Hernández ,1,ATA,"11,26",2,3,Santos,3,"-0,20",1,0,1,1,"-0,20",0,0,1,0,0,7,0,"5,00",0,0,1,3,0
3,16.356666666666666,Roger Machado  ,0,TEC,"10,74",3,0,Atlético-MG,3,"4,83",0,0,0,0,"0,50",0,0,0,0,0,0,0,"2,99",0,0,0,0,0
3,16.356666666666666,Martín Silva ,0,GOL,"8,61",3,1,Vasco,3,"-1,00",0,0,1,0,"-1,29",0,6,0,0,0,0,0,"0,57",7,0,0,0,0
3,16.356666666666666,Léo ,0,ZAG,"9,28",3,7,Cruzeiro,3,"0,80",0,0,0,0,"-0,60",0,0,3,0,0,2,2,"2,83",0,2,0,3,0
3,16.356666666666666,Igor Rabello ,0,ZAG,"11,04",3,2,Botafogo,3,"10,60",0,0,0,0,"2,93",0,0,8,0,0,3,2,"6,83",0,1,0,4,0
3,16.356666666666666,Apodi ,0,LAT,"8,36",3,8,Chapecoense,3,"8,40",1,0,0,0,"2,08",0,0,4,0,0,6,2,"4,97",0,0,1,6,0
3,16.356666666666666,João Lucas ,0,LAT,"9,96",3,15,Ponte Preta,3,"1,20",0,0,0,0,"-0,14",0,0,2,0,1,1,1,"3,30",0,0,1,1,0
3,16.356666666666666,Elias ,1,MEI,"15,31",3,6,Atlético-MG,3,"3,80",1,0,0,1,"-0,04",0,0,4,0,0,3,0,"4,73",0,0,0,1,0
3,16.356666666666666,Rodrigo ,0,MEI,"4,10",1,2,Sport,2,"0,00",0,0,0,0,"0,00",0,0,2,0,0,1,0,"-0,20",0,1,0,3,0
3,16.356666666666666,Andrei Alba ,0,MEI,"2,00",0,0,Chapecoense,2,"0,00",0,0,0,0,"0,00",0,0,0,0,0,0,0,"0,00",0,0,0,0,0
3,16.356666666666666,Luis Fabiano ,3,ATA,"12,24",3,3,Vasco,3,"5,40",4,0,0,2,"0,16",0,0,1,0,1,3,0,"6,47",0,2,0,4,2
3,16.356666666666666,Marcinho ,1,ATA,"5,23",3,8,São Paulo,3,"5,40",0,0,0,0,"1,29",0,0,2,0,2,3,0,"3,90",0,0,0,5,1
3,16.356666666666666,Vladimir Hernández ,1,ATA,"10,58",3,5,Santos,3,"0,40",1,0,0,1,"-0,68",0,0,1,0,0,9,0,"3,47",0,1,0,3,1
4,17.31,Roger Machado  ,0,TEC,"11,17",4,0,Atlético-MG,3,"4,67",0,0,0,0,"0,43",0,0,0,0,0,0,0,"3,41",0,0,0,0,0
4,17.31,Uilson ,0,GOL,"4,00",0,0,Atlético-MG,2,"0,00",0,0,0,0,"0,00",0,0,0,0,0,0,0,"0,00",0,0,0,0,0
4,17.31,Léo ,0,ZAG,"8,86",4,11,Cruzeiro,3,"0,30",0,0,2,0,"-0,42",0,0,3,0,0,4,2,"2,20",0,0,1,4,0
4,17.31,Marcio ,0,ZAG,"7,80",3,9,Coritiba,3,"15,70",0,0,0,1,"4,10",0,0,4,0,0,4,2,"7,53",0,0,0,3,0
4,17.31,Zeca ,1,LAT,"11,45",2,1,Santos,5,"0,00",0,0,0,0,"0,00",0,0,0,0,0,1,1,"2,45",0,0,0,2,0
4,17.31,Fábio Santos ,2,LAT,"2,05",4,16,Atlético-MG,3,"6,30",2,0,2,0,"1,31",0,0,3,0,0,8,1,"0,55",0,0,0,7,0
4,17.31,Allione ,0,MEI,"13,92",4,11,Bahia,3,"11,70",2,0,0,0,"3,00",0,0,8,0,3,8,0,"6,70",0,0,0,3,0
4,17.31,Thiago Lopes ,0,MEI,"4,00",0,0,Coritiba,2,"0,00",0,0,0,0,"0,00",0,0,0,0,0,0,0,"0,00",0,0,0,0,0
4,17.31,Luiz Antonio  ,1,MEI,"10,22",4,8,Chapecoense,3,"6,70",0,0,0,1,"1,20",0,0,3,1,1,0,0,"5,10",0,0,3,5,0
4,17.31,Luis Fabiano ,3,ATA,"12,24",3,3,Vasco,3,"0,00",4,0,2,2,"0,00",0,0,1,0,1,3,0,"6,47",0,0,2,4,0
4,17.31,Marcinho ,1,ATA,"3,27",4,12,São Paulo,3,"-4,20",0,0,1,0,"-1,96",0,0,2,0,2,3,0,"1,88",0,0,1,7,0
4,17.31,Vladimir Hernández ,1,ATA,"10,59",4,5,Santos,3,"1,70",1,0,1,1,"0,01",0,0,2,0,0,10,0,"3,03",0,0,1,4,0
5,26.816666666666666,Renato Gaúcho ,0,TEC,"15,75",5,0,Grêmio,3,"8,10",0,0,0,0,"0,75",0,0,0,0,0,0,0,"6,14",0,0,0,0,0
5,26.816666666666666,Renan Ribeiro ,0,GOL,"10,61",5,7,São Paulo,3,"10,40",0,0,0,0,"2,96",0,4,0,0,0,0,3,"3,78",2,1,0,0,0
5,26.816666666666666,Marcio ,0,ZAG,"7,99",4,10,Coritiba,3,"8,40",1,0,0,1,"0,19",0,0,5,0,1,4,3,"7,75",0,1,0,4,0
5,26.816666666666666,Werley ,1,ZAG,"8,78",5,10,Coritiba,3,"7,80",0,0,0,0,"0,83",0,0,6,0,0,0,3,"4,58",0,0,0,0,0
5,26.816666666666666,Renê ,0,LAT,"5,74",3,9,Flamengo,3,"3,20",0,0,0,0,"0,09",0,0,6,0,0,3,0,"2,83",0,0,0,1,0
5,26.816666666666666,William Matheus ,1,LAT,"8,43",5,16,Coritiba,3,"6,70",1,0,2,0,"1,19",0,0,5,0,0,10,3,"4,08",0,0,4,7,0
5,26.816666666666666,Willian Arão ,0,MEI,"8,60",5,21,Flamengo,3,"0,30",0,0,0,0,"-0,57",0,0,6,0,1,6,0,"2,08",0,0,0,7,2
5,26.816666666666666,Renê Júnior ,3,MEI,"8,26",3,10,Bahia,3,"3,90",2,0,0,1,"-1,14",0,0,9,0,0,7,0,"7,13",0,1,0,5,1
5,26.816666666666666,Elton ,2,MEI,"5,55",5,13,Ponte Preta,3,"-2,90",0,1,0,0,"-1,69",0,0,11,0,0,5,0,"1,74",0,0,0,10,0
5,26.816666666666666,Rildo ,0,ATA,"6,35",3,3,Coritiba,1,"-1,80",0,0,1,1,"-1,39",0,0,3,0,0,7,0,"3,90",0,0,0,4,0
5,26.816666666666666,Paulo Vitor ,0,ATA,"1,41",1,0,Vasco,2,"0,00",0,0,0,0,"0,00",0,0,0,0,0,0,0,"0,00",0,0,0,0,0
5,26.816666666666666,Fred ,4,ATA,"16,98",5,10,Atlético-MG,3,"6,90",3,0,0,1,"0,99",0,0,1,0,1,12,0,"3,40",0,0,0,8,2
6,26.816666666666666,Renato Gaúcho ,0,TEC,"16,21",6,0,Grêmio,3,"7,91",0,0,0,0,"0,46",0,0,0,0,0,0,0,"6,43",0,0,0,0,0
6,26.816666666666666,Renan Ribeiro ,0,GOL,"8,95",6,7,São Paulo,3,"0,00",0,0,1,0,"-1,66",0,6,0,0,0,0,3,"3,15",5,0,0,0,0
6,26.816666666666666,Marcio ,1,ZAG,"6,66",5,10,Coritiba,3,"-0,30",1,0,1,1,"-1,33",0,0,5,0,1,5,3,"6,14",0,0,0,7,0
6,26.816666666666666,Werley ,1,ZAG,"7,89",6,11,Coritiba,3,"1,40",0,0,0,0,"-0,89",0,0,7,0,0,1,3,"4,05",0,0,0,1,0
6,26.816666666666666,Renê ,1,LAT,"5,01",4,12,Flamengo,3,"-0,50",0,0,0,0,"-0,73",0,0,7,0,0,4,0,"2,00",0,0,0,6,0
6,26.816666666666666,William Matheus ,1,LAT,"7,93",6,20,Coritiba,4,"2,40",1,0,0,0,"-0,50",0,0,8,0,0,14,3,"3,80",0,3,0,10,4
6,26.816666666666666,Willian Arão ,0,MEI,"8,64",6,23,Flamengo,3,"1,60",0,0,0,0,"0,04",0,0,7,0,1,7,0,"2,00",0,0,2,7,0
6,26.816666666666666,Renê Júnior ,3,MEI,"9,17",4,11,Bahia,3,"6,50",2,0,1,1,"0,91",0,0,13,0,0,7,0,"6,97",0,0,1,5,0
6,26.816666666666666,Elton ,2,MEI,"5,55",5,13,Ponte Preta,3,"0,00",0,1,0,0,"0,00",0,0,11,0,0,5,0,"1,74",0,0,0,10,0
6,26.816666666666666,Rildo ,0,ATA,"7,13",4,5,Coritiba,3,"3,10",0,0,0,1,"0,78",0,0,4,0,0,11,0,"3,70",0,1,0,4,0
6,26.816666666666666,Paulo Vitor ,0,ATA,"1,41",1,0,Vasco,2,"0,00",0,0,0,0,"0,00",0,0,0,0,0,0,0,"0,00",0,0,0,0,0
6,26.816666666666666,Fred ,5,ATA,"16,56",6,13,Atlético-MG,3,"4,30",3,0,0,1,"-0,42",0,0,1,1,1,15,0,"3,55",0,0,2,9,0
7,14.44,Jair Ventura ,0,TEC,"10,67",7,0,Botafogo,3,"3,65",0,0,0,0,"-0,04",0,0,0,0,0,0,0,"4,30",0,0,0,0,0
7,14.44,Felipe Garcia ,0,GOL,"7,33",6,5,Atlético-GO,3,"-4,60",0,0,0,0,"-2,82",0,17,0,0,0,0,1,"5,42",10,1,0,0,0
7,14.44,Éder  ,0,ZAG,"2,95",1,0,Bahia,2,"0,00",0,0,0,0,"0,00",0,0,2,0,0,1,0,"3,40",0,0,0,1,0
7,14.44,Pedro Geromel ,1,ZAG,"12,81",5,13,Grêmio,3,"4,20",0,0,0,0,"-1,87",0,0,9,0,1,4,5,"8,92",0,0,2,3,0
7,14.44,Dodô ,2,LAT,"10,28",7,26,Coritiba,3,"5,50",0,0,0,0,"1,05",0,0,11,0,0,6,4,"4,26",0,1,0,11,2
7,14.44,Ezequiel  ,0,LAT,"5,01",3,6,Cruzeiro,3,"-0,70",0,0,0,0,"-1,59",0,0,5,0,0,4,1,"2,57",0,1,0,8,0
7,14.44,André Castro ,0,MEI,"1,82",6,8,Atlético-GO,3,"3,30",0,0,1,0,"1,01",0,0,6,0,0,2,0,"0,72",0,0,1,7,0
7,14.44,Jorginho ,2,MEI,"7,32",7,29,Atlético-GO,3,"9,40",1,0,1,1,"2,34",0,0,12,0,0,14,0,"2,95",0,0,1,12,0
7,14.44,Zé Rafael  ,5,MEI,"19,62",7,16,Bahia,3,"2,70",1,0,0,1,"-0,65",0,0,17,0,3,18,0,"8,08",0,1,0,17,8
7,14.44,Rodrigão ,1,ATA,"3,88",2,4,Santos,2,"0,00",0,0,0,0,"0,00",0,0,0,0,0,0,0,"-0,75",0,0,0,2,0
7,14.44,Morato ,0,ATA,"3,00",0,0,São Paulo,5,"0,00",0,0,0,0,"0,00",0,0,0,0,0,0,0,"0,00",0,0,0,0,0
7,14.44,Bruno Henrique ,2,ATA,"12,93",6,23,Santos,3,"7,00",4,1,0,0,"0,14",0,0,9,1,3,15,0,"3,88",0,1,0,15,4
8,31.712857142857146,Guto Ferreira ,0,TEC,"8,76",1,0,Bahia,3,"8,39",0,0,0,0,"4,76",0,0,0,0,0,0,0,"8,39",0,0,0,0,0
8,31.712857142857146,Vinicius Silvestre ,0,GOL,"2,00",0,0,Palmeiras,2,"0,00",0,0,0,0,"0,00",0,0,0,0,0,0,0,"0,00",0,0,0,0,0
8,31.712857142857146,Marcio ,2,ZAG,"7,42",7,16,Coritiba,3,"2,30",1,0,2,1,"-0,31",0,0,5,0,1,5,5,"5,45",0,0,1,8,0
8,31.712857142857146,Pedro Geromel ,2,ZAG,"12,97",6,16,Grêmio,3,"4,40",0,0,0,0,"0,16",0,0,12,0,1,4,5,"8,17",0,0,2,4,0
8,31.712857142857146,Capa ,4,LAT,"11,05",8,44,Avaí,3,"3,90",3,0,1,0,"0,38",0,0,16,0,1,21,2,"4,54",0,0,1,7,0
8,31.712857142857146,Henrique ,1,LAT,"8,75",8,20,Vasco,3,"9,30",0,0,1,0,"1,90",0,0,13,0,1,15,1,"3,66",0,0,2,10,0
8,31.712857142857146,Maicon ,0,MEI,"8,24",5,9,Grêmio,3,"0,00",0,0,0,0,"-0,34",0,0,4,0,0,5,0,"1,02",0,0,0,3,0
8,31.712857142857146,Rafael Carioca ,0,MEI,"6,24",8,17,Atlético-MG,3,"0,80",0,0,0,0,"0,22",0,0,12,0,0,11,0,"1,67",0,2,0,7,0
8,31.712857142857146,Luiz Antonio  ,2,MEI,"9,26",8,18,Chapecoense,3,"1,00",1,0,1,2,"-0,01",0,0,5,1,1,1,0,"3,44",0,0,6,11,0
8,31.712857142857146,Luis Fabiano ,8,ATA,"14,18",6,7,Vasco,3,"1,90",4,0,2,5,"-1,34",0,0,2,0,1,9,0,"8,23",0,0,4,10,0
8,31.712857142857146,Wellington Paulista ,4,ATA,"11,06",8,14,Chapecoense,3,"1,40",2,0,2,3,"-0,32",0,0,2,1,0,12,0,"4,00",0,0,6,9,0
8,31.712857142857146,Fred ,5,ATA,"16,56",6,13,Atlético-MG,3,"0,00",3,0,0,1,"0,00",0,0,1,1,1,15,0,"3,55",0,0,2,9,0
9,17.561904761904756,Jair Ventura ,0,TEC,"10,99",9,0,Botafogo,3,"3,45",0,0,0,0,"-0,17",0,0,0,0,0,0,0,"4,32",0,0,0,0,0
9,17.561904761904756,Felipe Garcia ,0,GOL,"8,97",8,6,Atlético-GO,3,"4,50",0,0,0,0,"0,34",0,21,0,0,0,1,1,"5,09",12,1,0,0,0
9,17.561904761904756,Joel Carli ,1,ZAG,"9,19",7,24,Botafogo,3,"-2,60",1,0,0,1,"-1,31",0,0,8,0,0,2,3,"2,73",0,3,0,11,0
9,17.561904761904756,Pedro Geromel ,2,ZAG,"13,87",7,17,Grêmio,3,"7,80",0,0,1,0,"0,90",0,0,15,0,1,5,6,"8,12",0,0,2,5,0
9,17.561904761904756,Dodô ,3,LAT,"9,64",9,39,Coritiba,3,"1,20",0,0,0,0,"-0,29",0,0,14,0,0,7,5,"3,75",0,2,0,14,2
9,17.561904761904756,Ezequiel  ,0,LAT,"6,05",4,8,Cruzeiro,3,"0,00",0,0,0,0,"0,00",0,0,9,0,0,6,1,"3,10",0,2,0,9,0
9,17.561904761904756,André Castro ,1,MEI,"1,13",8,14,Atlético-GO,3,"-2,40",1,0,2,0,"-1,10",0,0,9,0,0,5,0,"0,72",0,0,1,10,0
9,17.561904761904756,Marquinho ,0,MEI,"3,20",3,0,Fluminense,1,"0,00",0,0,0,0,"-0,46",0,0,1,0,0,0,0,"-0,27",0,1,0,1,0
9,17.561904761904756,Zé Rafael  ,7,MEI,"19,56",9,25,Bahia,3,"3,30",1,0,0,1,"-0,28",0,0,20,0,3,24,0,"7,15",0,1,0,19,10
9,17.561904761904756,Willians ,0,ATA,"5,00",0,0,Atlético-GO,2,"0,00",0,0,0,0,"0,00",0,0,0,0,0,0,0,"0,00",0,0,0,0,0
9,17.561904761904756,Kelvin ,0,ATA,"5,03",5,9,Vasco,5,"0,00",2,0,0,0,"0,00",0,0,4,0,0,8,0,"1,72",0,0,0,3,3
9,17.561904761904756,Bruno Henrique ,3,ATA,"13,63",8,31,Santos,3,"10,10",4,1,0,0,"2,09",0,0,10,1,5,20,0,"4,10",0,2,0,21,6
10,8.658571428571427,Jair Ventura ,0,TEC,"10,78",10,0,Botafogo,3,"0,00",0,0,0,0,"-0,21",0,0,0,0,0,0,0,"4,08",0,0,0,0,0
10,8.658571428571427,Felipe Garcia ,0,GOL,"8,45",9,0,Atlético-GO,3,"0,00",0,0,0,0,"-0,52",0,0,0,0,0,0,0,"4,64",0,0,0,0,0
10,8.658571428571427,Yago ,0,ZAG,"6,00",0,0,Ponte Preta,5,"0,00",0,0,0,0,"0,00",0,0,0,0,0,0,0,"0,00",0,0,0,0,0
10,8.658571428571427,Yago ,0,ZAG,"6,00",0,0,Ponte Preta,5,"0,00",0,0,0,0,"0,00",0,0,0,0,0,0,0,"0,00",0,0,0,0,0
10,8.658571428571427,Dodô ,0,LAT,"9,64",9,0,Coritiba,2,"0,00",0,0,0,0,"0,00",0,0,0,0,0,0,0,"3,75",0,0,0,0,0
10,8.658571428571427,Ezequiel  ,0,LAT,"6,23",5,0,Cruzeiro,3,"0,00",0,0,0,0,"0,18",0,0,0,0,0,0,0,"3,36",0,0,0,0,0
10,8.658571428571427,André Castro ,0,MEI,"1,51",9,0,Atlético-GO,3,"0,00",0,0,0,0,"0,38",0,0,0,0,0,0,0,"0,67",0,0,0,0,0
10,8.658571428571427,Jorginho ,0,MEI,"6,10",9,0,Atlético-GO,3,"0,00",0,0,0,0,"0,36",0,0,0,0,0,0,0,"2,45",0,0,0,0,0
10,8.658571428571427,Zé Rafael  ,0,MEI,"20,70",10,0,Bahia,3,"0,00",0,0,0,0,"1,14",0,0,0,0,0,0,0,"7,29",0,0,0,0,0
10,8.658571428571427,David ,0,ATA,"3,88",10,0,Vitória,1,"0,00",0,0,0,0,"0,85",0,0,0,0,0,0,0,"1,42",0,0,0,0,0
10,8.658571428571427,Lucca ,0,ATA,"22,14",10,0,Ponte Preta,3,"0,00",0,0,0,0,"0,88",0,0,0,0,0,0,0,"8,66",0,0,0,0,0
10,8.658571428571427,Bruno Henrique ,0,ATA,"12,33",9,0,Santos,1,"0,00",0,0,0,0,"-1,30",0,0,0,0,0,0,0,"3,80",0,0,0,0,0
11,0.0,Jair Ventura ,0,TEC,"10,70",11,0,Botafogo,3,"1,80",0,0,0,0,"-0,08",0,0,0,0,0,0,0,"3,87",0,0,0,0,0
11,0.0,Felipe Garcia ,0,GOL,"7,74",10,6,Atlético-GO,3,"-2,00",0,0,0,0,"-0,71",0,22,0,0,0,1,1,"3,98",14,1,0,0,0
11,0.0,Yago ,0,ZAG,"6,00",0,0,Ponte Preta,5,"0,00",0,0,0,0,"0,00",0,0,0,0,0,0,0,"0,00",0,0,0,0,0
11,0.0,Alan Costa ,1,ZAG,"7,75",5,4,Vitória,2,"0,00",1,0,0,0,"0,00",0,0,4,0,0,3,1,"2,16",0,0,0,3,0
11,0.0,Madson ,0,LAT,"3,02",1,1,Vasco,2,"0,00",0,0,0,0,"0,00",0,0,0,0,0,0,0,"-0,30",0,0,0,0,0
11,0.0,Ezequiel  ,1,LAT,"5,86",6,13,Cruzeiro,3,"1,70",0,0,0,0,"-0,37",0,0,11,0,0,6,2,"3,08",0,2,0,14,1
11,0.0,João Paulo ,5,MEI,"2,06",10,40,Botafogo,3,"0,20",1,0,3,0,"-0,53",0,0,9,0,2,14,0,"1,18",0,0,5,21,0
11,0.0,Jorginho ,2,MEI,"4,59",10,38,Atlético-GO,3,"-5,20",1,1,1,1,"-1,51",0,0,14,0,0,18,0,"1,68",0,0,1,15,0
11,0.0,Zé Rafael  ,8,MEI,"19,68",11,28,Bahia,3,"2,60",2,0,0,1,"-1,02",0,0,27,0,3,30,0,"6,86",0,2,0,23,11
11,0.0,Everton ,3,ATA,"9,80",8,7,Grêmio,3,"1,50",0,0,0,4,"0,10",0,0,4,1,0,5,0,"5,79",0,1,0,5,6
11,0.0,Lucca ,9,ATA,"21,97",11,29,Ponte Preta,3,"8,40",4,0,0,7,"-0,17",0,0,12,0,1,37,0,"8,64",0,1,0,13,8
11,0.0,Bruno Henrique ,3,ATA,"12,33",9,33,Santos,1,"0,00",4,1,0,0,"0,00",0,0,10,1,5,27,0,"3,80",0,2,0,24,6
12,7.560227272727272,Guto Ferreira ,0,TEC,"8,76",1,0,Bahia,3,"8,39",0,0,0,0,"4,76",0,0,0,0,0,0,0,"8,39",0,0,0,0,0
12,7.560227272727272,Cássio ,0,GOL,"14,50",12,5,Corinthians,3,"15,00",0,0,0,0,"2,22",0,10,0,0,0,2,8,"6,62",5,1,1,0,0
12,7.560227272727272,Marcio ,3,ZAG,"7,63",11,20,Coritiba,3,"3,10",1,0,2,1,"0,33",0,0,8,0,1,6,5,"4,07",0,0,1,11,0
12,7.560227272727272,Joel Carli ,1,ZAG,"9,10",8,24,Botafogo,3,"0,00",1,0,3,1,"-0,09",0,0,8,0,0,2,3,"2,39",0,0,0,11,0
12,7.560227272727272,Bruno ,0,LAT,"5,63",4,16,São Paulo,3,"0,00",0,0,1,0,"0,00",0,0,3,0,0,5,1,"1,07",0,0,0,3,0
12,7.560227272727272,Marcos Rocha ,1,LAT,"9,99",3,16,Atlético-MG,3,"3,10",0,0,0,0,"-1,34",0,0,4,0,1,3,0,"3,27",0,0,0,5,0
12,7.560227272727272,Thiago Maia ,5,MEI,"7,65",11,38,Santos,3,"-1,10",0,0,0,1,"-1,46",0,0,26,0,1,9,0,"3,37",0,4,0,19,2
12,7.560227272727272,Cristian ,0,MEI,"4,00",0,0,Corinthians,2,"0,00",0,0,0,0,"0,00",0,0,0,0,0,0,0,"0,00",0,0,0,0,0
12,7.560227272727272,Dudu Cearense ,0,MEI,"3,24",6,5,Botafogo,2,"0,00",0,0,1,0,"0,00",0,0,2,0,0,1,0,"-0,35",0,0,0,5,0
12,7.560227272727272,Negueba ,0,ATA,"6,00",0,0,Atlético-GO,2,"0,00",0,0,0,0,"0,00",0,0,0,0,0,0,0,"0,00",0,0,0,0,0
12,7.560227272727272,Lucca ,9,ATA,"20,41",12,29,Ponte Preta,3,"-0,50",4,0,1,7,"-1,56",0,0,12,0,1,37,0,"7,88",0,0,8,13,0
12,7.560227272727272,Paolo Guerrero ,8,ATA,"11,89",8,14,Flamengo,3,"-0,80",6,0,2,4,"-2,43",0,0,9,0,1,20,0,"6,17",0,0,8,29,0
13,14.59443833943834,Fábio Carille ,0,TEC,"11,77",13,0,Corinthians,3,"5,79",0,0,0,0,"0,09",0,0,0,0,0,0,0,"4,77",0,0,0,0,0
13,14.59443833943834,Vanderlei ,0,GOL,"23,89",13,4,Santos,3,"24,00",0,0,0,0,"4,43",0,28,0,0,0,1,6,"10,06",10,0,2,1,0
13,14.59443833943834,Marcio ,3,ZAG,"6,50",12,21,Coritiba,3,"-2,80",1,0,0,1,"-1,13",0,0,10,0,1,6,5,"3,50",0,2,0,13,2
13,14.59443833943834,Rafael Marques ,0,ZAG,"2,47",5,12,Vasco,3,"4,20",0,0,0,0,"0,88",0,0,2,0,0,1,0,"0,30",0,0,0,6,0
13,14.59443833943834,Fernandinho ,0,LAT,"5,26",4,3,Ponte Preta,3,"2,60",2,0,0,0,"0,73",0,0,0,0,0,0,2,"2,43",0,0,0,2,0
13,14.59443833943834,Apodi ,3,LAT,"6,16",12,20,Chapecoense,3,"-1,70",2,0,0,0,"-0,59",0,0,11,0,0,16,3,"1,72",0,3,0,21,2
13,14.59443833943834,Marciel ,0,MEI,"3,00",0,0,Corinthians,2,"0,00",0,0,0,0,"0,00",0,0,0,0,0,0,0,"0,00",0,0,0,0,0
13,14.59443833943834,Gabriel ,0,MEI,"8,32",12,20,Corinthians,3,"4,70",0,1,0,1,"0,17",0,0,22,0,0,8,0,"2,72",0,2,0,17,2
13,14.59443833943834,Zé Rafael  ,10,MEI,"18,93",13,32,Bahia,3,"-1,50",2,0,0,1,"-1,62",0,0,31,0,3,32,0,"6,23",0,2,0,25,11
13,14.59443833943834,Guilherme ,1,ATA,"4,99",9,15,Botafogo,2,"4,00",0,0,0,0,"0,19",0,0,3,0,1,14,0,"1,87",0,0,0,7,3
13,14.59443833943834,David ,10,ATA,"4,25",13,32,Vitória,3,"1,80",7,0,2,0,"-0,71",0,0,6,2,3,8,0,"2,03",0,0,4,11,0
13,14.59443833943834,Júnior Dutra ,4,ATA,"6,82",7,12,Avaí,3,"1,60",0,0,0,1,"-1,67",0,0,2,2,1,9,0,"4,17",0,0,0,3,2
14,7.560227272727272,Guto Ferreira ,0,TEC,"8,76",1,0,Bahia,3,"8,39",0,0,0,0,"4,76",0,0,0,0,0,0,0,"8,39",0,0,0,0,0
14,7.560227272727272,Cássio ,0,GOL,"12,02",14,6,Corinthians,3,"-1,00",0,0,0,0,"-0,88",0,11,0,0,0,4,10,"5,87",5,2,2,0,0
14,7.560227272727272,Marcio ,3,ZAG,"6,50",12,22,Coritiba,4,"0,00",1,0,3,1,"0,00",0,0,10,0,1,6,5,"3,50",0,0,2,14,0
14,7.560227272727272,Joel Carli ,2,ZAG,"10,31",10,28,Botafogo,3,"6,90",1,0,5,1,"1,20",0,0,9,0,0,5,4,"2,67",0,0,0,17,0
14,7.560227272727272,Bruno ,0,LAT,"5,18",5,16,São Paulo,2,"-0,40",0,0,1,0,"-0,45",0,0,3,0,0,5,1,"0,78",0,0,0,3,0
14,7.560227272727272,Marcos Rocha ,3,LAT,"9,35",4,27,Atlético-MG,3,"0,00",0,0,0,0,"0,00",0,0,8,0,1,5,0,"2,40",0,0,0,11,0
14,7.560227272727272,Thiago Maia ,5,MEI,"8,98",12,46,Santos,2,"0,00",0,0,0,1,"0,00",0,0,31,0,1,10,0,"3,61",0,4,0,22,2
14,7.560227272727272,Cristian ,0,MEI,"4,00",0,0,Corinthians,2,"0,00",0,0,0,0,"0,00",0,0,0,0,0,0,0,"0,00",0,0,0,0,0
14,7.560227272727272,Dudu Cearense ,0,MEI,"3,24",6,5,Botafogo,2,"0,00",0,0,1,0,"0,00",0,0,2,0,0,1,0,"-0,35",0,0,0,5,0
14,7.560227272727272,Negueba ,0,ATA,"6,00",0,0,Atlético-GO,2,"0,00",0,0,0,0,"0,00",0,0,0,0,0,0,0,"0,00",0,0,0,0,0
14,7.560227272727272,Lucca ,12,ATA,"21,61",14,36,Ponte Preta,3,"6,40",4,0,1,7,"0,24",1,0,13,0,1,42,0,"7,62",0,0,13,14,0
14,7.560227272727272,Paolo Guerrero ,8,ATA,"11,60",9,15,Flamengo,3,"-0,50",6,0,3,4,"-0,29",0,0,9,0,1,24,0,"5,43",0,0,9,32,0
15,14.565628815628815,Jair Ventura ,0,TEC,"11,57",15,0,Botafogo,3,"4,93",0,0,0,0,"-0,09",0,0,0,0,0,0,0,"4,18",0,0,0,0,0
15,14.565628815628815,Cássio ,0,GOL,"12,79",15,6,Corinthians,3,"5,00",0,0,0,0,"0,77",0,12,0,0,0,4,11,"5,81",7,2,2,0,0
15,14.565628815628815,Oswaldo Henríquez ,1,ZAG,"5,48",4,7,Sport,3,"6,80",0,0,0,0,"1,01",0,0,8,0,0,3,3,"6,18",0,0,0,8,0
15,14.565628815628815,Balbuena ,3,ZAG,"10,60",12,23,Corinthians,3,"6,40",2,0,0,2,"0,44",0,0,11,0,0,10,9,"6,33",0,1,0,4,1
15,14.565628815628815,Moraes ,0,LAT,"1,00",0,0,Flamengo,2,"0,00",0,0,0,0,"0,00",0,0,0,0,0,0,0,"0,00",0,0,0,0,0
15,14.565628815628815,Eduardo ,3,LAT,"6,58",15,86,Bahia,3,"2,50",2,0,0,0,"-0,14",0,0,28,0,1,11,6,"3,23",0,2,0,24,1
15,14.565628815628815,Marlone ,4,MEI,"6,89",9,30,Atlético-MG,3,"3,60",4,0,0,2,"0,66",0,0,4,0,0,7,0,"1,79",0,1,0,6,3
15,14.565628815628815,Tiago Real ,2,MEI,"4,95",10,26,Coritiba,5,"0,00",1,0,2,0,"0,00",0,0,6,1,2,5,0,"1,38",0,0,5,13,0
15,14.565628815628815,Matheus Galdezani ,7,MEI,"7,54",14,57,Coritiba,3,"0,80",1,0,0,1,"-0,14",0,0,25,0,1,27,0,"3,24",0,4,0,30,12
15,14.565628815628815,Léo Santos ,0,ATA,"3,00",0,0,Coritiba,2,"0,00",0,0,0,0,"0,00",0,0,0,0,0,0,0,"0,00",0,0,0,0,0
15,14.565628815628815,Lucca ,14,ATA,"23,05",15,44,Ponte Preta,3,"15,40",6,0,0,8,"1,44",1,0,17,0,1,53,0,"8,14",0,1,0,15,17
15,14.565628815628815,Ángel Romero ,3,ATA,"12,06",13,46,Corinthians,3,"-0,90",9,0,4,2,"-1,38",0,0,25,0,2,42,0,"4,90",0,0,6,15,0
16,15.454904817404813,Guto Ferreira ,0,TEC,"8,76",1,0,Bahia,3,"8,39",0,0,0,0,"4,76",0,0,0,0,0,0,0,"8,39",0,0,0,0,0
16,15.454904817404813,Cássio ,0,GOL,"13,61",16,6,Corinthians,3,"8,00",0,0,0,0,"0,82",0,12,0,0,0,4,11,"5,95",7,2,2,0,0
16,15.454904817404813,Marcio ,3,ZAG,"6,44",14,25,Coritiba,3,"-1,30",1,0,3,1,"-0,57",0,0,12,0,1,6,5,"3,05",0,0,2,15,0
16,15.454904817404813,Rafael Vaz ,4,ZAG,"8,14",10,29,Flamengo,3,"5,40",0,0,0,0,"0,50",0,0,8,0,0,3,4,"3,56",0,0,0,4,3
16,15.454904817404813,Eduardo ,3,LAT,"5,41",16,86,Bahia,3,"-4,00",2,0,0,0,"-1,17",0,0,28,0,1,11,6,"2,78",0,2,0,24,1
16,15.454904817404813,Matheus Reis ,1,LAT,"4,13",13,38,Bahia,3,"-2,10",0,0,0,0,"-1,60",0,0,10,0,0,17,5,"2,05",0,2,0,16,1
16,15.454904817404813,Otero ,6,MEI,"6,48",9,5,Atlético-MG,2,"1,30",0,0,2,0,"-0,17",0,0,5,0,0,11,0,"1,56",0,0,2,4,0
16,15.454904817404813,Gabriel ,0,MEI,"7,73",15,30,Corinthians,3,"1,80",0,1,0,1,"0,22",0,0,26,0,0,15,0,"2,40",0,2,0,21,3
16,15.454904817404813,Dudu Cearense ,0,MEI,"3,88",7,5,Botafogo,1,"3,60",0,0,1,0,"0,64",0,0,2,0,0,1,0,"0,21",0,0,0,5,0
16,15.454904817404813,Ángel Romero ,3,ATA,"12,88",14,46,Corinthians,3,"3,60",9,0,0,2,"0,82",0,0,25,0,2,42,0,"4,81",0,4,0,15,6
16,15.454904817404813,Lucca ,14,ATA,"24,02",16,44,Ponte Preta,3,"16,60",6,0,1,8,"0,97",1,0,17,0,1,53,0,"8,67",0,0,17,15,0
16,15.454904817404813,Paolo Guerrero ,8,ATA,"12,26",11,22,Flamengo,3,"1,70",8,0,3,5,"-1,54",0,0,10,0,2,30,0,"5,75",0,0,9,37,0
17,17.248017276840805,Fábio Carille ,0,TEC,"11,33",17,0,Corinthians,3,"2,61",0,0,0,0,"-0,46",0,0,0,0,0,0,0,"4,58",0,0,0,0,0
17,17.248017276840805,Cássio ,0,GOL,"12,39",17,6,Corinthians,3,"1,50",0,0,0,0,"-1,22",0,14,0,0,0,5,12,"5,69",8,2,2,0,0
17,17.248017276840805,Yago ,0,ZAG,"6,00",0,0,Ponte Preta,5,"0,00",0,0,0,0,"0,00",0,0,0,0,0,0,0,"0,00",0,0,0,0,0
17,17.248017276840805,Marllon ,3,ZAG,"12,22",16,28,Ponte Preta,3,"0,00",0,0,2,0,"0,00",0,0,22,1,0,18,7,"4,54",0,0,1,6,0
17,17.248017276840805,Pará ,0,LAT,"9,34",1,1,Flamengo,3,"0,20",0,0,0,0,"-3,66",0,0,0,0,0,1,0,"0,20",0,0,0,0,0
17,17.248017276840805,Renato ,0,LAT,"5,00",0,0,Fluminense,2,"0,00",0,0,0,0,"0,00",0,0,0,0,0,0,0,"0,00",0,0,0,0,0
17,17.248017276840805,Daniel ,0,MEI,"1,00",0,0,Atlético-MG,2,"0,00",0,0,0,0,"0,00",0,0,0,0,0,0,0,"0,00",0,0,0,0,0
17,17.248017276840805,Judson ,2,MEI,"4,10",1,1,Avaí,3,"2,80",0,0,0,0,"1,10",0,0,1,0,0,0,0,"2,80",0,0,1,2,0
17,17.248017276840805,Luiz Antonio  ,1,MEI,"6,44",1,2,Chapecoense,3,"0,10",0,0,0,0,"-2,56",0,0,0,0,0,0,0,"0,10",0,0,0,0,0
17,17.248017276840805,Arthur  ,15,ATA,"11,23",16,36,Chapecoense,3,"3,40",5,0,3,4,"-0,88",0,0,15,1,4,36,0,"5,51",0,0,11,26,0
17,17.248017276840805,Júnior Dutra ,11,ATA,"7,25",11,28,Avaí,3,"0,10",2,0,0,3,"-1,34",0,0,6,2,1,16,0,"4,68",0,0,5,12,0
17,17.248017276840805,Bruno Henrique ,5,ATA,"13,42",13,44,Santos,3,"8,00",4,1,0,3,"-2,31",0,0,13,1,6,39,0,"4,95",0,3,0,36,6
18,15.093685897435893,Jair Ventura ,0,TEC,"10,87",18,0,Botafogo,3,"-0,55",0,0,0,0,"-0,83",0,0,0,0,0,0,0,"3,87",0,0,0,0,0
18,15.093685897435893,Jailson ,0,GOL,"7,45",4,2,Palmeiras,4,"2,00",0,0,0,0,"-0,75",0,6,0,0,0,1,2,"5,73",3,3,1,0,0
18,15.093685897435893,Pedro Henrique ,2,ZAG,"9,23",11,16,Corinthians,3,"6,20",0,0,0,0,"1,26",0,0,10,0,0,4,7,"4,60",0,0,0,4,2
18,15.093685897435893,Durval ,0,ZAG,"5,87",13,20,Sport,2,"-1,00",1,0,0,0,"-0,43",0,0,11,0,1,9,4,"2,82",0,1,0,10,2
18,15.093685897435893,Fagner ,1,LAT,"14,22",14,62,Corinthians,3,"12,50",2,0,0,0,"1,92",0,0,23,0,1,23,11,"5,51",0,4,0,15,1
18,15.093685897435893,Trauco ,6,LAT,"6,62",12,53,Flamengo,1,"0,00",0,0,3,1,"0,00",0,0,12,1,0,6,5,"2,89",0,0,3,21,0
18,15.093685897435893,Rodrigo Figueiredo ,0,MEI,"1,00",0,0,Corinthians,2,"0,00",0,0,0,0,"0,00",0,0,0,0,0,0,0,"0,00",0,0,0,0,0
18,15.093685897435893,Fernandes ,1,MEI,"3,09",3,7,Botafogo,1,"0,00",0,0,0,0,"0,00",0,0,0,0,0,2,0,"-0,13",0,0,0,0,0
18,15.093685897435893,Wendel ,4,MEI,"4,78",10,5,Ponte Preta,2,"0,00",1,0,0,0,"0,00",0,0,5,0,1,9,0,"1,13",0,2,0,7,0
18,15.093685897435893,Ty Sandows ,0,ATA,"1,00",0,0,Grêmio,2,"0,00",0,0,0,0,"0,00",0,0,0,0,0,0,0,"0,00",0,0,0,0,0
18,15.093685897435893,Lucca ,15,ATA,"21,60",17,51,Ponte Preta,3,"1,50",6,0,1,10,"-2,42",1,0,17,0,1,60,0,"8,25",0,0,18,17,0
18,15.093685897435893,Bruno Henrique ,5,ATA,"14,21",14,45,Santos,3,"9,70",4,1,3,4,"0,79",0,0,13,1,6,42,0,"5,29",0,0,7,37,0
19,0.0,Claudinei Oliveira ,0,TEC,"7,72",19,0,Avaí,3,"4,85",0,0,0,0,"0,74",0,0,0,0,0,0,0,"3,10",0,0,0,0,0
19,0.0,Léo Lopes ,0,GOL,"1,00",0,0,Avaí,2,"0,00",0,0,0,0,"0,00",0,0,0,0,0,0,0,"0,00",0,0,0,0,0
19,0.0,Werley ,5,ZAG,"8,58",11,28,Coritiba,2,"0,00",0,0,0,0,"0,00",0,0,11,0,0,4,5,"3,48",0,0,1,7,0
19,0.0,Yago ,0,ZAG,"6,00",0,0,Ponte Preta,2,"0,00",0,0,0,0,"0,00",0,0,0,0,0,0,0,"0,00",0,0,0,0,0
19,0.0,Alan Cardoso ,0,LAT,"1,21",1,0,Vasco,2,"0,00",0,0,0,0,"0,00",0,0,1,0,0,0,0,"-1,30",0,1,0,2,0
19,0.0,Carlos Cesar ,0,LAT,"4,46",1,4,Atlético-MG,5,"0,00",0,0,0,0,"0,00",0,0,0,0,0,1,0,"-0,70",0,0,0,0,0
19,0.0,Fabrício ,2,MEI,"1,37",7,18,Sport,2,"0,00",1,0,0,0,"0,00",0,0,1,0,1,3,0,"0,39",0,1,0,2,2
19,0.0,Ariel Cabral ,8,MEI,"5,29",13,55,Cruzeiro,5,"0,00",0,0,4,0,"0,00",0,0,22,0,0,23,0,"1,69",0,0,0,16,0
19,0.0,Judson ,6,MEI,"3,99",17,39,Avaí,4,"1,00",0,0,0,0,"-0,63",0,0,26,0,1,11,0,"1,02",0,6,0,40,2
19,0.0,Lins ,0,ATA,"5,00",0,0,Ponte Preta,2,"0,00",0,0,0,0,"0,00",0,0,0,0,0,0,0,"0,00",0,0,0,0,0
19,0.0,Lucca ,16,ATA,"21,36",18,52,Ponte Preta,3,"2,60",6,0,0,10,"-0,24",1,0,18,0,1,64,0,"7,94",0,1,0,20,18
19,0.0,Pedrinho ,2,ATA,"1,08",8,8,Corinthians,2,"-0,30",0,0,0,0,"-0,05",0,0,3,0,0,1,0,"0,95",0,0,0,0,3
20,15.27597222222222,Renato Gaúcho ,0,TEC,"15,36",20,0,Grêmio,3,"2,15",0,0,0,0,"-0,45",0,0,0,0,0,0,0,"4,55",0,0,0,0,0
20,15.27597222222222,Caíque França ,0,GOL,"2,00",0,0,Corinthians,2,"0,00",0,0,0,0,"0,00",0,0,0,0,0,0,0,"0,00",0,0,0,0,0
20,15.27597222222222,Lucas Veríssimo ,3,ZAG,"7,73",18,32,Santos,3,"4,70",1,0,0,0,"0,09",0,0,20,0,0,8,11,"4,17",0,4,0,12,4
20,15.27597222222222,Ronaldo Alves ,2,ZAG,"9,53",15,36,Sport,3,"9,20",1,0,0,1,"1,25",0,0,14,0,1,27,8,"4,50",0,4,0,18,4
20,15.27597222222222,Matheus Reis ,1,LAT,"4,28",16,50,Bahia,3,"-1,70",0,0,4,0,"-1,13",0,0,15,0,1,21,5,"2,04",0,0,1,24,0
20,15.27597222222222,Mena ,1,LAT,"6,78",9,22,Sport,3,"8,90",3,1,0,1,"1,66",0,0,19,0,4,9,4,"6,44",0,3,0,19,1
20,15.27597222222222,Gustavo Scarpa ,15,MEI,"11,94",18,101,Fluminense,3,"1,70",0,0,0,1,"0,00",0,0,18,2,4,33,0,"3,85",0,0,15,16,0
20,15.27597222222222,Éder Militão ,3,MEI,"2,19",9,19,São Paulo,3,"0,80",1,0,0,0,"-0,55",0,0,12,0,0,8,0,"2,04",0,0,0,4,0
20,15.27597222222222,Márcio Araújo ,5,MEI,"9,16",18,32,Flamengo,3,"3,60",0,0,2,0,"-0,13",0,0,41,0,0,26,0,"3,45",0,0,0,21,0
20,15.27597222222222,Rildo ,5,ATA,"8,50",18,43,Coritiba,3,"-0,20",5,0,3,4,"-1,47",0,0,17,0,2,60,0,"4,34",0,0,4,18,0
20,15.27597222222222,Rossi ,0,ATA,"9,48",1,1,Chapecoense,3,"5,40",0,0,0,0,"1,48",0,0,1,1,0,1,0,"5,40",0,0,0,0,0
20,15.27597222222222,Thalles ,7,ATA,"4,07",9,10,Vasco,2,"0,00",1,0,0,2,"0,00",0,0,2,0,0,11,0,"1,93",0,3,0,12,3
21,8.993159340659345,Milton Mendes ,0,TEC,"8,93",21,0,Vasco,3,"1,61",0,0,0,0,"-0,34",0,0,0,0,0,0,0,"3,28",0,0,0,0,0
21,8.993159340659345,Cássio ,0,GOL,"12,44",20,7,Corinthians,3,"1,00",0,0,0,0,"-1,14",0,19,0,0,0,5,13,"5,63",10,2,2,0,0
21,8.993159340659345,Oswaldo Henríquez ,1,ZAG,"5,58",8,16,Sport,3,"4,20",0,0,0,0,"-0,94",0,0,21,0,0,3,4,"5,51",0,2,0,10,0
21,8.993159340659345,Leonardo Silva ,1,ZAG,"8,67",8,15,Atlético-MG,3,"2,40",0,0,0,0,"-0,53",0,0,6,0,0,15,2,"1,48",0,3,0,12,0
21,8.993159340659345,Eduardo ,3,LAT,"7,57",20,105,Bahia,3,"10,00",2,0,0,0,"1,60",0,0,37,0,1,19,7,"2,91",0,5,0,30,1
21,8.993159340659345,Fagner ,2,LAT,"12,72",16,78,Corinthians,3,"3,50",2,0,4,0,"-0,95",0,0,29,0,2,26,11,"5,58",0,0,1,16,0
21,8.993159340659345,Lucas Lima ,6,MEI,"3,53",14,65,Santos,3,"-1,00",0,0,0,0,"-0,89",0,0,19,0,3,30,0,"1,82",0,8,0,25,7
21,8.993159340659345,Abuda ,0,MEI,"5,39",1,2,Atlético-GO,2,"0,00",0,0,0,0,"0,00",0,0,2,0,0,1,0,"3,30",0,0,0,0,0
21,8.993159340659345,Andrigo ,12,MEI,"5,44",20,78,Atlético-GO,3,"-0,90",1,0,4,2,"-0,65",0,0,29,1,2,12,0,"3,01",0,0,8,18,0
21,8.993159340659345,Roger ,13,ATA,"8,98",16,34,Botafogo,2,"0,00",15,0,0,6,"0,00",1,0,8,0,2,20,0,"4,06",0,2,0,19,9
21,8.993159340659345,Santarém ,0,ATA,"1,00",0,0,Avaí,2,"0,00",0,0,0,0,"0,00",0,0,0,0,0,0,0,"0,00",0,0,0,0,0
21,8.993159340659345,Emerson Sheik ,6,ATA,"7,59",13,36,Ponte Preta,3,"14,50",2,0,7,4,"2,41",0,0,5,0,1,40,0,"3,06",0,0,5,18,0
22,15.004285714285713,Mano Menezes ,0,TEC,"12,71",22,0,Cruzeiro,3,"3,65",0,0,0,0,"-0,30",0,0,0,0,0,0,0,"3,83",0,0,0,0,0
22,15.004285714285713,Cássio ,0,GOL,"13,09",21,7,Corinthians,3,"4,00",0,0,2,0,"0,65",0,21,0,0,0,5,13,"5,55",11,0,0,0,2
22,15.004285714285713,Pedro Henrique ,3,ZAG,"9,12",14,18,Corinthians,3,"3,40",0,0,0,1,"-0,34",0,0,15,0,0,8,7,"4,90",0,0,2,5,0
22,15.004285714285713,Thiago Heleno ,5,ZAG,"9,27",14,27,Atlético-PR,3,"0,00",0,0,5,3,"0,00",0,0,13,0,0,9,6,"4,11",0,0,0,17,0
22,15.004285714285713,Eduardo ,3,LAT,"6,13",21,111,Bahia,3,"0,10",2,0,5,0,"-1,44",0,0,39,0,1,19,7,"2,78",0,0,1,33,0
22,15.004285714285713,Fagner ,3,LAT,"13,18",17,81,Corinthians,3,"5,00",2,0,0,0,"0,46",0,0,30,1,2,28,11,"5,55",0,4,0,18,1
22,15.004285714285713,Lucas Lima ,6,MEI,"3,77",15,71,Santos,3,"0,40",0,0,8,0,"0,24",0,0,20,0,3,34,0,"1,73",0,0,7,28,0
22,15.004285714285713,Gustavo Bochecha ,0,MEI,"2,00",0,0,Botafogo,5,"0,00",0,0,0,0,"0,00",0,0,0,0,0,0,0,"0,00",0,0,0,0,0
22,15.004285714285713,Andrigo ,13,MEI,"5,53",21,79,Atlético-GO,3,"-0,40",1,0,0,2,"0,09",0,0,30,1,2,12,0,"2,85",0,5,0,19,8
22,15.004285714285713,Roger ,13,ATA,"9,91",17,34,Botafogo,3,"7,50",15,0,2,7,"0,93",1,0,8,0,2,20,0,"4,26",0,0,9,20,0
22,15.004285714285713,Kazim ,4,ATA,"2,46",7,4,Corinthians,3,"3,80",1,0,0,0,"0,75",0,0,0,0,0,3,0,"0,16",0,0,0,9,3
22,15.004285714285713,Loran  ,0,ATA,"1,00",0,0,Flamengo,2,"0,00",0,0,0,0,"0,00",0,0,0,0,0,0,0,"0,00",0,0,0,0,0
23,8.993159340659345,Milton Mendes ,0,TEC,"5,74",1,0,Vasco,3,"2,11",0,0,0,0,"-0,26",0,0,0,0,0,0,0,"2,11",0,0,0,0,0
23,8.993159340659345,Cássio ,0,GOL,"13,33",22,7,Corinthians,3,"5,00",0,0,0,0,"0,24",0,24,0,0,0,5,13,"5,53",13,2,2,0,0
23,8.993159340659345,Oswaldo Henríquez ,3,ZAG,"5,39",9,16,Sport,3,"2,30",0,0,0,0,"-0,19",0,0,23,0,0,3,4,"5,15",0,3,0,11,0
23,8.993159340659345,Leonardo Silva ,3,ZAG,"8,18",10,17,Atlético-MG,3,"-0,90",1,0,0,0,"-0,52",0,0,7,0,0,17,2,"1,29",0,4,0,14,1
23,8.993159340659345,Eduardo ,4,LAT,"6,39",22,115,Bahia,3,"1,70",2,0,0,0,"0,26",0,0,40,0,1,20,7,"2,73",0,5,0,33,1
23,8.993159340659345,Fagner ,3,LAT,"12,60",18,85,Corinthians,3,"1,40",2,0,5,0,"-0,58",0,0,33,1,2,28,11,"5,32",0,0,1,19,0
23,8.993159340659345,Lucas Lima ,6,MEI,"4,59",16,83,Santos,3,"4,90",0,0,0,1,"0,82",0,0,20,0,3,41,0,"1,93",0,9,0,30,7
23,8.993159340659345,Abuda ,0,MEI,"6,00",0,0,Atlético-GO,2,"0,00",0,0,0,0,"0,00",0,0,0,0,0,0,0,"0,00",0,0,0,0,0
23,8.993159340659345,Andrigo ,13,MEI,"5,76",22,81,Atlético-GO,3,"1,10",1,0,5,2,"0,23",0,0,31,1,2,13,0,"2,77",0,0,8,20,0
23,8.993159340659345,Roger ,15,ATA,"12,37",18,37,Botafogo,3,"19,70",16,0,0,9,"2,46",1,0,9,0,2,20,0,"5,12",0,2,0,20,11
23,8.993159340659345,Santarém ,0,ATA,"1,00",0,0,Avaí,2,"0,00",0,0,0,0,"0,00",0,0,0,0,0,0,0,"0,00",0,0,0,0,0
23,8.993159340659345,Emerson Sheik ,8,ATA,"5,68",15,45,Ponte Preta,3,"1,80",2,0,8,4,"0,59",0,0,6,0,1,43,0,"2,65",0,0,6,20,0
24,15.06703282828283,Claudinei Oliveira ,0,TEC,"7,84",24,0,Avaí,3,"2,56",0,0,0,0,"-0,45",0,0,0,0,0,0,0,"3,37",0,0,0,0,0
24,15.06703282828283,Léo Lopes ,0,GOL,"1,00",0,0,Avaí,2,"0,00",0,0,0,0,"0,00",0,0,0,0,0,0,0,"0,00",0,0,0,0,0
24,15.06703282828283,Oswaldo Henríquez ,3,ZAG,"5,39",9,16,Sport,3,"0,00",0,0,0,0,"0,00",0,0,23,0,0,3,4,"5,15",0,3,0,11,0
24,15.06703282828283,Augusto ,0,ZAG,"1,00",0,0,Palmeiras,2,"0,00",0,0,0,0,"0,00",0,0,0,0,0,0,0,"0,00",0,0,0,0,0
24,15.06703282828283,Apodi ,11,LAT,"7,76",21,46,Chapecoense,3,"3,80",2,0,7,0,"0,25",0,0,27,0,0,40,6,"2,80",0,0,7,46,0
24,15.06703282828283,Mena ,1,LAT,"5,21",12,30,Sport,3,"-1,10",3,1,0,1,"-0,94",0,0,24,0,4,12,4,"5,13",0,4,0,23,1
24,15.06703282828283,Gustavo Scarpa ,19,MEI,"13,21",22,125,Fluminense,3,"7,60",1,0,0,1,"1,31",0,0,21,2,7,35,0,"4,17",0,0,22,17,0
24,15.06703282828283,Éder Militão ,4,MEI,"4,39",11,26,São Paulo,3,"12,70",1,0,0,1,"2,13",0,0,16,0,0,11,0,"2,94",0,0,0,6,0
24,15.06703282828283,Márcio Araújo ,5,MEI,"9,79",20,39,Flamengo,3,"7,20",0,0,3,0,"0,79",0,0,46,0,1,28,0,"3,63",0,0,1,23,0
24,15.06703282828283,Fred ,10,ATA,"14,01",16,35,Atlético-MG,3,"2,10",10,0,4,5,"1,16",2,0,5,1,1,30,0,"2,54",0,0,5,26,0
24,15.06703282828283,Lucca ,20,ATA,"21,73",22,60,Ponte Preta,3,"7,70",7,0,3,10,"0,39",1,0,23,0,1,78,0,"7,11",0,0,22,24,0
24,15.06703282828283,João Pedro ,0,ATA,"4,00",0,0,Atlético-GO,2,"0,00",0,0,0,0,"0,00",0,0,0,0,0,0,0,"0,00",0,0,0,0,0
25,28.81214030058423,Claudinei Oliveira ,0,TEC,"7,90",25,0,Avaí,3,"2,85",0,0,0,0,"0,06",0,0,0,0,0,0,0,"3,35",0,0,0,0,0
25,28.81214030058423,João Carlos ,0,GOL,"5,22",1,0,Ponte Preta,3,"7,00",0,0,0,0,"0,22",0,3,0,0,0,0,0,"7,00",1,0,0,0,0
25,28.81214030058423,Gabriel ,6,ZAG,"9,92",15,28,Atlético-MG,3,"8,00",1,0,1,1,"1,21",0,0,21,0,0,14,4,"3,77",0,0,2,19,0
25,28.81214030058423,Nogueira ,0,ZAG,"1,84",8,8,Fluminense,3,"0,90",0,0,3,0,"0,17",0,0,3,1,0,6,0,"0,40",0,0,3,6,0
25,28.81214030058423,Alan Cardoso ,0,LAT,"2,00",0,0,Vasco,2,"0,00",0,0,0,0,"0,00",0,0,0,0,0,0,0,"0,00",0,0,0,0,0
25,28.81214030058423,Mansur ,0,LAT,"5,00",0,0,Sport,2,"0,00",0,0,0,0,"0,00",0,0,0,0,0,0,0,"0,00",0,0,0,0,0
25,28.81214030058423,Felipe Gedoz  ,4,MEI,"7,03",7,23,Atlético-PR,3,"-1,80",2,0,1,2,"-1,65",0,0,1,1,0,8,0,"2,37",0,0,3,9,0
25,28.81214030058423,Nikão ,11,MEI,"8,37",23,82,Atlético-PR,3,"-0,60",3,0,2,2,"-0,54",1,0,20,1,2,35,0,"2,55",0,0,15,23,0
25,28.81214030058423,Marquinho ,0,MEI,"6,00",0,0,Fluminense,2,"0,00",0,0,0,0,"0,00",0,0,0,0,0,0,0,"0,00",0,0,0,0,0
25,28.81214030058423,Dudu ,3,ATA,"15,67",13,49,Palmeiras,3,"0,60",6,0,3,3,"-1,69",0,0,12,0,1,56,0,"4,14",0,0,4,12,0
25,28.81214030058423,Lucca ,21,ATA,"20,68",23,63,Ponte Preta,3,"1,80",7,0,0,10,"-1,05",1,0,23,0,1,81,0,"6,88",0,3,0,25,23
25,28.81214030058423,Bruno Henrique ,11,ATA,"15,24",19,59,Santos,3,"14,50",5,1,0,6,"1,05",0,0,18,1,7,51,0,"5,74",0,3,0,44,12
26,28.81214030058423,Claudinei Oliveira ,0,TEC,"7,84",26,0,Avaí,3,"1,85",0,0,0,0,"-0,06",0,0,0,0,0,0,0,"3,29",0,0,0,0,0
26,28.81214030058423,João Carlos ,0,GOL,"5,22",1,0,Ponte Preta,2,"0,00",0,0,0,0,"0,00",0,3,0,0,0,0,0,"7,00",1,0,0,0,0
26,28.81214030058423,Gabriel ,6,ZAG,"9,35",16,32,Atlético-MG,3,"3,30",1,0,0,1,"-0,57",0,0,21,0,0,14,5,"3,74",0,1,0,20,2
26,28.81214030058423,Nogueira ,0,ZAG,"1,84",8,8,Fluminense,1,"0,00",0,0,0,0,"0,00",0,0,3,1,0,6,0,"0,40",0,3,0,6,3
26,28.81214030058423,Alan Cardoso ,0,LAT,"1,21",1,0,Vasco,2,"0,00",0,0,0,0,"0,00",0,0,1,0,0,0,0,"-1,30",0,1,0,2,0
26,28.81214030058423,Mansur ,0,LAT,"5,00",0,0,Sport,2,"0,00",0,0,0,0,"0,00",0,0,0,0,0,0,0,"0,00",0,0,0,0,0
26,28.81214030058423,Felipe Gedoz  ,6,MEI,"7,66",8,27,Atlético-PR,3,"1,70",2,0,0,2,"0,63",0,0,1,1,0,11,0,"2,29",0,1,0,11,4
26,28.81214030058423,Nikão ,11,MEI,"8,37",23,82,Atlético-PR,3,"0,00",3,0,0,2,"0,00",1,0,20,1,2,35,0,"2,55",0,2,0,23,15
26,28.81214030058423,Marquinho ,0,MEI,"2,98",4,1,Fluminense,5,"0,00",0,0,0,0,"0,00",0,0,1,0,0,0,0,"-0,40",0,1,0,2,0
26,28.81214030058423,Dudu ,5,ATA,"16,32",14,55,Palmeiras,3,"3,60",7,0,0,3,"0,65",0,0,12,0,1,63,0,"4,10",0,3,0,12,5
26,28.81214030058423,Lucca ,22,ATA,"20,07",24,65,Ponte Preta,3,"-2,40",7,0,3,10,"-0,61",2,0,23,0,1,83,0,"6,49",0,0,24,27,0
26,28.81214030058423,Bruno Henrique ,12,ATA,"14,01",20,62,Santos,3,"5,00",6,1,4,6,"-1,23",0,0,19,1,8,56,0,"5,70",0,0,12,47,0
27,0.01426900584795554,Marcelo Cabo ,0,TEC,"3,25",1,0,Atlético-GO,3,"2,60",0,0,0,0,"1,25",0,0,0,0,0,0,0,"2,60",0,0,0,0,0
27,0.01426900584795554,Alex Muralha ,0,GOL,"5,11",6,0,Flamengo,2,"0,00",0,0,0,0,"0,00",0,0,0,0,0,0,0,"3,58",0,0,0,0,0
27,0.01426900584795554,Durval ,0,ZAG,"7,37",15,0,Sport,1,"0,00",0,0,0,0,"0,00",0,0,0,0,0,0,0,"3,29",0,0,0,0,0
27,0.01426900584795554,Juan ,0,ZAG,"6,53",10,0,Flamengo,3,"0,00",0,0,0,0,"-0,49",0,0,0,0,0,0,0,"4,30",0,0,0,0,0
27,0.01426900584795554,Victor Ferraz ,0,LAT,"10,39",15,0,Santos,5,"0,00",0,0,0,0,"0,00",0,0,0,0,0,0,0,"4,19",0,0,0,0,0
27,0.01426900584795554,Bruno Pacheco ,0,LAT,"8,85",25,0,Atlético-GO,3,"0,00",0,0,0,0,"-1,11",0,0,0,0,0,0,0,"3,41",0,0,0,0,0
27,0.01426900584795554,Luiz Otávio ,0,MEI,"2,00",0,0,Atlético-PR,2,"0,00",0,0,0,0,"0,00",0,0,0,0,0,0,0,"0,00",0,0,0,0,0
27,0.01426900584795554,Jadson ,0,MEI,"4,17",1,6,Ponte Preta,3,"-0,10",0,0,0,0,"-1,83",0,0,1,0,0,2,0,"-0,10",0,0,0,2,0
27,0.01426900584795554,Marlone ,0,MEI,"9,00",0,0,Atlético-MG,2,"0,00",0,0,0,0,"0,00",0,0,0,0,0,0,0,"0,00",0,0,0,0,0
27,0.01426900584795554,Willian ,0,ATA,"10,78",20,0,Palmeiras,3,"0,00",0,0,0,0,"3,33",0,0,0,0,0,0,0,"4,50",0,0,0,0,0
27,0.01426900584795554,Dudu ,0,ATA,"16,79",15,0,Palmeiras,3,"0,00",0,0,0,0,"0,47",0,0,0,0,0,0,0,"4,24",0,0,0,0,0
27,0.01426900584795554,Bruno Henrique ,0,ATA,"14,80",21,0,Santos,1,"0,00",0,0,0,0,"0,79",0,0,0,0,0,0,0,"5,86",0,0,0,0,0
28,0.0,Claudinei Oliveira ,0,TEC,"7,70",28,0,Avaí,3,"0,00",0,0,0,0,"0,04",0,0,0,0,0,0,0,"3,14",0,0,0,0,0
28,0.0,Gabriel Batista ,0,GOL,"1,00",0,0,Flamengo,2,"0,00",0,0,0,0,"0,00",0,0,0,0,0,0,0,"0,00",0,0,0,0,0
28,0.0,Daniel ,0,ZAG,"1,00",0,0,Atlético-PR,2,"0,00",0,0,0,0,"0,00",0,0,0,0,0,0,0,"0,00",0,0,0,0,0
28,0.0,Durval ,0,ZAG,"7,37",15,0,Sport,1,"0,00",0,0,0,0,"0,00",0,0,0,0,0,0,0,"3,29",0,0,0,0,0
28,0.0,Lennon ,0,LAT,"3,09",4,0,Cruzeiro,2,"0,00",0,0,0,0,"0,00",0,0,0,0,0,0,0,"-0,33",0,0,0,0,0
28,0.0,Jean ,0,LAT,"14,48",16,0,Palmeiras,2,"0,00",0,0,0,0,"0,00",0,0,0,0,0,0,0,"4,73",0,0,0,0,0
28,0.0,Andreazzi ,0,MEI,"2,00",0,0,Botafogo,2,"0,00",0,0,0,0,"0,00",0,0,0,0,0,0,0,"0,00",0,0,0,0,0
28,0.0,João Paulo ,0,MEI,"5,14",4,0,Coritiba,2,"0,00",0,0,0,0,"0,00",0,0,0,0,0,0,0,"0,28",0,0,0,0,0
28,0.0,Cleiton Xavier ,0,MEI,"4,98",16,0,Vitória,2,"0,00",0,0,0,0,"0,00",0,0,0,0,0,0,0,"1,63",0,0,0,0,0
28,0.0,Pedrinho ,0,ATA,"1,08",8,0,Corinthians,2,"0,00",0,0,0,0,"0,00",0,0,0,0,0,0,0,"0,95",0,0,0,0,0
28,0.0,Luiz Araújo ,1,ATA,"8,91",1,1,São Paulo,1,"2,60",0,0,0,0,"-1,09",0,0,1,0,0,0,0,"2,60",0,0,1,1,0
28,0.0,Lourency ,0,ATA,"3,00",0,0,Chapecoense,2,"0,00",0,0,0,0,"0,00",0,0,0,0,0,0,0,"0,00",0,0,0,0,0
29,1.493906051112333,Renato Gaúcho ,0,TEC,"15,70",28,0,Grêmio,3,"5,64",0,0,0,0,"0,09",0,0,0,0,0,0,0,"4,29",0,0,0,0,0
29,1.493906051112333,Jean ,0,GOL,"11,27",29,25,Bahia,3,"-2,00",0,0,2,0,"-2,15",0,52,0,0,0,2,9,"4,11",39,0,0,1,1
29,1.493906051112333,Yago ,0,ZAG,"5,72",1,0,Ponte Preta,2,"0,00",0,0,0,0,"0,00",0,0,0,0,0,0,1,"5,00",0,0,0,0,0
29,1.493906051112333,Gabriel ,6,ZAG,"8,69",19,35,Atlético-MG,3,"-0,30",1,0,0,1,"-0,33",0,0,23,0,0,16,6,"3,52",0,1,0,23,2
29,1.493906051112333,Alan Cardoso ,0,LAT,"1,21",1,0,Vasco,2,"0,00",0,0,1,0,"0,00",0,0,1,0,0,0,0,"-1,30",0,0,0,2,0
29,1.493906051112333,Jonathan ,4,LAT,"2,67",16,40,Atlético-GO,3,"1,90",1,0,1,0,"-0,10",0,0,24,0,0,4,3,"2,13",0,2,0,14,3
29,1.493906051112333,Jailson ,2,MEI,"4,70",14,15,Grêmio,3,"7,00",1,0,0,0,"1,22",0,0,12,0,1,8,0,"1,20",0,1,0,14,0
29,1.493906051112333,Marciel ,0,MEI,"2,72",1,0,Corinthians,2,"0,00",0,0,0,0,"0,00",0,0,2,0,0,2,0,"1,90",0,1,0,1,0
29,1.493906051112333,Matheus Cassini ,0,MEI,"2,00",0,0,Ponte Preta,2,"0,00",0,0,0,0,"0,00",0,0,0,0,0,0,0,"0,00",0,0,0,0,0
29,1.493906051112333,Dudu ,5,ATA,"16,15",17,66,Palmeiras,3,"2,90",7,0,4,4,"-0,96",0,0,16,0,1,75,0,"4,41",0,0,8,14,0
29,1.493906051112333,Lucca ,25,ATA,"19,89",26,69,Ponte Preta,3,"0,60",9,0,0,10,"-0,50",2,0,24,0,1,85,0,"6,03",0,3,0,30,24
29,1.493906051112333,Paolo Guerrero ,23,ATA,"11,33",19,45,Flamengo,3,"0,90",15,0,4,6,"-0,07",0,0,14,0,3,48,0,"4,12",0,0,14,67,0
30,7.858918385536032,Jair Ventura ,0,TEC,"12,27",30,0,Botafogo,3,"4,57",0,0,0,0,"0,25",0,0,0,0,0,0,0,"4,20",0,0,0,0,0
30,7.858918385536032,William Menezes ,0,GOL,"2,00",0,0,Coritiba,2,"0,00",0,0,0,0,"0,00",0,0,0,0,0,0,0,"0,00",0,0,0,0,0
30,7.858918385536032,Durval ,0,ZAG,"6,10",17,27,Sport,1,"-0,20",1,0,1,0,"-0,45",0,0,21,0,1,11,4,"3,04",0,0,4,16,0
30,7.858918385536032,Pedro Henryque ,0,ZAG,"2,00",0,0,Sport,2,"0,00",0,0,0,0,"0,00",0,0,0,0,0,0,0,"0,00",0,0,0,0,0
30,7.858918385536032,Thiago Carleto ,4,LAT,"5,67",14,57,Coritiba,3,"1,90",0,0,0,2,"-0,32",1,0,17,0,3,11,4,"4,89",0,2,0,10,10
30,7.858918385536032,Egídio ,2,LAT,"8,07",18,79,Palmeiras,3,"-0,20",2,0,0,1,"-2,03",0,0,44,0,1,23,8,"5,84",0,3,0,18,4
30,7.858918385536032,Renato ,1,MEI,"5,91",15,29,Santos,3,"1,00",0,0,0,0,"-0,36",0,0,16,0,0,15,0,"1,58",0,0,0,10,2
30,7.858918385536032,Éder Militão ,5,MEI,"2,17",17,46,São Paulo,3,"-2,00",1,0,0,1,"-1,24",0,0,24,0,0,16,0,"2,19",0,1,0,16,1
30,7.858918385536032,Márcio Araújo ,6,MEI,"8,06",24,45,Flamengo,3,"0,00",0,0,5,0,"0,00",0,0,48,0,1,33,0,"2,90",0,0,1,31,0
30,7.858918385536032,Fred ,12,ATA,"14,45",22,48,Atlético-MG,3,"5,00",12,0,5,7,"0,02",2,0,5,1,3,46,0,"2,84",0,0,7,43,0
30,7.858918385536032,Rildo ,7,ATA,"10,58",27,74,Coritiba,3,"10,60",8,0,0,6,"1,53",0,0,27,0,2,98,0,"4,29",0,3,0,31,6
30,7.858918385536032,Bruno Henrique ,13,ATA,"14,80",21,64,Santos,3,"0,00",8,1,4,6,"0,00",0,0,21,1,9,59,0,"5,86",0,0,13,49,0
31,12.931622842623884,Renato Gaúcho ,0,TEC,"15,25",30,0,Grêmio,3,"3,84",0,0,0,0,"0,21",0,0,0,0,0,0,0,"4,19",0,0,0,0,0
31,12.931622842623884,Martín Silva ,0,GOL,"9,19",31,22,Vasco,3,"10,90",0,0,2,0,"2,05",0,42,0,0,0,6,9,"2,75",39,0,0,0,0
31,12.931622842623884,Reynaldo ,0,ZAG,"2,00",0,0,Ponte Preta,2,"0,00",0,0,0,0,"0,00",0,0,0,0,0,0,0,"0,00",0,0,0,0,0
31,12.931622842623884,Pedro Geromel ,5,ZAG,"13,85",17,42,Grêmio,3,"0,00",0,0,0,0,"0,00",0,0,41,0,2,12,10,"6,78",0,4,0,13,3
31,12.931622842623884,João Pedro  ,1,LAT,"5,53",2,2,Chapecoense,3,"5,00",0,0,0,0,"-0,34",0,0,1,0,0,1,1,"3,65",0,0,0,0,0
31,12.931622842623884,Riuler ,0,LAT,"2,00",0,0,Atlético-PR,2,"0,00",0,0,0,0,"0,00",0,0,0,0,0,0,0,"0,00",0,0,0,0,0
31,12.931622842623884,Moisés ,3,MEI,"8,42",12,56,Palmeiras,3,"-1,40",0,0,1,2,"-2,57",0,0,17,1,2,28,0,"4,63",0,0,6,12,0
31,12.931622842623884,Gustavo Scarpa ,31,MEI,"13,67",29,156,Fluminense,3,"10,00",3,0,0,2,"1,15",0,0,26,2,8,45,0,"4,24",0,0,29,18,0
31,12.931622842623884,Alan Santos ,8,MEI,"4,78",22,49,Coritiba,3,"-0,30",2,0,0,0,"-0,71",0,0,39,1,0,12,0,"2,11",0,3,0,35,4
31,12.931622842623884,Fred ,12,ATA,"13,81",23,49,Atlético-MG,3,"1,90",12,0,0,7,"-0,64",2,0,6,1,3,49,0,"2,80",0,5,0,45,7
31,12.931622842623884,Ábila ,1,ATA,"13,44",1,3,Cruzeiro,3,"11,00",0,0,0,1,"5,44",0,0,1,0,0,1,0,"11,00",0,0,1,0,0
31,12.931622842623884,Bruno Henrique ,13,ATA,"12,68",22,69,Santos,3,"-1,30",8,1,0,6,"-2,12",0,0,22,1,9,64,0,"5,53",0,5,0,53,13
32,20.420011125911568,Jair Ventura ,0,TEC,"11,90",32,0,Botafogo,3,"2,22",0,0,0,0,"-0,39",0,0,0,0,0,0,0,"4,17",0,0,0,0,0
32,20.420011125911568,João Carlos ,0,GOL,"5,22",1,0,Ponte Preta,2,"0,00",0,0,0,0,"0,00",0,3,0,0,0,0,0,"7,00",1,0,0,0,0
32,20.420011125911568,Yago ,3,ZAG,"4,54",4,1,Ponte Preta,3,"-2,10",0,0,1,0,"-1,14",0,0,0,0,0,0,2,"2,45",0,0,1,2,0
32,20.420011125911568,Felipe Santana ,2,ZAG,"7,86",12,16,Atlético-MG,2,"0,00",2,0,0,1,"0,00",0,0,14,0,1,9,3,"4,09",0,0,2,10,0
32,20.420011125911568,Capa ,10,LAT,"11,37",29,149,Avaí,3,"0,00",4,0,5,0,"-0,48",0,0,61,0,1,79,10,"4,17",0,1,2,48,0
32,20.420011125911568,Mena ,2,LAT,"5,35",19,46,Sport,3,"-1,30",6,1,0,1,"-0,54",0,0,40,0,4,20,4,"4,16",0,6,0,34,2
32,20.420011125911568,Danielzinho ,0,MEI,"2,00",0,0,Fluminense,2,"0,00",0,0,0,0,"0,00",0,0,0,0,0,0,0,"0,00",0,0,0,0,0
32,20.420011125911568,Fernando Bob ,1,MEI,"7,46",16,44,Ponte Preta,3,"1,70",1,1,0,0,"0,61",0,0,37,0,0,18,0,"1,48",0,4,0,44,0
32,20.420011125911568,Cazares ,26,MEI,"8,53",27,87,Atlético-MG,3,"1,00",1,0,0,3,"0,27",1,0,9,0,8,12,0,"2,95",0,0,0,22,17
32,20.420011125911568,David ,21,ATA,"5,79",30,76,Vitória,3,"4,20",15,0,0,4,"0,86",0,0,24,3,5,17,0,"2,75",0,5,0,38,10
32,20.420011125911568,André ,33,ATA,"11,73",28,73,Sport,3,"8,20",24,0,5,12,"-0,26",0,0,25,1,1,49,0,"4,84",0,0,12,54,0
32,20.420011125911568,Bruno Henrique ,14,ATA,"15,16",23,74,Santos,3,"12,90",8,1,5,6,"2,48",0,0,23,1,11,67,0,"5,85",0,0,15,56,0
33,20.420011125911568,Jair Ventura ,0,TEC,"12,11",33,0,Botafogo,3,"0,00",0,0,0,0,"0,21",0,0,0,0,0,0,0,"4,15",0,0,0,0,0
33,20.420011125911568,João Carlos ,0,GOL,"5,22",1,0,Ponte Preta,2,"0,00",0,0,0,0,"0,00",0,0,0,0,0,0,0,"7,00",0,0,0,0,0
33,20.420011125911568,Yago ,0,ZAG,"5,29",5,0,Ponte Preta,3,"0,00",0,0,0,0,"0,75",0,0,0,0,0,0,0,"2,46",0,0,0,0,0
33,20.420011125911568,Felipe Santana ,0,ZAG,"7,86",12,0,Atlético-MG,5,"0,00",0,0,0,0,"0,00",0,0,0,0,0,0,0,"4,09",0,0,0,0,0
33,20.420011125911568,Capa ,0,LAT,"11,37",29,0,Avaí,3,"0,00",0,0,0,0,"0,00",0,0,0,0,0,0,0,"4,17",0,0,0,0,0
33,20.420011125911568,Mena ,0,LAT,"5,35",19,0,Sport,5,"0,00",0,0,0,0,"0,00",0,0,0,0,0,0,0,"4,16",0,0,0,0,0
33,20.420011125911568,Danielzinho ,0,MEI,"2,00",0,0,Fluminense,2,"0,00",0,0,0,0,"0,00",0,0,0,0,0,0,0,"0,00",0,0,0,0,0
33,20.420011125911568,Fernando Bob ,0,MEI,"6,20",17,0,Ponte Preta,4,"0,00",0,0,0,0,"-1,26",0,0,0,0,0,0,0,"1,07",0,0,0,0,0
33,20.420011125911568,Cazares ,0,MEI,"7,88",28,0,Atlético-MG,5,"0,00",0,0,0,0,"-0,65",0,0,0,0,0,0,0,"2,75",0,0,0,0,0
33,20.420011125911568,David ,0,ATA,"5,01",31,0,Vitória,3,"0,00",0,0,0,0,"-0,78",0,0,0,0,0,0,0,"2,64",0,0,0,0,0
33,20.420011125911568,André ,0,ATA,"11,45",29,0,Sport,3,"0,00",0,0,0,0,"-0,28",0,0,0,0,0,0,0,"4,87",0,0,0,0,0
33,20.420011125911568,Bruno Henrique ,0,ATA,"12,76",24,0,Santos,4,"0,00",0,0,0,0,"-2,40",0,0,0,0,0,0,0,"5,52",0,0,0,0,0
34,11.312549148169833,Claudinei Oliveira ,0,TEC,"7,80",34,0,Avaí,3,"1,48",0,0,0,0,"-0,55",0,0,0,0,0,0,0,"3,18",0,0,0,0,0
34,11.312549148169833,Fernando Miguel ,0,GOL,"11,09",25,21,Vitória,3,"6,70",0,0,2,0,"0,34",0,42,0,0,0,4,7,"3,59",35,0,0,0,1
34,11.312549148169833,Murilo ,9,ZAG,"2,85",22,47,Cruzeiro,3,"2,00",1,0,0,0,"-0,46",0,0,23,0,0,8,8,"2,50",0,3,0,28,0
34,11.312549148169833,Paulo André ,0,ZAG,"4,80",18,37,Atlético-PR,3,"4,40",0,0,4,0,"0,23",0,0,16,1,0,12,5,"2,09",0,0,2,14,0
34,11.312549148169833,Capa ,10,LAT,"11,37",29,149,Avaí,3,"0,00",4,0,5,0,"0,00",0,0,61,0,1,79,10,"4,17",0,1,2,48,0
34,11.312549148169833,Guilherme Arana ,5,LAT,"11,48",30,98,Corinthians,3,"11,90",4,0,0,2,"0,47",0,0,18,0,4,36,17,"4,22",0,4,0,19,3
34,11.312549148169833,André Castro ,4,MEI,"3,65",28,56,Atlético-GO,3,"8,90",1,0,6,0,"1,21",0,0,47,0,0,11,0,"1,50",0,0,2,37,0
34,11.312549148169833,Everton Felipe ,7,MEI,"4,41",18,102,Sport,5,"0,00",2,0,2,1,"0,00",0,0,18,0,2,24,0,"1,63",0,0,13,27,0
34,11.312549148169833,Ramiro ,15,MEI,"14,96",24,97,Grêmio,3,"1,00",4,0,5,6,"-1,76",0,0,29,0,4,37,0,"4,13",0,0,15,42,0
34,11.312549148169833,Kleber ,9,ATA,"10,41",13,38,Coritiba,1,"2,40",9,1,2,4,"0,25",0,0,5,0,1,34,0,"3,04",0,0,12,33,0
34,11.312549148169833,Marcos Junior ,7,ATA,"3,23",20,24,Fluminense,3,"3,00",4,0,0,2,"0,43",0,0,8,0,0,27,0,"1,27",0,5,0,13,3
34,11.312549148169833,Felipe Vizeu ,8,ATA,"3,65",14,10,Flamengo,3,"0,80",3,0,0,1,"-0,91",0,0,6,1,1,10,0,"2,09",0,0,6,19,0
35,19.77705536021837,Cuca ,0,TEC,"15,09",1,0,Palmeiras,3,"8,34",0,0,0,0,"2,09",0,0,0,0,0,0,0,"8,34",0,0,0,0,0
35,19.77705536021837,Cláudio Vitor ,0,GOL,"1,00",0,0,Avaí,2,"0,00",0,0,0,0,"0,00",0,0,0,0,0,0,0,"0,00",0,0,0,0,0
35,19.77705536021837,Gabriel ,6,ZAG,"9,00",23,38,Atlético-MG,3,"0,00",1,0,2,1,"0,00",0,0,29,0,0,19,7,"3,44",0,0,2,26,0
35,19.77705536021837,Juan ,6,ZAG,"6,12",13,14,Flamengo,3,"0,50",0,0,0,0,"-1,44",0,0,19,1,2,7,3,"4,02",0,5,0,10,3
35,19.77705536021837,Marcos Rocha ,5,LAT,"11,16",19,85,Atlético-MG,3,"2,70",1,0,5,0,"-0,95",0,0,61,0,4,30,4,"5,84",0,0,2,35,0
35,19.77705536021837,Henrique ,1,LAT,"8,01",19,47,Vasco,3,"4,90",2,0,2,0,"1,05",0,0,27,0,2,31,3,"3,00",0,0,3,28,0
35,19.77705536021837,Cleiton Xavier ,10,MEI,"5,48",17,49,Vitória,2,"0,00",1,0,0,0,"0,00",0,0,15,1,3,8,0,"1,63",0,4,0,20,6
35,19.77705536021837,Uillian Correia ,14,MEI,"4,87",30,55,Vitória,3,"-2,30",1,1,0,3,"0,02",0,0,59,1,0,17,0,"2,83",0,7,0,58,4
35,19.77705536021837,Guilherme ,9,MEI,"9,60",20,84,Atlético-PR,3,"0,30",3,0,4,5,"-1,77",0,0,24,1,5,29,0,"4,35",0,0,8,33,0
35,19.77705536021837,Niltinho ,0,ATA,"6,00",0,0,Chapecoense,2,"0,00",0,0,0,0,"0,00",0,0,0,0,0,0,0,"0,00",0,0,0,0,0
35,19.77705536021837,Júnior Dutra ,28,ATA,"11,24",28,89,Avaí,3,"17,50",9,0,0,9,"3,12",0,0,29,2,2,42,0,"4,71",0,4,0,42,13
35,19.77705536021837,Bruno Henrique ,15,ATA,"15,82",25,84,Santos,3,"16,60",8,1,0,7,"3,06",0,0,27,1,11,75,0,"5,96",0,6,0,60,17
36,9.14549417249417,Vagner Mancini ,0,TEC,"6,51",1,0,Chapecoense,3,"2,20",0,0,0,0,"-0,49",0,0,0,0,0,0,0,"2,20",0,0,0,0,0
36,9.14549417249417,João Paulo ,0,GOL,"2,97",1,1,Santos,2,"0,00",0,0,0,0,"0,00",0,2,0,0,0,0,1,"10,70",0,0,0,0,0
36,9.14549417249417,Léo ,3,ZAG,"9,04",25,53,Cruzeiro,3,"3,20",0,0,0,1,"0,18",0,0,20,1,1,12,10,"3,01",0,8,0,17,7
36,9.14549417249417,Juan ,6,ZAG,"6,12",13,14,Flamengo,3,"0,00",0,0,0,0,"0,00",0,0,19,1,2,7,3,"4,02",0,5,0,10,3
36,9.14549417249417,Léo ,0,LAT,"6,00",0,0,Atlético-PR,2,"0,00",0,0,0,0,"0,00",0,0,0,0,0,0,0,"0,00",0,0,0,0,0
36,9.14549417249417,Fabiano ,2,LAT,"4,32",5,8,Palmeiras,2,"0,00",0,0,0,0,"0,00",0,0,1,0,0,1,1,"1,14",0,0,0,3,1
36,9.14549417249417,Matheus Cassini ,0,MEI,"2,00",0,0,Ponte Preta,2,"0,00",0,0,0,0,"0,00",0,0,0,0,0,0,0,"0,00",0,0,0,0,0
36,9.14549417249417,João Pedro ,0,MEI,"1,20",1,1,Atlético-PR,2,"-0,30",0,0,0,0,"-0,80",0,0,0,0,0,0,0,"-0,30",0,0,0,0,0
36,9.14549417249417,Allione ,3,MEI,"9,07",24,74,Bahia,3,"-0,60",4,0,0,0,"-0,02",0,0,24,1,7,32,0,"2,27",0,5,0,25,4
36,9.14549417249417,Ricardo Oliveira ,19,ATA,"11,18",22,25,Santos,3,"4,60",17,0,0,8,"0,00",0,0,6,3,0,18,0,"4,20",0,2,0,29,20
36,9.14549417249417,Dudu ,9,ATA,"16,94",24,91,Palmeiras,3,"3,30",7,0,0,8,"-2,71",0,0,21,0,5,91,0,"5,77",0,5,0,20,13
36,9.14549417249417,Bruno Henrique ,16,ATA,"14,40",26,90,Santos,3,"7,10",10,1,6,7,"-1,42",0,0,33,1,11,78,0,"6,00",0,0,18,67,0
37,9.14549417249417,Vagner Mancini ,0,TEC,"6,51",1,0,Chapecoense,3,"2,20",0,0,0,0,"-0,49",0,0,0,0,0,0,0,"2,20",0,0,0,0,0
37,9.14549417249417,João Paulo ,0,GOL,"2,97",1,1,Santos,2,"0,00",0,0,0,0,"0,00",0,2,0,0,0,0,1,"10,70",0,0,0,0,0
37,9.14549417249417,Léo ,3,ZAG,"8,35",26,53,Cruzeiro,4,"-1,00",0,0,9,1,"-0,69",0,0,20,1,1,12,10,"2,86",0,0,8,17,0
37,9.14549417249417,Juan ,6,ZAG,"6,12",13,14,Flamengo,2,"0,00",0,0,5,0,"0,00",0,0,19,1,2,7,3,"4,02",0,0,3,10,0
37,9.14549417249417,Léo ,0,LAT,"6,00",0,0,Atlético-PR,2,"0,00",0,0,0,0,"0,00",0,0,0,0,0,0,0,"0,00",0,0,0,0,0
37,9.14549417249417,Fabiano ,2,LAT,"4,32",5,8,Palmeiras,1,"0,00",0,0,0,0,"0,00",0,0,1,0,0,1,1,"1,14",0,0,1,3,0
37,9.14549417249417,Matheus Cassini ,0,MEI,"2,00",0,0,Ponte Preta,2,"0,00",0,0,0,0,"0,00",0,0,0,0,0,0,0,"0,00",0,0,0,0,0
37,9.14549417249417,João Pedro ,0,MEI,"1,20",1,1,Atlético-PR,2,"-0,30",0,0,0,0,"-0,80",0,0,0,0,0,0,0,"-0,30",0,0,0,0,0
37,9.14549417249417,Allione ,3,MEI,"9,57",25,81,Bahia,3,"2,50",5,0,5,0,"0,50",0,0,27,1,7,34,0,"2,28",0,0,4,27,0
37,9.14549417249417,Ricardo Oliveira ,19,ATA,"10,94",23,26,Santos,4,"2,90",17,0,3,8,"-0,24",0,0,7,3,1,18,0,"4,14",0,0,20,32,0
37,9.14549417249417,Dudu ,9,ATA,"18,01",25,99,Palmeiras,3,"9,30",8,0,5,9,"1,07",0,0,22,0,5,94,0,"5,91",0,0,15,22,0
37,9.14549417249417,Bruno Henrique ,16,ATA,"14,55",27,92,Santos,3,"7,40",10,1,0,8,"0,15",0,0,33,1,11,82,0,"6,05",0,6,0,71,18
