round,fitness,name,position,team,situation,price,meatches,average,last_score,difference,disarms,goals,assists,no_goals,fouls_suffered,strikes_out,strikes_defended,strikes_post,difficult_defense,penalty_defense,own_goal,red_card,yellow_card,goal_suffered,penalty_lost,fouls_commited,offsides,wrong_pass
0,14.2,Marcelo Cabo ,0,TEC,"3,25",1,0,Atlético-GO,3,"2,60",0,0,0,0,"1,25",0,0,0,0,0,0,0,"2,60",0,0,0,0,0
0,14.2,Jean ,0,GOL,"6,15",1,1,Bahia,3,"1,70",0,0,0,0,"-0,85",0,2,0,0,0,0,0,"1,70",2,0,0,0,0
0,14.2,Cleberson ,0,ZAG,"2,69",1,4,Atlético-PR,3,"-1,20",0,0,0,0,"-2,31",0,0,0,0,0,0,0,"-1,20",0,0,0,0,0
0,14.2,Igor Rabello ,0,ZAG,"6,37",1,1,Botafogo,3,"6,00",0,0,0,0,"3,37",0,0,4,0,0,0,0,"6,00",0,0,0,1,0
0,14.2,Pará ,0,LAT,"9,34",1,1,Flamengo,3,"0,20",0,0,0,0,"-3,66",0,0,0,0,0,1,0,"0,20",0,0,0,0,0
0,14.2,Fagner Alemão ,0,LAT,"5,73",1,2,Avaí,3,"5,10",2,0,0,0,"2,73",0,0,1,0,0,0,1,"5,10",0,0,0,0,0
0,14.2,Ramiro ,2,MEI,"16,98",1,2,Grêmio,3,"17,00",0,0,1,2,"9,98",0,0,1,0,0,2,0,"17,00",0,0,0,1,0
0,14.2,Wellington ,0,MEI,"3,00",0,0,São Paulo,2,"0,00",0,0,0,0,"0,00",0,0,0,0,0,0,0,"0,00",0,0,0,0,0
0,14.2,Lucas Marques ,0,MEI,"1,00",0,0,Chapecoense,2,"0,00",0,0,0,0,"0,00",0,0,0,0,0,0,0,"0,00",0,0,0,0,0
0,14.2,Denilson ,0,ATA,"4,17",1,2,Avaí,3,"-0,10",0,0,0,0,"-1,83",0,0,0,0,0,1,0,"-0,10",0,0,0,0,0
0,14.2,Pedro Vitor ,0,ATA,"1,00",0,0,Sport,2,"0,00",0,0,0,0,"0,00",0,0,0,0,0,0,0,"0,00",0,0,0,0,0
0,14.2,Henrique Dourado ,0,ATA,"16,91",1,2,Fluminense,3,"15,90",0,0,0,2,"8,91",0,0,0,0,0,2,0,"15,90",0,0,0,1,0
1,14.2,Marcelo Cabo ,0,TEC,"3,25",1,0,Atlético-GO,3,"2,60",0,0,0,0,"1,25",0,0,0,0,0,0,0,"2,60",0,0,0,0,0
1,14.2,Jean ,0,GOL,"6,15",1,1,Bahia,3,"1,70",0,0,0,0,"-0,85",0,2,0,0,0,0,0,"1,70",2,0,0,0,0
1,14.2,Cleberson ,0,ZAG,"2,69",1,4,Atlético-PR,3,"-1,20",0,0,0,0,"-2,31",0,0,0,0,0,0,0,"-1,20",0,0,0,0,0
1,14.2,Igor Rabello ,0,ZAG,"6,37",1,1,Botafogo,3,"6,00",0,0,0,0,"3,37",0,0,4,0,0,0,0,"6,00",0,0,0,1,0
1,14.2,Pará ,0,LAT,"9,34",1,1,Flamengo,3,"0,20",0,0,0,0,"-3,66",0,0,0,0,0,1,0,"0,20",0,0,0,0,0
1,14.2,Fagner Alemão ,0,LAT,"5,73",1,2,Avaí,3,"5,10",2,0,0,0,"2,73",0,0,1,0,0,0,1,"5,10",0,0,0,0,0
1,14.2,Ramiro ,2,MEI,"16,98",1,2,Grêmio,3,"17,00",0,0,0,2,"9,98",0,0,1,0,0,2,0,"17,00",0,1,0,1,0
1,14.2,Wellington ,0,MEI,"3,00",0,0,São Paulo,2,"0,00",0,0,0,0,"0,00",0,0,0,0,0,0,0,"0,00",0,0,0,0,0
1,14.2,Lucas Marques ,0,MEI,"1,00",0,0,Chapecoense,2,"0,00",0,0,0,0,"0,00",0,0,0,0,0,0,0,"0,00",0,0,0,0,0
1,14.2,Denilson ,0,ATA,"4,17",1,2,Avaí,3,"-0,10",0,0,0,0,"-1,83",0,0,0,0,0,1,0,"-0,10",0,0,0,0,0
1,14.2,Pedro Vitor ,0,ATA,"1,00",0,0,Sport,2,"0,00",0,0,0,0,"0,00",0,0,0,0,0,0,0,"0,00",0,0,0,0,0
1,14.2,Henrique Dourado ,0,ATA,"16,91",1,2,Fluminense,3,"15,90",0,0,0,2,"8,91",0,0,0,0,0,2,0,"15,90",0,0,0,1,0
2,34.260000000000005,Jair Ventura ,0,TEC,"9,41",2,0,Botafogo,3,"8,36",0,0,0,0,"2,09",0,0,0,0,0,0,0,"4,86",0,0,0,0,0
2,34.260000000000005,Aranha ,0,GOL,"9,09",2,2,Ponte Preta,3,"2,00",0,0,0,0,"-0,39",0,2,0,0,0,0,1,"3,20",2,0,0,0,0
2,34.260000000000005,Bruno Rodrigo ,0,ZAG,"7,00",0,0,Grêmio,2,"0,00",0,0,0,0,"0,00",0,0,0,0,0,0,0,"0,00",0,0,0,0,0
2,34.260000000000005,Rodrigo Caio ,0,ZAG,"10,63",2,3,São Paulo,3,"7,30",0,0,1,0,"0,30",0,0,4,0,0,0,1,"3,45",0,0,0,4,0
2,34.260000000000005,Riuler ,0,LAT,"2,00",0,0,Atlético-PR,2,"0,00",0,0,0,0,"0,00",0,0,0,0,0,0,0,"0,00",0,0,0,0,0
2,34.260000000000005,Jean ,1,LAT,"19,24",1,4,Palmeiras,3,"0,00",1,0,0,1,"0,00",0,0,1,0,0,0,1,"15,20",0,0,0,1,2
2,34.260000000000005,Maycon ,1,MEI,"5,24",2,12,Corinthians,3,"1,80",0,0,0,0,"-0,70",0,0,3,0,0,1,0,"1,10",0,0,0,1,0
2,34.260000000000005,Fernando Bob ,0,MEI,"10,12",1,3,Ponte Preta,3,"8,10",0,0,0,0,"1,12",0,0,5,0,0,1,0,"8,10",0,0,0,0,0
2,34.260000000000005,Elias ,1,MEI,"15,35",2,4,Atlético-MG,3,"0,80",1,0,0,1,"-1,34",0,0,2,0,0,1,0,"5,20",0,0,0,1,0
2,34.260000000000005,Kelvin ,0,ATA,"5,79",2,7,Vasco,3,"5,70",1,0,0,0,"1,12",0,0,2,0,0,4,0,"2,65",0,0,3,1,0
2,34.260000000000005,Marcos Calazans ,0,ATA,"4,00",0,0,Fluminense,2,"0,00",0,0,0,0,"0,00",0,0,0,0,0,0,0,"0,00",0,0,0,0,0
2,34.260000000000005,Alecsandro ,0,ATA,"8,00",0,0,Coritiba,2,"0,00",0,0,0,0,"0,00",0,0,0,0,0,0,0,"0,00",0,0,0,0,0
3,34.260000000000005,Jair Ventura ,0,TEC,"10,57",3,0,Botafogo,3,"6,95",0,0,0,0,"1,16",0,0,0,0,0,0,0,"5,56",0,0,0,0,0
3,34.260000000000005,Aranha ,0,GOL,"9,92",3,2,Ponte Preta,3,"5,00",0,0,0,0,"0,83",0,5,0,0,0,0,1,"3,80",4,0,0,0,0
3,34.260000000000005,Bruno Rodrigo ,0,ZAG,"5,11",1,1,Grêmio,2,"-0,30",0,0,0,0,"-1,89",0,0,0,0,0,0,0,"-0,30",0,0,0,0,0
3,34.260000000000005,Rodrigo Caio ,0,ZAG,"10,60",3,9,São Paulo,3,"4,10",0,0,0,0,"-0,03",0,0,6,0,0,0,2,"3,67",0,2,0,5,0
3,34.260000000000005,Riuler ,0,LAT,"2,00",0,0,Atlético-PR,2,"0,00",0,0,0,0,"0,00",0,0,0,0,0,0,0,"0,00",0,0,0,0,0
3,34.260000000000005,Jean ,2,LAT,"16,51",2,10,Palmeiras,3,"-2,40",1,0,0,1,"-2,73",1,0,2,0,0,1,1,"6,40",0,0,2,1,0
3,34.260000000000005,Maycon ,2,MEI,"6,65",3,15,Corinthians,3,"5,90",0,0,0,0,"1,41",0,0,6,0,0,1,0,"2,70",0,0,1,1,0
3,34.260000000000005,Fernando Bob ,0,MEI,"10,12",1,3,Ponte Preta,5,"0,00",0,0,0,0,"0,00",0,0,5,0,0,1,0,"8,10",0,0,0,0,0
3,34.260000000000005,Elias ,1,MEI,"15,31",3,6,Atlético-MG,3,"3,80",1,0,0,1,"-0,04",0,0,4,0,0,3,0,"4,73",0,0,0,1,0
3,34.260000000000005,Kelvin ,0,ATA,"4,67",3,8,Vasco,3,"-0,80",2,0,0,0,"-1,12",0,0,2,0,0,5,0,"1,50",0,0,0,2,3
3,34.260000000000005,Marcos Calazans ,0,ATA,"4,00",0,0,Fluminense,2,"0,00",0,0,0,0,"0,00",0,0,0,0,0,0,0,"0,00",0,0,0,0,0
3,34.260000000000005,Alecsandro ,0,ATA,"4,40",1,1,Coritiba,2,"0,00",0,0,0,0,"0,00",1,0,0,0,0,1,0,"-3,30",0,0,0,0,0
4,14.75,Fábio Carille ,0,TEC,"9,79",4,0,Corinthians,3,"5,36",0,0,0,0,"0,73",0,0,0,0,0,0,0,"4,58",0,0,0,0,0
4,14.75,Magrão ,0,GOL,"0,76",4,0,Sport,3,"-2,00",0,0,0,0,"-0,36",0,5,1,0,0,0,0,"-0,33",9,0,0,0,0
4,14.75,Luis Caicedo ,0,ZAG,"5,75",2,2,Cruzeiro,2,"1,40",0,0,0,0,"-0,35",0,0,1,0,0,0,1,"3,05",0,0,0,0,0
4,14.75,Pedro Geromel ,1,ZAG,"11,54",3,8,Grêmio,3,"8,50",0,0,0,0,"1,40",0,0,4,0,0,2,3,"7,20",0,0,1,1,0
4,14.75,Bruno ,0,LAT,"6,11",1,0,São Paulo,2,"0,00",0,0,0,0,"-1,89",0,0,0,0,0,0,0,"0,00",0,0,0,0,0
4,14.75,Gustavo Santos ,0,LAT,"1,00",0,0,Avaí,2,"0,00",0,0,0,0,"0,00",0,0,0,0,0,0,0,"0,00",0,0,0,0,0
4,14.75,Vinícius ,0,MEI,"2,00",0,0,Sport,2,"0,00",0,0,0,0,"0,00",0,0,0,0,0,0,0,"0,00",0,0,0,0,0
4,14.75,Wendel ,2,MEI,"10,95",4,13,Fluminense,2,"1,20",0,0,0,0,"-0,06",0,0,5,0,1,13,0,"4,12",0,0,2,6,0
4,14.75,Deivid ,0,MEI,"7,00",0,0,Atlético-PR,2,"0,00",0,0,0,0,"0,00",0,0,0,0,0,0,0,"0,00",0,0,0,0,0
4,14.75,Arthur Gomes ,0,ATA,"2,00",0,0,Santos,1,"0,00",0,0,0,0,"0,00",0,0,0,0,0,0,0,"0,00",0,0,0,0,0
4,14.75,Bruno Henrique ,2,ATA,"11,01",4,18,Santos,4,"-6,60",2,1,1,0,"-2,53",0,0,2,1,2,9,0,"1,97",0,0,3,9,0
4,14.75,Roger ,2,ATA,"6,79",3,6,Botafogo,3,"2,60",4,0,0,0,"-0,13",0,0,3,0,1,2,0,"3,07",0,0,1,1,0
5,1.208333333333336,Ney Franco ,0,TEC,"2,28",1,0,Sport,3,"-0,77",0,0,0,0,"-1,72",0,0,0,0,0,0,0,"-0,77",0,0,0,0,0
5,1.208333333333336,Marcos Felipe  ,0,GOL,"3,00",0,0,Fluminense,2,"0,00",0,0,0,0,"0,00",0,0,0,0,0,0,0,"0,00",0,0,0,0,0
5,1.208333333333336,Victor Ramos ,0,ZAG,"8,10",5,17,Chapecoense,3,"0,80",0,0,1,0,"-0,46",0,0,7,0,0,0,3,"3,66",0,0,0,3,0
5,1.208333333333336,Luan ,0,ZAG,"7,00",0,0,Palmeiras,1,"0,00",0,0,0,0,"0,00",0,0,0,0,0,0,0,"0,00",0,0,0,0,0
5,1.208333333333336,Reinaldo ,2,LAT,"14,57",5,30,Chapecoense,3,"9,00",0,0,0,2,"0,90",0,0,10,0,0,4,3,"7,88",0,0,0,6,0
5,1.208333333333336,Alan Ruschel ,0,LAT,"3,00",0,0,Chapecoense,2,"0,00",0,0,0,0,"0,00",0,0,0,0,0,0,0,"0,00",0,0,0,0,0
5,1.208333333333336,Matheus Sávio ,1,MEI,"11,39",1,0,Flamengo,3,"12,10",0,0,0,1,"7,39",0,0,2,0,0,0,0,"12,10",0,0,0,0,0
5,1.208333333333336,André Castro ,0,MEI,"1,57",4,4,Atlético-GO,3,"1,80",0,0,0,0,"0,38",0,0,3,0,0,1,0,"0,73",0,0,0,3,0
5,1.208333333333336,Rodrigo Lindoso ,0,MEI,"9,77",3,9,Botafogo,3,"0,80",0,0,0,1,"-0,78",0,0,8,0,0,3,0,"6,47",0,0,0,2,0
5,1.208333333333336,Luan ,4,ATA,"25,71",4,16,Grêmio,3,"29,90",1,0,0,3,"6,05",0,0,5,0,4,12,0,"13,75",0,0,2,6,0
5,1.208333333333336,Kayke ,0,ATA,"2,22",3,6,Santos,3,"-1,70",1,0,0,0,"-0,79",0,0,0,0,0,2,0,"-0,93",0,0,0,3,0
5,1.208333333333336,Kleber ,5,ATA,"12,96",5,16,Coritiba,3,"1,00",3,0,0,0,"-0,60",0,0,3,0,1,14,0,"3,66",0,0,0,10,9
6,22.825000000000006,Renato Gaúcho ,0,TEC,"16,21",6,0,Grêmio,3,"7,91",0,0,0,0,"0,46",0,0,0,0,0,0,0,"6,43",0,0,0,0,0
6,22.825000000000006,Aranha ,0,GOL,"9,61",6,2,Ponte Preta,3,"-4,00",0,0,0,0,"-1,85",0,10,0,0,0,1,2,"3,65",9,0,0,0,0
6,22.825000000000006,Victor Ramos ,1,ZAG,"8,20",6,17,Chapecoense,3,"1,90",0,0,1,0,"0,10",0,0,8,0,0,0,3,"3,37",0,0,1,6,0
6,22.825000000000006,Marcio ,1,ZAG,"6,66",5,10,Coritiba,3,"-0,30",1,0,0,1,"-1,33",0,0,5,0,1,5,3,"6,14",0,1,0,7,0
6,22.825000000000006,Bruno Pacheco ,0,LAT,"7,36",6,18,Atlético-GO,3,"1,60",0,0,1,0,"-0,33",0,0,5,0,1,12,1,"2,43",0,0,1,7,0
6,22.825000000000006,Ezequiel  ,0,LAT,"6,60",2,3,Cruzeiro,3,"9,30",0,0,1,0,"2,28",0,0,4,0,0,3,1,"4,20",0,0,0,4,0
6,22.825000000000006,Diego Rosa ,0,MEI,"8,77",1,1,Bahia,1,"6,40",0,0,0,0,"2,77",0,0,1,0,1,1,0,"6,40",0,0,0,1,0
6,22.825000000000006,Thiago Neves ,3,MEI,"15,89",4,21,Cruzeiro,3,"6,20",1,0,0,1,"0,94",0,0,3,0,0,3,0,"3,48",0,1,0,4,8
6,22.825000000000006,Bruno Silva ,2,MEI,"10,83",5,19,Botafogo,3,"2,70",0,0,0,2,"-0,17",0,0,12,0,0,10,0,"5,32",0,4,0,9,2
6,22.825000000000006,Ricardo Oliveira ,6,ATA,"11,40",4,4,Santos,2,"0,00",1,0,0,0,"0,00",0,0,0,1,0,5,0,"1,25",0,1,0,7,2
6,22.825000000000006,Richarlison  ,3,ATA,"13,87",4,7,Fluminense,1,"0,00",6,0,1,2,"0,00",0,0,7,0,1,9,0,"7,35",0,0,2,10,0
6,22.825000000000006,Robinho ,1,ATA,"14,68",5,19,Atlético-MG,3,"1,00",3,0,1,1,"-0,99",0,0,9,0,0,6,0,"3,46",0,0,1,3,0
7,20.86166666666667,Cuca ,0,TEC,"13,03",7,0,Palmeiras,3,"2,85",0,0,0,0,"-0,48",0,0,0,0,0,0,0,"3,42",0,0,0,0,0
7,20.86166666666667,Vanderlei ,0,GOL,"21,15",7,3,Santos,3,"26,00",0,0,0,0,"4,31",0,18,0,0,0,0,4,"9,73",6,0,1,0,0
7,20.86166666666667,Frazan ,0,ZAG,"2,00",0,0,Fluminense,2,"0,00",0,0,0,0,"0,00",0,0,0,0,0,0,0,"0,00",0,0,0,0,0
7,20.86166666666667,Luis Caicedo ,0,ZAG,"5,75",2,2,Cruzeiro,2,"0,00",0,0,0,0,"0,00",0,0,1,0,0,0,1,"3,05",0,0,0,0,0
7,20.86166666666667,João Lucas ,0,LAT,"10,12",7,28,Ponte Preta,3,"-1,00",1,0,0,0,"-0,76",0,0,8,0,1,4,2,"3,10",0,0,1,2,0
7,20.86166666666667,Ezequiel  ,0,LAT,"5,01",3,6,Cruzeiro,3,"-0,70",0,0,1,0,"-1,59",0,0,5,0,0,4,1,"2,57",0,0,0,8,0
7,20.86166666666667,Cazares ,4,MEI,"7,64",4,13,Atlético-MG,3,"0,00",0,0,0,0,"0,00",0,0,3,0,1,1,0,"3,12",0,0,5,4,0
7,20.86166666666667,Lucas Romero ,3,MEI,"7,05",6,15,Cruzeiro,3,"6,20",0,0,0,0,"0,56",0,0,11,0,1,5,0,"3,55",0,0,0,5,0
7,20.86166666666667,Nikão ,3,MEI,"8,48",6,17,Atlético-PR,3,"2,50",1,0,0,0,"-0,33",0,0,5,1,0,11,0,"3,25",0,0,6,1,0
7,20.86166666666667,Everaldo ,7,ATA,"13,01",7,15,Atlético-GO,3,"21,10",1,0,0,4,"4,73",0,0,2,0,1,11,0,"7,04",0,0,8,9,0
7,20.86166666666667,Jô ,2,ATA,"11,57",7,18,Corinthians,3,"-2,10",10,0,0,4,"-1,26",0,0,1,0,2,9,0,"5,31",0,0,4,12,0
7,20.86166666666667,Éderson ,0,ATA,"4,00",0,0,Vasco,2,"0,00",0,0,0,0,"0,00",0,0,0,0,0,0,0,"0,00",0,0,0,0,0
8,34.446666666666665,Vagner Mancini ,0,TEC,"8,51",8,0,Chapecoense,3,"1,58",0,0,0,0,"-0,31",0,0,0,0,0,0,0,"3,28",0,0,0,0,0
8,34.446666666666665,Fernando Prass ,0,GOL,"16,60",8,4,Palmeiras,3,"8,00",0,0,0,0,"0,53",0,18,0,0,0,1,2,"5,91",8,0,0,0,0
8,34.446666666666665,Thiago Heleno ,1,ZAG,"8,28",6,12,Atlético-PR,3,"0,80",0,0,2,1,"-1,11",0,0,7,0,0,5,2,"3,58",0,0,0,8,0
8,34.446666666666665,Vitor Hugo ,0,ZAG,"12,00",0,0,Palmeiras,2,"0,00",0,0,0,0,"0,00",0,0,0,0,0,0,0,"0,00",0,0,0,0,0
8,34.446666666666665,João Lucas ,0,LAT,"11,52",8,38,Ponte Preta,3,"6,60",1,0,0,0,"1,40",0,0,11,0,1,5,3,"3,54",0,0,1,4,0
8,34.446666666666665,Egídio ,0,LAT,"6,44",3,13,Palmeiras,3,"5,80",0,0,0,0,"0,81",0,0,7,0,0,3,1,"4,33",0,0,1,5,0
8,34.446666666666665,Edson ,4,MEI,"14,09",5,11,Bahia,3,"0,00",1,1,0,1,"0,00",0,0,5,0,1,5,0,"3,70",0,0,1,1,0
8,34.446666666666665,Lucas Romero ,4,MEI,"8,09",7,18,Cruzeiro,3,"8,80",0,0,0,0,"1,04",0,0,16,0,1,6,0,"4,30",0,0,0,5,0
8,34.446666666666665,Rodriguinho ,3,MEI,"15,20",5,16,Corinthians,3,"4,50",1,0,1,1,"-1,37",0,0,6,0,2,12,0,"5,50",0,0,2,7,0
8,34.446666666666665,Henrique Almeida ,7,ATA,"14,64",8,20,Coritiba,3,"2,00",8,0,0,2,"-0,37",0,0,9,1,0,17,0,"4,91",0,1,0,6,6
8,34.446666666666665,Henrique Almeida ,7,ATA,"14,64",8,20,Coritiba,3,"2,00",8,0,1,2,"-0,37",0,0,9,1,0,17,0,"4,91",0,0,6,6,0
8,34.446666666666665,Roger ,6,ATA,"8,39",7,23,Botafogo,3,"5,90",11,0,0,2,"0,85",0,0,6,0,1,9,0,"4,00",0,0,0,7,4
9,21.575555555555557,Pachequinho ,0,TEC,"9,56",9,0,Coritiba,3,"2,62",0,0,0,0,"-0,09",0,0,0,0,0,0,0,"3,92",0,0,0,0,0
9,21.575555555555557,Aranha ,0,GOL,"12,36",9,4,Ponte Preta,3,"8,50",0,0,0,0,"-0,17",0,15,0,0,0,2,4,"4,76",11,0,0,0,0
9,21.575555555555557,Frazan ,0,ZAG,"2,00",0,0,Fluminense,2,"0,00",0,0,0,0,"0,00",0,0,0,0,0,0,0,"0,00",0,0,0,0,0
9,21.575555555555557,Pedro Geromel ,2,ZAG,"13,87",7,17,Grêmio,3,"7,80",0,0,1,0,"0,90",0,0,15,0,1,5,6,"8,12",0,0,2,5,0
9,21.575555555555557,João Lucas ,0,LAT,"10,70",9,40,Ponte Preta,3,"1,40",1,0,1,0,"-0,82",0,0,11,0,1,5,4,"3,30",0,0,1,6,0
9,21.575555555555557,Ezequiel  ,0,LAT,"6,05",4,8,Cruzeiro,3,"0,00",0,0,2,0,"0,00",0,0,9,0,0,6,1,"3,10",0,0,0,9,0
9,21.575555555555557,Cazares ,5,MEI,"9,15",6,20,Atlético-MG,3,"7,80",1,0,0,1,"0,50",0,0,3,0,3,2,0,"4,68",0,0,5,6,0
9,21.575555555555557,Lucas Romero ,4,MEI,"6,92",8,21,Cruzeiro,3,"0,80",0,0,0,0,"-1,17",0,0,17,0,1,7,0,"3,86",0,0,0,6,0
9,21.575555555555557,Nikão ,4,MEI,"8,52",8,24,Atlético-PR,3,"3,70",1,0,1,0,"0,78",0,0,6,1,1,13,0,"2,79",0,0,7,6,0
9,21.575555555555557,Vinicius Júnior ,0,ATA,"1,70",1,2,Flamengo,2,"-0,60",0,0,0,0,"-1,30",0,0,0,0,0,0,0,"-0,60",0,0,0,0,0
9,21.575555555555557,Andres Chavez ,0,ATA,"7,00",0,0,São Paulo,2,"0,00",0,0,0,0,"0,00",0,0,0,0,0,0,0,"0,00",0,0,0,0,0
9,21.575555555555557,Kayke ,2,ATA,"4,46",7,23,Santos,3,"-1,80",4,0,0,3,"-0,44",0,0,1,0,0,4,0,"2,89",0,0,3,6,0
10,20.395,Cuca ,0,TEC,"13,45",10,0,Palmeiras,3,"0,00",0,0,0,0,"-0,50",0,0,0,0,0,0,0,"3,84",0,0,0,0,0
10,20.395,Wallace ,0,GOL,"1,00",0,0,Vitória,2,"0,00",0,0,0,0,"0,00",0,0,0,0,0,0,0,"0,00",0,0,0,0,0
10,20.395,David Braz ,0,ZAG,"11,83",8,0,Santos,3,"0,00",0,0,0,0,"0,00",0,0,0,0,0,0,0,"4,84",0,0,0,0,0
10,20.395,Rodrigo Caio ,0,ZAG,"9,14",6,0,São Paulo,3,"0,00",0,0,0,0,"-0,68",0,0,0,0,0,0,0,"3,02",0,0,0,0,0
10,20.395,Fábio Santos ,0,LAT,"1,81",8,0,Atlético-MG,3,"0,00",0,0,0,0,"0,00",0,0,0,0,0,0,0,"0,91",0,0,0,0,0
10,20.395,Trauco ,0,LAT,"6,48",6,0,Flamengo,3,"0,00",0,0,0,0,"-0,15",0,0,0,0,0,0,0,"3,43",0,0,0,0,0
10,20.395,Naldo ,0,MEI,"7,59",4,0,Ponte Preta,2,"0,00",0,0,0,0,"0,00",0,0,0,0,0,0,0,"5,12",0,0,0,0,0
10,20.395,Zé Rafael  ,0,MEI,"20,70",10,0,Bahia,3,"0,00",0,0,0,0,"1,14",0,0,0,0,0,0,0,"7,29",0,0,0,0,0
10,20.395,Luiz Antonio  ,0,MEI,"8,22",10,0,Chapecoense,3,"0,00",0,0,0,0,"-0,77",0,0,0,0,0,0,0,"2,49",0,0,0,0,0
10,20.395,Everaldo ,0,ATA,"9,58",10,0,Atlético-GO,3,"0,00",0,0,0,0,"0,08",0,0,0,0,0,0,0,"4,83",0,0,0,0,0
10,20.395,Jô ,0,ATA,"11,05",10,0,Corinthians,3,"0,00",0,0,0,0,"-1,87",0,0,0,0,0,0,0,"4,12",0,0,0,0,0
10,20.395,Éderson ,0,ATA,"4,00",0,0,Vasco,2,"0,00",0,0,0,0,"0,00",0,0,0,0,0,0,0,"0,00",0,0,0,0,0
11,4.8988311688311645,Cuca ,0,TEC,"13,66",11,0,Palmeiras,3,"3,86",0,0,0,0,"0,21",0,0,0,0,0,0,0,"3,84",0,0,0,0,0
11,4.8988311688311645,Wallace ,0,GOL,"1,00",0,0,Vitória,2,"0,00",0,0,0,0,"0,00",0,0,0,0,0,0,0,"0,00",0,0,0,0,0
11,4.8988311688311645,David Braz ,3,ZAG,"11,06",9,27,Santos,3,"1,60",1,0,0,1,"-0,77",0,0,9,0,0,4,6,"4,48",0,3,0,7,1
11,4.8988311688311645,Rodrigo Caio ,0,ZAG,"9,00",7,17,São Paulo,3,"0,90",0,0,0,0,"-0,14",0,0,13,0,0,4,2,"2,72",0,3,0,8,0
11,4.8988311688311645,Fábio Santos ,3,LAT,"1,72",9,32,Atlético-MG,3,"0,10",2,0,4,0,"-0,09",0,0,7,0,0,16,2,"0,82",0,0,0,12,0
11,4.8988311688311645,Trauco ,4,LAT,"6,91",7,28,Flamengo,3,"4,80",0,0,0,1,"0,43",0,0,5,0,0,4,4,"3,63",0,2,0,13,3
11,4.8988311688311645,Nenén ,1,MEI,"2,45",7,3,Chapecoense,2,"0,00",0,0,0,0,"0,00",0,0,4,0,0,4,0,"1,37",0,0,2,2,0
11,4.8988311688311645,Zé Rafael  ,8,MEI,"19,68",11,28,Bahia,3,"2,60",2,0,0,1,"-1,02",0,0,27,0,3,30,0,"6,86",0,2,0,23,11
11,4.8988311688311645,Luiz Antonio  ,2,MEI,"8,22",10,20,Chapecoense,3,"0,00",1,0,0,2,"0,00",0,0,5,1,1,3,0,"2,49",0,2,0,13,6
11,4.8988311688311645,Everaldo ,9,ATA,"8,90",11,24,Atlético-GO,3,"-2,30",3,0,0,4,"-0,68",2,0,2,1,1,17,0,"4,18",0,0,10,14,0
11,4.8988311688311645,Jô ,4,ATA,"12,14",11,24,Corinthians,3,"3,80",12,0,2,6,"1,09",1,0,2,0,2,16,0,"4,09",0,0,5,23,0
11,4.8988311688311645,Índio ,0,ATA,"2,00",0,0,Sport,2,"0,00",0,0,0,0,"0,00",0,0,0,0,0,0,0,"0,00",0,0,0,0,0
12,14.142499999999998,Pachequinho ,0,TEC,"9,24",12,0,Coritiba,3,"0,16",0,0,0,0,"-0,65",0,0,0,0,0,0,0,"3,44",0,0,0,0,0
12,14.142499999999998,Wallace ,0,GOL,"1,00",0,0,Vitória,2,"0,00",0,0,0,0,"0,00",0,0,0,0,0,0,0,"0,00",0,0,0,0,0
12,14.142499999999998,Reginaldo ,1,ZAG,"5,39",8,23,Fluminense,3,"5,90",0,0,0,0,"0,58",0,0,20,0,0,4,1,"4,39",0,0,0,11,0
12,14.142499999999998,Lucas Fonseca ,0,ZAG,"4,34",8,10,Bahia,3,"0,20",0,1,0,0,"0,23",0,0,5,0,0,8,3,"2,40",0,0,0,3,1
12,14.142499999999998,Bruno Pacheco ,1,LAT,"7,54",11,24,Atlético-GO,3,"3,10",0,0,2,0,"1,12",0,0,9,0,1,21,1,"2,07",0,0,1,13,0
12,14.142499999999998,Henrique ,1,LAT,"8,17",12,29,Vasco,3,"1,00",1,0,1,0,"-0,57",0,0,17,0,2,17,2,"3,61",0,0,2,13,0
12,14.142499999999998,Zé Rafael  ,8,MEI,"20,55",12,28,Bahia,3,"7,00",2,0,0,1,"0,87",0,0,27,0,3,30,0,"6,87",0,2,0,23,11
12,14.142499999999998,Tiago Real ,1,MEI,"4,95",10,25,Coritiba,3,"0,40",1,0,0,0,"-0,42",0,0,6,1,2,5,0,"1,38",0,2,0,13,5
12,14.142499999999998,Jucilei ,4,MEI,"15,66",12,34,São Paulo,3,"9,60",0,0,0,1,"1,04",0,0,33,0,0,26,0,"5,86",0,0,0,20,1
12,14.142499999999998,Rafael Sobis ,4,ATA,"10,82",6,7,Cruzeiro,3,"-0,70",1,0,2,2,"-0,16",0,0,0,0,1,8,0,"3,92",0,0,6,6,0
12,14.142499999999998,Pablo ,3,ATA,"2,65",6,21,Atlético-PR,2,"0,00",5,0,3,0,"0,00",0,0,1,0,0,8,0,"-1,75",0,0,0,7,0
12,14.142499999999998,Lucas Pratto ,22,ATA,"13,81",12,34,São Paulo,3,"-6,40",1,0,1,3,"-2,09",0,0,5,0,2,9,0,"3,82",0,0,10,15,0
13,14.142499999999998,Pachequinho ,0,TEC,"10,03",13,0,Coritiba,3,"4,59",0,0,0,0,"0,79",0,0,0,0,0,0,0,"3,53",0,0,0,0,0
13,14.142499999999998,Wallace ,0,GOL,"1,00",0,0,Vitória,2,"0,00",0,0,0,0,"0,00",0,0,0,0,0,0,0,"0,00",0,0,0,0,0
13,14.142499999999998,Reginaldo ,1,ZAG,"5,48",9,26,Fluminense,3,"4,90",0,0,0,0,"0,09",0,0,24,0,0,5,1,"4,45",0,0,0,12,0
13,14.142499999999998,Lucas Fonseca ,0,ZAG,"6,99",9,10,Bahia,3,"13,30",0,1,1,0,"2,65",0,0,6,0,0,11,3,"3,61",0,0,1,5,0
13,14.142499999999998,Bruno Pacheco ,1,LAT,"9,25",12,26,Atlético-GO,3,"11,00",0,0,0,0,"1,71",0,0,10,0,1,26,1,"2,81",0,2,0,14,1
13,14.142499999999998,Henrique ,1,LAT,"8,17",12,32,Vasco,2,"0,00",2,0,0,0,"0,00",0,0,19,0,2,18,2,"3,61",0,1,0,16,2
13,14.142499999999998,Zé Rafael  ,10,MEI,"18,93",13,32,Bahia,3,"-1,50",2,0,2,1,"-1,62",0,0,31,0,3,32,0,"6,23",0,0,11,25,0
13,14.142499999999998,Tiago Real ,2,MEI,"4,95",10,26,Coritiba,5,"0,00",1,0,2,0,"0,00",0,0,6,1,2,5,0,"1,38",0,0,5,13,0
13,14.142499999999998,Jucilei ,4,MEI,"15,93",13,37,São Paulo,3,"9,10",0,0,0,1,"0,27",0,0,38,0,0,30,0,"6,11",0,0,1,20,0
13,14.142499999999998,Rafael Sobis ,5,ATA,"10,62",7,10,Cruzeiro,3,"-0,70",1,0,0,2,"-0,20",0,0,0,0,1,9,0,"3,26",0,2,0,8,6
13,14.142499999999998,Pablo ,3,ATA,"2,65",6,21,Atlético-PR,2,"0,00",5,0,0,0,"0,00",0,0,1,0,0,8,0,"-1,75",0,3,0,7,0
13,14.142499999999998,Lucas Pratto ,23,ATA,"16,39",13,36,São Paulo,3,"9,00",2,0,0,3,"2,58",1,0,5,0,2,10,0,"4,22",0,2,0,17,10
14,16.605677655677653,Roger Machado  ,0,TEC,"10,98",14,0,Atlético-MG,3,"3,25",0,0,0,0,"0,27",0,0,0,0,0,0,0,"2,96",0,0,0,0,0
14,16.605677655677653,Douglas Friedrich ,0,GOL,"8,02",5,0,Avaí,3,"4,50",0,0,1,0,"1,14",0,17,0,0,0,1,3,"13,60",4,0,0,0,1
14,16.605677655677653,Reginaldo ,1,ZAG,"4,52",10,30,Fluminense,3,"-0,90",0,0,0,0,"-0,96",0,0,27,0,0,7,1,"3,92",0,0,0,12,0
14,16.605677655677653,Lucas Fonseca ,0,ZAG,"4,93",10,12,Bahia,3,"-0,20",0,1,0,0,"-2,06",0,0,8,0,1,12,4,"3,23",0,1,0,5,1
14,16.605677655677653,Bruno Pacheco ,1,LAT,"7,40",13,28,Atlético-GO,3,"-0,70",0,0,2,0,"-1,85",0,0,13,0,2,31,1,"2,54",0,0,1,16,0
14,16.605677655677653,Henrique ,1,LAT,"8,17",12,32,Vasco,2,"0,00",2,0,1,0,"0,00",0,0,19,0,2,18,2,"3,61",0,0,2,16,0
14,16.605677655677653,Zé Rafael  ,10,MEI,"18,93",13,32,Bahia,4,"0,00",2,0,0,1,"0,00",0,0,31,0,3,33,0,"6,23",0,3,0,27,12
14,16.605677655677653,Tiago Real ,2,MEI,"4,95",10,26,Coritiba,5,"0,00",1,0,0,0,"0,00",0,0,6,1,2,5,0,"1,38",0,2,0,13,5
14,16.605677655677653,Jucilei ,5,MEI,"14,02",14,39,São Paulo,3,"-2,00",0,0,0,1,"-1,91",0,0,43,0,0,32,0,"5,53",0,0,0,21,1
14,16.605677655677653,Rafael Sobis ,6,ATA,"10,13",8,13,Cruzeiro,3,"-2,30",1,0,2,2,"-0,49",0,0,0,0,1,9,0,"2,56",0,0,6,9,0
14,16.605677655677653,Pablo ,3,ATA,"2,53",7,21,Atlético-PR,3,"-1,50",5,0,3,0,"-0,12",0,0,1,0,0,8,0,"-1,71",0,0,0,7,0
14,16.605677655677653,Lucas Pratto ,23,ATA,"15,44",14,41,São Paulo,3,"2,70",2,0,2,4,"-0,95",1,0,5,0,2,12,0,"4,11",0,0,12,18,0
15,17.91934343434343,Jair Ventura ,0,TEC,"11,57",15,0,Botafogo,3,"4,93",0,0,0,0,"-0,09",0,0,0,0,0,0,0,"4,18",0,0,0,0,0
15,17.91934343434343,Rafael ,0,GOL,"10,00",0,0,Cruzeiro,2,"0,00",0,0,0,0,"0,00",0,0,0,0,0,0,0,"0,00",0,0,0,0,0
15,17.91934343434343,Kanu ,5,ZAG,"8,61",9,27,Vitória,3,"5,90",3,0,3,2,"0,92",0,0,14,0,1,5,2,"4,02",0,1,1,8,0
15,17.91934343434343,Emerson Silva ,1,ZAG,"6,08",1,1,Botafogo,3,"0,00",0,0,0,0,"0,00",0,0,3,0,0,4,0,"6,50",0,0,0,2,0
15,17.91934343434343,Zeca ,1,LAT,"11,45",2,1,Santos,5,"0,00",0,0,0,0,"0,00",0,0,0,0,0,1,1,"2,45",0,0,0,2,0
15,17.91934343434343,Buffarini ,1,LAT,"7,05",3,10,São Paulo,2,"0,00",0,0,0,0,"0,00",0,0,3,0,0,4,1,"2,43",0,0,0,5,0
15,17.91934343434343,Orejuela ,0,MEI,"9,56",12,22,Fluminense,3,"1,20",0,0,0,0,"0,31",0,0,19,0,0,21,0,"2,18",0,2,0,12,0
15,17.91934343434343,Thiago Neves ,8,MEI,"18,77",12,49,Cruzeiro,3,"11,40",3,0,1,5,"1,37",0,0,10,1,2,26,0,"6,78",0,0,18,15,0
15,17.91934343434343,Cazares ,10,MEI,"8,96",11,39,Atlético-MG,3,"2,30",1,0,0,2,"-0,23",0,0,3,0,5,7,0,"4,45",0,0,0,13,11
15,17.91934343434343,Henrique Almeida ,13,ATA,"14,16",15,35,Coritiba,3,"0,90",13,0,0,4,"-0,27",1,0,13,1,1,27,0,"4,09",0,2,0,19,10
15,17.91934343434343,Luan ,13,ATA,"22,49",12,57,Grêmio,3,"0,00",3,0,1,5,"0,00",1,0,20,0,6,26,0,"8,92",0,0,13,16,0
15,17.91934343434343,Wellington Nem ,2,ATA,"7,90",9,7,São Paulo,3,"3,90",4,0,0,1,"0,86",0,0,5,0,0,19,0,"1,70",0,2,0,10,1
16,6.999393939393936,Mano Menezes ,0,TEC,"12,30",16,0,Cruzeiro,3,"2,41",0,0,0,0,"0,01",0,0,0,0,0,0,0,"3,66",0,0,0,0,0
16,6.999393939393936,Giovanni ,0,GOL,"4,47",1,0,Atlético-MG,3,"-1,30",0,0,0,0,"-1,53",0,0,0,0,0,0,0,"-1,30",0,0,0,0,0
16,6.999393939393936,David Braz ,3,ZAG,"12,47",14,36,Santos,3,"9,30",1,0,4,1,"1,19",0,0,9,0,0,7,9,"4,31",0,0,1,9,0
16,6.999393939393936,Rodrigo Caio ,1,ZAG,"8,94",12,25,São Paulo,3,"-0,30",1,0,4,0,"-0,90",0,0,20,0,0,7,3,"2,67",0,0,0,10,0
16,6.999393939393936,Matheus Ribeiro ,1,LAT,"5,76",4,6,Santos,2,"0,00",0,0,0,0,"0,00",0,0,2,0,0,1,4,"5,20",0,1,0,2,1
16,6.999393939393936,Trauco ,6,LAT,"6,46",11,45,Flamengo,3,"2,70",0,0,3,1,"0,16",0,0,8,0,0,5,5,"2,82",0,0,3,17,0
16,6.999393939393936,Danilo Barcelos ,0,MEI,"7,00",0,0,Atlético-MG,2,"0,00",0,0,0,0,"0,00",0,0,0,0,0,0,0,"0,00",0,0,0,0,0
16,6.999393939393936,Zé Rafael  ,11,MEI,"19,82",15,34,Bahia,3,"5,80",2,0,3,1,"0,04",0,0,34,0,3,40,0,"6,27",0,0,12,30,0
16,6.999393939393936,Luiz Antonio  ,2,MEI,"8,51",15,26,Chapecoense,3,"2,00",1,0,2,2,"0,44",0,0,5,2,1,5,0,"2,10",0,0,9,15,0
16,6.999393939393936,Miller Bolaños ,0,ATA,"10,62",2,6,Grêmio,5,"0,00",0,0,0,0,"0,00",0,0,1,0,0,1,0,"-0,30",0,0,0,2,0
16,6.999393939393936,André ,11,ATA,"10,57",15,34,Sport,3,"1,20",10,0,2,8,"-2,81",0,0,13,1,1,26,0,"5,75",0,0,4,30,0
16,6.999393939393936,Muriqui ,0,ATA,"5,00",0,0,Vasco,2,"0,00",0,0,0,0,"0,00",0,0,0,0,0,0,0,"0,00",0,0,0,0,0
17,23.121194246929544,Mano Menezes ,0,TEC,"12,31",1,0,Cruzeiro,3,"5,40",0,0,0,0,"0,31",0,0,0,0,0,0,0,"5,40",0,0,0,0,0
17,23.121194246929544,Douglas Friedrich ,0,GOL,"7,74",8,0,Avaí,3,"-3,50",0,0,1,0,"-3,87",0,26,0,0,0,3,5,"11,94",7,0,0,0,1
17,23.121194246929544,Marllon ,3,ZAG,"12,22",16,28,Ponte Preta,3,"0,00",0,0,2,0,"0,00",0,0,22,1,0,18,7,"4,54",0,0,1,6,0
17,23.121194246929544,Roger Carvalho ,0,ZAG,"5,38",1,2,Atlético-GO,3,"1,60",0,0,0,0,"-0,62",0,0,1,0,0,3,0,"1,60",0,0,0,2,0
17,23.121194246929544,João Paulo ,0,LAT,"4,00",0,0,Avaí,2,"0,00",0,0,0,0,"0,00",0,0,0,0,0,0,0,"0,00",0,0,0,0,0
17,23.121194246929544,Raul Prata ,0,LAT,"4,00",0,0,Sport,2,"0,00",0,0,0,0,"0,00",0,0,0,0,0,0,0,"0,00",0,0,0,0,0
17,23.121194246929544,Arthur ,0,MEI,"10,10",14,30,Grêmio,3,"0,00",0,0,2,1,"0,00",0,0,35,0,0,28,0,"4,64",0,0,1,9,0
17,23.121194246929544,Jucilei ,6,MEI,"13,65",17,49,São Paulo,3,"-0,30",0,0,0,1,"-0,35",0,0,46,0,0,36,0,"4,77",0,0,1,27,0
17,23.121194246929544,Diego ,11,MEI,"18,81",13,56,Flamengo,3,"-2,20",5,0,0,4,"-1,27",1,0,17,0,2,46,0,"5,67",0,1,0,16,5
17,23.121194246929544,Lucas Barrios ,0,ATA,"9,48",1,1,Grêmio,3,"3,40",0,0,0,0,"-0,52",0,0,1,0,0,3,0,"3,40",0,0,1,1,0
17,23.121194246929544,Henrique Almeida ,2,ATA,"13,30",1,5,Coritiba,3,"11,80",1,0,0,1,"6,30",0,0,2,0,0,2,0,"11,80",0,0,0,0,0
17,23.121194246929544,Jô ,8,ATA,"13,52",17,40,Corinthians,3,"8,40",17,0,2,10,"1,43",1,0,3,0,2,21,0,"4,65",0,0,11,30,0
18,23.121194246929544,Mano Menezes ,0,TEC,"13,18",18,0,Cruzeiro,3,"6,57",0,0,0,0,"0,80",0,0,0,0,0,0,0,"3,83",0,0,0,0,0
18,23.121194246929544,Douglas Friedrich ,0,GOL,"6,97",9,0,Avaí,3,"-7,00",0,0,0,0,"-0,77",0,27,0,0,0,3,5,"9,84",12,1,1,0,0
18,23.121194246929544,Marllon ,3,ZAG,"12,02",17,31,Ponte Preta,3,"3,50",0,0,0,0,"-0,20",0,0,24,1,0,20,7,"4,48",0,2,0,6,1
18,23.121194246929544,Roger Carvalho ,10,ZAG,"7,54",18,40,Atlético-GO,3,"0,10",0,0,0,0,"-0,23",0,0,23,1,1,31,1,"2,73",0,0,0,28,0
18,23.121194246929544,João Paulo ,0,LAT,"4,18",2,5,Avaí,2,"0,00",0,0,0,0,"0,00",0,0,1,0,0,1,1,"2,85",0,0,0,0,0
18,23.121194246929544,Raul Prata ,2,LAT,"3,71",4,16,Sport,2,"0,00",0,0,1,0,"0,00",0,0,5,0,0,5,2,"3,28",0,0,0,5,0
18,23.121194246929544,Arthur ,0,MEI,"9,66",15,32,Grêmio,1,"3,80",0,0,0,1,"-0,44",0,0,37,0,0,32,0,"4,58",0,2,0,11,1
18,23.121194246929544,Jucilei ,7,MEI,"14,54",18,50,São Paulo,3,"3,80",0,0,0,1,"0,89",0,0,48,0,0,36,0,"4,72",0,0,0,27,1
18,23.121194246929544,Diego ,11,MEI,"19,83",14,58,Flamengo,3,"2,80",5,0,2,4,"1,02",1,0,19,0,2,49,0,"5,46",0,0,6,17,0
18,23.121194246929544,Lucas Barrios ,2,ATA,"9,41",10,16,Grêmio,2,"0,00",6,0,0,4,"0,00",0,0,6,0,1,13,0,"3,88",0,3,0,15,5
18,23.121194246929544,Henrique Almeida ,14,ATA,"14,46",17,43,Coritiba,1,"0,00",14,0,3,5,"0,00",1,0,16,1,1,32,0,"4,25",0,0,11,22,0
18,23.121194246929544,Jô ,10,ATA,"13,73",18,42,Corinthians,3,"7,00",21,0,0,11,"0,21",1,0,4,0,2,23,0,"4,78",0,2,0,35,11
19,0.0,Mano Menezes ,0,TEC,"12,49",19,0,Cruzeiro,3,"3,15",0,0,0,0,"-0,69",0,0,0,0,0,0,0,"3,79",0,0,0,0,0
19,0.0,Douglas Friedrich ,0,GOL,"9,36",10,0,Avaí,3,"8,00",0,0,1,0,"2,39",0,28,0,0,0,3,6,"9,66",12,0,0,0,1
19,0.0,Marllon ,3,ZAG,"12,43",18,36,Ponte Preta,4,"6,40",0,0,2,0,"0,41",0,0,26,1,0,20,8,"4,59",0,0,1,7,0
19,0.0,Roger Carvalho ,10,ZAG,"7,51",19,41,Atlético-GO,5,"0,90",0,0,0,0,"-0,03",0,0,24,1,1,31,1,"2,63",0,0,0,29,0
19,0.0,João Paulo ,0,LAT,"4,18",2,5,Avaí,2,"0,00",0,0,0,0,"0,00",0,0,1,0,0,1,1,"2,85",0,0,0,0,0
19,0.0,Raul Prata ,2,LAT,"3,71",4,16,Sport,3,"0,00",0,0,0,0,"0,00",0,0,5,0,0,5,2,"3,28",0,1,0,5,0
19,0.0,Arthur ,0,MEI,"8,85",16,33,Grêmio,2,"-0,10",0,0,3,1,"-0,81",0,0,38,0,0,33,0,"4,29",0,0,1,11,0
19,0.0,Jucilei ,7,MEI,"14,28",19,50,São Paulo,2,"3,40",0,0,0,1,"-0,26",0,0,50,0,0,36,0,"4,65",0,0,1,27,0
19,0.0,Nonoca ,0,MEI,"1,82",3,2,Cruzeiro,3,"1,10",0,0,0,0,"-0,11",0,0,2,0,0,2,0,"1,10",0,0,0,1,0
19,0.0,Lucca ,16,ATA,"21,36",18,52,Ponte Preta,3,"2,60",6,0,1,10,"-0,24",1,0,18,0,1,64,0,"7,94",0,0,18,20,0
19,0.0,Henrique Almeida ,14,ATA,"14,46",17,43,Coritiba,2,"0,00",14,0,0,5,"0,00",1,0,16,1,1,32,0,"4,25",0,3,0,22,11
19,0.0,Jô ,10,ATA,"12,75",19,45,Corinthians,2,"2,00",21,0,2,11,"-0,98",1,0,6,0,2,23,0,"4,63",0,0,11,36,0
20,6.499209789178831,Fábio Carille ,0,TEC,"12,42",19,0,Corinthians,2,"0,00",0,0,0,0,"0,00",0,0,0,0,0,0,0,"4,82",0,0,0,0,0
20,6.499209789178831,Weverton ,0,GOL,"3,77",17,15,Atlético-PR,3,"-2,00",0,0,1,0,"-2,08",0,23,1,0,0,5,6,"3,34",20,0,0,0,0
20,6.499209789178831,Leonardo Silva ,1,ZAG,"9,20",7,14,Atlético-MG,3,"5,10",0,0,0,0,"0,66",0,0,5,0,0,13,2,"1,35",0,3,0,12,0
20,6.499209789178831,Betão ,1,ZAG,"7,28",19,41,Avaí,3,"4,10",0,0,6,0,"-0,34",0,0,14,0,0,16,9,"2,50",0,0,1,13,0
20,6.499209789178831,Victor Ferraz ,2,LAT,"10,10",12,41,Santos,3,"5,60",0,0,0,2,"-0,08",0,0,10,0,0,10,6,"4,05",0,2,0,9,0
20,6.499209789178831,Rodinei ,2,LAT,"9,05",10,25,Flamengo,2,"0,00",1,1,2,1,"0,00",0,0,10,0,3,8,4,"4,19",0,0,2,17,0
20,6.499209789178831,Cazares ,16,MEI,"8,70",15,50,Atlético-MG,3,"2,30",1,0,0,2,"-0,38",1,0,4,0,5,8,0,"3,48",0,0,0,14,15
20,6.499209789178831,Willian Arão ,1,MEI,"9,42",14,42,Flamengo,3,"6,20",1,0,0,0,"0,49",0,0,29,0,2,13,0,"3,31",0,1,0,16,3
20,6.499209789178831,Alípio ,0,MEI,"5,00",0,0,Atlético-GO,2,"0,00",0,0,0,0,"0,00",0,0,0,0,0,0,0,"0,00",0,0,0,0,0
20,6.499209789178831,Leandro Pereira ,0,ATA,"5,86",2,1,Sport,5,"0,00",0,0,0,0,"0,00",0,0,2,0,0,1,0,"2,30",0,0,0,0,1
20,6.499209789178831,Copete ,11,ATA,"6,43",15,53,Santos,3,"0,00",7,0,3,5,"0,00",0,0,10,0,0,21,0,"2,82",0,0,4,23,0
20,6.499209789178831,Bruno Paulo ,0,ATA,"2,00",0,0,Corinthians,2,"0,00",0,0,0,0,"0,00",0,0,0,0,0,0,0,"0,00",0,0,0,0,0
21,7.810671883585969,Cuca ,0,TEC,"13,45",21,0,Palmeiras,3,"3,33",0,0,0,0,"0,00",0,0,0,0,0,0,0,"3,78",0,0,0,0,0
21,7.810671883585969,Vanderlei ,0,GOL,"22,87",20,7,Santos,3,"11,00",0,0,0,0,"0,78",0,50,0,0,0,3,12,"9,99",13,2,3,1,0
21,7.810671883585969,Joel Carli ,3,ZAG,"8,58",14,36,Botafogo,3,"0,60",1,0,0,1,"0,29",0,0,14,0,1,7,5,"2,08",0,7,0,26,0
21,7.810671883585969,Luan ,5,ZAG,"7,02",11,11,Palmeiras,3,"2,20",0,0,0,0,"-0,22",0,0,14,0,0,12,4,"3,91",0,1,0,12,1
21,7.810671883585969,Diego Renan ,3,LAT,"4,82",6,17,Chapecoense,2,"0,00",0,0,1,0,"0,00",0,0,2,0,1,6,1,"1,98",0,0,3,5,0
21,7.810671883585969,Mena ,1,LAT,"5,35",10,27,Sport,3,"0,20",3,1,0,1,"-1,43",0,0,20,0,4,10,4,"5,82",0,3,0,20,1
21,7.810671883585969,Gustavo Scarpa ,16,MEI,"14,00",19,105,Fluminense,3,"14,00",0,0,0,1,"2,06",0,0,18,2,6,34,0,"4,38",0,0,0,16,19
21,7.810671883585969,Luiz Fernando  ,3,MEI,"2,45",17,24,Atlético-GO,2,"0,00",5,0,3,1,"0,30",0,0,4,1,1,15,0,"0,80",0,0,4,15,0
21,7.810671883585969,Wendel ,6,MEI,"12,32",17,39,Fluminense,3,"-1,10",1,0,1,3,"-1,69",0,0,26,2,2,43,0,"5,60",0,0,6,15,0
21,7.810671883585969,Rildo ,5,ATA,"8,50",18,43,Coritiba,2,"0,00",5,0,0,4,"0,00",0,0,17,0,2,60,0,"4,34",0,3,0,18,4
21,7.810671883585969,Eduardo da Silva ,1,ATA,"5,87",5,5,Atlético-PR,2,"0,00",1,0,0,0,"0,00",0,0,4,0,0,1,0,"1,40",0,0,4,6,0
21,7.810671883585969,Bruno Henrique ,7,ATA,"11,81",16,53,Santos,3,"-2,30",5,1,0,4,"-1,29",0,0,14,1,6,44,0,"4,70",0,3,0,41,9
22,29.680738119809327,Cuca ,0,TEC,"14,18",22,0,Palmeiras,3,"6,32",0,0,0,0,"0,73",0,0,0,0,0,0,0,"3,90",0,0,0,0,0
22,29.680738119809327,Vanderlei ,0,GOL,"22,07",21,7,Santos,3,"4,00",0,0,2,0,"-0,80",0,52,0,0,0,3,12,"9,70",14,0,0,1,3
22,29.680738119809327,Joel Carli ,3,ZAG,"8,79",15,37,Botafogo,3,"1,40",1,0,7,1,"0,21",0,0,15,0,1,7,5,"2,03",0,0,0,26,0
22,29.680738119809327,Luan ,5,ZAG,"7,03",12,11,Palmeiras,3,"1,70",0,0,1,0,"0,01",0,0,15,0,0,12,4,"3,73",0,0,1,12,0
22,29.680738119809327,Wallace Oliveira ,0,LAT,"5,00",0,0,Grêmio,2,"0,00",0,0,0,0,"0,00",0,0,0,0,0,0,0,"0,00",0,0,0,0,0
22,29.680738119809327,Mena ,1,LAT,"5,35",10,27,Sport,2,"0,00",3,1,3,1,"0,00",0,0,20,0,4,10,4,"5,82",0,0,1,20,0
22,29.680738119809327,Gustavo Scarpa ,17,MEI,"12,18",20,114,Fluminense,3,"1,20",0,0,0,1,"-1,82",0,0,19,2,6,34,0,"4,22",0,0,21,17,0
22,29.680738119809327,Luiz Fernando  ,4,MEI,"2,80",18,26,Atlético-GO,3,"1,80",6,0,0,1,"0,35",0,0,5,1,1,16,0,"0,86",0,3,0,15,4
22,29.680738119809327,Wendel ,6,MEI,"12,52",18,41,Fluminense,3,"-0,10",1,0,0,3,"0,20",0,0,26,2,2,46,0,"5,28",0,1,0,17,6
22,29.680738119809327,Rildo ,6,ATA,"8,42",19,48,Coritiba,3,"0,20",5,0,3,4,"-0,08",0,0,17,0,2,65,0,"4,12",0,0,5,23,0
22,29.680738119809327,Mendoza ,0,ATA,"2,00",0,0,Corinthians,2,"0,00",0,0,0,0,"0,00",0,0,0,0,0,0,0,"0,00",0,0,0,0,0
22,29.680738119809327,Bruno Henrique ,8,ATA,"14,07",17,56,Santos,3,"10,00",5,1,3,5,"2,26",0,0,15,1,6,47,0,"5,01",0,0,9,43,0
23,29.680738119809327,Cuca ,0,TEC,"13,71",23,0,Palmeiras,3,"3,06",0,0,0,0,"-0,47",0,0,0,0,0,0,0,"3,86",0,0,0,0,0
23,29.680738119809327,Vanderlei ,0,GOL,"24,58",22,7,Santos,3,"17,50",0,0,0,0,"2,51",0,56,0,0,0,4,13,"10,05",14,2,3,1,0
23,29.680738119809327,Joel Carli ,3,ZAG,"8,79",15,37,Botafogo,5,"0,00",1,0,0,1,"0,00",0,0,15,0,1,7,5,"2,03",0,7,0,26,0
23,29.680738119809327,Luan ,5,ZAG,"5,77",13,13,Palmeiras,3,"-5,20",0,1,0,0,"-1,26",0,0,17,0,0,12,4,"3,04",0,2,0,14,1
23,29.680738119809327,Wallace Oliveira ,0,LAT,"5,00",0,0,Grêmio,2,"0,00",0,0,0,0,"0,00",0,0,0,0,0,0,0,"0,00",0,0,0,0,0
23,29.680738119809327,Mena ,1,LAT,"6,15",11,28,Sport,3,"4,50",3,1,0,1,"0,80",0,0,24,0,4,11,4,"5,70",0,4,0,21,1
23,29.680738119809327,Gustavo Scarpa ,17,MEI,"11,90",21,120,Fluminense,3,"-0,10",0,0,0,1,"-0,28",0,0,20,2,6,34,0,"4,01",0,0,0,17,21
23,29.680738119809327,Luiz Fernando  ,4,MEI,"3,49",19,34,Atlético-GO,3,"5,30",7,0,3,2,"0,69",0,0,6,1,1,16,0,"1,09",0,0,4,18,0
23,29.680738119809327,Wendel ,7,MEI,"14,55",19,43,Fluminense,3,"11,30",1,0,1,4,"2,03",0,0,27,2,2,48,0,"5,60",0,0,7,18,0
23,29.680738119809327,Rildo ,6,ATA,"8,61",20,48,Coritiba,3,"1,50",5,0,0,4,"0,19",0,0,17,0,2,69,0,"3,99",0,3,0,24,5
23,29.680738119809327,Mendoza ,0,ATA,"2,00",0,0,Corinthians,2,"0,00",0,0,0,0,"0,00",0,0,0,0,0,0,0,"0,00",0,0,0,0,0
23,29.680738119809327,Bruno Henrique ,9,ATA,"14,19",18,58,Santos,3,"9,30",5,1,0,5,"0,12",0,0,16,1,7,51,0,"5,25",0,3,0,44,10
24,29.680738119809327,Cuca ,0,TEC,"14,41",24,0,Palmeiras,3,"7,01",0,0,0,0,"0,70",0,0,0,0,0,0,0,"3,99",0,0,0,0,0
24,29.680738119809327,Vanderlei ,0,GOL,"22,58",23,8,Santos,3,"4,70",0,0,2,0,"-2,00",0,59,0,0,0,4,13,"9,82",16,0,0,1,3
24,29.680738119809327,Joel Carli ,3,ZAG,"8,79",15,37,Botafogo,3,"0,00",1,0,7,1,"0,00",0,0,15,0,1,7,5,"2,03",0,0,0,26,0
24,29.680738119809327,Luan ,5,ZAG,"5,77",13,13,Palmeiras,2,"0,00",0,1,2,0,"0,00",0,0,17,0,0,12,4,"3,04",0,0,1,14,0
24,29.680738119809327,Wallace Oliveira ,0,LAT,"5,00",0,0,Grêmio,2,"0,00",0,0,0,0,"0,00",0,0,0,0,0,0,0,"0,00",0,0,0,0,0
24,29.680738119809327,Mena ,1,LAT,"5,21",12,30,Sport,3,"-1,10",3,1,4,1,"-0,94",0,0,24,0,4,12,4,"5,13",0,0,1,23,0
24,29.680738119809327,Gustavo Scarpa ,19,MEI,"13,21",22,125,Fluminense,3,"7,60",1,0,0,1,"1,31",0,0,21,2,7,35,0,"4,17",0,0,22,17,0
24,29.680738119809327,Luiz Fernando  ,4,MEI,"5,73",20,36,Atlético-GO,3,"16,70",7,0,0,3,"2,24",0,0,10,1,1,20,0,"1,87",0,3,0,19,5
24,29.680738119809327,Wendel ,7,MEI,"12,17",20,46,Fluminense,3,"-2,90",2,0,0,4,"-2,38",0,0,27,2,2,49,0,"5,17",0,2,0,18,7
24,29.680738119809327,Rildo ,6,ATA,"9,67",21,52,Coritiba,3,"7,40",5,0,3,4,"1,06",0,0,20,0,2,76,0,"4,15",0,0,5,24,0
24,29.680738119809327,Mendoza ,0,ATA,"2,00",0,0,Corinthians,2,"0,00",0,0,0,0,"0,00",0,0,0,0,0,0,0,"0,00",0,0,0,0,0
24,29.680738119809327,Bruno Henrique ,9,ATA,"14,19",18,58,Santos,3,"0,00",5,1,3,5,"0,00",0,0,16,1,7,51,0,"5,25",0,0,10,44,0
25,29.680738119809327,Cuca ,0,TEC,"14,38",25,0,Palmeiras,3,"6,36",0,0,0,0,"-0,03",0,0,0,0,0,0,0,"4,08",0,0,0,0,0
25,29.680738119809327,Vanderlei ,0,GOL,"23,66",24,8,Santos,3,"11,00",0,0,0,0,"1,08",0,61,0,0,0,4,14,"9,87",16,2,3,1,0
25,29.680738119809327,Joel Carli ,3,ZAG,"8,73",16,42,Botafogo,3,"1,90",1,0,0,1,"-0,06",0,0,17,0,1,9,5,"2,02",0,8,0,26,1
25,29.680738119809327,Luan ,5,ZAG,"5,77",13,13,Palmeiras,2,"0,00",0,1,0,0,"0,00",0,0,17,0,0,12,4,"3,04",0,2,0,14,1
25,29.680738119809327,Wallace Oliveira ,0,LAT,"5,00",0,0,Grêmio,2,"0,00",0,0,0,0,"0,00",0,0,0,0,0,0,0,"0,00",0,0,0,0,0
25,29.680738119809327,Mena ,2,LAT,"5,93",13,31,Sport,3,"3,30",3,1,0,1,"0,72",0,0,26,0,4,13,4,"4,99",0,4,0,25,1
25,29.680738119809327,Gustavo Scarpa ,19,MEI,"11,71",23,129,Fluminense,3,"-1,20",2,0,0,1,"-1,50",0,0,21,2,7,36,0,"3,94",0,0,0,17,22
25,29.680738119809327,Luiz Fernando  ,5,MEI,"4,27",21,38,Atlético-GO,3,"6,10",7,0,4,4,"-1,46",0,0,10,1,1,21,0,"2,07",0,0,5,20,0
25,29.680738119809327,Wendel ,7,MEI,"12,48",21,52,Fluminense,3,"-0,10",2,0,2,4,"0,31",0,0,28,2,2,53,0,"4,92",0,0,7,22,0
25,29.680738119809327,Rildo ,6,ATA,"8,29",22,55,Coritiba,3,"-0,90",6,0,0,4,"-1,38",0,0,20,0,2,78,0,"3,92",0,3,0,25,5
25,29.680738119809327,Mendoza ,0,ATA,"2,00",0,0,Corinthians,2,"0,00",0,0,0,0,"0,00",0,0,0,0,0,0,0,"0,00",0,0,0,0,0
25,29.680738119809327,Bruno Henrique ,11,ATA,"15,24",19,59,Santos,3,"14,50",5,1,0,6,"1,05",0,0,18,1,7,51,0,"5,74",0,3,0,44,12
26,29.680738119809327,Cuca ,0,TEC,"13,93",26,0,Palmeiras,3,"2,51",0,0,0,0,"-0,45",0,0,0,0,0,0,0,"4,02",0,0,0,0,0
26,29.680738119809327,Vanderlei ,0,GOL,"23,02",25,8,Santos,3,"5,00",0,0,2,0,"-0,64",0,61,0,0,0,4,15,"9,68",16,0,0,1,3
26,29.680738119809327,Joel Carli ,3,ZAG,"8,46",17,44,Botafogo,3,"-0,10",1,0,8,1,"-0,27",0,0,17,0,1,10,5,"1,90",0,0,1,26,0
26,29.680738119809327,Luan ,5,ZAG,"5,63",14,14,Palmeiras,4,"-4,30",0,1,3,0,"-0,14",0,0,17,0,0,12,4,"2,52",0,0,1,18,0
26,29.680738119809327,Wallace Oliveira ,0,LAT,"5,00",0,0,Grêmio,2,"0,00",0,0,0,0,"0,00",0,0,0,0,0,0,0,"0,00",0,0,0,0,0
26,29.680738119809327,Mena ,2,LAT,"5,36",14,35,Sport,3,"-0,50",3,1,4,1,"-0,57",0,0,27,0,4,13,4,"4,60",0,0,1,27,0
26,29.680738119809327,Gustavo Scarpa ,22,MEI,"12,56",24,134,Fluminense,3,"3,30",2,0,0,1,"0,85",0,0,22,2,7,38,0,"3,91",0,0,22,17,0
26,29.680738119809327,Luiz Fernando  ,5,MEI,"4,94",22,40,Atlético-GO,3,"8,60",7,0,0,5,"0,67",0,0,11,1,1,22,0,"2,37",0,4,0,24,6
26,29.680738119809327,Wendel ,7,MEI,"13,05",22,52,Fluminense,3,"2,70",2,0,0,4,"0,57",0,0,29,2,2,54,0,"4,82",0,2,0,23,8
26,29.680738119809327,Rildo ,6,ATA,"10,49",23,61,Coritiba,3,"10,90",6,0,3,5,"2,20",0,0,21,0,2,84,0,"4,22",0,0,5,25,0
26,29.680738119809327,Mendoza ,0,ATA,"2,00",0,0,Corinthians,2,"0,00",0,0,0,0,"0,00",0,0,0,0,0,0,0,"0,00",0,0,0,0,0
26,29.680738119809327,Bruno Henrique ,12,ATA,"14,01",20,62,Santos,3,"5,00",6,1,4,6,"-1,23",0,0,19,1,8,56,0,"5,70",0,0,12,47,0
27,14.238695569136741,Abel Braga ,0,TEC,"11,62",25,0,Fluminense,3,"0,00",0,0,0,0,"0,01",0,0,0,0,0,0,0,"2,83",0,0,0,0,0
27,14.238695569136741,Douglas Friedrich ,0,GOL,"8,92",18,0,Avaí,3,"0,00",0,0,0,0,"-0,65",0,0,0,0,0,0,0,"8,32",0,0,0,0,0
27,14.238695569136741,David Braz ,0,ZAG,"11,47",21,0,Santos,3,"0,00",0,0,0,0,"-0,59",0,0,0,0,0,0,0,"4,18",0,0,0,0,0
27,14.238695569136741,Gabriel ,0,ZAG,"9,92",17,0,Atlético-MG,3,"0,00",0,0,0,0,"0,57",0,0,0,0,0,0,0,"3,88",0,0,0,0,0
27,14.238695569136741,Juninho Capixaba ,0,LAT,"2,26",8,0,Bahia,3,"0,00",0,0,0,0,"-0,02",0,0,0,0,0,0,0,"2,90",0,0,0,0,0
27,14.238695569136741,Moisés ,0,LAT,"3,02",3,0,Corinthians,2,"0,00",0,0,0,0,"0,00",0,0,0,0,0,0,0,"3,57",0,0,0,0,0
27,14.238695569136741,Wellington Simião ,1,MEI,"2,40",1,1,Avaí,2,"0,40",0,0,0,0,"-0,60",0,0,0,0,0,0,0,"0,40",0,0,0,0,0
27,14.238695569136741,Matheus Galdezani ,0,MEI,"7,94",25,0,Coritiba,3,"0,00",0,0,0,0,"-1,11",0,0,0,0,0,0,0,"2,94",0,0,0,0,0
27,14.238695569136741,Evander ,0,MEI,"2,00",0,0,Vasco,2,"0,00",0,0,0,0,"0,00",0,0,0,0,0,0,0,"0,00",0,0,0,0,0
27,14.238695569136741,Júnior Dutra ,0,ATA,"7,40",21,0,Avaí,4,"0,00",0,0,0,0,"-0,73",0,0,0,0,0,0,0,"4,15",0,0,0,0,0
27,14.238695569136741,Túlio de Melo ,0,ATA,"5,33",18,0,Chapecoense,3,"0,00",0,0,0,0,"1,12",0,0,0,0,0,0,0,"2,30",0,0,0,0,0
27,14.238695569136741,Joel ,0,ATA,"2,62",1,1,Botafogo,2,"-0,30",0,0,0,0,"-1,38",0,0,0,0,0,0,0,"-0,30",0,0,0,0,0
28,0.0,Abel Braga ,0,TEC,"12,33",26,0,Fluminense,3,"0,00",0,0,0,0,"0,71",0,0,0,0,0,0,0,"2,97",0,0,0,0,0
28,0.0,Douglas Friedrich ,0,GOL,"9,58",19,0,Avaí,3,"0,00",0,0,0,0,"0,66",0,0,0,0,0,0,0,"7,93",0,0,0,0,0
28,0.0,David Braz ,0,ZAG,"12,25",22,0,Santos,3,"0,00",0,0,0,0,"0,78",0,0,0,0,0,0,0,"4,33",0,0,0,0,0
28,0.0,Werley ,0,ZAG,"9,26",16,0,Coritiba,3,"0,00",0,0,0,0,"1,21",0,0,0,0,0,0,0,"3,75",0,0,0,0,0
28,0.0,Jean ,0,LAT,"14,48",16,0,Palmeiras,2,"0,00",0,0,0,0,"0,00",0,0,0,0,0,0,0,"4,73",0,0,0,0,0
28,0.0,Matheus Ribeiro ,0,LAT,"5,76",4,0,Santos,5,"0,00",0,0,0,0,"0,00",0,0,0,0,0,0,0,"5,20",0,0,0,0,0
28,0.0,Jorginho ,0,MEI,"6,02",26,0,Atlético-GO,3,"0,00",0,0,0,0,"1,02",0,0,0,0,0,0,0,"1,84",0,0,0,0,0
28,0.0,Zé Rafael  ,0,MEI,"20,01",27,0,Bahia,3,"0,00",0,0,0,0,"-1,39",0,0,0,0,0,0,0,"6,69",0,0,0,0,0
28,0.0,Bruno Mota ,1,MEI,"3,40",1,2,Atlético-PR,3,"1,80",0,0,0,0,"0,40",0,0,1,0,0,1,0,"1,80",0,0,0,1,0
28,0.0,Guilherme ,0,ATA,"6,19",22,0,Botafogo,2,"0,00",0,0,0,0,"-0,83",0,0,0,0,0,0,0,"3,61",0,0,0,0,0
28,0.0,Denilson ,0,ATA,"4,17",1,2,Avaí,3,"-0,10",0,0,0,0,"-1,83",0,0,0,0,0,1,0,"-0,10",0,0,0,0,0
28,0.0,Felipe ,0,ATA,"1,00",0,0,Fluminense,2,"0,00",0,0,0,0,"0,00",0,0,0,0,0,0,0,"0,00",0,0,0,0,0
29,8.99311245771772,Fábio Carille ,0,TEC,"12,04",28,0,Corinthians,3,"4,45",0,0,0,0,"0,42",0,0,0,0,0,0,0,"4,29",0,0,0,0,0
29,8.99311245771772,Gabriel Gasparotto ,0,GOL,"2,00",0,0,Santos,2,"0,00",0,0,0,0,"0,00",0,0,0,0,0,0,0,"0,00",0,0,0,0,0
29,8.99311245771772,Tiago  ,2,ZAG,"9,90",26,45,Bahia,3,"3,80",6,0,6,2,"-0,28",0,0,18,1,0,30,9,"2,67",0,0,3,33,0
29,8.99311245771772,Marllon ,3,ZAG,"11,30",26,42,Ponte Preta,3,"-0,10",1,0,0,0,"-0,51",0,0,39,1,0,29,9,"4,02",0,4,0,16,2
29,8.99311245771772,Daniel Guedes  ,2,LAT,"3,95",13,27,Santos,3,"0,60",0,2,2,1,"0,20",0,0,13,0,1,13,6,"3,03",0,0,1,25,0
29,8.99311245771772,Jonathan ,2,LAT,"8,17",21,60,Atlético-PR,3,"2,20",0,0,0,2,"0,40",0,0,23,0,2,20,5,"3,44",0,3,0,14,2
29,8.99311245771772,Éder Militão ,5,MEI,"3,41",16,41,São Paulo,3,"5,70",1,0,1,1,"0,58",0,0,24,0,0,16,0,"2,45",0,0,1,15,0
29,8.99311245771772,Rafinha ,5,MEI,"6,43",19,58,Cruzeiro,3,"0,60",1,0,1,3,"-0,49",0,0,20,1,0,42,0,"3,07",0,0,5,25,0
29,8.99311245771772,Mateus Pet ,0,MEI,"5,02",1,1,Vasco,3,"5,10",0,0,0,0,"3,02",0,0,2,0,0,1,0,"5,10",0,0,2,1,0
29,8.99311245771772,Neilton ,0,ATA,"5,00",0,0,São Paulo,2,"0,00",0,0,0,0,"0,00",0,0,0,0,0,0,0,"0,00",0,0,0,0,0
29,8.99311245771772,Maikon Leite ,0,ATA,"3,54",1,0,Bahia,2,"0,00",0,0,0,0,"-1,46",0,0,0,0,0,0,0,"0,00",0,0,0,0,0
29,8.99311245771772,Osvaldo ,5,ATA,"4,66",22,61,Sport,3,"0,00",2,0,0,3,"0,13",0,0,13,0,1,25,0,"2,00",0,2,0,11,6
30,13.559412125887786,Renato Gaúcho ,0,TEC,"15,04",29,0,Grêmio,3,"1,55",0,0,0,0,"-0,66",0,0,0,0,0,0,0,"4,20",0,0,0,0,0
30,13.559412125887786,Cássio ,0,GOL,"12,64",29,8,Corinthians,3,"-1,00",0,0,0,0,"-1,55",0,35,0,0,0,8,15,"5,25",20,2,2,0,0
30,13.559412125887786,Fabrício Bruno ,0,ZAG,"5,38",17,21,Chapecoense,3,"9,60",0,0,5,1,"1,29",0,0,20,0,0,14,5,"2,89",0,0,1,19,0
30,13.559412125887786,Henrique ,1,ZAG,"9,14",20,33,Fluminense,5,"0,00",0,0,3,0,"0,00",0,0,24,2,0,23,2,"2,28",0,0,1,19,0
30,13.559412125887786,João Paulo ,1,LAT,"3,26",6,14,Avaí,3,"0,10",0,0,2,0,"0,06",0,0,3,0,0,3,2,"1,18",0,0,0,4,0
30,13.559412125887786,Fábio Santos ,5,LAT,"5,36",26,89,Atlético-MG,3,"6,70",2,0,7,4,"-0,15",0,0,30,0,2,47,6,"3,61",0,0,2,33,0
30,13.559412125887786,Maycon ,16,MEI,"7,66",29,94,Corinthians,3,"-0,40",0,0,0,1,"-0,51",0,0,41,0,3,13,0,"2,77",0,0,0,18,7
30,13.559412125887786,Guilherme ,9,MEI,"10,08",16,69,Atlético-PR,3,"4,40",2,0,0,4,"-1,22",0,0,17,0,5,19,0,"4,19",0,3,0,28,7
30,13.559412125887786,Willians ,0,MEI,"4,00",0,0,Cruzeiro,2,"0,00",0,0,0,0,"0,00",0,0,0,0,0,0,0,"0,00",0,0,0,0,0
30,13.559412125887786,Marcelinho ,0,ATA,"3,00",0,0,Avaí,2,"0,00",0,0,0,0,"0,00",0,0,0,0,0,0,0,"0,00",0,0,0,0,0
30,13.559412125887786,Jô ,18,ATA,"13,31",27,60,Corinthians,3,"7,50",30,0,4,14,"1,38",1,0,8,0,2,30,0,"4,19",0,0,18,47,0
30,13.559412125887786,Grafite ,0,ATA,"12,00",0,0,Atlético-PR,2,"0,00",0,0,0,0,"0,00",0,0,0,0,0,0,0,"0,00",0,0,0,0,0
31,22.62255246396376,Renato Gaúcho ,0,TEC,"15,25",30,0,Grêmio,3,"3,84",0,0,0,0,"0,21",0,0,0,0,0,0,0,"4,19",0,0,0,0,0
31,22.62255246396376,Wilson ,0,GOL,"16,02",31,17,Coritiba,3,"16,40",0,0,0,0,"2,13",0,61,0,0,0,6,8,"5,04",41,2,3,0,0
31,22.62255246396376,Gum ,1,ZAG,"5,56",5,11,Fluminense,3,"0,60",1,0,1,0,"0,51",0,0,3,0,0,4,1,"1,00",0,0,0,4,0
31,22.62255246396376,Oswaldo Henríquez ,5,ZAG,"5,41",16,24,Sport,3,"2,90",0,0,0,0,"0,84",0,0,31,0,0,8,4,"3,46",0,5,0,21,3
31,22.62255246396376,Jonathan ,2,LAT,"8,51",22,65,Atlético-PR,3,"4,70",1,0,3,2,"0,34",0,0,24,0,2,20,6,"3,50",0,0,2,14,0
31,22.62255246396376,Léo ,0,LAT,"1,00",0,0,Avaí,2,"0,00",0,0,0,0,"0,00",0,0,0,0,0,0,0,"0,00",0,0,0,0,0
31,22.62255246396376,Henrique ,4,MEI,"4,94",21,47,Cruzeiro,3,"4,00",0,1,5,0,"0,99",0,0,29,0,0,30,0,"1,38",0,0,3,24,0
31,22.62255246396376,Jadson ,4,MEI,"3,59",18,29,Ponte Preta,3,"0,00",0,0,3,0,"0,00",0,0,20,0,0,21,0,"1,34",0,0,1,19,0
31,22.62255246396376,Gabriel ,2,MEI,"8,78",26,53,Corinthians,3,"5,30",0,1,0,1,"0,48",0,0,57,1,0,29,0,"3,15",0,5,0,33,5
31,22.62255246396376,Lucas Pratto ,37,ATA,"14,56",30,94,São Paulo,3,"1,80",5,1,2,7,"-0,97",1,0,17,0,4,31,0,"3,68",0,0,27,39,0
31,22.62255246396376,Henrique Almeida ,21,ATA,"14,88",27,57,Coritiba,4,"9,20",20,0,6,7,"1,30",1,0,24,1,1,48,0,"3,84",0,0,19,34,0
31,22.62255246396376,Lucca ,27,ATA,"20,57",28,74,Ponte Preta,3,"6,80",10,0,0,11,"1,00",2,0,25,0,1,86,0,"5,82",0,4,0,35,25
32,26.73977101014103,Mano Menezes ,0,TEC,"13,26",31,0,Cruzeiro,3,"6,82",0,0,0,0,"0,74",0,0,0,0,0,0,0,"3,81",0,0,0,0,0
32,26.73977101014103,Vanderlei ,0,GOL,"21,73",31,10,Santos,3,"1,50",0,0,2,0,"0,41",0,70,0,0,0,6,16,"8,38",23,0,0,2,3
32,26.73977101014103,Pablo ,11,ZAG,"10,36",20,24,Corinthians,3,"-0,50",0,0,2,0,"-0,24",0,0,19,0,0,8,11,"4,22",0,0,3,13,0
32,26.73977101014103,Durval ,0,ZAG,"5,87",18,29,Sport,3,"-0,90",1,0,0,0,"-0,23",0,0,22,0,1,12,4,"2,82",0,2,0,17,4
32,26.73977101014103,Jeferson ,3,LAT,"5,19",17,69,Ponte Preta,3,"-1,70",0,0,4,0,"-1,96",0,0,19,0,2,9,9,"3,21",0,0,0,21,0
32,26.73977101014103,Fagner Alemão ,6,LAT,"10,46",28,67,Avaí,3,"5,70",9,0,5,0,"0,08",0,0,52,0,1,27,9,"4,09",0,0,2,18,0
32,26.73977101014103,Juninho ,19,MEI,"10,65",24,85,Bahia,3,"4,00",0,0,0,2,"-0,38",0,0,35,1,2,16,0,"3,06",0,2,0,42,14
32,26.73977101014103,Montillo ,0,MEI,"7,00",0,0,Botafogo,2,"0,00",0,0,0,0,"0,00",0,0,0,0,0,0,0,"0,00",0,0,0,0,0
32,26.73977101014103,Lucas Marques ,5,MEI,"3,33",13,38,Chapecoense,3,"3,80",0,0,3,3,"0,39",0,0,19,1,1,10,0,"3,60",0,0,1,20,0
32,26.73977101014103,André ,33,ATA,"11,73",28,73,Sport,3,"8,20",24,0,0,12,"-0,26",0,0,25,1,1,49,0,"4,84",0,5,0,54,12
32,26.73977101014103,Romulo ,13,ATA,"8,36",28,58,Avaí,3,"1,00",7,0,0,3,"0,34",0,0,18,0,0,36,0,"1,63",0,4,0,35,10
32,26.73977101014103,Thiago Ribeiro ,4,ATA,"4,70",10,26,Santos,2,"0,00",4,0,0,0,"0,00",0,0,6,0,0,6,0,"0,16",0,1,0,11,3
33,26.73977101014103,Mano Menezes ,0,TEC,"12,50",32,0,Cruzeiro,3,"0,00",0,0,0,0,"-0,76",0,0,0,0,0,0,0,"3,75",0,0,0,0,0
33,26.73977101014103,Vanderlei ,0,GOL,"21,78",32,0,Santos,3,"0,00",0,0,0,0,"0,05",0,0,0,0,0,0,0,"8,18",0,0,0,0,0
33,26.73977101014103,Pablo ,0,ZAG,"11,68",21,0,Corinthians,3,"0,00",0,0,0,0,"1,32",0,0,0,0,0,0,0,"4,36",0,0,0,0,0
33,26.73977101014103,Durval ,0,ZAG,"5,70",19,0,Sport,4,"0,00",0,0,0,0,"-0,17",0,0,0,0,0,0,0,"2,59",0,0,0,0,0
33,26.73977101014103,Jeferson ,0,LAT,"5,58",18,0,Ponte Preta,3,"0,00",0,0,0,0,"0,39",0,0,0,0,0,0,0,"3,08",0,0,0,0,0
33,26.73977101014103,Fagner Alemão ,0,LAT,"10,40",29,0,Avaí,3,"0,00",0,0,0,0,"-0,06",0,0,0,0,0,0,0,"4,11",0,0,0,0,0
33,26.73977101014103,Juninho ,0,MEI,"11,46",25,0,Bahia,3,"0,00",0,0,0,0,"0,81",0,0,0,0,0,0,0,"3,27",0,0,0,0,0
33,26.73977101014103,Montillo ,0,MEI,"7,00",0,0,Botafogo,2,"0,00",0,0,0,0,"0,00",0,0,0,0,0,0,0,"0,00",0,0,0,0,0
33,26.73977101014103,Lucas Marques ,0,MEI,"3,33",13,0,Chapecoense,2,"0,00",0,0,0,0,"0,00",0,0,0,0,0,0,0,"3,60",0,0,0,0,0
33,26.73977101014103,André ,0,ATA,"11,45",29,0,Sport,3,"0,00",0,0,0,0,"-0,28",0,0,0,0,0,0,0,"4,87",0,0,0,0,0
33,26.73977101014103,Romulo ,0,ATA,"8,12",29,0,Avaí,3,"0,00",0,0,0,0,"-0,24",0,0,0,0,0,0,0,"1,56",0,0,0,0,0
33,26.73977101014103,Thiago Ribeiro ,0,ATA,"4,70",10,0,Santos,2,"0,00",0,0,0,0,"0,00",0,0,0,0,0,0,0,"0,16",0,0,0,0,0
34,16.040283739025632,Fábio Carille ,0,TEC,"12,13",33,0,Corinthians,3,"5,12",0,0,0,0,"-0,09",0,0,0,0,0,0,0,"4,18",0,0,0,0,0
34,16.040283739025632,Wilson ,0,GOL,"13,88",34,17,Coritiba,3,"1,00",0,0,2,1,"0,06",0,65,0,0,0,7,9,"5,17",44,0,0,0,3
34,16.040283739025632,Lucão ,0,ZAG,"3,00",0,0,São Paulo,2,"0,00",0,0,0,0,"0,00",0,0,0,0,0,0,0,"0,00",0,0,0,0,0
34,16.040283739025632,Tiago  ,3,ZAG,"10,45",31,48,Bahia,3,"6,50",6,0,0,2,"1,09",0,0,29,1,0,31,10,"2,92",0,7,0,39,5
34,16.040283739025632,Edimar ,1,LAT,"3,81",15,51,São Paulo,3,"-4,70",0,0,0,0,"-0,83",0,0,19,0,0,20,4,"2,24",0,4,0,18,3
34,16.040283739025632,Fagner Alemão ,7,LAT,"9,86",30,69,Avaí,3,"1,90",10,0,5,0,"-0,54",0,0,55,0,1,30,9,"4,04",0,0,3,19,0
34,16.040283739025632,Juninho ,19,MEI,"12,12",26,96,Bahia,3,"11,80",0,0,0,2,"0,66",0,0,44,2,3,17,0,"3,60",0,2,0,44,14
34,16.040283739025632,Jadson ,4,MEI,"4,40",19,31,Ponte Preta,2,"0,00",0,0,0,0,"0,00",0,0,22,0,0,23,0,"1,44",0,3,0,20,1
34,16.040283739025632,Gabriel ,3,MEI,"8,87",28,55,Corinthians,3,"5,80",0,1,6,1,"0,73",0,0,63,1,0,29,0,"3,17",0,0,5,36,0
34,16.040283739025632,Lucas Pratto ,40,ATA,"14,35",33,101,São Paulo,3,"0,50",6,1,0,7,"-0,73",1,0,20,0,5,35,0,"3,67",0,2,0,41,27
34,16.040283739025632,Henrique Almeida ,21,ATA,"13,52",29,57,Coritiba,1,"1,00",20,0,0,7,"-0,50",1,0,25,1,1,54,0,"3,72",0,6,0,37,20
34,16.040283739025632,Lucca ,31,ATA,"20,80",31,84,Ponte Preta,3,"8,70",11,0,5,11,"0,92",2,0,27,0,2,96,0,"5,64",0,0,28,38,0
35,23.23052621452621,Claudinei Oliveira ,0,TEC,"8,40",35,0,Avaí,3,"4,69",0,0,0,0,"0,60",0,0,0,0,0,0,0,"3,22",0,0,0,0,0
35,23.23052621452621,Jean ,0,GOL,"13,13",35,30,Bahia,3,"9,70",0,0,2,0,"1,49",0,62,0,0,0,3,10,"4,04",45,0,0,1,1
35,23.23052621452621,Kanu ,10,ZAG,"8,23",22,47,Vitória,3,"0,00",5,0,6,4,"0,00",0,0,24,1,1,12,6,"3,88",0,1,4,17,0
35,23.23052621452621,Joel Carli ,4,ZAG,"8,34",25,53,Botafogo,3,"0,70",1,0,0,1,"-0,25",0,0,26,0,2,16,6,"1,92",0,10,0,39,1
35,23.23052621452621,Jeferson ,4,LAT,"5,16",20,79,Ponte Preta,3,"-1,20",0,0,0,0,"-0,18",0,0,20,0,2,11,9,"2,70",0,4,0,23,0
35,23.23052621452621,Jonathan ,2,LAT,"9,46",25,71,Atlético-PR,3,"0,00",1,0,0,2,"0,00",0,0,31,0,2,21,7,"3,64",0,3,0,17,2
35,23.23052621452621,Machado ,0,MEI,"2,04",2,5,Grêmio,3,"0,00",0,0,1,0,"0,00",0,0,7,0,0,1,0,"1,95",0,0,0,2,0
35,23.23052621452621,Willian Arão ,6,MEI,"9,47",27,64,Flamengo,3,"0,00",2,0,2,1,"0,00",0,0,59,1,2,19,0,"3,77",0,0,4,27,0
35,23.23052621452621,Thallyson ,1,MEI,"0,83",15,17,Sport,2,"0,00",1,0,3,1,"0,00",0,0,8,0,0,8,0,"0,48",0,0,0,15,0
35,23.23052621452621,Ángel Romero ,9,ATA,"12,00",28,98,Corinthians,3,"1,20",13,0,10,3,"-0,24",0,0,53,0,3,86,0,"4,20",0,0,14,38,0
35,23.23052621452621,Henrique Almeida ,21,ATA,"13,66",30,57,Coritiba,3,"1,70",20,0,6,7,"0,14",1,0,26,1,1,54,0,"3,65",0,0,20,37,0
35,23.23052621452621,Arthur Gomes ,4,ATA,"1,67",9,16,Santos,3,"-1,00",0,0,0,1,"-0,45",0,0,5,0,0,9,0,"1,67",0,1,0,8,2
36,23.23052621452621,Claudinei Oliveira ,0,TEC,"8,44",36,0,Avaí,3,"4,71",0,0,0,0,"0,04",0,0,0,0,0,0,0,"3,26",0,0,0,0,0
36,23.23052621452621,Jean ,0,GOL,"13,28",36,32,Bahia,3,"9,90",0,0,0,0,"0,15",0,65,0,1,0,3,10,"4,20",46,2,1,1,0
36,23.23052621452621,Kanu ,10,ZAG,"7,86",23,48,Vitória,3,"-2,10",6,0,1,4,"-0,37",0,0,25,1,1,12,6,"3,62",0,7,0,19,4
36,23.23052621452621,Joel Carli ,5,ZAG,"9,27",26,54,Botafogo,3,"6,30",1,0,11,1,"0,93",0,0,28,0,2,16,7,"2,09",0,0,1,40,0
36,23.23052621452621,Jeferson ,4,LAT,"5,46",21,80,Ponte Preta,3,"0,90",0,0,4,0,"0,30",0,0,21,0,2,11,9,"2,61",0,0,0,24,0
36,23.23052621452621,Jonathan ,2,LAT,"8,42",26,75,Atlético-PR,3,"2,70",1,0,3,2,"-1,04",0,0,33,0,2,22,7,"3,60",0,0,2,17,0
36,23.23052621452621,Machado ,0,MEI,"2,84",3,7,Grêmio,3,"4,80",0,0,0,0,"0,80",0,0,9,0,0,3,0,"2,90",0,1,1,2,0
36,23.23052621452621,Willian Arão ,6,MEI,"10,37",28,65,Flamengo,3,"7,60",2,0,0,1,"0,90",0,0,61,1,3,20,0,"3,91",0,2,0,29,4
36,23.23052621452621,Thallyson ,1,MEI,"0,83",15,17,Sport,2,"0,00",1,0,0,1,"0,00",0,0,8,0,0,8,0,"0,48",0,3,0,15,0
36,23.23052621452621,Ángel Romero ,9,ATA,"12,11",29,99,Corinthians,3,"2,20",13,0,0,3,"0,11",0,0,53,0,3,91,0,"4,13",0,11,0,38,16
36,23.23052621452621,Henrique Almeida ,21,ATA,"13,64",31,57,Coritiba,3,"2,00",20,0,0,7,"-0,02",1,0,26,1,1,55,0,"3,60",0,6,0,38,22
36,23.23052621452621,Arthur Gomes ,4,ATA,"2,11",10,16,Santos,3,"1,70",0,0,1,1,"0,44",0,0,6,0,0,9,0,"1,67",0,0,2,8,0
37,8.236169668145473,Renato Gaúcho ,0,TEC,"15,27",36,0,Grêmio,3,"2,95",0,0,0,0,"0,05",0,0,0,0,0,0,0,"4,21",0,0,0,0,0
37,8.236169668145473,Wilson ,0,GOL,"14,86",37,22,Coritiba,3,"6,10",0,0,0,2,"1,02",0,70,0,0,0,7,10,"5,20",49,2,3,0,0
37,8.236169668145473,Pedro Henryque ,0,ZAG,"2,00",0,0,Sport,2,"0,00",0,0,0,0,"0,00",0,0,0,0,0,0,0,"0,00",0,0,0,0,0
37,8.236169668145473,Henrique ,1,ZAG,"8,65",26,41,Fluminense,3,"2,00",1,0,4,1,"-1,03",0,0,34,2,0,25,3,"2,76",0,0,2,21,0
37,8.236169668145473,Diego Tavares ,4,LAT,"5,83",13,15,Avaí,2,"0,00",1,0,1,0,"0,00",0,0,7,0,0,13,5,"2,63",0,0,0,10,0
37,8.236169668145473,Edimar ,1,LAT,"5,03",18,57,São Paulo,3,"1,80",0,0,4,0,"-1,15",0,0,23,0,0,25,5,"2,58",0,0,4,19,0
37,8.236169668145473,André Castro ,4,MEI,"3,51",31,63,Atlético-GO,3,"6,80",1,0,0,0,"1,20",0,0,55,0,0,14,0,"1,66",0,7,0,40,2
37,8.236169668145473,Michel Bastos ,13,MEI,"5,79",16,52,Palmeiras,3,"0,00",3,0,4,0,"0,00",0,0,22,0,2,12,0,"2,19",0,0,3,11,0
37,8.236169668145473,Thiago Neves ,20,MEI,"16,15",31,112,Cruzeiro,3,"-3,10",7,0,0,9,"-2,73",1,0,26,2,6,44,0,"5,18",0,6,0,32,40
37,8.236169668145473,Matheus Alessandro ,0,ATA,"1,81",15,13,Fluminense,3,"0,40",1,0,0,1,"-0,20",0,0,8,2,1,17,0,"2,08",0,2,0,7,1
37,8.236169668145473,Rildo ,9,ATA,"9,02",33,85,Coritiba,3,"2,20",9,0,6,6,"0,84",0,0,33,0,2,112,0,"3,66",0,0,8,42,0
37,8.236169668145473,Maikon Leite ,0,ATA,"3,54",1,0,Bahia,2,"0,00",0,0,0,0,"-1,46",0,0,0,0,0,0,0,"0,00",0,0,0,0,0
