round,fitness,name,position,team,situation,price,meatches,average,last_score,difference,disarms,goals,assists,no_goals,fouls_suffered,strikes_out,strikes_defended,strikes_post,difficult_defense,penalty_defense,own_goal,red_card,yellow_card,goal_suffered,penalty_lost,fouls_commited,offsides,wrong_pass
0,0.0,Abel Braga ,0,TEC,"14,12",1,0,Fluminense,3,"4,96",0,0,0,0,"-0,88",0,0,0,0,0,0,0,"4,96",0,0,0,0,0
0,0.0,Douglas Friedrich ,0,GOL,"4,00",0,0,Avaí,2,"0,00",0,0,0,0,"0,00",0,0,0,0,0,0,0,"0,00",0,0,0,0,0
0,0.0,Wanderson ,0,ZAG,"4,00",0,0,Atlético-PR,2,"0,00",0,0,0,0,"0,00",0,0,0,0,0,0,0,"0,00",0,0,0,0,0
0,0.0,Nathan ,0,ZAG,"4,00",0,0,Chapecoense,2,"0,00",0,0,0,0,"0,00",0,0,0,0,0,0,0,"0,00",0,0,0,0,0
0,0.0,Victor Luis ,0,LAT,"7,85",1,1,Botafogo,3,"4,10",0,0,0,0,"0,85",0,0,2,0,0,2,0,"4,10",0,0,0,0,0
0,0.0,Fagner ,0,LAT,"12,02",1,3,Corinthians,3,"0,00",0,0,1,0,"-4,98",0,0,2,0,0,1,0,"0,00",0,0,0,2,0
0,0.0,Jadson ,1,MEI,"15,99",1,6,Corinthians,3,"0,60",0,0,0,0,"-6,01",0,0,1,0,0,0,0,"0,60",0,0,0,0,0
0,0.0,Rafael Carioca ,0,MEI,"7,92",1,4,Atlético-MG,2,"-0,80",0,0,1,0,"-4,08",0,0,2,0,0,0,0,"-0,80",0,0,0,2,0
0,0.0,Sornoza ,0,MEI,"17,54",1,3,Fluminense,3,"9,80",0,0,0,1,"2,54",0,0,1,0,0,0,0,"9,80",0,0,1,0,0
0,0.0,Luan ,3,ATA,"17,90",1,5,Grêmio,3,"4,30",0,0,0,0,"-3,10",0,0,1,0,0,1,0,"4,30",0,0,2,1,0
0,0.0,Raniel ,0,ATA,"1,06",1,0,Cruzeiro,2,"0,50",0,0,0,0,"0,06",0,0,0,0,0,1,0,"0,50",0,0,0,0,0
0,0.0,Alecsandro ,0,ATA,"8,00",0,0,Coritiba,2,"0,00",0,0,0,0,"0,00",0,0,0,0,0,0,0,"0,00",0,0,0,0,0
1,0.0,Renato Gaúcho ,0,TEC,"13,53",1,0,Grêmio,3,"6,13",0,0,0,0,"0,53",0,0,0,0,0,0,0,"6,13",0,0,0,0,0
1,0.0,Klever ,0,GOL,"0,71",1,1,Atlético-GO,3,"-8,30",0,0,0,0,"-5,29",0,0,0,0,0,0,0,"-8,30",4,0,0,0,0
1,0.0,Frazan ,0,ZAG,"2,00",0,0,Fluminense,2,"0,00",0,0,0,0,"0,00",0,0,0,0,0,0,0,"0,00",0,0,0,0,0
1,0.0,Henrique ,0,ZAG,"12,80",1,1,Fluminense,3,"8,10",0,0,0,0,"2,80",0,0,2,1,0,3,0,"8,10",0,0,0,0,0
1,0.0,Gilberto  ,1,LAT,"7,50",1,4,Vasco,3,"3,60",0,0,0,0,"0,50",0,0,3,0,0,1,0,"3,60",0,0,0,3,0
1,0.0,Patric ,1,LAT,"8,63",1,5,Vitória,3,"3,20",1,0,0,0,"-0,37",0,0,0,0,0,0,1,"3,20",0,0,0,1,0
1,0.0,Mantuan ,0,MEI,"1,00",0,0,Corinthians,2,"0,00",0,0,0,0,"0,00",0,0,0,0,0,0,0,"0,00",0,0,0,0,0
1,0.0,Vitor Bueno ,0,MEI,"12,80",1,2,Santos,3,"2,10",0,0,0,0,"-3,20",0,0,1,0,0,2,0,"2,10",0,0,0,0,0
1,0.0,Rodrigo Lindoso ,0,MEI,"6,00",0,0,Botafogo,2,"0,00",0,0,0,0,"0,00",0,0,0,0,0,0,0,"0,00",0,0,0,0,0
1,0.0,Negueba ,0,ATA,"6,00",0,0,Atlético-GO,2,"0,00",0,0,0,0,"0,00",0,0,0,0,0,0,0,"0,00",0,0,0,0,0
1,0.0,Borja ,2,ATA,"22,71",1,1,Palmeiras,3,"16,10",2,0,0,2,"6,71",0,0,0,0,0,2,0,"16,10",0,0,0,2,0
1,0.0,Vladimir Hernández ,1,ATA,"11,46",1,0,Santos,2,"10,20",1,0,0,1,"5,46",0,0,0,0,0,3,0,"10,20",0,0,0,1,1
2,45.09,Renato Gaúcho ,0,TEC,"13,89",2,0,Grêmio,3,"5,05",0,0,0,0,"0,36",0,0,0,0,0,0,0,"5,59",0,0,0,0,0
2,45.09,Klever ,0,GOL,"0,71",1,1,Atlético-GO,3,"-8,30",0,0,0,0,"-5,29",0,0,0,0,0,0,0,"-8,30",4,0,0,0,0
2,45.09,Léo ,0,ZAG,"9,88",2,3,Cruzeiro,3,"1,30",0,0,1,0,"-0,31",0,0,3,0,0,2,1,"3,85",0,0,0,1,0
2,45.09,Henrique ,0,ZAG,"11,28",2,1,Fluminense,3,"-1,00",0,0,0,0,"-1,52",0,0,2,1,0,3,0,"3,55",0,0,0,2,0
2,45.09,Gilberto  ,1,LAT,"9,42",2,7,Vasco,3,"6,60",0,0,1,0,"1,92",0,0,8,0,0,3,0,"5,10",0,0,0,3,0
2,45.09,Patric ,1,LAT,"8,63",1,5,Vitória,1,"0,00",1,0,0,0,"0,00",0,0,0,0,0,0,1,"3,20",0,0,0,1,0
2,45.09,Gabriel ,0,MEI,"7,55",2,3,Corinthians,3,"7,10",0,0,0,0,"1,11",0,0,3,0,0,2,0,"3,10",0,0,1,0,0
2,45.09,Yuri ,0,MEI,"1,00",0,0,Botafogo,2,"0,00",0,0,0,0,"0,00",0,0,0,0,0,0,0,"0,00",0,0,0,0,0
2,45.09,Rodrigo Lindoso ,0,MEI,"11,22",1,3,Botafogo,3,"15,60",0,0,0,1,"5,22",0,0,5,0,0,1,0,"15,60",0,0,0,1,0
2,45.09,Negueba ,0,ATA,"6,00",0,0,Atlético-GO,2,"0,00",0,0,0,0,"0,00",0,0,0,0,0,0,0,"0,00",0,0,0,0,0
2,45.09,Borja ,2,ATA,"22,71",1,1,Palmeiras,3,"0,00",2,0,0,2,"0,00",0,0,0,0,0,2,0,"16,10",0,0,0,2,0
2,45.09,Vladimir Hernández ,1,ATA,"11,26",2,3,Santos,3,"-0,20",1,0,1,1,"-0,20",0,0,1,0,0,7,0,"5,00",0,0,1,3,0
3,20.003333333333334,Pachequinho ,0,TEC,"8,34",3,0,Coritiba,3,"4,11",0,0,0,0,"0,88",0,0,0,0,0,0,0,"4,22",0,0,0,0,0
3,20.003333333333334,Vanderlei ,0,GOL,"15,01",3,1,Santos,3,"1,00",0,0,0,0,"-2,53",0,7,0,0,0,0,1,"8,23",4,0,1,0,0
3,20.003333333333334,Yerry Mina ,0,ZAG,"15,27",2,5,Palmeiras,3,"2,90",1,0,0,0,"-2,13",0,0,5,0,0,0,1,"4,75",0,1,0,2,1
3,20.003333333333334,Henrique ,0,ZAG,"9,92",3,7,Fluminense,3,"-1,30",0,0,0,0,"-1,36",0,0,2,1,0,4,0,"1,93",0,0,0,2,0
3,20.003333333333334,Gilberto  ,1,LAT,"10,17",3,12,Vasco,3,"5,30",0,0,0,0,"0,75",0,0,12,0,0,4,0,"5,17",0,1,0,4,0
3,20.003333333333334,Patric ,1,LAT,"8,63",1,5,Vitória,2,"0,00",1,0,0,0,"0,00",0,0,0,0,0,0,1,"3,20",0,0,0,1,0
3,20.003333333333334,Gabriel ,0,MEI,"7,31",3,6,Corinthians,3,"2,50",0,0,0,0,"-0,24",0,0,5,0,0,3,0,"2,90",0,0,0,1,1
3,20.003333333333334,Yuri ,0,MEI,"1,00",0,0,Botafogo,2,"0,00",0,0,0,0,"0,00",0,0,0,0,0,0,0,"0,00",0,0,0,0,0
3,20.003333333333334,Rodrigo Lindoso ,0,MEI,"10,55",2,6,Botafogo,3,"3,00",0,0,0,1,"-0,67",0,0,7,0,0,2,0,"9,30",0,0,0,1,0
3,20.003333333333334,Negueba ,0,ATA,"6,00",0,0,Atlético-GO,2,"0,00",0,0,0,0,"0,00",0,0,0,0,0,0,0,"0,00",0,0,0,0,0
3,20.003333333333334,Lucas Barrios ,0,ATA,"11,95",2,2,Grêmio,3,"0,00",2,0,0,1,"0,00",0,0,1,0,1,4,0,"6,30",0,1,0,3,1
3,20.003333333333334,Pedro ,0,ATA,"5,00",0,0,Fluminense,2,"0,00",0,0,0,0,"0,00",0,0,0,0,0,0,0,"0,00",0,0,0,0,0
4,20.003333333333334,Pachequinho ,0,TEC,"9,39",4,0,Coritiba,3,"5,77",0,0,0,0,"1,05",0,0,0,0,0,0,0,"4,61",0,0,0,0,0
4,20.003333333333334,Vanderlei ,0,GOL,"14,10",4,1,Santos,3,"-1,00",0,0,0,0,"-0,91",0,8,0,0,0,0,1,"5,92",6,0,0,0,1
4,20.003333333333334,Yerry Mina ,2,ZAG,"17,41",3,5,Palmeiras,2,"10,50",1,0,1,0,"2,14",0,0,8,0,0,2,2,"6,67",0,0,1,6,0
4,20.003333333333334,Henrique ,0,ZAG,"9,60",4,12,Fluminense,2,"0,20",0,0,0,0,"-0,32",0,0,3,1,0,4,0,"1,50",0,0,0,2,0
4,20.003333333333334,Gilberto  ,1,LAT,"8,90",4,15,Vasco,3,"-1,20",0,0,2,0,"-1,27",0,0,13,0,0,5,0,"3,58",0,0,0,5,0
4,20.003333333333334,Patric ,1,LAT,"6,47",2,10,Vitória,3,"-2,00",1,0,0,0,"-2,16",0,0,0,0,0,0,1,"0,60",0,0,0,2,0
4,20.003333333333334,Gabriel ,0,MEI,"8,07",4,7,Corinthians,3,"4,30",0,0,0,0,"0,76",0,0,8,0,0,4,0,"3,25",0,0,1,3,0
4,20.003333333333334,Yuri ,0,MEI,"1,00",0,0,Botafogo,2,"0,00",0,0,0,0,"0,00",0,0,0,0,0,0,0,"0,00",0,0,0,0,0
4,20.003333333333334,Rodrigo Lindoso ,0,MEI,"10,55",2,6,Botafogo,2,"0,00",0,0,0,1,"0,00",0,0,7,0,0,2,0,"9,30",0,0,0,1,0
4,20.003333333333334,Negueba ,0,ATA,"6,00",0,0,Atlético-GO,2,"0,00",0,0,0,0,"0,00",0,0,0,0,0,0,0,"0,00",0,0,0,0,0
4,20.003333333333334,Lucas Barrios ,0,ATA,"11,95",3,2,Grêmio,3,"5,00",3,0,2,2,"0,00",0,0,1,0,1,5,0,"5,87",0,0,1,5,0
4,20.003333333333334,Pedro ,0,ATA,"5,00",0,0,Fluminense,2,"0,00",0,0,0,0,"0,00",0,0,0,0,0,0,0,"0,00",0,0,0,0,0
5,0.5,Abel Braga ,0,TEC,"12,31",4,0,Fluminense,2,"0,00",0,0,0,0,"0,00",0,0,0,0,0,0,0,"3,10",0,0,0,0,0
5,0.5,Renan Ribeiro ,0,GOL,"10,61",5,7,São Paulo,3,"10,40",0,0,1,0,"2,96",0,4,0,0,0,0,3,"3,78",2,0,0,0,0
5,0.5,Roger Carvalho ,1,ZAG,"7,84",5,9,Atlético-GO,3,"4,60",0,0,0,0,"0,36",0,0,10,0,0,11,1,"3,90",0,0,0,12,0
5,0.5,Cleberson ,0,ZAG,"2,69",1,4,Atlético-PR,2,"0,00",0,0,0,0,"0,00",0,0,0,0,0,0,0,"-1,20",0,0,0,0,0
5,0.5,Egídio ,0,LAT,"5,63",2,8,Palmeiras,3,"0,40",0,0,0,0,"-1,03",0,0,3,0,0,1,1,"3,60",0,0,0,2,0
5,0.5,William Matheus ,1,LAT,"8,43",5,16,Coritiba,3,"6,70",1,0,0,0,"1,19",0,0,5,0,0,10,3,"4,08",0,2,0,7,4
5,0.5,João Erick ,0,MEI,"2,00",0,0,Sport,2,"0,00",0,0,0,0,"0,00",0,0,0,0,0,0,0,"0,00",0,0,0,0,0
5,0.5,Jucilei ,1,MEI,"13,38",5,13,São Paulo,3,"6,80",0,0,0,0,"1,22",0,0,17,0,0,11,0,"4,74",0,0,0,15,0
5,0.5,Arouca ,0,MEI,"6,00",0,0,Palmeiras,5,"0,00",0,0,0,0,"0,00",0,0,0,0,0,0,0,"0,00",0,0,0,0,0
5,0.5,Luan ,4,ATA,"25,71",4,16,Grêmio,3,"29,90",1,0,0,3,"6,05",0,0,5,0,4,12,0,"13,75",0,0,0,6,2
5,0.5,Clayton ,0,ATA,"10,01",2,1,Corinthians,2,"15,50",0,0,0,2,"3,59",0,0,0,0,0,0,0,"7,35",0,0,0,2,0
5,0.5,Willians ,0,ATA,"5,00",0,0,Atlético-GO,2,"0,00",0,0,0,0,"0,00",0,0,0,0,0,0,0,"0,00",0,0,0,0,0
6,10.764999999999995,Guto Ferreira ,0,TEC,"8,76",1,0,Bahia,3,"8,39",0,0,0,0,"4,76",0,0,0,0,0,0,0,"8,39",0,0,0,0,0
6,10.764999999999995,Renan Ribeiro ,0,GOL,"8,95",6,7,São Paulo,3,"0,00",0,0,1,0,"-1,66",0,6,0,0,0,0,3,"3,15",5,0,0,0,0
6,10.764999999999995,Henrique ,0,ZAG,"3,00",0,0,Avaí,2,"0,00",0,0,0,0,"0,00",0,0,0,0,0,0,0,"0,00",0,0,0,0,0
6,10.764999999999995,Fred ,3,ZAG,"3,27",5,17,Vitória,3,"3,60",0,0,2,0,"0,45",0,0,3,0,0,0,1,"0,02",0,0,1,8,0
6,10.764999999999995,Jeferson ,0,LAT,"5,19",1,4,Ponte Preta,2,"0,00",0,0,0,0,"0,00",0,0,1,0,0,0,1,"4,50",0,0,0,2,0
6,10.764999999999995,Dodô ,2,LAT,"9,23",6,22,Coritiba,3,"-0,30",0,0,1,0,"-0,75",0,0,10,0,0,6,3,"4,05",0,0,2,11,0
6,10.764999999999995,Bruno Silva ,2,MEI,"10,83",5,19,Botafogo,3,"2,70",0,0,0,2,"-0,17",0,0,12,0,0,10,0,"5,32",0,4,0,9,2
6,10.764999999999995,Douglas ,9,MEI,"18,59",6,27,Vasco,3,"15,80",1,0,1,1,"2,72",0,0,15,1,0,13,0,"6,62",0,0,4,7,0
6,10.764999999999995,Alejandro Guerra ,1,MEI,"13,88",4,18,Palmeiras,3,"9,10",0,0,0,2,"1,24",0,0,3,0,0,11,0,"4,97",0,0,4,12,0
6,10.764999999999995,Henrique Almeida ,3,ATA,"15,79",6,15,Coritiba,3,"8,40",6,0,1,2,"1,34",0,0,8,1,0,12,0,"5,62",0,0,4,4,0
6,10.764999999999995,Yago ,0,ATA,"2,00",0,0,Atlético-PR,2,"0,00",0,0,0,0,"0,00",0,0,0,0,0,0,0,"0,00",0,0,0,0,0
6,10.764999999999995,Lucca ,3,ATA,"21,96",6,19,Ponte Preta,3,"14,80",2,0,0,5,"2,85",0,0,6,0,1,17,0,"9,77",0,0,4,9,0
7,29.439047619047614,Renato Gaúcho ,0,TEC,"16,04",7,0,Grêmio,3,"5,79",0,0,0,0,"-0,17",0,0,0,0,0,0,0,"6,34",0,0,0,0,0
7,29.439047619047614,Cássio ,0,GOL,"10,81",7,3,Corinthians,3,"11,00",0,0,0,0,"2,48",0,6,0,0,0,1,4,"3,95",5,0,0,0,0
7,29.439047619047614,Pablo ,5,ZAG,"10,41",6,8,Corinthians,3,"7,60",0,0,0,0,"1,48",0,0,2,0,0,1,3,"3,08",0,1,0,3,2
7,29.439047619047614,Victor Ramos ,2,ZAG,"7,61",7,17,Chapecoense,3,"-0,30",0,0,0,0,"-0,59",0,0,8,0,0,0,3,"2,85",0,1,0,10,2
7,29.439047619047614,Léo ,0,LAT,"3,30",6,18,Fluminense,3,"-0,40",2,0,0,0,"-0,58",0,0,5,0,1,3,0,"0,35",0,1,0,11,1
7,29.439047619047614,Reinaldo ,2,LAT,"12,25",7,37,Chapecoense,3,"0,80",0,0,0,2,"0,33",0,0,11,0,0,5,3,"5,15",0,1,0,9,0
7,29.439047619047614,Bruno Silva ,3,MEI,"13,96",6,22,Botafogo,3,"16,00",0,0,5,4,"3,13",0,0,13,0,0,12,0,"7,10",0,0,2,10,0
7,29.439047619047614,Douglas ,9,MEI,"16,36",7,30,Vasco,3,"1,80",1,0,0,1,"-2,23",0,0,16,1,0,15,0,"5,93",0,1,0,9,5
7,29.439047619047614,Alejandro Guerra ,1,MEI,"12,34",5,23,Palmeiras,3,"0,50",0,0,0,2,"-1,54",0,0,3,0,0,12,0,"4,08",0,0,0,13,6
7,29.439047619047614,Luan ,0,ATA,"8,00",0,0,Atlético-MG,2,"0,00",0,0,0,0,"0,00",0,0,0,0,0,0,0,"0,00",0,0,0,0,0
7,29.439047619047614,Everton ,2,ATA,"8,96",4,3,Grêmio,2,"-1,30",0,0,0,3,"-0,93",0,0,3,1,0,2,0,"8,40",0,1,0,3,3
7,29.439047619047614,Rildo ,0,ATA,"6,89",5,9,Coritiba,3,"1,70",1,0,0,1,"-0,24",0,0,6,0,0,12,0,"3,30",0,1,0,5,0
8,28.10178571428571,Renato Gaúcho ,0,TEC,"15,86",8,0,Grêmio,3,"4,22",0,0,0,0,"-0,18",0,0,0,0,0,0,0,"6,07",0,0,0,0,0
8,28.10178571428571,Cássio ,0,GOL,"10,87",8,4,Corinthians,3,"7,70",0,0,0,0,"0,06",0,7,0,0,0,1,5,"4,42",5,0,0,0,0
8,28.10178571428571,Maicon ,2,ZAG,"9,90",7,22,São Paulo,3,"2,80",0,0,1,0,"-0,54",0,0,8,0,0,2,3,"3,42",0,0,2,1,0
8,28.10178571428571,Fabián Noguera ,0,ZAG,"3,49",1,0,Santos,2,"0,00",0,0,0,0,"0,00",0,0,0,0,0,0,1,"5,00",0,0,0,0,0
8,28.10178571428571,Fernandinho ,0,LAT,"5,66",1,0,Ponte Preta,2,"0,00",0,0,0,0,"0,00",0,0,0,0,0,0,1,"5,00",0,0,0,0,0
8,28.10178571428571,Reinaldo ,2,LAT,"12,02",8,42,Chapecoense,3,"0,70",0,0,1,2,"-0,23",0,0,12,0,0,6,3,"4,59",0,0,0,9,0
8,28.10178571428571,Bruno Silva ,4,MEI,"13,48",7,25,Botafogo,3,"8,50",0,0,0,4,"-0,48",0,0,14,0,1,14,0,"7,30",0,5,0,10,3
8,28.10178571428571,Douglas ,10,MEI,"16,71",8,36,Vasco,3,"4,30",1,0,1,1,"0,35",0,0,18,1,0,18,0,"5,73",0,0,7,12,0
8,28.10178571428571,Alejandro Guerra ,3,MEI,"12,97",6,27,Palmeiras,3,"4,40",0,0,1,2,"0,63",0,0,4,0,1,12,0,"4,13",0,0,6,14,0
8,28.10178571428571,Luan ,0,ATA,"6,53",1,0,Atlético-MG,2,"1,70",0,0,0,0,"-1,47",0,0,1,0,0,1,0,"1,70",0,0,0,1,0
8,28.10178571428571,Everton ,2,ATA,"11,53",5,6,Grêmio,3,"11,30",0,0,1,4,"2,57",0,0,4,1,0,3,0,"8,98",0,0,5,3,0
8,28.10178571428571,Rildo ,0,ATA,"6,45",6,12,Coritiba,3,"-0,20",1,0,1,1,"-0,44",0,0,7,0,0,12,0,"2,72",0,0,0,7,0
9,28.10178571428571,Renato Gaúcho ,0,TEC,"16,37",9,0,Grêmio,3,"6,30",0,0,0,0,"0,51",0,0,0,0,0,0,0,"6,10",0,0,0,0,0
9,28.10178571428571,Cássio ,0,GOL,"11,33",9,5,Corinthians,3,"7,70",0,0,0,0,"0,46",0,8,0,0,0,1,6,"4,78",5,0,0,0,0
9,28.10178571428571,Maicon ,2,ZAG,"9,90",7,22,São Paulo,2,"0,00",0,0,0,0,"0,00",0,0,8,0,0,2,3,"3,42",0,1,0,1,2
9,28.10178571428571,Fabián Noguera ,0,ZAG,"3,49",1,0,Santos,2,"0,00",0,0,0,0,"0,00",0,0,0,0,0,0,1,"5,00",0,0,0,0,0
9,28.10178571428571,Fernandinho ,0,LAT,"5,66",1,0,Ponte Preta,2,"0,00",0,0,0,0,"0,00",0,0,0,0,0,0,1,"5,00",0,0,0,0,0
9,28.10178571428571,Reinaldo ,3,LAT,"11,72",9,47,Chapecoense,3,"0,20",0,0,0,2,"-0,30",0,0,12,0,0,6,3,"4,10",0,1,0,9,1
9,28.10178571428571,Bruno Silva ,4,MEI,"13,27",8,26,Botafogo,3,"5,40",0,0,5,4,"-0,21",0,0,15,0,2,15,0,"7,06",0,0,3,13,0
9,28.10178571428571,Douglas ,13,MEI,"16,59",9,40,Vasco,3,"3,60",1,0,0,1,"-0,12",0,0,19,1,0,20,0,"5,49",0,1,0,14,8
9,28.10178571428571,Alejandro Guerra ,4,MEI,"11,45",7,34,Palmeiras,3,"-2,90",0,0,0,2,"-1,52",0,0,4,0,1,12,0,"3,13",0,2,0,15,7
9,28.10178571428571,Luan ,0,ATA,"6,46",2,1,Atlético-MG,2,"1,40",0,0,0,0,"-0,07",0,0,2,0,0,1,0,"1,55",0,0,0,1,0
9,28.10178571428571,Everton ,2,ATA,"9,67",6,6,Grêmio,3,"-0,50",0,0,0,4,"-1,86",0,0,4,1,0,3,0,"7,40",0,1,0,4,5
9,28.10178571428571,Rildo ,1,ATA,"7,70",7,13,Coritiba,3,"6,10",1,0,0,1,"1,25",0,0,8,0,0,18,0,"3,20",0,1,0,7,1
10,0.0,Renato Gaúcho ,0,TEC,"15,87",10,0,Grêmio,3,"0,00",0,0,0,0,"-0,50",0,0,0,0,0,0,0,"5,77",0,0,0,0,0
10,0.0,Cássio ,0,GOL,"13,59",10,0,Corinthians,3,"0,00",0,0,0,0,"2,26",0,0,0,0,0,0,0,"5,90",0,0,0,0,0
10,0.0,Maicon ,0,ZAG,"9,90",7,0,São Paulo,2,"0,00",0,0,0,0,"0,00",0,0,0,0,0,0,0,"3,42",0,0,0,0,0
10,0.0,Augusto ,0,ZAG,"1,00",0,0,Palmeiras,2,"0,00",0,0,0,0,"0,00",0,0,0,0,0,0,0,"0,00",0,0,0,0,0
10,0.0,Fernandinho ,0,LAT,"5,66",1,0,Ponte Preta,3,"0,00",0,0,0,0,"0,00",0,0,0,0,0,0,0,"5,00",0,0,0,0,0
10,0.0,Wellington Silva ,0,LAT,"7,00",0,0,Bahia,5,"0,00",0,0,0,0,"0,00",0,0,0,0,0,0,0,"0,00",0,0,0,0,0
10,0.0,Danilo ,0,MEI,"5,00",0,0,Corinthians,5,"0,00",0,0,0,0,"0,00",0,0,0,0,0,0,0,"0,00",0,0,0,0,0
10,0.0,Bruno Ramires ,0,MEI,"5,00",0,0,Vitória,5,"0,00",0,0,0,0,"0,00",0,0,0,0,0,0,0,"0,00",0,0,0,0,0
10,0.0,Alejandro Guerra ,0,MEI,"15,03",8,0,Palmeiras,5,"0,00",0,0,0,0,"3,58",0,0,0,0,0,0,0,"4,66",0,0,0,0,0
10,0.0,Alison ,0,ATA,"1,00",0,0,Sport,2,"0,00",0,0,0,0,"0,00",0,0,0,0,0,0,0,"0,00",0,0,0,0,0
10,0.0,Borja ,0,ATA,"17,28",5,0,Palmeiras,3,"0,00",0,0,0,0,"-1,58",0,0,0,0,0,0,0,"5,10",0,0,0,0,0
10,0.0,Erik ,0,ATA,"5,35",4,0,Palmeiras,3,"0,00",0,0,0,0,"1,03",0,0,0,0,0,0,0,"3,25",0,0,0,0,0
11,0.42818181818181866,Pachequinho ,0,TEC,"9,89",11,0,Coritiba,3,"4,00",0,0,0,0,"0,43",0,0,0,0,0,0,0,"3,74",0,0,0,0,0
11,0.42818181818181866,Vanderlei ,0,GOL,"20,83",11,3,Santos,3,"10,50",0,0,0,0,"1,77",0,26,0,0,0,1,6,"9,55",8,0,2,1,0
11,0.42818181818181866,Yerry Mina ,2,ZAG,"15,15",6,15,Palmeiras,4,"0,00",1,0,0,1,"0,00",0,0,12,0,0,7,3,"5,38",0,3,0,14,2
11,0.42818181818181866,Henrique ,1,ZAG,"8,11",10,23,Fluminense,3,"-0,20",0,0,0,0,"-0,18",0,0,7,1,0,15,1,"1,22",0,2,0,13,1
11,0.42818181818181866,Gilberto  ,3,LAT,"11,18",11,53,Vasco,3,"1,70",1,0,0,0,"-1,24",0,0,31,1,1,15,2,"4,85",0,2,0,16,1
11,0.42818181818181866,Artur ,0,LAT,"4,00",0,0,Ponte Preta,2,"0,00",0,0,0,0,"0,00",0,0,0,0,0,0,0,"0,00",0,0,0,0,0
11,0.42818181818181866,Cícero ,3,MEI,"4,87",8,12,São Paulo,1,"0,00",2,0,0,0,"0,00",0,0,1,0,0,7,0,"-0,85",0,2,0,11,0
11,0.42818181818181866,Cuéllar ,0,MEI,"5,10",6,11,Flamengo,3,"9,50",0,0,0,0,"2,04",0,0,15,0,0,2,0,"2,62",0,2,0,9,1
11,0.42818181818181866,Renê Júnior ,6,MEI,"9,11",8,20,Bahia,3,"2,00",3,1,0,1,"0,58",0,0,24,0,0,18,0,"5,31",0,2,0,10,2
11,0.42818181818181866,Luan ,0,ATA,"6,32",3,2,Atlético-MG,1,"0,00",0,0,0,0,"0,00",0,0,2,0,0,2,0,"1,27",0,0,1,2,0
11,0.42818181818181866,Everton ,3,ATA,"9,80",8,7,Grêmio,3,"1,50",0,0,0,4,"0,10",0,0,4,1,0,5,0,"5,79",0,1,0,5,6
11,0.42818181818181866,Rildo ,3,ATA,"6,85",9,20,Coritiba,3,"0,90",1,0,0,1,"0,02",0,0,8,0,0,22,0,"2,63",0,1,0,7,1
12,11.206868686868694,Renato Gaúcho ,0,TEC,"15,48",12,0,Grêmio,3,"2,35",0,0,0,0,"0,39",0,0,0,0,0,0,0,"4,96",0,0,0,0,0
12,11.206868686868694,Jean ,0,GOL,"10,28",12,11,Bahia,3,"-2,00",0,0,0,0,"-3,35",0,20,0,0,0,1,4,"3,93",14,0,0,0,0
12,11.206868686868694,Léo ,2,ZAG,"8,77",11,26,Cruzeiro,3,"2,00",0,0,3,0,"0,30",0,0,6,0,1,10,4,"2,39",0,0,1,9,0
12,11.206868686868694,Durval ,0,ZAG,"6,61",9,11,Sport,3,"0,00",0,0,0,0,"0,00",0,0,9,0,1,5,3,"3,38",0,0,0,8,0
12,11.206868686868694,Yago Pikachu ,1,LAT,"8,97",9,21,Vasco,3,"-0,60",0,0,0,2,"-0,59",0,0,6,0,1,8,2,"4,17",0,0,0,7,2
12,11.206868686868694,Daniel Guedes  ,0,LAT,"3,25",2,4,Santos,2,"0,00",0,1,0,0,"0,00",0,0,5,0,0,2,1,"3,15",0,0,1,6,0
12,11.206868686868694,Silva ,1,MEI,"3,22",5,5,Atlético-GO,3,"2,40",0,0,1,0,"0,06",0,0,8,0,0,3,0,"1,64",0,0,0,13,0
12,11.206868686868694,Bruno Silva ,6,MEI,"13,04",11,35,Botafogo,3,"3,60",0,0,5,4,"0,46",0,0,19,0,2,16,0,"5,83",0,0,3,17,0
12,11.206868686868694,Rodriguinho ,5,MEI,"15,07",9,29,Corinthians,3,"5,80",1,0,2,1,"0,21",0,0,9,0,2,17,0,"4,09",0,0,6,14,0
12,11.206868686868694,Neilton ,0,ATA,"5,00",0,0,São Paulo,2,"0,00",0,0,0,0,"0,00",0,0,0,0,0,0,0,"0,00",0,0,0,0,0
12,11.206868686868694,Clayton ,0,ATA,"7,66",3,2,Corinthians,2,"0,00",0,0,0,2,"0,00",0,0,0,0,0,0,0,"4,80",0,0,0,2,0
12,11.206868686868694,Joel ,0,ATA,"2,62",1,1,Botafogo,2,"-0,30",0,0,0,0,"-1,38",0,0,0,0,0,0,0,"-0,30",0,0,0,0,0
13,8.330477855477856,Renato Gaúcho ,0,TEC,"15,92",13,0,Grêmio,3,"4,85",0,0,0,0,"0,44",0,0,0,0,0,0,0,"4,95",0,0,0,0,0
13,8.330477855477856,Jean ,0,GOL,"13,92",13,11,Bahia,3,"17,00",0,0,0,0,"3,64",0,20,0,0,0,1,4,"4,94",15,0,0,0,0
13,8.330477855477856,Léo ,2,ZAG,"9,67",12,29,Cruzeiro,3,"6,40",0,0,0,0,"0,90",0,0,8,0,1,10,4,"2,72",0,3,0,10,1
13,8.330477855477856,Durval ,0,ZAG,"7,26",10,11,Sport,2,"6,10",0,0,0,0,"0,65",0,0,9,0,1,5,3,"3,65",0,0,0,8,0
13,8.330477855477856,Yago Pikachu ,1,LAT,"9,46",10,23,Vasco,3,"2,60",0,0,0,2,"0,49",0,0,6,0,1,9,2,"4,01",0,0,2,8,0
13,8.330477855477856,Daniel Guedes  ,0,LAT,"5,19",3,4,Santos,3,"12,10",0,1,0,0,"1,94",0,0,5,0,0,2,1,"6,13",0,0,0,6,1
13,8.330477855477856,Diego Jardel ,0,MEI,"6,00",0,0,Avaí,2,"0,00",0,0,0,0,"0,00",0,0,0,0,0,0,0,"0,00",0,0,0,0,0
13,8.330477855477856,Bruno Silva ,7,MEI,"13,04",11,40,Botafogo,3,"0,00",0,0,0,4,"0,00",0,0,21,0,2,19,0,"5,83",0,5,0,18,3
13,8.330477855477856,Everton Felipe ,4,MEI,"5,05",9,40,Sport,3,"7,30",1,0,0,0,"1,55",0,0,7,0,0,7,0,"1,50",0,1,0,11,8
13,8.330477855477856,Jô ,4,ATA,"11,29",13,26,Corinthians,3,"-2,70",12,0,0,7,"-2,03",1,0,2,0,2,16,0,"3,94",0,2,0,24,7
13,8.330477855477856,Copete ,6,ATA,"9,44",9,35,Santos,4,"0,00",3,0,3,5,"0,00",0,0,4,0,0,8,0,"3,60",0,0,3,15,0
13,8.330477855477856,Rodrigão ,0,ATA,"6,00",0,0,Santos,2,"0,00",0,0,0,0,"0,00",0,0,0,0,0,0,0,"0,00",0,0,0,0,0
14,10.122635697635694,Renato Gaúcho ,0,TEC,"16,03",14,0,Grêmio,3,"4,90",0,0,0,0,"0,11",0,0,0,0,0,0,0,"4,95",0,0,0,0,0
14,10.122635697635694,Jean ,0,GOL,"10,76",14,11,Bahia,3,"-2,60",0,0,0,0,"-3,16",0,24,0,0,0,1,5,"4,40",15,0,0,0,0
14,10.122635697635694,Léo ,2,ZAG,"8,91",13,30,Cruzeiro,3,"1,40",0,0,3,0,"-0,76",0,0,9,0,1,10,5,"2,62",0,0,1,10,0
14,10.122635697635694,Henrique ,1,ZAG,"8,31",12,26,Fluminense,4,"0,00",0,0,3,0,"0,00",0,0,10,1,0,18,1,"1,24",0,0,1,15,0
14,10.122635697635694,Yago Pikachu ,1,LAT,"10,85",11,25,Vasco,3,"9,20",1,0,0,2,"1,39",0,0,7,0,1,11,2,"4,48",0,0,0,8,3
14,10.122635697635694,Daniel Guedes  ,1,LAT,"3,92",4,5,Santos,3,"2,70",0,1,1,1,"-1,27",0,0,6,0,0,2,2,"5,27",0,0,1,8,0
14,10.122635697635694,Diego Jardel ,0,MEI,"6,00",0,0,Avaí,2,"0,00",0,0,0,0,"0,00",0,0,0,0,0,0,0,"0,00",0,0,0,0,0
14,10.122635697635694,Bruno Silva ,7,MEI,"13,04",11,40,Botafogo,2,"0,00",0,0,5,4,"0,00",0,0,21,0,2,19,0,"5,83",0,0,3,18,0
14,10.122635697635694,Everton Felipe ,6,MEI,"4,27",10,46,Sport,3,"1,70",1,0,1,0,"-0,78",0,0,8,0,1,10,0,"1,52",0,0,8,12,0
14,10.122635697635694,Jô ,4,ATA,"15,46",14,30,Corinthians,3,"19,20",15,0,2,7,"4,17",1,0,2,0,2,16,0,"5,03",0,0,7,24,0
14,10.122635697635694,Copete ,6,ATA,"6,25",10,35,Santos,3,"0,60",3,0,0,5,"-3,19",0,0,4,0,0,8,0,"3,30",0,3,0,15,3
14,10.122635697635694,Rodrigão ,0,ATA,"6,00",0,0,Santos,2,"0,00",0,0,0,0,"0,00",0,0,0,0,0,0,0,"0,00",0,0,0,0,0
15,43.21680153180153,Renato Gaúcho ,0,TEC,"15,46",15,0,Grêmio,3,"3,21",0,0,0,0,"-0,57",0,0,0,0,0,0,0,"4,83",0,0,0,0,0
15,43.21680153180153,Jean ,0,GOL,"14,35",15,13,Bahia,3,"18,00",0,0,0,0,"3,59",0,29,0,0,0,1,6,"5,31",16,1,0,0,0
15,43.21680153180153,Léo ,3,ZAG,"8,26",14,32,Cruzeiro,3,"-0,90",0,0,0,0,"-0,65",0,0,11,0,1,10,5,"2,37",0,4,0,12,1
15,43.21680153180153,Henrique ,1,ZAG,"7,59",13,27,Fluminense,3,"-0,80",0,0,0,0,"-0,72",0,0,10,1,0,19,1,"1,08",0,3,0,17,1
15,43.21680153180153,Yago Pikachu ,4,LAT,"9,41",12,29,Vasco,3,"1,10",1,0,0,2,"-1,44",0,0,9,0,1,12,3,"4,20",0,0,4,9,0
15,43.21680153180153,Daniel Guedes  ,1,LAT,"3,92",4,8,Santos,3,"0,00",0,2,0,1,"0,00",0,0,9,0,0,2,3,"5,27",0,1,0,11,1
15,43.21680153180153,Diego Jardel ,0,MEI,"6,00",0,0,Avaí,2,"0,00",0,0,0,0,"0,00",0,0,0,0,0,0,0,"0,00",0,0,0,0,0
15,43.21680153180153,Bruno Silva ,7,MEI,"13,79",12,44,Botafogo,3,"9,50",0,0,0,4,"0,75",0,0,27,0,2,22,0,"6,14",0,5,0,20,3
15,43.21680153180153,Everton Felipe ,6,MEI,"4,23",11,58,Sport,3,"1,70",2,0,0,0,"-0,04",0,0,13,0,1,15,0,"1,54",0,2,0,17,9
15,43.21680153180153,Jô ,8,ATA,"12,45",15,37,Corinthians,3,"1,20",15,0,0,9,"-3,01",1,0,3,0,2,16,0,"4,77",0,2,0,26,10
15,43.21680153180153,Bruno Henrique ,5,ATA,"11,18",11,40,Santos,3,"0,00",4,1,3,0,"0,00",0,0,11,1,5,32,0,"2,97",0,0,6,30,0
15,43.21680153180153,Lucca ,14,ATA,"23,05",15,44,Ponte Preta,3,"15,40",6,0,0,8,"1,44",1,0,17,0,1,53,0,"8,14",0,1,0,15,17
16,43.21680153180153,Renato Gaúcho ,0,TEC,"15,66",16,0,Grêmio,3,"3,55",0,0,0,0,"0,20",0,0,0,0,0,0,0,"4,75",0,0,0,0,0
16,43.21680153180153,Jean ,0,GOL,"11,68",16,13,Bahia,3,"0,00",0,0,1,0,"-2,67",0,29,0,0,0,1,6,"4,98",16,0,0,0,0
16,43.21680153180153,Léo ,3,ZAG,"9,12",15,32,Cruzeiro,3,"3,80",0,0,4,0,"0,86",0,0,11,0,1,10,5,"2,47",0,0,1,12,0
16,43.21680153180153,Henrique ,1,ZAG,"8,67",14,27,Fluminense,3,"5,00",0,0,3,0,"1,08",0,0,10,1,0,19,1,"1,36",0,0,1,17,0
16,43.21680153180153,Yago Pikachu ,4,LAT,"9,41",12,29,Vasco,2,"0,00",1,0,0,2,"0,00",0,0,9,0,1,12,3,"4,20",0,0,0,9,4
16,43.21680153180153,Daniel Guedes  ,1,LAT,"4,33",5,8,Santos,3,"4,60",0,2,1,1,"0,41",0,0,9,0,0,2,3,"5,14",0,0,1,11,0
16,43.21680153180153,Diego Jardel ,0,MEI,"6,00",0,0,Avaí,2,"0,00",0,0,0,0,"0,00",0,0,0,0,0,0,0,"0,00",0,0,0,0,0
16,43.21680153180153,Bruno Silva ,7,MEI,"11,81",13,44,Botafogo,3,"-2,80",0,0,5,4,"-1,98",0,0,27,0,2,22,0,"5,45",0,0,3,20,0
16,43.21680153180153,Everton Felipe ,6,MEI,"4,56",12,58,Sport,3,"3,00",2,0,2,0,"0,33",0,0,13,0,1,15,0,"1,66",0,0,9,17,0
16,43.21680153180153,Jô ,8,ATA,"12,09",16,37,Corinthians,3,"-0,80",15,0,2,9,"-0,36",1,0,3,0,2,16,0,"4,42",0,0,10,26,0
16,43.21680153180153,Bruno Henrique ,5,ATA,"15,73",12,40,Santos,3,"23,70",4,1,0,0,"4,55",0,0,11,1,5,32,0,"4,70",0,3,0,30,6
16,43.21680153180153,Lucca ,14,ATA,"24,02",16,44,Ponte Preta,3,"16,60",6,0,1,8,"0,97",1,0,17,0,1,53,0,"8,67",0,0,17,15,0
17,21.293095238095237,Fábio Carille ,0,TEC,"11,33",17,0,Corinthians,3,"2,61",0,0,0,0,"-0,46",0,0,0,0,0,0,0,"4,58",0,0,0,0,0
17,21.293095238095237,Douglas Friedrich ,0,GOL,"7,74",8,0,Avaí,3,"-3,50",0,0,0,0,"-3,87",0,26,0,0,0,3,5,"11,94",7,1,1,0,0
17,21.293095238095237,Marcio ,0,ZAG,"2,00",0,0,Coritiba,2,"0,00",0,0,0,0,"0,00",0,0,0,0,0,0,0,"0,00",0,0,0,0,0
17,21.293095238095237,Kanu ,0,ZAG,"8,00",0,0,Vitória,2,"0,00",0,0,0,0,"0,00",0,0,0,0,0,0,0,"0,00",0,0,0,0,0
17,21.293095238095237,Arnaldo ,0,LAT,"3,00",0,0,Botafogo,2,"0,00",0,0,0,0,"0,00",0,0,0,0,0,0,0,"0,00",0,0,0,0,0
17,21.293095238095237,Marcos Rocha ,3,LAT,"11,61",6,33,Atlético-MG,3,"12,30",0,0,1,0,"0,78",0,0,18,0,2,7,1,"5,22",0,0,1,18,0
17,21.293095238095237,Lucas Fernandes ,0,MEI,"4,00",0,0,São Paulo,2,"0,00",0,0,0,0,"0,00",0,0,0,0,0,0,0,"0,00",0,0,0,0,0
17,21.293095238095237,Zé Rafael  ,11,MEI,"21,30",16,36,Bahia,3,"14,70",3,0,0,1,"1,48",0,0,42,0,3,52,0,"6,80",0,3,0,34,16
17,21.293095238095237,Maycon ,0,MEI,"5,94",1,6,Corinthians,3,"0,40",0,0,0,0,"-2,06",0,0,1,0,0,1,0,"0,40",0,0,0,0,0
17,21.293095238095237,Luan ,14,ATA,"21,66",14,70,Grêmio,3,"1,80",3,0,1,5,"-0,61",1,0,21,0,6,34,0,"7,97",0,0,15,16,0
17,21.293095238095237,Jean Pineda ,0,ATA,"3,32",1,1,Vitória,2,"-0,30",0,0,0,0,"-1,68",0,0,0,0,0,0,0,"-0,30",0,0,0,0,0
17,21.293095238095237,Mário ,0,ATA,"1,00",0,0,Bahia,2,"0,00",0,0,0,0,"0,00",0,0,0,0,0,0,0,"0,00",0,0,0,0,0
18,21.293095238095237,Fábio Carille ,0,TEC,"12,32",18,0,Corinthians,3,"6,62",0,0,0,0,"0,99",0,0,0,0,0,0,0,"4,69",0,0,0,0,0
18,21.293095238095237,Douglas Friedrich ,0,GOL,"6,97",9,0,Avaí,3,"-7,00",0,0,1,0,"-0,77",0,27,0,0,0,3,5,"9,84",12,0,0,0,1
18,21.293095238095237,Marcio ,3,ZAG,"6,51",16,28,Coritiba,3,"-0,30",1,0,0,1,"-0,14",0,0,13,0,1,8,5,"2,71",0,3,0,20,2
18,21.293095238095237,Kanu ,8,ZAG,"8,04",12,29,Vitória,3,"-0,10",4,0,1,2,"-0,69",0,0,17,0,1,7,3,"3,86",0,3,0,12,1
18,21.293095238095237,Arnaldo ,0,LAT,"8,90",13,39,Botafogo,5,"0,00",0,0,2,0,"0,00",0,0,24,0,1,17,5,"4,32",0,0,1,17,0
18,21.293095238095237,Marcos Rocha ,3,LAT,"8,91",7,41,Atlético-MG,2,"-4,90",0,0,0,0,"-2,70",0,0,18,0,2,8,1,"3,77",0,2,0,20,1
18,21.293095238095237,Lucas Fernandes ,3,MEI,"4,97",6,4,São Paulo,5,"0,00",0,0,0,1,"0,00",0,0,3,0,0,4,0,"2,42",0,1,0,3,2
18,21.293095238095237,Zé Rafael  ,11,MEI,"20,28",17,39,Bahia,3,"5,20",3,0,3,1,"-1,02",0,0,45,0,3,55,0,"6,71",0,0,16,35,0
18,21.293095238095237,Maycon ,9,MEI,"8,58",18,59,Corinthians,3,"5,80",0,0,0,1,"0,74",0,0,27,0,2,8,0,"3,12",0,0,5,11,0
18,21.293095238095237,Luan ,14,ATA,"21,66",14,70,Grêmio,1,"0,00",3,0,0,5,"0,00",1,0,21,0,6,34,0,"7,97",0,1,0,16,15
18,21.293095238095237,Jean Pineda ,0,ATA,"2,38",2,3,Vitória,2,"0,00",0,0,0,0,"0,00",0,0,0,0,0,1,0,"-0,20",0,0,0,0,0
18,21.293095238095237,Mário ,0,ATA,"1,00",0,0,Bahia,2,"0,00",0,0,0,0,"0,00",0,0,0,0,0,0,0,"0,00",0,0,0,0,0
19,5.584303467000833,Pachequinho ,0,TEC,"6,53",1,0,Coritiba,3,"7,23",0,0,0,0,"4,53",0,0,0,0,0,0,0,"7,23",0,0,0,0,0
19,5.584303467000833,Renan Ribeiro ,0,GOL,"8,40",19,15,São Paulo,3,"-4,30",0,0,1,0,"-0,85",0,25,0,0,0,1,5,"2,20",26,0,0,0,0
19,5.584303467000833,Henrique ,1,ZAG,"7,83",16,31,Fluminense,3,"-0,50",0,0,0,0,"-1,32",0,0,15,2,0,22,1,"1,58",0,3,0,19,1
19,5.584303467000833,Rodrigo Caio ,3,ZAG,"9,52",14,27,São Paulo,3,"0,00",1,0,0,0,"0,00",0,0,22,1,0,8,3,"2,64",0,6,0,11,1
19,5.584303467000833,Cascardo ,0,LAT,"4,01",8,20,Atlético-PR,2,"0,00",0,0,0,0,"0,00",0,0,7,0,0,11,3,"2,99",0,0,1,7,0
19,5.584303467000833,Caio ,0,LAT,"2,00",0,0,Sport,2,"0,00",0,0,0,0,"0,00",0,0,0,0,0,0,0,"0,00",0,0,0,0,0
19,5.584303467000833,Zé Rafael  ,11,MEI,"19,77",18,39,Bahia,3,"3,90",5,0,3,1,"-0,51",0,0,47,0,3,59,0,"6,55",0,0,17,38,0
19,5.584303467000833,Alípio ,0,MEI,"5,00",0,0,Atlético-GO,2,"0,00",0,0,0,0,"0,00",0,0,0,0,0,0,0,"0,00",0,0,0,0,0
19,5.584303467000833,Rithely ,14,MEI,"11,09",16,53,Sport,3,"2,50",1,0,4,1,"-0,30",0,0,39,0,2,17,0,"4,48",0,0,5,23,0
19,5.584303467000833,Walterson ,0,ATA,"3,32",1,0,Atlético-GO,3,"2,70",0,0,0,0,"1,32",0,0,1,0,0,1,0,"2,70",0,0,1,1,0
19,5.584303467000833,Bruno Henrique ,7,ATA,"13,10",15,47,Santos,3,"3,50",4,1,3,4,"-1,11",0,0,14,1,6,44,0,"5,17",0,0,8,39,0
19,5.584303467000833,Lucca ,16,ATA,"21,36",18,52,Ponte Preta,3,"2,60",6,0,0,10,"-0,24",1,0,18,0,1,64,0,"7,94",0,1,0,20,18
20,0.0,Pachequinho ,0,TEC,"6,53",1,0,Coritiba,3,"7,23",0,0,0,0,"4,53",0,0,0,0,0,0,0,"7,23",0,0,0,0,0
20,0.0,Renan Ribeiro ,0,GOL,"8,90",20,15,São Paulo,3,"-0,50",0,0,0,0,"0,50",0,27,0,0,0,1,5,"2,06",28,2,0,1,0
20,0.0,Zé Ivaldo ,0,ZAG,"1,28",3,2,Atlético-PR,2,"0,00",0,0,1,0,"-0,37",0,0,0,0,0,0,1,"0,63",0,0,0,1,0
20,0.0,Pedro Henrique ,2,ZAG,"9,61",12,16,Corinthians,2,"0,00",0,0,0,1,"0,00",0,0,10,0,0,4,7,"4,88",0,0,2,4,0
20,0.0,Arnaldo ,0,LAT,"10,15",14,41,Botafogo,2,"10,50",0,0,0,0,"1,25",0,0,27,0,1,19,6,"4,76",0,2,0,19,2
20,0.0,Capa ,8,LAT,"12,82",19,104,Avaí,3,"9,40",4,0,1,0,"0,58",0,0,42,0,1,48,8,"4,58",0,3,0,32,2
20,0.0,Fábio ,0,MEI,"3,00",0,0,Sport,2,"0,00",0,0,0,0,"0,00",0,0,0,0,0,0,0,"0,00",0,0,0,0,0
20,0.0,Alípio ,0,MEI,"5,00",0,0,Atlético-GO,2,"0,00",0,0,0,0,"0,00",0,0,0,0,0,0,0,"0,00",0,0,0,0,0
20,0.0,Rithely ,15,MEI,"11,56",17,58,Sport,3,"4,80",1,0,0,1,"0,47",0,0,42,0,2,17,0,"4,50",0,4,0,24,6
20,0.0,Walterson ,0,ATA,"3,32",1,0,Atlético-GO,3,"2,70",0,0,0,0,"1,32",0,0,1,0,0,1,0,"2,70",0,0,0,1,1
20,0.0,Bruno Henrique ,7,ATA,"13,10",15,47,Santos,3,"0,00",4,1,0,4,"0,00",0,0,14,1,6,44,0,"5,17",0,3,0,39,8
20,0.0,Lucca ,17,ATA,"21,15",19,53,Ponte Preta,1,"1,60",6,0,2,10,"-0,21",1,0,19,0,1,65,0,"7,61",0,0,20,22,0
21,2.4382598039215684,Fábio Carille ,0,TEC,"11,54",20,0,Corinthians,3,"2,62",0,0,0,0,"-0,88",0,0,0,0,0,0,0,"4,71",0,0,0,0,0
21,2.4382598039215684,Aranha ,0,GOL,"10,98",20,7,Ponte Preta,3,"-4,00",0,0,2,0,"-2,45",0,32,1,0,0,3,9,"4,41",25,0,0,0,0
21,2.4382598039215684,Juan ,5,ZAG,"6,65",8,11,Flamengo,2,"0,00",0,0,3,0,"0,00",0,0,11,1,2,5,1,"4,23",0,0,3,6,0
21,2.4382598039215684,Gabriel ,3,ZAG,"8,82",12,24,Atlético-MG,3,"0,00",0,0,0,1,"0,00",0,0,15,0,0,9,4,"3,66",0,1,0,16,1
21,2.4382598039215684,Mena ,1,LAT,"5,35",10,27,Sport,3,"0,20",3,1,0,1,"-1,43",0,0,20,0,4,10,4,"5,82",0,3,0,20,1
21,2.4382598039215684,Luis Ricardo ,0,LAT,"6,11",4,8,Botafogo,2,"0,00",0,0,0,0,"0,00",0,0,3,0,1,0,0,"1,68",0,0,0,2,0
21,2.4382598039215684,Felipe Melo ,2,MEI,"8,27",5,10,Palmeiras,2,"0,00",0,0,0,0,"0,00",0,0,9,0,0,9,0,"2,04",0,2,0,10,1
21,2.4382598039215684,Kaio ,1,MEI,"4,29",4,10,Grêmio,3,"6,20",0,0,0,0,"0,99",0,0,6,0,0,15,0,"2,98",0,1,0,7,2
21,2.4382598039215684,Renê Júnior ,16,MEI,"11,06",17,47,Bahia,3,"2,70",3,1,0,3,"-0,81",0,0,48,0,0,40,0,"6,04",0,3,0,31,8
21,2.4382598039215684,Júnior Dutra ,15,ATA,"9,67",15,41,Avaí,3,"12,20",2,0,1,5,"0,90",0,0,13,2,1,23,0,"5,13",0,0,7,22,0
21,2.4382598039215684,Copete ,12,ATA,"6,36",16,57,Santos,3,"2,20",7,0,3,5,"-0,07",0,0,11,0,0,21,0,"2,78",0,0,5,23,0
21,2.4382598039215684,Arthur Gomes ,0,ATA,"1,84",5,3,Santos,2,"0,00",0,0,0,0,"0,00",0,0,1,0,0,6,0,"0,86",0,0,0,1,1
22,11.047147682039324,Abel Braga ,0,TEC,"11,57",20,0,Fluminense,3,"0,93",0,0,0,0,"-0,40",0,0,0,0,0,0,0,"3,23",0,0,0,0,0
22,11.047147682039324,Wilson ,0,GOL,"14,88",22,13,Coritiba,3,"10,50",0,0,2,0,"0,79",0,43,0,0,0,5,7,"5,07",27,0,0,0,1
22,11.047147682039324,Zé Ivaldo ,0,ZAG,"1,97",5,7,Atlético-PR,3,"1,80",0,0,2,0,"-1,24",0,0,7,0,0,0,2,"2,86",0,0,1,5,0
22,11.047147682039324,Pedro Henrique ,3,ZAG,"9,12",14,18,Corinthians,3,"3,40",0,0,0,1,"-0,34",0,0,15,0,0,8,7,"4,90",0,0,2,5,0
22,11.047147682039324,Gilberto  ,7,LAT,"11,59",19,91,Vasco,3,"3,50",2,0,6,0,"0,97",0,0,54,1,1,28,4,"4,52",0,0,1,28,0
22,11.047147682039324,Fagner ,3,LAT,"13,18",17,81,Corinthians,3,"5,00",2,0,4,0,"0,46",0,0,30,1,2,28,11,"5,55",0,0,1,18,0
22,11.047147682039324,Paulo Roberto ,0,MEI,"3,53",5,15,Corinthians,2,"0,00",0,0,0,0,"0,00",0,0,3,0,2,3,0,"2,32",0,0,1,3,0
22,11.047147682039324,Alípio ,0,MEI,"5,00",0,0,Atlético-GO,2,"0,00",0,0,0,0,"0,00",0,0,0,0,0,0,0,"0,00",0,0,0,0,0
22,11.047147682039324,Nonoca ,1,MEI,"1,91",5,4,Cruzeiro,2,"0,70",0,0,0,0,"-0,49",0,0,5,0,0,3,0,"1,60",0,0,0,3,0
22,11.047147682039324,Emerson Sheik ,6,ATA,"5,09",14,39,Ponte Preta,3,"-1,90",2,0,8,4,"-2,50",0,0,5,0,1,42,0,"2,71",0,0,6,20,0
22,11.047147682039324,Rildo ,6,ATA,"8,42",19,48,Coritiba,3,"0,20",5,0,3,4,"-0,08",0,0,17,0,2,65,0,"4,12",0,0,5,23,0
22,11.047147682039324,Everaldo ,1,ATA,"6,30",1,1,Atlético-GO,3,"4,90",1,0,0,0,"2,30",0,0,0,0,0,0,0,"4,90",0,0,5,0,0
23,11.047147682039324,Abel Braga ,0,TEC,"11,64",21,0,Fluminense,3,"1,57",0,0,0,0,"0,07",0,0,0,0,0,0,0,"3,15",0,0,0,0,0
23,11.047147682039324,Wilson ,0,GOL,"14,50",23,13,Coritiba,3,"7,00",0,0,0,0,"-0,38",0,46,0,0,0,5,7,"5,15",28,2,1,0,0
23,11.047147682039324,Zé Ivaldo ,0,ZAG,"1,97",5,7,Atlético-PR,2,"0,00",0,0,0,0,"0,00",0,0,7,0,0,0,2,"2,86",0,2,0,5,1
23,11.047147682039324,Pedro Henrique ,3,ZAG,"9,12",14,18,Corinthians,2,"0,00",0,0,0,1,"0,00",0,0,15,0,0,8,7,"4,90",0,0,0,5,2
23,11.047147682039324,Gilberto  ,7,LAT,"11,59",19,91,Vasco,4,"0,00",2,0,0,0,"0,00",0,0,54,1,1,28,4,"4,52",0,6,0,28,1
23,11.047147682039324,Fagner ,3,LAT,"12,60",18,85,Corinthians,3,"1,40",2,0,0,0,"-0,58",0,0,33,1,2,28,11,"5,32",0,5,0,19,1
23,11.047147682039324,Paulo Roberto ,0,MEI,"3,53",5,15,Corinthians,2,"0,00",0,0,0,0,"0,00",0,0,3,0,2,3,0,"2,32",0,0,0,3,1
23,11.047147682039324,Alípio ,0,MEI,"5,00",0,0,Atlético-GO,2,"0,00",0,0,0,0,"0,00",0,0,0,0,0,0,0,"0,00",0,0,0,0,0
23,11.047147682039324,Nonoca ,1,MEI,"1,91",5,4,Cruzeiro,3,"0,00",0,0,0,0,"0,00",0,0,5,0,0,3,0,"1,60",0,0,0,3,0
23,11.047147682039324,Emerson Sheik ,8,ATA,"5,68",15,45,Ponte Preta,3,"1,80",2,0,0,4,"0,59",0,0,6,0,1,43,0,"2,65",0,8,0,20,6
23,11.047147682039324,Rildo ,6,ATA,"8,61",20,48,Coritiba,3,"1,50",5,0,0,4,"0,19",0,0,17,0,2,69,0,"3,99",0,3,0,24,5
23,11.047147682039324,Everaldo ,1,ATA,"6,30",1,1,Atlético-GO,3,"4,90",1,0,0,0,"2,30",0,0,0,0,0,0,0,"4,90",0,0,0,0,5
24,9.894263309789624,Jair Ventura ,0,TEC,"12,59",24,0,Botafogo,3,"7,35",0,0,0,0,"0,16",0,0,0,0,0,0,0,"4,36",0,0,0,0,0
24,9.894263309789624,Victor ,0,GOL,"10,76",22,12,Atlético-MG,3,"-1,80",0,0,3,0,"-1,57",0,36,0,0,0,3,4,"4,32",26,0,0,2,4
24,9.894263309789624,Edu Dracena ,4,ZAG,"8,79",14,8,Palmeiras,3,"2,00",2,0,0,0,"-0,52",0,0,12,0,0,18,5,"3,10",0,2,0,17,2
24,9.894263309789624,Kanu ,10,ZAG,"8,74",18,44,Vitória,3,"-0,90",5,0,1,4,"-1,74",0,0,21,1,1,10,6,"4,69",0,4,0,14,3
24,9.894263309789624,Armero ,1,LAT,"1,86",5,23,Bahia,5,"0,00",2,1,0,0,"0,00",0,0,5,0,0,2,1,"-0,64",0,1,0,11,2
24,9.894263309789624,Mena ,1,LAT,"5,21",12,30,Sport,3,"-1,10",3,1,0,1,"-0,94",0,0,24,0,4,12,4,"5,13",0,4,0,23,1
24,9.894263309789624,Bruno Silva ,13,MEI,"13,90",20,73,Botafogo,3,"8,70",0,0,0,5,"0,68",0,0,42,0,4,34,0,"5,46",0,6,0,39,5
24,9.894263309789624,João Schmidt  ,0,MEI,"5,45",1,4,São Paulo,2,"1,70",0,0,0,0,"-0,55",0,0,2,0,0,1,0,"1,70",0,0,0,2,0
24,9.894263309789624,Daniel ,0,MEI,"6,00",0,0,Coritiba,2,"0,00",0,0,0,0,"0,00",0,0,0,0,0,0,0,"0,00",0,0,0,0,0
24,9.894263309789624,Niltinho ,0,ATA,"6,00",0,0,Chapecoense,2,"0,00",0,0,0,0,"0,00",0,0,0,0,0,0,0,"0,00",0,0,0,0,0
24,9.894263309789624,Everton ,11,ATA,"10,28",20,20,Grêmio,3,"3,20",1,0,1,5,"0,51",0,0,11,1,2,11,0,"4,15",0,0,11,10,0
24,9.894263309789624,Roger ,17,ATA,"9,94",19,41,Botafogo,3,"3,60",16,0,0,9,"-2,43",1,0,11,0,2,20,0,"5,04",0,2,0,20,11
25,9.894263309789624,Jair Ventura ,0,TEC,"12,40",25,0,Botafogo,3,"5,72",0,0,0,0,"-0,19",0,0,0,0,0,0,0,"4,41",0,0,0,0,0
25,9.894263309789624,Victor ,0,GOL,"9,78",23,13,Atlético-MG,3,"-6,30",0,0,0,0,"-0,98",0,36,0,0,0,3,4,"3,86",29,3,4,2,0
25,9.894263309789624,Edu Dracena ,5,ZAG,"9,70",15,8,Palmeiras,3,"7,10",2,0,3,0,"0,91",0,0,14,0,0,19,6,"3,37",0,0,2,18,0
25,9.894263309789624,Kanu ,10,ZAG,"9,01",19,44,Vitória,3,"1,20",5,0,4,4,"0,27",0,0,22,1,1,10,6,"4,51",0,1,3,15,0
25,9.894263309789624,Armero ,0,LAT,"5,00",0,0,Bahia,3,"0,00",0,0,0,0,"0,00",0,0,0,0,0,0,0,"0,00",0,0,0,0,0
25,9.894263309789624,Mena ,2,LAT,"5,93",13,31,Sport,3,"3,30",3,1,4,1,"0,72",0,0,26,0,4,13,4,"4,99",0,0,1,25,0
25,9.894263309789624,Bruno Silva ,13,MEI,"13,69",21,76,Botafogo,3,"6,80",0,0,6,5,"-0,21",0,0,43,0,5,34,0,"5,52",0,0,7,41,0
25,9.894263309789624,João Schmidt  ,0,MEI,"5,45",1,4,São Paulo,2,"1,70",0,0,0,0,"-0,55",0,0,2,0,0,1,0,"1,70",0,0,0,2,0
25,9.894263309789624,Daniel ,0,MEI,"6,00",0,0,Coritiba,2,"0,00",0,0,0,0,"0,00",0,0,0,0,0,0,0,"0,00",0,0,0,0,0
25,9.894263309789624,Niltinho ,0,ATA,"6,00",0,0,Chapecoense,2,"0,00",0,0,0,0,"0,00",0,0,0,0,0,0,0,"0,00",0,0,0,0,0
25,9.894263309789624,Everton ,12,ATA,"9,82",21,20,Grêmio,3,"0,70",1,0,0,5,"-0,46",0,0,11,1,2,12,0,"3,99",0,1,0,11,11
25,9.894263309789624,Roger ,19,ATA,"10,31",20,44,Botafogo,3,"5,50",19,0,3,10,"0,37",1,0,11,0,2,22,0,"5,06",0,0,11,21,0
26,13.616981498893265,Fábio Carille ,0,TEC,"11,72",25,0,Corinthians,3,"1,81",0,0,0,0,"-0,07",0,0,0,0,0,0,0,"4,36",0,0,0,0,0
26,13.616981498893265,Fernando Prass ,0,GOL,"14,31",22,7,Palmeiras,3,"-1,30",0,0,0,0,"-1,92",0,36,1,0,0,5,6,"4,33",24,2,1,0,0
26,13.616981498893265,Werley ,5,ZAG,"7,53",14,40,Coritiba,3,"-1,10",1,1,0,2,"-1,54",0,0,13,0,0,5,5,"3,47",0,0,0,8,1
26,13.616981498893265,Balbuena ,5,ZAG,"10,25",21,45,Corinthians,3,"-2,40",4,0,5,3,"-0,46",0,0,29,0,1,15,12,"5,70",0,0,1,11,0
26,13.616981498893265,Dayvid ,0,LAT,"1,00",0,0,Sport,2,"0,00",0,0,0,0,"0,00",0,0,0,0,0,0,0,"0,00",0,0,0,0,0
26,13.616981498893265,Egídio ,2,LAT,"9,55",14,59,Palmeiras,3,"0,00",2,0,0,1,"0,00",0,0,31,0,1,18,7,"5,89",0,3,0,14,3
26,13.616981498893265,Éder Militão ,4,MEI,"2,60",13,35,São Paulo,3,"1,10",1,0,0,1,"0,43",0,0,18,0,0,12,0,"2,47",0,0,0,9,0
26,13.616981498893265,Pierre ,0,MEI,"3,54",1,0,Fluminense,5,"0,00",0,0,0,0,"0,00",0,0,0,0,0,0,0,"0,00",0,0,0,0,0
26,13.616981498893265,Matheus Sávio ,1,MEI,"11,39",1,0,Flamengo,3,"12,10",0,0,0,1,"7,39",0,0,2,0,0,0,0,"12,10",0,0,0,0,0
26,13.616981498893265,Ricardo Oliveira ,11,ATA,"11,33",12,16,Santos,3,"9,70",8,0,1,3,"1,77",0,0,2,1,0,12,0,"2,73",0,0,7,16,0
26,13.616981498893265,Lucca ,22,ATA,"20,07",24,65,Ponte Preta,3,"-2,40",7,0,3,10,"-0,61",2,0,23,0,1,83,0,"6,49",0,0,24,27,0
26,13.616981498893265,Rafael Sobis ,14,ATA,"9,47",17,38,Cruzeiro,3,"-0,40",1,1,4,3,"-1,63",0,0,6,0,1,13,0,"1,75",0,0,9,20,0
27,0.0,Fábio Carille ,0,TEC,"12,27",26,0,Corinthians,3,"0,00",0,0,0,0,"0,55",0,0,0,0,0,0,0,"4,38",0,0,0,0,0
27,0.0,Fernando Prass ,0,GOL,"15,77",23,0,Palmeiras,3,"0,00",0,0,0,0,"1,46",0,0,0,0,0,0,0,"4,46",0,0,0,0,0
27,0.0,Werley ,0,ZAG,"8,05",15,0,Coritiba,3,"0,00",0,0,0,0,"0,52",0,0,0,0,0,0,0,"3,39",0,0,0,0,0
27,0.0,Balbuena ,0,ZAG,"10,29",22,0,Corinthians,3,"0,00",0,0,0,0,"0,04",0,0,0,0,0,0,0,"5,38",0,0,0,0,0
27,0.0,Dayvid ,0,LAT,"1,00",0,0,Sport,2,"0,00",0,0,0,0,"0,00",0,0,0,0,0,0,0,"0,00",0,0,0,0,0
27,0.0,Egídio ,0,LAT,"8,67",15,0,Palmeiras,3,"0,00",0,0,0,0,"-0,88",0,0,0,0,0,0,0,"5,83",0,0,0,0,0
27,0.0,Éder Militão ,0,MEI,"2,18",14,0,São Paulo,1,"0,00",0,0,0,0,"-0,42",0,0,0,0,0,0,0,"2,20",0,0,0,0,0
27,0.0,Pierre ,0,MEI,"3,54",1,0,Fluminense,1,"0,00",0,0,0,0,"-1,46",0,0,0,0,0,0,0,"0,00",0,0,0,0,0
27,0.0,Thiago Santos ,0,MEI,"5,84",18,0,Palmeiras,3,"0,00",0,0,0,0,"-1,14",0,0,0,0,0,0,0,"3,09",0,0,0,0,0
27,0.0,Lucca ,0,ATA,"20,39",25,0,Ponte Preta,2,"0,00",0,0,0,0,"0,32",0,0,0,0,0,0,0,"6,25",0,0,0,0,0
27,0.0,Lucca ,0,ATA,"20,39",25,0,Ponte Preta,2,"0,00",0,0,0,0,"0,32",0,0,0,0,0,0,0,"6,25",0,0,0,0,0
27,0.0,Rafael Sobis ,0,ATA,"11,43",18,0,Cruzeiro,2,"0,00",0,0,0,0,"1,96",0,0,0,0,0,0,0,"2,25",0,0,0,0,0
28,0.0,Jair Ventura ,0,TEC,"11,73",28,0,Botafogo,3,"0,00",0,0,0,0,"-0,57",0,0,0,0,0,0,0,"4,22",0,0,0,0,0
28,0.0,Wilson ,0,GOL,"13,01",28,0,Coritiba,3,"0,00",0,0,0,0,"-0,48",0,0,0,0,0,0,0,"4,57",0,0,0,0,0
28,0.0,Lucas Veríssimo ,0,ZAG,"8,41",25,0,Santos,3,"0,00",0,0,0,0,"0,10",0,0,0,0,0,0,0,"4,32",0,0,0,0,0
28,0.0,Rafael ,0,ZAG,"1,00",0,0,Flamengo,2,"0,00",0,0,0,0,"0,00",0,0,0,0,0,0,0,"0,00",0,0,0,0,0
28,0.0,Apodi ,0,LAT,"8,16",25,0,Chapecoense,3,"0,00",0,0,0,0,"-0,45",0,0,0,0,0,0,0,"3,12",0,0,0,0,0
28,0.0,Eduardo ,0,LAT,"7,06",26,0,Bahia,3,"0,00",0,0,0,0,"-1,02",0,0,0,0,0,0,0,"2,99",0,0,0,0,0
28,0.0,Julio dos Santos ,0,MEI,"5,00",0,0,Vasco,2,"0,00",0,0,0,0,"0,00",0,0,0,0,0,0,0,"0,00",0,0,0,0,0
28,0.0,Rodriguinho ,0,MEI,"13,40",23,0,Corinthians,3,"0,00",0,0,0,0,"-2,23",0,0,0,0,0,0,0,"3,71",0,0,0,0,0
28,0.0,Luiz Otávio ,0,MEI,"2,00",0,0,Atlético-PR,2,"0,00",0,0,0,0,"0,00",0,0,0,0,0,0,0,"0,00",0,0,0,0,0
28,0.0,Fernandinho ,0,ATA,"10,94",22,0,Grêmio,3,"0,00",0,0,0,0,"-0,87",0,0,0,0,0,0,0,"5,17",0,0,0,0,0
28,0.0,Jô ,0,ATA,"12,02",25,0,Corinthians,3,"0,00",0,0,0,0,"-2,12",0,0,0,0,0,0,0,"4,25",0,0,0,0,0
28,0.0,Rafaelson ,0,ATA,"1,54",4,0,Vitória,2,"0,00",0,0,0,0,"0,00",0,0,0,0,0,0,0,"-0,43",0,0,0,0,0
29,6.8690996644257485,Cuca ,0,TEC,"15,09",1,0,Palmeiras,3,"8,34",0,0,0,0,"2,09",0,0,0,0,0,0,0,"8,34",0,0,0,0,0
29,6.8690996644257485,Fernando Prass ,0,GOL,"15,40",25,9,Palmeiras,3,"5,50",0,0,2,0,"-0,27",0,43,1,0,0,6,7,"4,61",27,0,0,0,1
29,6.8690996644257485,Matheus Ferraz ,1,ZAG,"4,10",1,3,Sport,3,"-0,20",0,0,0,0,"-1,90",0,0,0,0,0,0,0,"-0,20",0,0,0,0,0
29,6.8690996644257485,Marllon ,3,ZAG,"11,30",26,42,Ponte Preta,3,"-0,10",1,0,4,0,"-0,51",0,0,39,1,0,29,9,"4,02",0,0,2,16,0
29,6.8690996644257485,Sidcley ,5,LAT,"12,97",26,80,Atlético-PR,1,"1,30",12,0,2,4,"0,11",0,0,30,0,4,46,8,"4,91",0,0,5,26,0
29,6.8690996644257485,Reinaldo ,11,LAT,"13,85",24,108,Chapecoense,3,"9,00",1,0,6,4,"0,88",0,0,45,0,4,21,6,"5,10",0,0,7,33,0
29,6.8690996644257485,Abuda ,0,MEI,"6,00",0,0,Atlético-GO,2,"0,00",0,0,0,0,"0,00",0,0,0,0,0,0,0,"0,00",0,0,0,0,0
29,6.8690996644257485,Arrascaeta ,7,MEI,"7,39",10,39,Cruzeiro,3,"-0,30",0,0,1,1,"-0,07",0,0,7,0,0,20,0,"2,66",0,0,10,9,0
29,6.8690996644257485,Renê Júnior ,22,MEI,"11,79",22,52,Bahia,3,"4,50",3,1,0,4,"-0,21",0,0,62,0,0,44,0,"5,94",0,5,0,40,8
29,6.8690996644257485,David ,18,ATA,"5,73",27,71,Vitória,3,"4,80",14,0,5,4,"-0,43",0,0,19,2,5,15,0,"2,66",0,0,9,31,0
29,6.8690996644257485,Douglas Coutinho  ,6,ATA,"4,63",18,32,Atlético-PR,2,"12,10",3,0,0,2,"0,82",0,0,7,0,1,14,0,"2,07",0,0,9,10,0
29,6.8690996644257485,Copete ,17,ATA,"5,70",23,70,Santos,3,"-3,30",9,0,0,5,"-0,69",0,0,16,0,1,28,0,"2,57",0,4,0,29,9
30,18.12542443826197,Fábio Carille ,0,TEC,"11,72",29,0,Corinthians,3,"2,36",0,0,0,0,"-0,32",0,0,0,0,0,0,0,"4,22",0,0,0,0,0
30,18.12542443826197,Felipe Garcia ,0,GOL,"3,00",0,0,Atlético-GO,2,"0,00",0,0,0,0,"0,00",0,0,0,0,0,0,0,"0,00",0,0,0,0,0
30,18.12542443826197,Marcão ,0,ZAG,"4,39",1,1,Atlético-PR,4,"3,20",0,1,0,1,"1,39",0,0,0,0,0,0,0,"3,20",0,0,2,3,0
30,18.12542443826197,Kanu ,10,ZAG,"9,01",19,44,Vitória,2,"0,00",5,0,1,4,"0,00",0,0,22,1,1,10,6,"4,51",0,4,0,15,3
30,18.12542443826197,Arnaldo ,1,LAT,"9,78",22,61,Botafogo,3,"5,60",1,0,3,0,"0,15",0,0,47,0,1,35,7,"4,56",0,0,2,30,0
30,18.12542443826197,Marcos Rocha ,4,LAT,"12,07",15,68,Atlético-MG,3,"10,30",1,0,0,0,"1,20",0,0,48,0,3,25,3,"5,71",0,4,0,29,2
30,18.12542443826197,Renê Júnior ,22,MEI,"12,33",23,54,Bahia,3,"7,20",3,1,0,4,"0,54",0,0,66,0,0,47,0,"5,99",0,5,0,41,8
30,18.12542443826197,Arrascaeta ,7,MEI,"7,31",11,44,Cruzeiro,3,"-0,50",0,0,0,1,"-0,08",0,0,7,0,0,21,0,"2,37",0,1,0,10,11
30,18.12542443826197,Renê Júnior ,22,MEI,"12,33",23,54,Bahia,3,"7,20",3,1,5,4,"0,54",0,0,66,0,0,47,0,"5,99",0,0,8,41,0
30,18.12542443826197,David ,19,ATA,"6,26",28,73,Vitória,3,"7,20",14,0,0,4,"0,53",0,0,22,3,5,15,0,"2,82",0,5,0,34,9
30,18.12542443826197,Douglas Coutinho  ,7,ATA,"2,74",19,33,Atlético-PR,3,"-0,10",3,0,0,2,"-1,89",0,0,7,0,1,14,0,"1,96",0,0,0,13,10
30,18.12542443826197,Everton ,16,ATA,"10,74",26,29,Grêmio,3,"5,10",1,0,1,5,"0,76",0,0,17,1,2,23,0,"4,02",0,0,17,13,0
31,18.64291958344136,Fábio Carille ,0,TEC,"11,49",30,0,Corinthians,3,"1,72",0,0,0,0,"-0,23",0,0,0,0,0,0,0,"4,14",0,0,0,0,0
31,18.64291958344136,Felipe Garcia ,0,GOL,"3,00",0,0,Atlético-GO,2,"0,00",0,0,0,0,"0,00",0,0,0,0,0,0,0,"0,00",0,0,0,0,0
31,18.64291958344136,Renato Chaves ,1,ZAG,"2,66",7,11,Fluminense,3,"0,00",1,0,2,1,"0,00",0,0,6,0,0,2,1,"2,16",0,0,3,10,0
31,18.64291958344136,Kanu ,10,ZAG,"9,01",19,44,Vitória,3,"0,00",5,0,4,4,"0,00",0,0,22,1,1,10,6,"4,51",0,1,3,15,0
31,18.64291958344136,Buffarini ,2,LAT,"7,28",7,20,São Paulo,2,"0,00",0,0,0,0,"0,00",0,0,9,0,1,6,1,"2,67",0,0,0,10,0
31,18.64291958344136,Marcos Rocha ,4,LAT,"11,79",16,74,Atlético-MG,3,"8,30",1,0,4,0,"-0,28",0,0,51,0,3,26,4,"5,87",0,0,2,30,0
31,18.64291958344136,Renê Júnior ,22,MEI,"11,90",24,55,Bahia,3,"4,80",3,1,5,4,"-0,43",0,0,69,0,0,48,0,"5,94",0,0,8,42,0
31,18.64291958344136,Arrascaeta ,7,MEI,"8,61",12,46,Cruzeiro,3,"7,60",0,0,1,1,"1,30",0,0,8,0,1,22,0,"2,81",0,0,12,10,0
31,18.64291958344136,Renê Júnior ,22,MEI,"11,90",24,55,Bahia,3,"4,80",3,1,0,4,"-0,43",0,0,69,0,0,48,0,"5,94",0,5,0,42,8
31,18.64291958344136,David ,19,ATA,"4,93",29,74,Vitória,3,"-0,80",14,0,5,4,"-1,33",0,0,22,3,5,16,0,"2,70",0,0,10,38,0
31,18.64291958344136,Douglas Coutinho  ,7,ATA,"2,54",20,33,Atlético-PR,3,"-1,00",3,0,0,2,"-0,20",0,0,7,0,1,14,0,"1,81",0,0,10,15,0
31,18.64291958344136,Walter ,21,ATA,"7,70",24,122,Atlético-GO,3,"1,70",13,0,7,5,"0,80",0,0,16,1,2,51,0,"2,11",0,0,17,60,0
32,11.601261904761904,Jair Ventura ,0,TEC,"11,90",32,0,Botafogo,3,"2,22",0,0,0,0,"-0,39",0,0,0,0,0,0,0,"4,17",0,0,0,0,0
32,11.601261904761904,Felipe Garcia ,0,GOL,"3,00",0,0,Atlético-GO,2,"0,00",0,0,0,0,"0,00",0,0,0,0,0,0,0,"0,00",0,0,0,0,0
32,11.601261904761904,Renato Chaves ,1,ZAG,"4,01",8,11,Fluminense,3,"6,80",1,0,0,1,"1,35",0,0,10,0,0,3,1,"2,74",0,2,0,11,3
32,11.601261904761904,Kanu ,10,ZAG,"8,18",20,44,Vitória,3,"-1,50",5,0,1,4,"-0,83",0,0,22,1,1,11,6,"4,21",0,5,0,17,4
32,11.601261904761904,Buffarini ,2,LAT,"7,28",7,20,São Paulo,2,"0,00",0,0,0,0,"0,00",0,0,9,0,1,6,1,"2,67",0,0,0,10,0
32,11.601261904761904,João Pedro  ,1,LAT,"5,08",3,5,Chapecoense,3,"1,80",0,0,0,0,"-0,45",0,0,2,0,0,1,1,"3,03",0,0,1,0,0
32,11.601261904761904,Renê Júnior ,23,MEI,"12,93",25,59,Bahia,3,"10,00",3,1,0,4,"1,03",0,0,74,0,0,51,0,"6,10",0,5,0,43,9
32,11.601261904761904,Danilo Barcelos ,0,MEI,"7,00",0,0,Atlético-MG,2,"0,00",0,0,0,0,"0,00",0,0,0,0,0,0,0,"0,00",0,0,0,0,0
32,11.601261904761904,Renê Júnior ,23,MEI,"12,93",25,59,Bahia,3,"10,00",3,1,5,4,"1,03",0,0,74,0,0,51,0,"6,10",0,0,9,43,0
32,11.601261904761904,David ,21,ATA,"5,79",30,76,Vitória,3,"4,20",15,0,0,4,"0,86",0,0,24,3,5,17,0,"2,75",0,5,0,38,10
32,11.601261904761904,Douglas Coutinho  ,7,ATA,"2,54",20,33,Atlético-PR,3,"0,00",3,0,0,2,"0,00",0,0,7,0,1,14,0,"1,81",0,0,0,15,10
32,11.601261904761904,Walter ,22,ATA,"7,42",25,123,Atlético-GO,3,"-0,10",13,0,0,5,"-0,28",0,0,16,1,2,51,0,"2,02",0,7,0,61,17
33,9.370998322609033,Vagner Mancini ,0,TEC,"6,51",1,0,Chapecoense,3,"2,20",0,0,0,0,"-0,49",0,0,0,0,0,0,0,"2,20",0,0,0,0,0
33,9.370998322609033,Aranha ,0,GOL,"11,06",30,0,Ponte Preta,3,"0,00",0,0,0,0,"0,22",0,0,0,0,0,0,0,"3,75",0,0,0,0,0
33,9.370998322609033,Antônio Carlos  ,0,ZAG,"3,05",4,0,Palmeiras,2,"0,00",0,0,0,0,"0,00",0,0,0,0,0,0,0,"0,92",0,0,0,0,0
33,9.370998322609033,Wanderson ,0,ZAG,"5,57",22,0,Atlético-PR,2,"0,00",0,0,0,0,"0,00",0,0,0,0,0,0,0,"2,78",0,0,0,0,0
33,9.370998322609033,Mena ,0,LAT,"5,35",19,0,Sport,5,"0,00",0,0,0,0,"0,00",0,0,0,0,0,0,0,"4,16",0,0,0,0,0
33,9.370998322609033,Léo Gomes ,0,LAT,"2,00",0,0,Grêmio,2,"0,00",0,0,0,0,"0,00",0,0,0,0,0,0,0,"0,00",0,0,0,0,0
33,9.370998322609033,Renan Paulino ,0,MEI,"3,00",0,0,Atlético-PR,2,"0,00",0,0,0,0,"0,00",0,0,0,0,0,0,0,"0,00",0,0,0,0,0
33,9.370998322609033,Everton ,0,MEI,"15,60",25,0,Flamengo,3,"0,00",0,0,0,0,"1,85",0,0,0,0,0,0,0,"4,37",0,0,0,0,0
33,9.370998322609033,Arrascaeta ,0,MEI,"9,77",13,0,Cruzeiro,2,"0,00",0,0,0,0,"0,00",0,0,0,0,0,0,0,"3,60",0,0,0,0,0
33,9.370998322609033,Daniel dos Anjos ,0,ATA,"3,00",0,0,Atlético-GO,2,"0,00",0,0,0,0,"0,00",0,0,0,0,0,0,0,"0,00",0,0,0,0,0
33,9.370998322609033,Lucca ,0,ATA,"19,88",30,0,Ponte Preta,3,"0,00",0,0,0,0,"0,13",0,0,0,0,0,0,0,"5,54",0,0,0,0,0
33,9.370998322609033,Jô ,0,ATA,"11,92",30,0,Corinthians,4,"0,00",0,0,0,0,"-1,77",0,0,0,0,0,0,0,"4,06",0,0,0,0,0
34,22.61082627517411,Fábio Carille ,0,TEC,"12,13",33,0,Corinthians,3,"5,12",0,0,0,0,"-0,09",0,0,0,0,0,0,0,"4,18",0,0,0,0,0
34,22.61082627517411,Fernando Prass ,0,GOL,"14,78",30,13,Palmeiras,3,"4,40",0,0,0,0,"1,04",0,49,1,0,0,8,8,"3,99",36,2,1,0,0
34,22.61082627517411,Werley ,7,ZAG,"7,68",22,58,Coritiba,3,"-2,30",1,1,0,4,"-1,70",0,0,20,1,0,9,7,"3,83",0,1,0,14,2
34,22.61082627517411,Pablo ,13,ZAG,"12,30",22,25,Corinthians,3,"10,70",0,0,0,0,"0,62",0,0,23,0,0,9,13,"4,65",0,2,0,14,3
34,22.61082627517411,Gilberto  ,10,LAT,"11,18",23,100,Vasco,3,"4,40",2,0,6,0,"0,01",0,0,59,1,1,30,5,"4,35",0,0,2,29,0
34,22.61082627517411,Fagner ,4,LAT,"13,46",28,116,Corinthians,3,"7,80",3,0,8,0,"0,23",0,0,47,2,2,42,15,"4,70",0,0,3,30,0
34,22.61082627517411,Allione ,2,MEI,"10,09",22,68,Bahia,3,"5,30",4,0,0,0,"-0,06",0,0,24,1,7,30,0,"2,55",0,5,0,22,4
34,22.61082627517411,Michel  ,14,MEI,"9,76",21,61,Grêmio,3,"0,00",2,0,7,5,"0,00",0,0,59,0,0,25,0,"5,16",0,0,3,48,0
34,22.61082627517411,Tiago Real ,8,MEI,"4,16",21,54,Coritiba,3,"-1,20",3,0,4,1,"0,07",0,0,13,1,2,22,0,"1,29",0,0,6,27,0
34,22.61082627517411,Lucas Pratto ,40,ATA,"14,35",33,101,São Paulo,3,"0,50",6,1,0,7,"-0,73",1,0,20,0,5,35,0,"3,67",0,2,0,41,27
34,22.61082627517411,Neilton ,0,ATA,"5,00",0,0,São Paulo,2,"0,00",0,0,0,0,"0,00",0,0,0,0,0,0,0,"0,00",0,0,0,0,0
34,22.61082627517411,Neilton ,0,ATA,"5,00",0,0,São Paulo,2,"0,00",0,0,0,0,"0,00",0,0,0,0,0,0,0,"0,00",0,0,0,0,0
35,22.61082627517411,Fábio Carille ,0,TEC,"12,15",34,0,Corinthians,3,"4,60",0,0,0,0,"0,02",0,0,0,0,0,0,0,"4,19",0,0,0,0,0
35,22.61082627517411,Fernando Prass ,0,GOL,"16,95",31,14,Palmeiras,3,"16,20",0,0,2,0,"2,17",0,55,1,0,0,9,8,"4,38",37,0,0,0,1
35,22.61082627517411,Werley ,7,ZAG,"9,42",23,58,Coritiba,3,"7,90",1,1,1,4,"1,74",0,0,22,1,0,9,8,"4,01",0,0,2,15,0
35,22.61082627517411,Pablo ,14,ZAG,"11,11",23,26,Corinthians,3,"2,60",0,0,2,0,"-1,19",0,0,24,0,0,10,13,"4,56",0,0,3,14,0
35,22.61082627517411,Gilberto  ,10,LAT,"10,54",24,101,Vasco,3,"0,20",2,0,0,0,"-0,64",0,0,59,1,1,32,5,"4,18",0,6,0,30,2
35,22.61082627517411,Fagner ,5,LAT,"14,10",29,118,Corinthians,2,"10,50",3,0,0,0,"0,64",0,0,49,2,3,47,15,"4,90",0,8,0,31,3
35,22.61082627517411,Allione ,2,MEI,"9,09",23,73,Bahia,3,"-1,00",4,0,5,0,"-1,00",0,0,24,1,7,31,0,"2,40",0,0,4,22,0
35,22.61082627517411,Michel  ,14,MEI,"8,87",22,61,Grêmio,2,"-1,00",2,0,0,5,"-0,89",0,0,59,0,0,25,0,"4,88",0,7,0,50,3
35,22.61082627517411,Tiago Real ,8,MEI,"4,18",22,57,Coritiba,3,"-0,90",3,0,0,1,"0,02",0,0,13,1,2,24,0,"1,19",0,4,0,29,6
35,22.61082627517411,Lucas Pratto ,41,ATA,"14,49",34,104,São Paulo,3,"1,30",7,1,2,7,"0,14",1,0,20,0,5,35,0,"3,60",0,0,29,41,0
35,22.61082627517411,Neilton ,0,ATA,"5,00",0,0,São Paulo,2,"0,00",0,0,0,0,"0,00",0,0,0,0,0,0,0,"0,00",0,0,0,0,0
35,22.61082627517411,Neilton ,0,ATA,"5,00",0,0,São Paulo,2,"0,00",0,0,0,0,"0,00",0,0,0,0,0,0,0,"0,00",0,0,0,0,0
36,19.205304410722107,Mano Menezes ,0,TEC,"12,87",35,0,Cruzeiro,3,"3,89",0,0,0,0,"-0,21",0,0,0,0,0,0,0,"3,84",0,0,0,0,0
36,19.205304410722107,Cássio ,0,GOL,"10,94",32,11,Corinthians,3,"-6,60",0,0,3,0,"-0,60",0,36,0,0,0,8,15,"4,39",26,0,0,0,2
36,19.205304410722107,Betão ,2,ZAG,"7,39",34,66,Avaí,3,"3,80",1,0,7,1,"0,23",0,0,26,0,1,26,11,"2,39",0,0,1,23,0
36,19.205304410722107,Rodrigo Caio ,11,ZAG,"10,27",31,49,São Paulo,3,"7,10",2,0,8,0,"1,04",0,0,45,1,0,18,7,"2,94",0,0,2,22,0
36,19.205304410722107,Gilson ,3,LAT,"9,41",26,33,Botafogo,2,"6,70",1,0,5,0,"0,56",0,0,21,2,1,29,9,"3,03",0,0,0,21,0
36,19.205304410722107,Victor Ferraz ,3,LAT,"9,55",21,68,Santos,3,"3,30",0,0,3,2,"-0,37",0,0,21,0,0,14,9,"3,42",0,0,2,19,0
36,19.205304410722107,Jorginho ,16,MEI,"5,82",33,119,Atlético-GO,3,"0,60",8,1,4,3,"-2,11",0,0,38,0,2,74,0,"2,21",0,0,5,53,0
36,19.205304410722107,Zé Rafael  ,16,MEI,"20,12",35,80,Bahia,3,"3,50",11,0,5,3,"0,27",0,0,87,0,5,117,0,"6,24",0,0,26,69,0
36,19.205304410722107,Judson ,13,MEI,"5,05",32,63,Avaí,3,"2,70",0,0,11,0,"-0,96",0,0,66,0,1,22,0,"2,12",0,0,3,64,0
36,19.205304410722107,Lucas Pratto ,41,ATA,"14,96",35,105,São Paulo,3,"4,40",7,1,0,7,"0,47",1,0,21,1,5,35,0,"3,62",0,2,0,42,29
36,19.205304410722107,Rogério ,14,ATA,"6,68",25,60,Sport,2,"0,80",0,0,0,2,"-0,79",0,0,14,0,3,45,0,"2,89",0,0,9,12,0
36,19.205304410722107,Fred ,14,ATA,"13,89",27,60,Atlético-MG,3,"1,20",20,0,7,10,"-0,96",2,0,6,1,4,58,0,"3,22",0,0,10,53,0
37,0.0,Mano Menezes ,0,TEC,"12,43",36,0,Cruzeiro,3,"1,15",0,0,0,0,"-0,44",0,0,0,0,0,0,0,"3,77",0,0,0,0,0
37,0.0,Cássio ,0,GOL,"12,22",33,12,Corinthians,3,"1,70",0,0,0,0,"1,28",0,38,0,0,0,8,15,"4,31",28,3,2,0,0
37,0.0,Betão ,2,ZAG,"7,64",35,67,Avaí,3,"4,90",1,0,0,1,"0,25",0,0,27,0,1,27,12,"2,46",0,8,0,23,1
37,0.0,Thiago Heleno ,9,ZAG,"8,39",27,47,Atlético-PR,3,"1,70",2,0,8,4,"-0,89",0,0,21,0,0,13,8,"2,99",0,0,3,24,0
37,0.0,Renato ,9,LAT,"4,32",9,17,Fluminense,2,"0,00",0,0,0,0,"0,00",0,0,5,0,0,7,2,"1,58",0,2,0,12,1
37,0.0,Mena ,4,LAT,"5,45",22,51,Sport,3,"-0,50",8,1,6,1,"-1,27",0,0,42,0,4,22,5,"3,90",0,0,2,37,0
37,0.0,Lucas Fernandes ,8,MEI,"4,00",19,25,São Paulo,5,"0,00",0,0,2,1,"0,00",0,0,12,0,1,16,0,"2,05",0,0,8,9,0
37,0.0,Luiz Fernando  ,5,MEI,"4,19",32,62,Atlético-GO,3,"0,00",8,0,7,9,"-1,30",0,0,19,1,1,40,0,"2,78",0,0,10,41,0
37,0.0,Judson ,14,MEI,"5,21",33,65,Avaí,4,"3,40",0,0,0,0,"0,16",0,0,70,0,1,22,0,"2,16",0,12,0,67,3
37,0.0,Lucas Pratto ,41,ATA,"14,96",35,105,São Paulo,5,"0,00",7,1,2,7,"0,00",1,0,21,1,5,35,0,"3,62",0,0,29,42,0
37,0.0,Rogério ,15,ATA,"6,95",26,60,Sport,2,"2,40",0,0,0,2,"0,27",0,0,15,0,3,45,0,"2,87",0,0,0,12,9
37,0.0,Fred ,15,ATA,"15,34",28,61,Atlético-MG,3,"9,60",21,0,0,11,"1,45",2,0,7,1,4,58,0,"3,45",0,7,0,53,10
