round,fitness,name,position,team,situation,price,meatches,average,last_score,difference,disarms,goals,assists,no_goals,fouls_suffered,strikes_out,strikes_defended,strikes_post,difficult_defense,penalty_defense,own_goal,red_card,yellow_card,goal_suffered,penalty_lost,fouls_commited,offsides,wrong_pass
0,5.589999999999996,Guto Ferreira ,0,TEC,"8,76",1,0,Bahia,3,"8,39",0,0,0,0,"4,76",0,0,0,0,0,0,0,"8,39",0,0,0,0,0
0,5.589999999999996,Uilson ,0,GOL,"4,00",0,0,Atlético-MG,2,"0,00",0,0,0,0,"0,00",0,0,0,0,0,0,0,"0,00",0,0,0,0,0
0,5.589999999999996,Gustavo Henrique ,0,ZAG,"6,00",0,0,Santos,5,"0,00",0,0,0,0,"0,00",0,0,0,0,0,0,0,"0,00",0,0,0,0,0
0,5.589999999999996,Rodrigo ,0,ZAG,"10,00",0,0,Ponte Preta,2,"0,00",0,0,0,0,"0,00",0,0,0,0,0,0,0,"0,00",0,0,0,0,0
0,5.589999999999996,Yago Pikachu ,0,LAT,"6,72",1,4,Vasco,3,"2,50",0,0,0,0,"-0,28",0,0,1,0,0,2,0,"2,50",0,0,1,0,0
0,5.589999999999996,Bruno Cortez ,0,LAT,"7,21",1,1,Grêmio,3,"4,20",0,0,0,0,"1,21",0,0,0,0,0,0,1,"4,20",0,0,0,1,0
0,5.589999999999996,Jucilei ,0,MEI,"11,53",1,3,São Paulo,3,"8,30",0,0,0,0,"3,53",0,0,6,0,0,2,0,"8,30",0,0,0,4,0
0,5.589999999999996,Jadson ,1,MEI,"15,99",1,6,Corinthians,3,"0,60",0,0,0,0,"-6,01",0,0,1,0,0,0,0,"0,60",0,0,0,0,0
0,5.589999999999996,Luiz Antonio  ,1,MEI,"6,44",1,2,Chapecoense,3,"0,10",0,0,0,0,"-2,56",0,0,0,0,0,0,0,"0,10",0,0,0,0,0
0,5.589999999999996,Walter ,1,ATA,"11,67",1,4,Atlético-GO,3,"10,50",0,0,0,1,"5,67",0,0,0,0,0,5,0,"10,50",0,0,1,1,0
0,5.589999999999996,Ábila ,1,ATA,"13,44",1,3,Cruzeiro,3,"11,00",0,0,0,1,"5,44",0,0,1,0,0,1,0,"11,00",0,0,1,0,0
0,5.589999999999996,Marcelo ,0,ATA,"2,00",0,0,Atlético-PR,2,"0,00",0,0,0,0,"0,00",0,0,0,0,0,0,0,"0,00",0,0,0,0,0
1,48.14,Cuca ,0,TEC,"15,09",1,0,Palmeiras,3,"8,34",0,0,0,0,"2,09",0,0,0,0,0,0,0,"8,34",0,0,0,0,0
1,48.14,João Paulo ,0,GOL,"1,00",0,0,Santos,2,"0,00",0,0,0,0,"0,00",0,0,0,0,0,0,0,"0,00",0,0,0,0,0
1,48.14,Ricardo Silva ,1,ZAG,"4,10",1,1,Atlético-GO,3,"0,80",0,0,0,0,"-0,90",0,0,2,0,0,0,0,"0,80",0,1,0,2,0
1,48.14,Kannemann ,0,ZAG,"10,19",1,1,Grêmio,3,"5,40",0,0,0,0,"1,19",0,0,1,0,0,1,1,"5,40",0,0,0,3,0
1,48.14,Yago Pikachu ,0,LAT,"6,72",1,4,Vasco,3,"2,50",0,0,0,0,"-0,28",0,0,1,0,0,2,0,"2,50",0,0,0,0,1
1,48.14,Bruno Cortez ,0,LAT,"7,21",1,1,Grêmio,3,"4,20",0,0,0,0,"1,21",0,0,0,0,0,0,1,"4,20",0,0,0,1,0
1,48.14,Jucilei ,0,MEI,"11,53",1,3,São Paulo,3,"8,30",0,0,0,0,"3,53",0,0,6,0,0,2,0,"8,30",0,0,0,4,0
1,48.14,Jadson ,1,MEI,"15,99",1,6,Corinthians,3,"0,60",0,0,0,0,"-6,01",0,0,1,0,0,0,0,"0,60",0,0,0,0,0
1,48.14,Luiz Antonio  ,1,MEI,"6,44",1,2,Chapecoense,3,"0,10",0,0,0,0,"-2,56",0,0,0,0,0,0,0,"0,10",0,0,0,0,0
1,48.14,Walter ,1,ATA,"11,67",1,4,Atlético-GO,3,"10,50",0,0,0,1,"5,67",0,0,0,0,0,5,0,"10,50",0,0,0,1,1
1,48.14,Ábila ,1,ATA,"13,44",1,3,Cruzeiro,3,"11,00",0,0,0,1,"5,44",0,0,1,0,0,1,0,"11,00",0,0,0,0,1
1,48.14,Romulo ,1,ATA,"9,48",1,3,Avaí,3,"6,40",0,0,0,0,"2,48",0,0,3,0,0,1,0,"6,40",0,0,0,0,1
2,48.14,Cuca ,0,TEC,"14,22",2,0,Palmeiras,3,"1,73",0,0,0,0,"-0,87",0,0,0,0,0,0,0,"5,03",0,0,0,0,0
2,48.14,João Paulo ,0,GOL,"1,00",0,0,Santos,2,"0,00",0,0,0,0,"0,00",0,0,0,0,0,0,0,"0,00",0,0,0,0,0
2,48.14,Ricardo Silva ,1,ZAG,"3,58",2,4,Atlético-GO,3,"0,80",0,0,1,0,"-0,52",0,0,3,0,0,0,0,"0,80",0,0,0,2,0
2,48.14,Kannemann ,0,ZAG,"10,60",2,4,Grêmio,3,"3,60",0,0,0,0,"0,41",0,0,1,0,0,2,2,"4,50",0,0,0,5,0
2,48.14,Yago Pikachu ,0,LAT,"9,28",2,7,Vasco,3,"8,30",0,0,0,1,"2,56",0,0,2,0,0,2,0,"5,40",0,0,1,1,0
2,48.14,Bruno Cortez ,0,LAT,"8,68",2,5,Grêmio,3,"5,00",0,0,0,0,"1,47",0,0,1,0,0,1,2,"4,60",0,0,0,3,0
2,48.14,Jucilei ,0,MEI,"13,04",2,5,São Paulo,3,"5,00",0,0,0,0,"1,51",0,0,9,0,0,5,0,"6,65",0,0,0,6,0
2,48.14,Jadson ,1,MEI,"15,99",1,6,Corinthians,3,"0,60",0,0,0,0,"-6,01",0,0,1,0,0,0,0,"0,60",0,0,0,0,0
2,48.14,Luiz Antonio  ,1,MEI,"8,41",2,3,Chapecoense,3,"8,40",0,0,0,1,"1,97",0,0,1,0,0,0,0,"4,25",0,0,0,2,0
2,48.14,Walter ,3,ATA,"10,58",2,8,Atlético-GO,3,"-2,30",0,0,1,1,"-1,09",0,0,0,0,0,6,0,"4,10",0,0,1,3,0
2,48.14,Ábila ,1,ATA,"13,73",2,5,Cruzeiro,3,"1,60",2,0,0,1,"0,29",0,0,2,0,0,5,0,"6,30",0,0,1,1,0
2,48.14,Romulo ,2,ATA,"8,84",2,10,Avaí,3,"0,10",0,0,0,0,"-0,64",0,0,3,0,0,5,0,"3,25",0,0,1,1,0
3,48.14,Cuca ,0,TEC,"13,29",3,0,Palmeiras,3,"1,10",0,0,0,0,"-0,93",0,0,0,0,0,0,0,"3,72",0,0,0,0,0
3,48.14,João Paulo ,0,GOL,"1,00",0,0,Santos,2,"0,00",0,0,0,0,"0,00",0,0,0,0,0,0,0,"0,00",0,0,0,0,0
3,48.14,Ricardo Silva ,2,ZAG,"2,73",3,9,Atlético-GO,3,"-1,30",0,0,0,0,"-0,85",0,0,3,0,0,1,0,"0,10",0,1,0,4,0
3,48.14,Kannemann ,0,ZAG,"10,60",2,4,Grêmio,3,"0,00",0,0,0,0,"0,00",0,0,1,0,0,2,2,"4,50",0,0,0,5,0
3,48.14,Yago Pikachu ,0,LAT,"9,63",3,9,Vasco,3,"4,40",0,0,0,1,"0,35",0,0,2,0,1,2,0,"5,07",0,0,0,1,1
3,48.14,Bruno Cortez ,0,LAT,"8,68",2,5,Grêmio,3,"0,00",0,0,0,0,"0,00",0,0,1,0,0,1,2,"4,60",0,0,0,3,0
3,48.14,Jucilei ,0,MEI,"13,00",3,7,São Paulo,3,"3,50",0,0,0,0,"-0,04",0,0,12,0,0,8,0,"5,60",0,0,0,11,0
3,48.14,Jadson ,4,MEI,"10,47",3,18,Corinthians,3,"0,80",1,0,0,0,"-1,03",0,0,1,0,0,1,0,"0,20",0,0,0,1,2
3,48.14,Luiz Antonio  ,1,MEI,"9,02",3,7,Chapecoense,3,"5,20",0,0,0,1,"0,61",0,0,3,1,0,0,0,"4,57",0,0,0,5,1
3,48.14,Walter ,4,ATA,"9,77",3,14,Atlético-GO,3,"-0,40",0,0,0,1,"-0,81",0,0,1,0,0,6,0,"2,60",0,1,0,5,1
3,48.14,Ábila ,1,ATA,"14,35",3,5,Cruzeiro,2,"5,00",2,0,0,1,"0,62",0,0,2,0,1,5,0,"5,87",0,0,0,1,1
3,48.14,Romulo ,3,ATA,"8,39",3,13,Avaí,3,"0,80",0,0,0,0,"-0,45",0,0,3,0,0,7,0,"2,43",0,0,0,1,1
4,3.9833333333333303,Guto Ferreira ,0,TEC,"8,76",1,0,Bahia,3,"8,39",0,0,0,0,"4,76",0,0,0,0,0,0,0,"8,39",0,0,0,0,0
4,3.9833333333333303,Elias ,0,GOL,"4,00",0,0,Chapecoense,2,"0,00",0,0,0,0,"0,00",0,0,0,0,0,0,0,"0,00",0,0,0,0,0
4,3.9833333333333303,Maicon ,2,ZAG,"9,42",3,11,São Paulo,3,"2,90",0,0,1,0,"-0,03",0,0,4,0,0,0,1,"2,63",0,0,0,0,0
4,3.9833333333333303,Rodrigo ,0,ZAG,"10,08",2,1,Ponte Preta,3,"10,10",0,0,0,0,"2,63",0,0,2,0,0,2,1,"5,05",0,0,1,0,0
4,3.9833333333333303,Reinaldo ,1,LAT,"13,67",4,27,Chapecoense,3,"8,20",0,0,0,1,"0,47",0,0,9,0,0,4,3,"7,60",0,0,0,5,0
4,3.9833333333333303,João Lucas ,0,LAT,"13,06",4,20,Ponte Preta,3,"12,00",0,0,0,0,"3,10",0,0,7,0,1,1,2,"5,47",0,0,1,1,0
4,3.9833333333333303,Camacho ,0,MEI,"4,31",1,3,Corinthians,3,"-0,90",0,0,0,0,"-1,69",0,0,0,0,0,0,0,"-0,90",0,0,0,0,0
4,3.9833333333333303,Diego Souza ,1,MEI,"17,28",2,10,Sport,2,"-0,20",0,0,1,1,"-2,94",0,0,2,0,0,6,0,"3,80",0,0,0,5,0
4,3.9833333333333303,Ederson ,1,MEI,"4,68",3,7,Flamengo,3,"-1,00",0,0,0,0,"-1,08",0,0,2,0,0,7,0,"1,83",0,0,1,2,0
4,3.9833333333333303,Denilson ,1,ATA,"2,35",3,11,Avaí,2,"0,00",0,0,0,0,"0,00",0,0,1,0,0,2,0,"-0,30",0,0,0,2,0
4,3.9833333333333303,Luis Fabiano ,3,ATA,"12,24",3,3,Vasco,3,"0,00",4,0,2,2,"0,00",0,0,1,0,1,3,0,"6,47",0,0,2,4,0
4,3.9833333333333303,Kleber ,5,ATA,"13,56",4,12,Coritiba,3,"1,40",0,0,0,0,"-0,30",0,0,2,0,1,11,0,"4,33",0,0,7,7,0
5,8.275,Cuca ,0,TEC,"12,74",5,0,Palmeiras,3,"0,75",0,0,0,0,"-0,97",0,0,0,0,0,0,0,"3,14",0,0,0,0,0
5,8.275,Fábio ,0,GOL,"12,59",5,1,Cruzeiro,3,"4,00",0,0,0,0,"0,23",0,7,0,0,0,0,2,"4,44",4,0,0,1,0
5,8.275,Kannemann ,1,ZAG,"8,81",4,10,Grêmio,3,"-2,10",0,0,1,0,"-1,47",0,0,1,0,0,2,3,"2,48",0,0,0,7,0
5,8.275,Luan ,0,ZAG,"7,00",0,0,Palmeiras,1,"0,00",0,0,0,0,"0,00",0,0,0,0,0,0,0,"0,00",0,0,0,0,0
5,8.275,Rodinei ,0,LAT,"9,21",2,0,Flamengo,2,"0,00",0,0,0,1,"0,00",0,0,0,0,0,0,1,"6,50",0,0,0,2,1
5,8.275,Victor Ferraz ,1,LAT,"10,44",4,12,Santos,3,"12,10",0,0,0,2,"2,68",0,0,0,0,0,3,1,"3,40",0,2,0,4,0
5,8.275,Elias ,1,MEI,"13,21",4,7,Atlético-MG,3,"-1,60",2,0,0,1,"-2,10",0,0,5,0,0,4,0,"3,15",0,1,0,3,0
5,8.275,Gabriel ,0,MEI,"6,35",5,7,Corinthians,3,"-3,00",0,0,0,0,"-1,72",0,0,8,0,0,4,0,"2,00",0,1,0,5,1
5,8.275,Ramiro ,4,MEI,"18,63",4,12,Grêmio,3,"7,70",1,0,0,2,"0,94",0,0,5,0,2,8,0,"7,55",0,2,0,6,0
5,8.275,Willian ,0,ATA,"4,53",5,9,Palmeiras,3,"1,20",2,0,0,0,"0,50",1,0,5,0,0,5,0,"-0,54",0,1,0,11,1
5,8.275,Beto da Silva ,0,ATA,"3,74",1,0,Grêmio,2,"0,00",0,0,0,0,"0,00",0,0,1,0,0,1,0,"2,20",0,0,0,0,0
5,8.275,Wellington Paulista ,3,ATA,"11,12",5,9,Chapecoense,3,"0,60",2,0,0,3,"-1,53",0,0,2,0,0,4,0,"4,86",0,2,0,5,3
6,26.01666666666667,Rogério Ceni ,0,TEC,"9,73",6,0,São Paulo,3,"3,73",0,0,0,0,"-0,22",0,0,0,0,0,0,0,"4,05",0,0,0,0,0
6,26.01666666666667,Felipe Garcia ,0,GOL,"10,15",5,3,Atlético-GO,3,"11,00",0,0,0,0,"1,59",0,17,0,0,0,0,1,"7,42",9,0,0,0,0
6,26.01666666666667,Igor Rabello ,1,ZAG,"11,92",6,7,Botafogo,3,"4,10",0,0,1,0,"-0,07",0,0,15,0,0,5,3,"6,18",0,0,1,7,0
6,26.01666666666667,Salazar ,0,ZAG,"3,00",0,0,Avaí,2,"0,00",0,0,0,0,"0,00",0,0,0,0,0,0,0,"0,00",0,0,0,0,0
6,26.01666666666667,Fabrício ,0,LAT,"5,00",0,0,Cruzeiro,2,"0,00",0,0,0,0,"0,00",0,0,0,0,0,0,0,"0,00",0,0,0,0,0
6,26.01666666666667,Diogo Barbosa ,1,LAT,"12,45",6,24,Cruzeiro,3,"5,30",0,0,0,0,"0,16",0,0,12,0,0,9,3,"4,73",0,1,0,6,0
6,26.01666666666667,Marquinhos Gabriel ,0,MEI,"10,26",3,10,Corinthians,3,"4,60",0,0,1,1,"-0,75",0,0,2,0,3,7,0,"8,13",0,0,1,3,0
6,26.01666666666667,Lucho González ,3,MEI,"7,31",3,13,Atlético-PR,3,"0,50",2,0,0,0,"-0,57",0,0,2,0,0,2,0,"-0,47",0,0,0,6,0
6,26.01666666666667,Matheus Rossetto ,0,MEI,"4,56",5,8,Atlético-PR,3,"0,10",0,0,0,0,"-0,42",0,0,4,0,1,5,0,"2,18",0,0,1,4,0
6,26.01666666666667,André ,2,ATA,"10,13",5,12,Sport,3,"9,20",2,0,1,4,"2,11",0,0,6,0,0,5,0,"6,70",0,0,1,14,0
6,26.01666666666667,Edigar Junio ,1,ATA,"10,60",6,10,Bahia,3,"3,70",1,0,0,2,"-0,94",0,0,4,1,0,9,0,"4,17",0,0,3,12,0
6,26.01666666666667,Henrique Almeida ,3,ATA,"15,79",6,15,Coritiba,3,"8,40",6,0,0,2,"1,34",0,0,8,1,0,12,0,"5,62",0,1,0,4,4
7,20.136666666666667,Ney Franco ,0,TEC,"2,28",1,0,Sport,3,"-0,77",0,0,0,0,"-1,72",0,0,0,0,0,0,0,"-0,77",0,0,0,0,0
7,20.136666666666667,Vinicius Silvestre ,0,GOL,"2,00",0,0,Palmeiras,2,"0,00",0,0,0,0,"0,00",0,0,0,0,0,0,0,"0,00",0,0,0,0,0
7,20.136666666666667,Felipe Santana ,2,ZAG,"8,14",6,10,Atlético-MG,3,"2,30",1,0,0,0,"0,27",0,0,9,0,1,5,1,"3,78",0,0,0,6,0
7,20.136666666666667,René ,0,ZAG,"2,80",3,8,Vitória,2,"0,00",0,0,0,0,"0,00",0,0,3,0,0,3,2,"2,73",0,1,0,8,0
7,20.136666666666667,Diogo Barbosa ,1,LAT,"12,21",7,29,Cruzeiro,3,"3,60",0,0,1,0,"-0,24",0,0,15,0,0,9,3,"4,57",0,0,1,8,0
7,20.136666666666667,Lucas ,4,LAT,"2,57",6,12,Fluminense,3,"1,10",2,0,0,0,"-0,29",0,0,6,0,0,5,0,"0,57",0,0,0,15,0
7,20.136666666666667,Judson ,4,MEI,"5,20",6,15,Avaí,3,"5,60",0,0,0,0,"0,91",0,0,7,0,1,3,0,"2,12",0,1,0,8,2
7,20.136666666666667,Márcio Araújo ,1,MEI,"7,55",7,15,Flamengo,3,"3,20",0,0,0,0,"0,51",0,0,10,0,0,13,0,"1,74",0,1,0,11,0
7,20.136666666666667,Gabriel ,0,MEI,"9,43",7,9,Corinthians,3,"8,00",0,0,1,1,"0,25",0,0,14,0,0,7,0,"4,08",0,0,1,6,0
7,20.136666666666667,Marcos Calazans ,0,ATA,"5,28",2,2,Fluminense,3,"5,30",0,0,0,0,"-0,07",0,0,7,0,1,3,0,"7,15",0,1,0,3,0
7,20.136666666666667,Henrique Dourado ,4,ATA,"23,16",6,18,Fluminense,3,"-1,20",1,0,0,7,"-1,98",0,0,2,0,1,12,0,"9,97",0,2,0,13,3
7,20.136666666666667,Kieza ,2,ATA,"11,40",5,9,Vitória,3,"7,20",3,0,0,3,"0,11",0,0,2,0,0,16,0,"5,42",0,0,0,11,0
8,25.448571428571423,Mano Menezes ,0,TEC,"12,59",8,0,Cruzeiro,3,"6,85",0,0,0,0,"1,02",0,0,0,0,0,0,0,"3,82",0,0,0,0,0
8,25.448571428571423,Fernando Miguel ,0,GOL,"10,42",8,7,Vitória,3,"-2,00",0,0,1,0,"-0,95",0,15,0,0,0,2,2,"4,24",9,0,0,0,0
8,25.448571428571423,Réver ,1,ZAG,"10,58",8,14,Flamengo,3,"2,70",0,0,1,1,"-1,52",0,0,9,0,0,7,3,"4,41",0,0,1,4,0
8,25.448571428571423,Betão ,1,ZAG,"5,99",7,19,Avaí,3,"0,00",0,0,3,0,"0,00",0,0,7,0,0,10,2,"1,85",0,0,0,6,0
8,25.448571428571423,Rodinei ,1,LAT,"10,37",4,5,Flamengo,3,"5,90",1,0,1,1,"-0,36",0,0,6,0,1,3,2,"7,47",0,0,1,5,0
8,25.448571428571423,Dodô ,2,LAT,"9,93",8,35,Coritiba,3,"2,70",0,0,2,0,"-0,35",0,0,13,0,0,6,5,"4,07",0,0,2,13,0
8,25.448571428571423,Everton ,2,MEI,"14,01",7,28,Flamengo,3,"2,10",1,0,2,1,"0,00",0,0,13,0,1,12,0,"4,23",0,0,5,10,0
8,25.448571428571423,Michel  ,4,MEI,"9,08",7,17,Grêmio,3,"7,10",0,0,1,3,"0,87",0,0,15,0,0,10,0,"6,03",0,0,0,16,0
8,25.448571428571423,Elton ,3,MEI,"6,01",7,17,Ponte Preta,3,"2,60",1,1,0,0,"0,35",0,0,13,0,0,7,0,"1,73",0,0,1,12,0
8,25.448571428571423,Negueba ,0,ATA,"6,00",0,0,Atlético-GO,2,"0,00",0,0,0,0,"0,00",0,0,0,0,0,0,0,"0,00",0,0,0,0,0
8,25.448571428571423,Rafael Moura ,5,ATA,"7,08",7,6,Atlético-MG,2,"9,80",4,0,0,2,"1,39",0,0,2,1,0,6,0,"3,30",0,0,3,11,0
8,25.448571428571423,Marcelinho ,0,ATA,"3,00",0,0,Avaí,2,"0,00",0,0,0,0,"0,00",0,0,0,0,0,0,0,"0,00",0,0,0,0,0
9,34.939523809523806,Cuca ,0,TEC,"13,95",9,0,Palmeiras,3,"6,19",0,0,0,0,"0,33",0,0,0,0,0,0,0,"3,98",0,0,0,0,0
9,34.939523809523806,Weverton ,0,GOL,"2,71",6,6,Atlético-PR,3,"4,70",0,0,0,0,"-0,95",0,7,0,0,0,1,2,"1,28",10,1,0,0,0
9,34.939523809523806,Lucas Veríssimo ,2,ZAG,"6,48",9,16,Santos,3,"5,40",0,0,2,0,"0,00",0,0,8,0,0,2,6,"3,85",0,0,1,7,0
9,34.939523809523806,Murilo ,2,ZAG,"0,77",4,11,Cruzeiro,3,"-1,50",0,0,0,0,"-0,30",0,0,1,0,0,2,1,"0,45",0,1,0,4,0
9,34.939523809523806,Samuel Xavier ,0,LAT,"2,51",7,33,Sport,3,"3,20",1,0,0,0,"0,40",0,0,7,0,0,8,2,"1,79",0,1,0,4,1
9,34.939523809523806,Eduardo ,2,LAT,"5,88",9,50,Bahia,3,"4,40",2,0,0,0,"0,52",0,0,14,0,1,8,3,"2,69",0,1,0,14,0
9,34.939523809523806,Elias ,1,MEI,"11,85",8,24,Atlético-MG,3,"-1,20",2,0,0,1,"-0,54",0,0,9,0,0,7,0,"1,85",0,1,0,9,2
9,34.939523809523806,Gabriel ,0,MEI,"7,16",9,15,Corinthians,3,"-2,20",0,1,0,1,"-0,12",0,0,18,0,0,8,0,"2,51",0,2,0,15,1
9,34.939523809523806,Betinho ,0,MEI,"2,00",0,0,Atlético-GO,2,"0,00",0,0,0,0,"0,00",0,0,0,0,0,0,0,"0,00",0,0,0,0,0
9,34.939523809523806,Richarlison  ,5,ATA,"11,04",7,13,Fluminense,3,"-2,60",7,0,0,2,"-1,37",0,0,11,0,1,18,0,"5,26",0,1,0,18,3
9,34.939523809523806,Everton ,2,ATA,"9,67",6,6,Grêmio,3,"-0,50",0,0,1,4,"-1,86",0,0,4,1,0,3,0,"7,40",0,0,5,4,0
9,34.939523809523806,Lucca ,6,ATA,"21,26",9,24,Ponte Preta,3,"9,10",2,0,0,6,"1,00",0,0,7,0,1,30,0,"8,38",0,0,6,13,0
10,0.0,Cuca ,0,TEC,"13,45",10,0,Palmeiras,3,"0,00",0,0,0,0,"-0,50",0,0,0,0,0,0,0,"3,84",0,0,0,0,0
10,0.0,Weverton ,0,GOL,"2,17",7,0,Atlético-PR,3,"0,00",0,0,0,0,"-0,54",0,0,0,0,0,0,0,"1,20",0,0,0,0,0
10,0.0,Lucas Veríssimo ,0,ZAG,"6,76",10,0,Santos,1,"0,00",0,0,0,0,"0,28",0,0,0,0,0,0,0,"3,98",0,0,0,0,0
10,0.0,Murilo ,0,ZAG,"0,77",4,0,Cruzeiro,2,"0,00",0,0,0,0,"0,00",0,0,0,0,0,0,0,"0,45",0,0,0,0,0
10,0.0,Samuel Xavier ,0,LAT,"3,13",8,0,Sport,3,"0,00",0,0,0,0,"0,62",0,0,0,0,0,0,0,"2,19",0,0,0,0,0
10,0.0,Eduardo ,0,LAT,"5,30",10,0,Bahia,3,"0,00",0,0,0,0,"-0,58",0,0,0,0,0,0,0,"2,47",0,0,0,0,0
10,0.0,Elias ,0,MEI,"11,85",8,0,Atlético-MG,3,"0,00",0,0,0,0,"0,00",0,0,0,0,0,0,0,"1,85",0,0,0,0,0
10,0.0,Alan Santos ,0,MEI,"4,80",8,0,Coritiba,5,"0,00",0,0,0,0,"0,00",0,0,0,0,0,0,0,"1,91",0,0,0,0,0
10,0.0,Andreazzi ,0,MEI,"2,00",0,0,Botafogo,2,"0,00",0,0,0,0,"0,00",0,0,0,0,0,0,0,"0,00",0,0,0,0,0
10,0.0,Roger ,0,ATA,"8,53",9,0,Botafogo,2,"0,00",0,0,0,0,"-1,66",0,0,0,0,0,0,0,"4,59",0,0,0,0,0
10,0.0,Lucca ,0,ATA,"22,14",10,0,Ponte Preta,3,"0,00",0,0,0,0,"0,88",0,0,0,0,0,0,0,"8,66",0,0,0,0,0
10,0.0,Lucca ,0,ATA,"22,14",10,0,Ponte Preta,3,"0,00",0,0,0,0,"0,88",0,0,0,0,0,0,0,"8,66",0,0,0,0,0
11,14.971035353535356,Milton Mendes ,0,TEC,"8,93",11,0,Vasco,3,"2,55",0,0,0,0,"-0,37",0,0,0,0,0,0,0,"3,69",0,0,0,0,0
11,14.971035353535356,Rafael Martins ,0,GOL,"2,00",0,0,Coritiba,2,"0,00",0,0,0,0,"0,00",0,0,0,0,0,0,0,"0,00",0,0,0,0,0
11,14.971035353535356,Réver ,1,ZAG,"11,83",10,15,Flamengo,3,"9,40",0,0,0,1,"1,52",0,0,12,0,0,8,4,"4,61",0,1,0,5,2
11,14.971035353535356,Luiz Otávio  ,3,ZAG,"5,66",9,19,Chapecoense,3,"0,00",0,1,0,0,"-0,23",0,0,10,0,1,0,2,"1,94",0,2,0,10,3
11,14.971035353535356,Wallace Oliveira ,0,LAT,"5,00",0,0,Grêmio,2,"0,00",0,0,0,0,"0,00",0,0,0,0,0,0,0,"0,00",0,0,0,0,0
11,14.971035353535356,Fernandinho ,0,LAT,"5,53",2,2,Ponte Preta,3,"3,90",0,0,0,0,"-0,13",0,0,0,0,0,0,2,"4,45",0,0,0,1,0
11,14.971035353535356,Matheus Galdezani ,5,MEI,"7,66",10,46,Coritiba,3,"1,80",0,0,0,1,"-0,74",0,0,22,0,0,21,0,"3,66",0,3,0,22,8
11,14.971035353535356,Gabriel ,0,MEI,"7,34",10,17,Corinthians,3,"0,60",0,1,0,1,"0,18",0,0,19,0,0,8,0,"2,32",0,2,0,16,1
11,14.971035353535356,Betinho ,0,MEI,"2,00",0,0,Atlético-GO,2,"0,00",0,0,0,0,"0,00",0,0,0,0,0,0,0,"0,00",0,0,0,0,0
11,14.971035353535356,Richarlison  ,5,ATA,"13,63",9,19,Fluminense,3,"10,40",10,0,0,3,"1,27",0,0,15,0,2,19,0,"5,81",0,2,0,21,5
11,14.971035353535356,Everton ,3,ATA,"9,80",8,7,Grêmio,3,"1,50",0,0,1,4,"0,10",0,0,4,1,0,5,0,"5,79",0,0,6,5,0
11,14.971035353535356,Henrique Almeida ,11,ATA,"16,16",11,30,Coritiba,3,"11,60",9,0,0,2,"2,09",0,0,13,1,1,20,0,"4,72",0,1,0,10,8
12,19.24833333333333,Jair Ventura ,0,TEC,"11,23",12,0,Botafogo,3,"4,37",0,0,0,0,"0,53",0,0,0,0,0,0,0,"3,91",0,0,0,0,0
12,19.24833333333333,Vanderlei ,0,GOL,"19,46",12,3,Santos,3,"1,70",0,0,0,0,"-1,37",0,26,0,0,0,1,6,"8,90",8,0,0,1,2
12,19.24833333333333,Léo Santos ,0,ZAG,"4,38",1,0,Corinthians,2,"0,00",0,0,0,0,"0,00",0,0,0,0,0,0,1,"5,00",0,0,0,0,0
12,19.24833333333333,Edu Dracena ,0,ZAG,"9,90",5,3,Palmeiras,2,"0,00",1,0,0,0,"0,00",0,0,5,0,0,8,3,"4,72",0,0,1,7,0
12,19.24833333333333,Trauco ,4,LAT,"6,84",8,28,Flamengo,3,"3,30",0,0,2,1,"-0,07",0,0,5,0,0,4,4,"3,59",0,0,3,13,0
12,19.24833333333333,Victor Luis ,2,LAT,"12,38",10,19,Botafogo,3,"3,70",0,0,2,1,"0,70",0,0,17,0,0,9,4,"5,08",0,0,0,12,0
12,19.24833333333333,Conca ,0,MEI,"8,35",2,3,Flamengo,2,"0,00",0,0,1,0,"0,00",0,0,0,0,0,1,0,"-0,95",0,0,1,1,0
12,19.24833333333333,Renê Júnior ,6,MEI,"9,73",9,20,Bahia,3,"4,80",3,1,2,1,"0,62",0,0,24,0,0,18,0,"5,25",0,0,2,10,0
12,19.24833333333333,Wellington ,0,MEI,"3,00",0,0,São Paulo,2,"0,00",0,0,0,0,"0,00",0,0,0,0,0,0,0,"0,00",0,0,0,0,0
12,19.24833333333333,Lucca ,9,ATA,"20,41",12,29,Ponte Preta,3,"-0,50",4,0,1,7,"-1,56",0,0,12,0,1,37,0,"7,88",0,0,8,13,0
12,19.24833333333333,Jô ,4,ATA,"13,32",12,24,Corinthians,3,"8,90",12,0,2,6,"1,18",1,0,2,0,2,16,0,"4,49",0,0,5,23,0
12,19.24833333333333,Luis Fabiano ,14,ATA,"14,04",9,10,Vasco,3,"1,40",5,0,3,5,"-0,29",0,0,2,0,2,17,0,"6,56",0,0,4,13,0
13,27.393135198135194,Mano Menezes ,0,TEC,"12,98",13,0,Cruzeiro,3,"5,91",0,0,0,0,"0,42",0,0,0,0,0,0,0,"3,95",0,0,0,0,0
13,27.393135198135194,Vanderlei ,0,GOL,"23,89",13,4,Santos,3,"24,00",0,0,0,0,"4,43",0,28,0,0,0,1,6,"10,06",10,0,2,1,0
13,27.393135198135194,Roger Carvalho ,5,ZAG,"7,43",13,26,Atlético-GO,3,"-0,10",0,0,0,0,"-1,66",0,0,16,1,1,23,1,"2,95",0,0,0,19,0
13,27.393135198135194,Yerry Mina ,3,ZAG,"15,14",8,16,Palmeiras,3,"1,70",2,0,0,1,"-0,51",0,0,14,0,0,9,3,"4,79",0,3,0,14,2
13,27.393135198135194,Bruno Cortez ,0,LAT,"10,98",11,21,Grêmio,3,"4,10",1,0,0,1,"0,69",0,0,15,0,0,10,6,"4,80",0,3,0,14,0
13,27.393135198135194,Diogo Barbosa ,2,LAT,"12,65",12,44,Cruzeiro,3,"4,10",0,0,2,0,"0,32",0,0,20,1,1,14,4,"4,52",0,0,2,11,0
13,27.393135198135194,Marcão Silva ,3,MEI,"7,23",12,22,Atlético-GO,3,"1,50",0,0,0,0,"-0,04",0,0,32,0,0,8,0,"2,99",0,5,0,19,0
13,27.393135198135194,Wenderson ,0,MEI,"0,76",1,0,Botafogo,2,"0,00",0,0,0,0,"0,00",0,0,0,0,0,0,0,"0,00",0,0,0,0,0
13,27.393135198135194,Jean Mota ,5,MEI,"4,68",11,27,Santos,3,"1,40",0,0,0,0,"-1,30",0,0,15,0,2,10,0,"3,25",0,1,0,5,3
13,27.393135198135194,Bruno Henrique ,3,ATA,"11,72",10,33,Santos,3,"0,30",4,1,0,0,"-0,61",0,0,10,1,5,27,0,"3,45",0,2,0,24,6
13,27.393135198135194,Jô ,4,ATA,"11,29",13,26,Corinthians,3,"-2,70",12,0,0,7,"-2,03",1,0,2,0,2,16,0,"3,94",0,2,0,24,7
13,27.393135198135194,Luis Fabiano ,15,ATA,"14,04",9,10,Vasco,5,"0,00",5,0,0,5,"0,00",0,0,3,0,2,19,0,"6,56",0,4,0,15,5
14,14.346214896214896,Claudinei Oliveira ,0,TEC,"7,07",14,0,Avaí,3,"2,14",0,0,0,0,"0,24",0,0,0,0,0,0,0,"3,05",0,0,0,0,0
14,14.346214896214896,Fernando Miguel ,0,GOL,"9,18",14,12,Vitória,3,"-5,30",0,0,0,0,"-0,37",0,23,0,0,0,3,3,"2,48",20,1,0,0,0
14,14.346214896214896,Roger Carvalho ,6,ZAG,"7,71",14,31,Atlético-GO,3,"1,70",0,0,0,0,"0,28",0,0,17,1,1,23,1,"2,86",0,0,0,21,0
14,14.346214896214896,Yerry Mina ,4,ZAG,"14,46",9,20,Palmeiras,3,"-1,30",2,0,3,1,"-0,68",0,0,15,0,0,9,3,"4,11",0,0,3,15,0
14,14.346214896214896,Bruno Cortez ,0,LAT,"10,26",12,23,Grêmio,3,"0,00",1,0,3,1,"-0,72",0,0,16,0,0,11,7,"4,40",0,0,0,19,0
14,14.346214896214896,Diogo Barbosa ,2,LAT,"14,19",13,47,Cruzeiro,3,"11,20",0,0,0,0,"1,54",0,0,20,1,1,14,5,"5,03",0,2,0,11,2
14,14.346214896214896,Renato ,0,MEI,"3,00",0,0,Avaí,2,"0,00",0,0,0,0,"0,00",0,0,0,0,0,0,0,"0,00",0,0,0,0,0
14,14.346214896214896,Andrei Girotto ,10,MEI,"4,85",13,21,Chapecoense,3,"-2,40",1,0,0,1,"-1,06",0,0,19,0,2,13,0,"2,50",0,5,0,30,3
14,14.346214896214896,Douglas ,3,MEI,"15,21",1,4,Vasco,3,"9,50",0,0,1,0,"3,21",0,0,3,1,0,2,0,"9,50",0,0,1,0,0
14,14.346214896214896,Lucas Pratto ,23,ATA,"15,44",14,41,São Paulo,3,"2,70",2,0,0,4,"-0,95",1,0,5,0,2,12,0,"4,11",0,2,0,18,12
14,14.346214896214896,Rodrigão ,0,ATA,"6,00",0,0,Santos,2,"0,00",0,0,0,0,"0,00",0,0,0,0,0,0,0,"0,00",0,0,0,0,0
14,14.346214896214896,Henrique Almeida ,12,ATA,"14,43",14,34,Coritiba,1,"0,00",10,0,1,3,"-1,38",0,0,13,1,1,24,0,"4,32",0,0,9,13,0
15,18.76193695193695,Jair Ventura ,0,TEC,"11,57",15,0,Botafogo,3,"4,93",0,0,0,0,"-0,09",0,0,0,0,0,0,0,"4,18",0,0,0,0,0
15,18.76193695193695,Aranha ,0,GOL,"13,03",15,6,Ponte Preta,3,"14,00",0,0,0,0,"2,43",0,24,0,0,0,2,6,"3,95",21,0,0,0,0
15,18.76193695193695,Wanderson ,0,ZAG,"5,41",8,14,Atlético-PR,2,"0,00",1,0,0,2,"0,00",0,0,5,0,0,2,3,"4,22",0,1,0,6,3
15,18.76193695193695,Marcio ,3,ZAG,"7,01",13,25,Coritiba,3,"2,00",1,0,0,1,"0,51",0,0,12,0,1,6,5,"3,38",0,3,0,15,2
15,18.76193695193695,William Matheus ,1,LAT,"7,08",13,42,Coritiba,3,"1,80",1,1,0,0,"-0,40",0,0,13,0,0,25,4,"2,12",0,3,0,17,5
15,18.76193695193695,Dodô ,3,LAT,"9,34",11,47,Coritiba,3,"3,50",0,0,0,0,"0,51",0,0,18,0,0,7,5,"3,33",0,2,0,17,2
15,18.76193695193695,Zé Rafael  ,11,MEI,"19,78",14,34,Bahia,3,"7,20",2,0,3,1,"0,85",0,0,34,0,3,40,0,"6,30",0,0,12,30,0
15,18.76193695193695,Willian Arão ,1,MEI,"8,51",9,33,Flamengo,2,"0,00",0,0,0,0,"0,00",0,0,14,0,1,7,0,"2,34",0,0,3,10,0
15,18.76193695193695,Ramiro ,8,MEI,"17,49",12,47,Grêmio,3,"8,10",1,0,0,4,"0,07",0,0,15,0,3,20,0,"5,21",0,3,0,20,5
15,18.76193695193695,Neto Berola ,4,ATA,"9,83",9,17,Coritiba,3,"2,50",3,0,0,1,"-0,33",0,0,7,0,2,9,0,"2,90",0,1,0,7,1
15,18.76193695193695,Grafite ,0,ATA,"12,00",0,0,Atlético-PR,2,"0,00",0,0,0,0,"0,00",0,0,0,0,0,0,0,"0,00",0,0,0,0,0
15,18.76193695193695,Ángel Romero ,3,ATA,"12,06",13,46,Corinthians,3,"-0,90",9,0,4,2,"-1,38",0,0,25,0,2,42,0,"4,90",0,0,6,15,0
16,30.038740842490835,Jair Ventura ,0,TEC,"11,20",16,0,Botafogo,3,"1,91",0,0,0,0,"-0,37",0,0,0,0,0,0,0,"4,04",0,0,0,0,0
16,30.038740842490835,Aranha ,0,GOL,"15,18",16,6,Ponte Preta,3,"21,50",0,0,0,0,"2,15",0,24,0,0,0,2,6,"5,05",21,0,0,0,0
16,30.038740842490835,Wanderson ,0,ZAG,"5,41",8,14,Atlético-PR,2,"0,00",1,0,1,2,"0,00",0,0,5,0,0,2,3,"4,22",0,0,3,6,0
16,30.038740842490835,Marcio ,3,ZAG,"6,44",14,25,Coritiba,3,"-1,30",1,0,3,1,"-0,57",0,0,12,0,1,6,5,"3,05",0,0,2,15,0
16,30.038740842490835,William Matheus ,1,LAT,"7,00",14,42,Coritiba,3,"1,00",1,1,3,0,"-0,08",0,0,13,0,0,25,4,"2,04",0,0,5,17,0
16,30.038740842490835,Diogo Barbosa ,2,LAT,"12,87",15,54,Cruzeiro,3,"4,20",1,0,0,0,"1,03",0,0,24,1,2,17,5,"4,54",0,2,0,13,2
16,30.038740842490835,Rithely ,10,MEI,"11,24",14,41,Sport,3,"2,40",1,0,2,1,"-0,15",0,0,31,0,2,17,0,"4,70",0,0,4,20,0
16,30.038740842490835,Renê Júnior ,13,MEI,"10,88",12,31,Bahia,3,"1,80",3,1,3,3,"-2,20",0,0,36,0,0,23,0,"6,94",0,0,5,15,0
16,30.038740842490835,Thiago Neves ,8,MEI,"18,19",13,49,Cruzeiro,3,"5,80",3,0,1,5,"-0,58",0,0,10,1,2,26,0,"6,70",0,0,18,15,0
16,30.038740842490835,Fernandinho ,4,ATA,"11,34",12,20,Grêmio,1,"4,90",0,0,1,4,"-1,49",0,0,8,0,1,30,0,"5,57",0,0,7,11,0
16,30.038740842490835,João Paulo ,5,ATA,"3,81",7,5,Bahia,3,"1,50",0,0,0,2,"0,04",0,0,0,0,0,9,0,"3,57",0,0,3,4,0
16,30.038740842490835,Ángel Romero ,3,ATA,"12,88",14,46,Corinthians,3,"3,60",9,0,0,2,"0,82",0,0,25,0,2,42,0,"4,81",0,4,0,15,6
17,17.11,Fábio Carille ,0,TEC,"11,33",17,0,Corinthians,3,"2,61",0,0,0,0,"-0,46",0,0,0,0,0,0,0,"4,58",0,0,0,0,0
17,17.11,Douglas Friedrich ,0,GOL,"7,74",8,0,Avaí,3,"-3,50",0,0,0,0,"-3,87",0,26,0,0,0,3,5,"11,94",7,1,1,0,0
17,17.11,Luan ,3,ZAG,"7,80",8,9,Palmeiras,3,"7,30",0,0,0,0,"0,03",0,0,11,0,0,8,4,"4,51",0,1,0,10,1
17,17.11,Marcio ,0,ZAG,"2,00",0,0,Coritiba,2,"0,00",0,0,0,0,"0,00",0,0,0,0,0,0,0,"0,00",0,0,0,0,0
17,17.11,Sidcley ,4,LAT,"13,73",15,60,Atlético-PR,3,"7,80",6,0,0,3,"1,36",0,0,22,0,3,28,5,"5,89",0,1,0,18,2
17,17.11,Victor Luis ,0,LAT,"7,85",1,1,Botafogo,3,"4,10",0,0,0,0,"0,85",0,0,2,0,0,2,0,"4,10",0,0,0,0,0
17,17.11,Thomaz ,0,MEI,"2,76",1,1,São Paulo,1,"1,90",0,0,0,0,"0,76",0,0,1,0,0,1,0,"1,90",0,0,0,0,0
17,17.11,Juninho ,2,MEI,"12,59",1,1,Bahia,1,"7,80",0,0,0,0,"2,59",0,0,1,0,1,0,0,"7,80",0,0,0,0,0
17,17.11,Deivid ,0,MEI,"7,00",0,0,Atlético-PR,5,"0,00",0,0,0,0,"0,00",0,0,0,0,0,0,0,"0,00",0,0,0,0,0
17,17.11,Henrique Almeida ,2,ATA,"13,30",1,5,Coritiba,3,"11,80",1,0,0,1,"6,30",0,0,2,0,0,2,0,"11,80",0,0,0,0,0
17,17.11,Luis Guilherme ,0,ATA,"2,00",0,0,Atlético-MG,2,"0,00",0,0,0,0,"0,00",0,0,0,0,0,0,0,"0,00",0,0,0,0,0
17,17.11,Arthur  ,15,ATA,"11,23",16,36,Chapecoense,3,"3,40",5,0,0,4,"-0,88",0,0,15,1,4,36,0,"5,51",0,3,0,26,11
18,10.481613386613382,Paulo Autuori ,0,TEC,"8,23",1,0,Atlético-PR,3,"1,64",0,0,0,0,"-1,77",0,0,0,0,0,0,0,"1,64",0,0,0,0,0
18,10.481613386613382,Vanderlei ,0,GOL,"21,83",17,7,Santos,3,"2,50",0,0,2,0,"-0,88",0,47,0,0,0,3,9,"10,34",13,0,0,1,3
18,10.481613386613382,David Braz ,5,ZAG,"12,13",16,42,Santos,4,"5,30",2,1,5,2,"0,39",0,0,16,0,1,8,10,"4,41",0,0,1,15,0
18,10.481613386613382,Marllon ,3,ZAG,"12,02",17,31,Ponte Preta,3,"3,50",0,0,0,0,"-0,20",0,0,24,1,0,20,7,"4,48",0,2,0,6,1
18,10.481613386613382,Trauco ,6,LAT,"6,62",12,53,Flamengo,1,"0,00",0,0,3,1,"0,00",0,0,12,1,0,6,5,"2,89",0,0,3,21,0
18,10.481613386613382,Júnior Tavares ,6,LAT,"12,74",14,53,São Paulo,5,"0,00",0,0,2,0,"0,00",0,0,17,0,4,31,4,"4,38",0,0,1,17,0
18,10.481613386613382,João Paulo ,5,MEI,"1,74",16,62,Botafogo,2,"-4,20",1,0,0,0,"-0,74",0,0,16,1,3,24,0,"1,27",0,5,0,34,5
18,10.481613386613382,Luís Fernando ,0,MEI,"3,00",0,0,Bahia,2,"0,00",0,0,0,0,"0,00",0,0,0,0,0,0,0,"0,00",0,0,0,0,0
18,10.481613386613382,Michel  ,8,MEI,"10,45",14,39,Grêmio,1,"9,30",0,0,4,4,"1,26",0,0,38,0,0,16,0,"5,33",0,0,2,36,0
18,10.481613386613382,Kazim ,2,ATA,"1,71",6,2,Corinthians,2,"-1,00",1,0,0,0,"-0,23",0,0,0,0,0,2,0,"-0,45",0,0,0,8,0
18,10.481613386613382,Arthur  ,16,ATA,"12,21",17,40,Chapecoense,3,"7,20",5,0,3,4,"0,98",0,0,16,1,5,39,0,"5,61",0,0,12,29,0
18,10.481613386613382,Fernandinho ,4,ATA,"11,98",14,22,Grêmio,1,"5,60",0,0,1,5,"-0,36",0,0,13,0,1,34,0,"5,92",0,0,11,13,0
19,15.477485602632663,Paulo Autuori ,0,TEC,"8,23",1,0,Atlético-PR,3,"1,64",0,0,0,0,"-1,77",0,0,0,0,0,0,0,"1,64",0,0,0,0,0
19,15.477485602632663,Vanderlei ,0,GOL,"22,47",18,7,Santos,3,"8,00",0,0,0,0,"0,64",0,48,0,0,0,3,10,"10,21",13,2,3,1,0
19,15.477485602632663,David Braz ,5,ZAG,"12,13",16,42,Santos,3,"0,00",2,1,0,2,"0,00",0,0,16,0,1,8,10,"4,41",0,5,0,15,1
19,15.477485602632663,Werley ,5,ZAG,"8,58",11,28,Coritiba,2,"0,00",0,0,0,0,"0,00",0,0,11,0,0,4,5,"3,48",0,0,1,7,0
19,15.477485602632663,Wallace Oliveira ,0,LAT,"5,00",0,0,Grêmio,2,"0,00",0,0,0,0,"0,00",0,0,0,0,0,0,0,"0,00",0,0,0,0,0
19,15.477485602632663,Sidcley ,4,LAT,"13,61",17,63,Atlético-PR,3,"5,10",9,0,1,3,"-0,31",0,0,24,0,3,29,7,"5,87",0,0,3,20,0
19,15.477485602632663,Matheus Fernandes ,6,MEI,"4,35",13,23,Botafogo,3,"0,00",0,0,0,0,"0,00",0,0,32,0,0,9,0,"3,45",0,1,0,19,0
19,15.477485602632663,Renê Júnior ,15,MEI,"10,56",15,45,Bahia,3,"-0,30",3,1,0,3,"-0,80",0,0,45,0,0,32,0,"6,20",0,3,0,30,7
19,15.477485602632663,Alisson ,9,MEI,"14,33",14,45,Cruzeiro,3,"7,00",2,0,0,1,"0,21",0,0,17,3,5,27,0,"5,30",0,0,0,19,6
19,15.477485602632663,Kazim ,2,ATA,"1,71",6,2,Corinthians,2,"0,00",1,0,0,0,"0,00",0,0,0,0,0,2,0,"-0,45",0,0,0,8,0
19,15.477485602632663,Arthur  ,16,ATA,"11,82",18,41,Chapecoense,2,"5,10",5,0,0,4,"-0,39",0,0,18,1,5,43,0,"5,58",0,3,0,31,13
19,15.477485602632663,Fernandinho ,4,ATA,"13,69",15,25,Grêmio,3,"14,90",0,0,0,6,"1,71",0,0,17,0,1,37,0,"6,52",0,1,0,14,11
20,12.174388701254028,Jair Ventura ,0,TEC,"12,51",20,0,Botafogo,3,"9,20",0,0,0,0,"1,13",0,0,0,0,0,0,0,"4,13",0,0,0,0,0
20,12.174388701254028,Vanderlei ,0,GOL,"22,09",19,7,Santos,3,"5,00",0,0,2,0,"-0,38",0,48,0,0,0,3,11,"9,94",13,0,0,1,3
20,12.174388701254028,David Braz ,5,ZAG,"12,13",16,42,Santos,3,"0,00",2,1,5,2,"0,00",0,0,16,0,1,8,10,"4,41",0,0,1,15,0
20,12.174388701254028,Werley ,5,ZAG,"8,58",11,28,Coritiba,2,"0,00",0,0,0,0,"0,00",0,0,11,0,0,4,5,"3,48",0,0,0,7,1
20,12.174388701254028,Wallace Oliveira ,0,LAT,"5,00",0,0,Grêmio,2,"0,00",0,0,0,0,"0,00",0,0,0,0,0,0,0,"0,00",0,0,0,0,0
20,12.174388701254028,Sidcley ,4,LAT,"14,23",18,64,Atlético-PR,3,"7,70",9,0,0,4,"0,62",0,0,24,0,3,29,7,"5,97",0,1,0,20,3
20,12.174388701254028,Rithely ,15,MEI,"11,56",17,58,Sport,3,"4,80",1,0,4,1,"0,47",0,0,42,0,2,17,0,"4,50",0,0,6,24,0
20,12.174388701254028,Renê Júnior ,16,MEI,"11,87",16,46,Bahia,3,"7,00",3,1,3,3,"1,31",0,0,48,0,0,36,0,"6,25",0,0,7,31,0
20,12.174388701254028,Thiago Neves ,10,MEI,"17,39",17,67,Cruzeiro,2,"2,40",4,0,2,6,"0,18",0,0,15,1,2,31,0,"5,84",0,0,25,18,0
20,12.174388701254028,Lucas Pratto ,30,ATA,"13,84",20,61,São Paulo,3,"-4,40",4,1,0,5,"-1,01",1,0,10,0,2,24,0,"3,56",0,2,0,28,18
20,12.174388701254028,João Paulo ,5,ATA,"3,35",9,5,Bahia,2,"0,00",0,0,1,2,"0,20",0,0,0,0,0,12,0,"2,55",0,0,3,4,0
20,12.174388701254028,Ángel Romero ,5,ATA,"11,87",15,54,Corinthians,2,"0,00",10,0,0,2,"0,00",0,0,27,0,2,49,0,"4,48",0,5,0,15,6
21,5.668081511711541,Renato Gaúcho ,0,TEC,"15,56",21,0,Grêmio,3,"4,77",0,0,0,0,"0,20",0,0,0,0,0,0,0,"4,56",0,0,0,0,0
21,5.668081511711541,Thiago ,0,GOL,"4,24",11,3,Flamengo,2,"0,00",0,0,0,0,"0,00",0,11,0,0,1,1,4,"3,59",9,0,0,0,0
21,5.668081511711541,Edu Dracena ,4,ZAG,"8,84",11,5,Palmeiras,3,"3,20",2,0,0,0,"-0,02",0,0,8,0,0,17,4,"3,31",0,1,0,12,2
21,5.668081511711541,Balbuena ,4,ZAG,"10,40",17,40,Corinthians,3,"-0,70",3,0,0,3,"-1,49",0,0,23,0,1,14,11,"6,53",0,3,0,7,1
21,5.668081511711541,William Matheus ,2,LAT,"7,67",18,58,Coritiba,3,"3,80",1,1,0,0,"-0,07",0,0,21,0,0,36,6,"2,61",0,4,0,24,5
21,5.668081511711541,Marcos Rocha ,4,LAT,"10,63",9,46,Atlético-MG,3,"5,50",1,0,0,0,"-1,23",0,0,26,0,2,12,2,"5,02",0,2,0,21,1
21,5.668081511711541,Gabriel ,0,MEI,"8,03",19,41,Corinthians,3,"2,90",0,1,0,1,"-0,63",0,0,38,0,0,20,0,"2,72",0,2,0,25,3
21,5.668081511711541,José Welison ,0,MEI,"4,00",0,0,Vitória,5,"0,00",0,0,0,0,"0,00",0,0,0,0,0,0,0,"0,00",0,0,0,0,0
21,5.668081511711541,Ramiro ,9,MEI,"15,73",15,64,Grêmio,2,"0,00",2,0,0,4,"0,00",0,0,18,0,3,26,0,"3,98",0,4,0,32,7
21,5.668081511711541,André ,18,ATA,"10,74",19,48,Sport,3,"3,70",14,0,0,9,"0,67",0,0,17,1,1,32,0,"5,19",0,3,0,42,9
21,5.668081511711541,Júnior Viçosa ,1,ATA,"5,80",1,0,Atlético-GO,2,"1,20",0,0,0,0,"-1,20",0,0,0,0,0,1,0,"1,20",0,0,0,0,0
21,5.668081511711541,Luan ,5,ATA,"5,46",8,9,Atlético-MG,3,"-1,20",0,0,0,0,"-0,86",0,0,3,0,1,7,0,"1,36",0,1,0,9,3
22,12.551011904761904,Fábio Carille ,0,TEC,"11,93",21,0,Corinthians,3,"3,96",0,0,0,0,"0,39",0,0,0,0,0,0,0,"4,67",0,0,0,0,0
22,12.551011904761904,Cássio ,0,GOL,"13,09",21,7,Corinthians,3,"4,00",0,0,0,0,"0,65",0,21,0,0,0,5,13,"5,55",11,2,2,0,0
22,12.551011904761904,Marcão ,0,ZAG,"4,39",1,1,Atlético-PR,4,"3,20",0,1,0,1,"1,39",0,0,0,0,0,0,0,"3,20",0,0,2,3,0
22,12.551011904761904,Tiago  ,1,ZAG,"9,16",21,40,Bahia,3,"-1,60",6,0,5,2,"-2,20",0,0,15,1,0,23,7,"2,58",0,0,2,30,0
22,12.551011904761904,Fagner ,3,LAT,"13,18",17,81,Corinthians,3,"5,00",2,0,0,0,"0,46",0,0,30,1,2,28,11,"5,55",0,4,0,18,1
22,12.551011904761904,Júnior Tavares ,6,LAT,"12,18",15,54,São Paulo,2,"0,00",0,0,2,0,"0,00",0,0,19,0,4,31,4,"4,29",0,0,1,17,0
22,12.551011904761904,Rodrigo Lindoso ,3,MEI,"10,09",16,47,Botafogo,3,"2,40",0,0,2,2,"0,29",0,0,32,0,1,13,0,"3,81",0,0,3,16,0
22,12.551011904761904,Cazares ,19,MEI,"8,38",17,58,Atlético-MG,3,"-0,40",1,0,0,2,"-1,13",1,0,5,0,6,9,0,"3,48",0,0,16,16,0
22,12.551011904761904,Jucilei ,7,MEI,"14,40",22,56,São Paulo,3,"5,50",1,0,0,1,"1,31",0,0,54,0,0,40,0,"4,20",0,0,1,32,0
22,12.551011904761904,David ,16,ATA,"4,49",21,54,Vitória,3,"-0,30",9,0,4,2,"-0,08",0,0,11,2,4,12,0,"2,20",0,0,7,22,0
22,12.551011904761904,Pedrinho ,2,ATA,"1,08",8,8,Corinthians,5,"0,00",0,0,0,0,"0,00",0,0,3,0,0,1,0,"0,95",0,0,3,0,0
22,12.551011904761904,Bruno Paulo ,0,ATA,"2,00",0,0,Corinthians,2,"0,00",0,0,0,0,"0,00",0,0,0,0,0,0,0,"0,00",0,0,0,0,0
23,28.5996080390198,Jair Ventura ,0,TEC,"12,43",23,0,Botafogo,3,"7,16",0,0,0,0,"0,65",0,0,0,0,0,0,0,"4,23",0,0,0,0,0
23,28.5996080390198,Douglas Friedrich ,0,GOL,"11,10",14,0,Avaí,3,"11,50",0,0,0,0,"0,41",0,38,0,0,0,4,9,"9,83",13,2,1,1,0
23,28.5996080390198,Balbuena ,4,ZAG,"11,12",18,40,Corinthians,3,"3,40",3,0,3,3,"0,72",0,0,25,0,1,14,11,"6,36",0,0,1,7,0
23,28.5996080390198,Kannemann ,2,ZAG,"9,47",15,32,Grêmio,3,"2,60",2,0,5,0,"-0,47",0,0,16,1,0,9,7,"2,69",0,0,0,21,0
23,28.5996080390198,Raul Prata ,4,LAT,"5,53",5,21,Sport,2,"0,00",0,0,0,0,"0,00",0,0,9,0,0,5,3,"4,76",0,1,0,7,0
23,28.5996080390198,Rodinei ,2,LAT,"8,85",13,27,Flamengo,3,"-1,30",1,1,0,1,"-1,27",0,0,12,0,3,10,6,"4,13",0,2,0,21,2
23,28.5996080390198,Bruno Mota ,1,MEI,"3,40",1,2,Atlético-PR,3,"1,80",0,0,0,0,"0,40",0,0,1,0,0,1,0,"1,80",0,0,0,1,0
23,28.5996080390198,Xuxa ,0,MEI,"2,62",1,1,Ponte Preta,2,"-0,30",0,0,0,0,"-1,38",0,0,0,0,0,0,0,"-0,30",0,0,0,0,0
23,28.5996080390198,Fabrício Baiano ,0,MEI,"2,00",0,0,Coritiba,2,"0,00",0,0,0,0,"0,00",0,0,0,0,0,0,0,"0,00",0,0,0,0,0
23,28.5996080390198,Henrique Dourado ,8,ATA,"22,68",17,45,Fluminense,3,"7,90",5,0,0,13,"1,37",0,0,7,0,2,32,0,"6,57",0,4,0,42,9
23,28.5996080390198,David ,17,ATA,"4,34",22,56,Vitória,3,"-0,90",10,0,0,2,"-0,15",0,0,11,2,4,12,0,"2,06",0,4,0,23,7
23,28.5996080390198,Júnior Dutra ,18,ATA,"9,56",17,48,Avaí,3,"8,10",4,0,0,6,"0,45",0,0,19,2,1,28,0,"5,39",0,2,0,28,7
24,15.635034059507742,Jair Ventura ,0,TEC,"12,59",24,0,Botafogo,3,"7,35",0,0,0,0,"0,16",0,0,0,0,0,0,0,"4,36",0,0,0,0,0
24,15.635034059507742,Douglas Friedrich ,0,GOL,"10,03",15,1,Avaí,3,"4,20",0,0,2,0,"-1,07",0,40,0,0,0,5,9,"9,45",14,0,0,1,1
24,15.635034059507742,Balbuena ,5,ZAG,"11,77",19,40,Corinthians,3,"6,90",3,0,0,3,"0,65",0,0,26,0,1,14,12,"6,39",0,3,0,8,1
24,15.635034059507742,Kannemann ,2,ZAG,"9,47",15,32,Grêmio,2,"0,00",2,0,0,0,"0,00",0,0,16,1,0,9,7,"2,69",0,5,0,21,0
24,15.635034059507742,Raul Prata ,4,LAT,"4,86",6,25,Sport,3,"4,90",0,0,1,0,"-0,67",0,0,12,0,0,7,3,"4,78",0,0,0,7,0
24,15.635034059507742,Rodinei ,2,LAT,"8,85",13,27,Flamengo,3,"0,00",1,1,2,1,"0,00",0,0,12,0,3,10,6,"4,13",0,0,2,21,0
24,15.635034059507742,Henrique ,2,MEI,"4,12",16,35,Cruzeiro,2,"-2,10",0,1,4,0,"-0,60",0,0,23,0,0,24,0,"1,50",0,0,3,16,0
24,15.635034059507742,Renato ,1,MEI,"6,27",14,29,Santos,5,"0,00",0,0,0,0,"0,00",0,0,16,0,0,15,0,"1,62",0,0,1,10,0
24,15.635034059507742,Edson ,8,MEI,"13,45",12,22,Bahia,3,"2,30",2,1,1,1,"-1,13",0,0,31,0,1,12,0,"4,55",0,0,1,18,0
24,15.635034059507742,Jô ,11,ATA,"13,42",22,52,Corinthians,3,"8,00",27,0,2,12,"1,54",1,0,6,0,2,25,0,"4,33",0,0,16,41,0
24,15.635034059507742,Willians ,0,ATA,"5,00",0,0,Atlético-GO,2,"0,00",0,0,0,0,"0,00",0,0,0,0,0,0,0,"0,00",0,0,0,0,0
24,15.635034059507742,Júnior Dutra ,19,ATA,"8,49",18,50,Avaí,3,"1,30",4,0,2,6,"-1,07",0,0,20,2,1,28,0,"5,16",0,0,7,29,0
25,17.0037343672727,Jair Ventura ,0,TEC,"12,40",25,0,Botafogo,3,"5,72",0,0,0,0,"-0,19",0,0,0,0,0,0,0,"4,41",0,0,0,0,0
25,17.0037343672727,Vanderlei ,0,GOL,"23,66",24,8,Santos,3,"11,00",0,0,0,0,"1,08",0,61,0,0,0,4,14,"9,87",16,2,3,1,0
25,17.0037343672727,Balbuena ,5,ZAG,"10,71",20,43,Corinthians,3,"0,50",3,0,4,3,"-1,06",0,0,28,0,1,15,12,"6,10",0,0,1,9,0
25,17.0037343672727,Kannemann ,2,ZAG,"8,76",16,32,Grêmio,2,"-0,80",3,0,6,0,"-0,71",0,0,17,1,0,10,7,"2,47",0,0,0,22,0
25,17.0037343672727,Raul Prata ,4,LAT,"5,90",7,27,Sport,3,"10,00",0,0,0,0,"1,04",0,0,15,0,1,7,3,"5,53",0,1,0,8,1
25,17.0037343672727,Rodinei ,3,LAT,"10,54",14,29,Flamengo,3,"9,10",1,1,0,2,"1,69",0,0,12,0,3,10,6,"4,49",0,2,0,21,3
25,17.0037343672727,Henrique ,2,MEI,"4,12",16,35,Cruzeiro,2,"0,00",0,1,0,0,"0,00",0,0,23,0,0,24,0,"1,50",0,4,0,16,3
25,17.0037343672727,Renato ,1,MEI,"6,27",14,29,Santos,5,"0,00",0,0,0,0,"0,00",0,0,16,0,0,15,0,"1,62",0,0,0,10,1
25,17.0037343672727,Edson ,8,MEI,"14,71",13,22,Bahia,3,"9,50",2,1,0,1,"1,26",0,0,36,0,1,16,0,"4,93",0,2,0,20,3
25,17.0037343672727,Jô ,13,ATA,"12,24",23,52,Corinthians,3,"0,90",27,0,0,12,"-1,18",1,0,6,0,2,25,0,"4,18",0,2,0,42,16
25,17.0037343672727,Willians ,0,ATA,"5,00",0,0,Atlético-GO,2,"0,00",0,0,0,0,"0,00",0,0,0,0,0,0,0,"0,00",0,0,0,0,0
25,17.0037343672727,Júnior Dutra ,20,ATA,"8,01",19,56,Avaí,3,"-1,10",4,0,0,6,"-0,48",0,0,20,2,1,30,0,"4,83",0,2,0,31,7
26,26.940337991718426,Jair Ventura ,0,TEC,"12,16",26,0,Botafogo,3,"3,11",0,0,0,0,"-0,24",0,0,0,0,0,0,0,"4,36",0,0,0,0,0
26,26.940337991718426,Vanderlei ,0,GOL,"23,02",25,8,Santos,3,"5,00",0,0,2,0,"-0,64",0,61,0,0,0,4,15,"9,68",16,0,0,1,3
26,26.940337991718426,Balbuena ,5,ZAG,"10,25",21,45,Corinthians,3,"-2,40",4,0,0,3,"-0,46",0,0,29,0,1,15,12,"5,70",0,5,0,11,1
26,26.940337991718426,Kannemann ,2,ZAG,"8,76",16,32,Grêmio,3,"0,00",3,0,0,0,"0,00",0,0,17,1,0,10,7,"2,47",0,6,0,22,0
26,26.940337991718426,Raul Prata ,5,LAT,"5,04",8,33,Sport,3,"3,50",0,0,1,0,"-0,86",0,0,18,0,1,7,3,"5,28",0,0,1,9,0
26,26.940337991718426,Rodinei ,3,LAT,"10,54",14,29,Flamengo,2,"0,00",1,1,2,2,"0,00",0,0,12,0,3,10,6,"4,49",0,0,3,21,0
26,26.940337991718426,Luiz Otávio ,0,MEI,"2,00",0,0,Atlético-PR,2,"0,00",0,0,0,0,"0,00",0,0,0,0,0,0,0,"0,00",0,0,0,0,0
26,26.940337991718426,Diego Jardel ,0,MEI,"6,00",0,0,Avaí,2,"0,00",0,0,0,0,"0,00",0,0,0,0,0,0,0,"0,00",0,0,0,0,0
26,26.940337991718426,Edson ,10,MEI,"13,16",14,22,Bahia,4,"-0,90",2,1,3,1,"-1,55",0,0,37,0,1,16,0,"4,51",0,0,3,24,0
26,26.940337991718426,Jô ,13,ATA,"12,24",23,52,Corinthians,3,"0,00",27,0,2,12,"0,00",1,0,6,0,2,25,0,"4,18",0,0,16,42,0
26,26.940337991718426,Lucca ,22,ATA,"20,07",24,65,Ponte Preta,3,"-2,40",7,0,3,10,"-0,61",2,0,23,0,1,83,0,"6,49",0,0,24,27,0
26,26.940337991718426,Júnior Dutra ,21,ATA,"8,13",20,60,Avaí,3,"-0,50",4,0,2,6,"0,12",0,0,20,2,1,30,0,"4,56",0,0,7,31,0
27,0.0,Jair Ventura ,0,TEC,"12,30",27,0,Botafogo,3,"0,00",0,0,0,0,"0,14",0,0,0,0,0,0,0,"4,34",0,0,0,0,0
27,0.0,Vanderlei ,0,GOL,"21,72",26,0,Santos,3,"0,00",0,0,0,0,"-1,30",0,0,0,0,0,0,0,"9,23",0,0,0,0,0
27,0.0,Balbuena ,0,ZAG,"10,29",22,0,Corinthians,3,"0,00",0,0,0,0,"0,04",0,0,0,0,0,0,0,"5,38",0,0,0,0,0
27,0.0,Kannemann ,0,ZAG,"9,63",17,0,Grêmio,3,"0,00",0,0,0,0,"0,87",0,0,0,0,0,0,0,"2,57",0,0,0,0,0
27,0.0,Rodrigo Ramos ,0,LAT,"4,00",0,0,Coritiba,5,"0,00",0,0,0,0,"0,00",0,0,0,0,0,0,0,"0,00",0,0,0,0,0
27,0.0,Jean ,0,LAT,"14,48",16,0,Palmeiras,2,"0,00",0,0,0,0,"0,00",0,0,0,0,0,0,0,"4,73",0,0,0,0,0
27,0.0,Gustavo Scarpa ,0,MEI,"12,32",25,0,Fluminense,3,"0,00",0,0,0,0,"-0,24",0,0,0,0,0,0,0,"3,83",0,0,0,0,0
27,0.0,Judson ,2,MEI,"4,10",1,1,Avaí,3,"2,80",0,0,0,0,"1,10",0,0,1,0,0,0,0,"2,80",0,0,0,2,1
27,0.0,Maycon ,0,MEI,"7,89",26,0,Corinthians,3,"0,00",0,0,0,0,"-0,35",0,0,0,0,0,0,0,"2,87",0,0,0,0,0
27,0.0,Fernandinho ,0,ATA,"11,81",21,0,Grêmio,3,"0,00",0,0,0,0,"0,06",0,0,0,0,0,0,0,"5,50",0,0,0,0,0
27,0.0,Lucca ,0,ATA,"20,39",25,0,Ponte Preta,2,"0,00",0,0,0,0,"0,32",0,0,0,0,0,0,0,"6,25",0,0,0,0,0
27,0.0,Júnior Dutra ,0,ATA,"7,40",21,0,Avaí,4,"0,00",0,0,0,0,"-0,73",0,0,0,0,0,0,0,"4,15",0,0,0,0,0
28,0.0,Fábio Carille ,0,TEC,"11,62",27,0,Corinthians,3,"0,00",0,0,0,0,"-0,65",0,0,0,0,0,0,0,"4,28",0,0,0,0,0
28,0.0,Fernando Prass ,0,GOL,"15,67",24,0,Palmeiras,3,"0,00",0,0,0,0,"-0,10",0,0,0,0,0,0,0,"4,57",0,0,0,0,0
28,0.0,Lucas Veríssimo ,0,ZAG,"8,41",25,0,Santos,3,"0,00",0,0,0,0,"0,10",0,0,0,0,0,0,0,"4,32",0,0,0,0,0
28,0.0,Renato Chaves ,0,ZAG,"2,66",7,0,Fluminense,2,"0,00",0,0,0,0,"0,00",0,0,0,0,0,0,0,"2,16",0,0,0,0,0
28,0.0,Bruno Pacheco ,0,LAT,"9,08",26,0,Atlético-GO,3,"0,00",0,0,0,0,"0,23",0,0,0,0,0,0,0,"3,46",0,0,0,0,0
28,0.0,Sidcley ,0,LAT,"12,86",25,0,Atlético-PR,1,"0,00",0,0,0,0,"-0,42",0,0,0,0,0,0,0,"5,05",0,0,0,0,0
28,0.0,Éder Militão ,0,MEI,"2,83",15,0,São Paulo,3,"0,00",0,0,0,0,"0,65",0,0,0,0,0,0,0,"2,23",0,0,0,0,0
28,0.0,Rodriguinho ,0,MEI,"13,40",23,0,Corinthians,3,"0,00",0,0,0,0,"-2,23",0,0,0,0,0,0,0,"3,71",0,0,0,0,0
28,0.0,Willian Arão ,0,MEI,"9,65",21,0,Flamengo,3,"0,00",0,0,0,0,"0,11",0,0,0,0,0,0,0,"3,74",0,0,0,0,0
28,0.0,Clayton ,0,ATA,"9,00",0,0,Corinthians,2,"0,00",0,0,0,0,"0,00",0,0,0,0,0,0,0,"0,00",0,0,0,0,0
28,0.0,Everton ,0,ATA,"10,39",24,0,Grêmio,2,"0,00",0,0,0,0,"0,01",0,0,0,0,0,0,0,"4,12",0,0,0,0,0
28,0.0,Michael ,0,ATA,"2,00",0,0,Fluminense,2,"0,00",0,0,0,0,"0,00",0,0,0,0,0,0,0,"0,00",0,0,0,0,0
29,26.27600943446532,Jair Ventura ,0,TEC,"12,02",29,0,Botafogo,3,"3,33",0,0,0,0,"0,29",0,0,0,0,0,0,0,"4,19",0,0,0,0,0
29,26.27600943446532,Douglas Friedrich ,0,GOL,"9,68",20,1,Avaí,3,"2,00",0,0,0,0,"0,10",0,48,0,0,0,7,9,"7,63",21,2,1,1,0
29,26.27600943446532,Pedro Geromel ,5,ZAG,"13,85",17,42,Grêmio,3,"6,30",0,0,4,0,"-0,91",0,0,41,0,2,12,10,"6,78",0,0,3,13,0
29,26.27600943446532,Tiago  ,2,ZAG,"9,90",26,45,Bahia,3,"3,80",6,0,0,2,"-0,28",0,0,18,1,0,30,9,"2,67",0,6,0,33,3
29,26.27600943446532,Jeferson ,3,LAT,"4,98",14,55,Ponte Preta,3,"-2,50",0,0,0,0,"-0,45",0,0,17,0,1,7,8,"3,31",0,4,0,17,0
29,26.27600943446532,Jean ,19,LAT,"14,48",16,40,Palmeiras,2,"0,00",3,0,0,2,"0,00",1,0,15,0,1,14,6,"4,73",0,1,0,12,4
29,26.27600943446532,Zé Rafael  ,14,MEI,"20,36",28,63,Bahia,3,"4,30",8,0,0,3,"0,35",0,0,70,0,4,94,0,"6,60",0,4,0,52,22
29,26.27600943446532,Cristian ,0,MEI,"4,00",0,0,Corinthians,2,"0,00",0,0,0,0,"0,00",0,0,0,0,0,0,0,"0,00",0,0,0,0,0
29,26.27600943446532,Lucas Paquetá ,13,MEI,"2,70",9,11,Flamengo,2,"2,40",2,0,0,0,"0,93",0,0,5,1,1,13,0,"2,54",0,1,0,11,2
29,26.27600943446532,Willian ,11,ATA,"8,50",22,38,Palmeiras,3,"4,60",7,1,0,7,"-0,41",1,0,21,1,4,32,0,"4,64",0,4,0,29,9
29,26.27600943446532,David ,18,ATA,"5,73",27,71,Vitória,3,"4,80",14,0,0,4,"-0,43",0,0,19,2,5,15,0,"2,66",0,5,0,31,9
29,26.27600943446532,Ángel Romero ,6,ATA,"12,83",22,82,Corinthians,3,"8,30",13,0,8,2,"0,85",0,0,45,0,2,65,0,"3,94",0,0,9,29,0
30,19.3983591001808,Jair Ventura ,0,TEC,"12,27",30,0,Botafogo,3,"4,57",0,0,0,0,"0,25",0,0,0,0,0,0,0,"4,20",0,0,0,0,0
30,19.3983591001808,Douglas Friedrich ,0,GOL,"9,05",21,1,Avaí,3,"-1,50",0,0,2,0,"-0,63",0,48,0,0,0,9,9,"7,20",22,0,0,2,1
30,19.3983591001808,Pedro Geromel ,5,ZAG,"13,85",17,42,Grêmio,2,"0,00",0,0,0,0,"0,00",0,0,41,0,2,12,10,"6,78",0,4,0,13,3
30,19.3983591001808,Tiago  ,2,ZAG,"10,28",27,45,Bahia,3,"5,60",6,0,6,2,"0,38",0,0,21,1,0,30,9,"2,78",0,0,4,34,0
30,19.3983591001808,Jeferson ,3,LAT,"5,18",15,58,Ponte Preta,3,"-0,90",0,0,4,0,"0,20",0,0,17,0,1,7,8,"3,03",0,0,0,17,0
30,19.3983591001808,Jean ,19,LAT,"14,48",16,40,Palmeiras,1,"0,00",3,0,1,2,"0,00",1,0,15,0,1,14,6,"4,73",0,0,4,12,0
30,19.3983591001808,Zé Rafael  ,14,MEI,"20,67",29,65,Bahia,3,"6,00",8,0,4,3,"0,31",0,0,73,0,4,98,0,"6,58",0,0,22,53,0
30,19.3983591001808,Cristian ,0,MEI,"4,00",0,0,Corinthians,2,"0,00",0,0,0,0,"0,00",0,0,0,0,0,0,0,"0,00",0,0,0,0,0
30,19.3983591001808,Lucas Paquetá ,15,MEI,"2,82",10,12,Flamengo,3,"2,80",2,0,1,0,"0,12",0,0,6,1,1,14,0,"2,57",0,0,2,12,0
30,19.3983591001808,Willian ,11,ATA,"8,50",22,38,Palmeiras,5,"0,00",7,1,4,7,"0,00",1,0,21,1,4,32,0,"4,64",0,0,9,29,0
30,19.3983591001808,André ,29,ATA,"10,25",26,71,Sport,3,"0,50",22,0,5,10,"-0,90",0,0,24,1,1,47,0,"4,47",0,0,12,53,0
30,19.3983591001808,Henrique Dourado ,11,ATA,"22,26",23,60,Fluminense,3,"0,00",8,0,5,16,"0,00",0,0,9,0,2,45,0,"5,83",0,0,13,61,0
31,22.12570248898107,Jair Ventura ,0,TEC,"12,29",31,0,Botafogo,3,"5,11",0,0,0,0,"0,02",0,0,0,0,0,0,0,"4,23",0,0,0,0,0
31,22.12570248898107,João Paulo ,0,GOL,"2,97",1,1,Santos,2,"0,00",0,0,0,0,"0,00",0,2,0,0,0,0,1,"10,70",0,0,0,0,0
31,22.12570248898107,Tiago  ,2,ZAG,"9,04",28,45,Bahia,3,"-1,30",6,0,7,2,"-1,24",0,0,22,1,0,30,9,"2,63",0,0,4,36,0
31,22.12570248898107,Betão ,2,ZAG,"7,54",29,60,Avaí,3,"5,20",0,0,0,1,"0,65",0,0,19,0,1,22,11,"2,45",0,7,0,21,1
31,22.12570248898107,Fagner ,4,LAT,"12,72",25,110,Corinthians,3,"3,90",3,0,7,0,"0,42",0,0,43,2,2,38,13,"4,64",0,0,1,27,0
31,22.12570248898107,Yago Pikachu ,4,LAT,"10,74",20,41,Vasco,3,"10,50",2,0,2,2,"1,58",0,0,17,0,2,25,7,"4,35",0,0,8,18,0
31,22.12570248898107,Thomaz ,3,MEI,"4,32",10,6,São Paulo,2,"0,00",3,0,1,1,"0,00",0,0,9,0,1,8,0,"2,41",0,0,1,12,0
31,22.12570248898107,Renê Júnior ,22,MEI,"11,90",24,55,Bahia,3,"4,80",3,1,0,4,"-0,43",0,0,69,0,0,48,0,"5,94",0,5,0,42,8
31,22.12570248898107,Moisés ,3,MEI,"8,42",12,56,Palmeiras,3,"-1,40",0,0,0,2,"-2,57",0,0,17,1,2,28,0,"4,63",0,1,0,12,6
31,22.12570248898107,Richarlison  ,1,ATA,"7,50",1,1,Fluminense,3,"1,60",1,0,0,0,"-1,50",0,0,1,0,0,0,0,"1,60",0,0,0,2,1
31,22.12570248898107,Edigar Junio ,5,ATA,"10,91",19,40,Bahia,3,"11,50",1,0,1,6,"0,60",0,0,12,1,1,31,0,"4,14",0,0,9,24,0
31,22.12570248898107,Patrick ,0,ATA,"1,00",0,0,Sport,2,"0,00",0,0,0,0,"0,00",0,0,0,0,0,0,0,"0,00",0,0,0,0,0
32,19.353518045173217,Jair Ventura ,0,TEC,"11,90",32,0,Botafogo,3,"2,22",0,0,0,0,"-0,39",0,0,0,0,0,0,0,"4,17",0,0,0,0,0
32,19.353518045173217,João Paulo ,0,GOL,"2,97",1,1,Santos,2,"0,00",0,0,0,0,"0,00",0,2,0,0,0,0,1,"10,70",0,0,0,0,0
32,19.353518045173217,Tiago  ,3,ZAG,"11,13",29,47,Bahia,3,"10,70",6,0,0,2,"2,09",0,0,25,1,0,30,10,"2,91",0,7,0,37,5
32,19.353518045173217,Betão ,2,ZAG,"6,83",30,60,Avaí,3,"0,50",0,0,7,1,"-0,71",0,0,19,0,1,23,11,"2,38",0,0,1,21,0
32,19.353518045173217,Fagner ,4,LAT,"12,36",26,110,Corinthians,3,"1,40",3,0,0,0,"-0,36",0,0,45,2,2,38,13,"4,52",0,8,0,29,2
32,19.353518045173217,Yago Pikachu ,4,LAT,"9,11",21,43,Vasco,3,"-0,10",2,0,0,2,"-1,63",0,0,17,0,2,28,7,"4,14",0,2,0,20,8
32,19.353518045173217,Thomaz ,3,MEI,"4,32",10,6,São Paulo,2,"0,00",3,0,0,1,"0,00",0,0,9,0,1,8,0,"2,41",0,1,0,12,1
32,19.353518045173217,Renê Júnior ,23,MEI,"12,93",25,59,Bahia,3,"10,00",3,1,5,4,"1,03",0,0,74,0,0,51,0,"6,10",0,0,9,43,0
32,19.353518045173217,Moisés ,4,MEI,"10,49",13,59,Palmeiras,3,"10,50",0,0,1,3,"2,07",0,0,18,1,2,30,0,"5,08",0,0,6,12,0
32,19.353518045173217,Willian ,11,ATA,"8,50",22,38,Palmeiras,1,"0,00",7,1,4,7,"0,00",1,0,21,1,4,32,0,"4,64",0,0,9,29,0
32,19.353518045173217,Edigar Junio ,6,ATA,"10,21",20,43,Bahia,3,"6,00",1,0,0,7,"-0,70",0,0,13,1,1,32,0,"4,23",0,2,0,30,10
32,19.353518045173217,Patrick ,0,ATA,"1,00",0,0,Sport,2,"0,00",0,0,0,0,"0,00",0,0,0,0,0,0,0,"0,00",0,0,0,0,0
33,7.045623786701039,Mano Menezes ,0,TEC,"12,50",32,0,Cruzeiro,3,"0,00",0,0,0,0,"-0,76",0,0,0,0,0,0,0,"3,75",0,0,0,0,0
33,7.045623786701039,Cássio ,0,GOL,"11,54",31,0,Corinthians,2,"0,00",0,0,0,0,"0,00",0,0,0,0,0,0,0,"4,74",0,0,0,0,0
33,7.045623786701039,Kanu ,0,ZAG,"8,63",21,0,Vitória,3,"0,00",0,0,0,0,"0,45",0,0,0,0,0,0,0,"4,08",0,0,0,0,0
33,7.045623786701039,Ronaldo Alves ,0,ZAG,"7,43",23,0,Sport,3,"0,00",0,0,0,0,"0,00",0,0,0,0,0,0,0,"3,44",0,0,0,0,0
33,7.045623786701039,Apodi ,0,LAT,"8,24",29,0,Chapecoense,3,"0,00",0,0,0,0,"0,12",0,0,0,0,0,0,0,"3,24",0,0,0,0,0
33,7.045623786701039,Júnior Tavares ,0,LAT,"11,15",20,0,São Paulo,2,"0,00",0,0,0,0,"0,00",0,0,0,0,0,0,0,"3,83",0,0,0,0,0
33,7.045623786701039,Henrique ,0,MEI,"4,91",23,0,Cruzeiro,4,"0,00",0,0,0,0,"-0,96",0,0,0,0,0,0,0,"1,73",0,0,0,0,0
33,7.045623786701039,Thiago Neves ,0,MEI,"16,55",28,0,Cruzeiro,3,"0,00",0,0,0,0,"0,12",0,0,0,0,0,0,0,"4,67",0,0,0,0,0
33,7.045623786701039,Gustavo Scarpa ,0,MEI,"12,59",31,0,Fluminense,3,"0,00",0,0,0,0,"-0,77",0,0,0,0,0,0,0,"4,25",0,0,0,0,0
33,7.045623786701039,Guilherme ,0,ATA,"5,92",27,0,Botafogo,2,"0,00",0,0,0,0,"-0,10",0,0,0,0,0,0,0,"3,12",0,0,0,0,0
33,7.045623786701039,Bruno Henrique ,0,ATA,"12,76",24,0,Santos,4,"0,00",0,0,0,0,"-2,40",0,0,0,0,0,0,0,"5,52",0,0,0,0,0
33,7.045623786701039,André ,0,ATA,"11,45",29,0,Sport,3,"0,00",0,0,0,0,"-0,28",0,0,0,0,0,0,0,"4,87",0,0,0,0,0
34,12.081782407407406,Marcelo Cabo ,0,TEC,"3,25",1,0,Atlético-GO,3,"2,60",0,0,0,0,"1,25",0,0,0,0,0,0,0,"2,60",0,0,0,0,0
34,12.081782407407406,Victor ,0,GOL,"11,20",32,22,Atlético-MG,3,"2,00",0,0,4,0,"0,86",0,51,0,0,0,6,7,"3,79",41,0,0,2,4
34,12.081782407407406,Emerson Silva ,2,ZAG,"5,90",6,15,Botafogo,3,"4,50",0,0,1,0,"0,00",0,0,10,0,0,7,3,"4,73",0,0,0,4,0
34,12.081782407407406,Maicon ,1,ZAG,"10,54",1,5,São Paulo,3,"0,90",0,0,0,0,"-3,46",0,0,1,0,0,0,0,"0,90",0,0,0,0,0
34,12.081782407407406,Arnaldo ,1,LAT,"10,05",26,74,Botafogo,3,"7,20",1,0,5,0,"1,37",0,0,57,0,1,41,8,"4,40",0,0,2,36,0
34,12.081782407407406,Fagner Alemão ,7,LAT,"9,86",30,69,Avaí,3,"1,90",10,0,5,0,"-0,54",0,0,55,0,1,30,9,"4,04",0,0,3,19,0
34,12.081782407407406,Elton ,6,MEI,"4,90",24,58,Ponte Preta,3,"0,00",3,1,0,1,"-0,36",0,0,33,0,1,19,0,"1,15",0,5,0,46,2
34,12.081782407407406,João Schmidt  ,0,MEI,"5,45",1,4,São Paulo,2,"1,70",0,0,0,0,"-0,55",0,0,2,0,0,1,0,"1,70",0,0,0,2,0
34,12.081782407407406,Willian Arão ,6,MEI,"9,47",27,64,Flamengo,3,"2,40",2,0,2,1,"-0,61",0,0,59,1,2,19,0,"3,77",0,0,4,27,0
34,12.081782407407406,Clayton ,0,ATA,"9,00",0,0,Corinthians,2,"0,00",0,0,0,0,"0,00",0,0,0,0,0,0,0,"0,00",0,0,0,0,0
34,12.081782407407406,Rodrigão ,0,ATA,"6,00",0,0,Santos,2,"0,00",0,0,0,0,"0,00",0,0,0,0,0,0,0,"0,00",0,0,0,0,0
34,12.081782407407406,Osvaldo ,9,ATA,"4,75",27,77,Sport,3,"-0,20",2,0,0,3,"-0,35",0,0,18,0,2,32,0,"2,09",0,3,0,14,7
35,6.743540185304892,Claudinei Oliveira ,0,TEC,"8,40",35,0,Avaí,3,"4,69",0,0,0,0,"0,60",0,0,0,0,0,0,0,"3,22",0,0,0,0,0
35,6.743540185304892,Fernando Miguel ,0,GOL,"10,41",26,21,Vitória,3,"2,00",0,0,0,0,"-0,68",0,44,0,0,0,4,7,"3,53",37,2,1,0,0
35,6.743540185304892,Rafael Vaz ,7,ZAG,"7,43",17,50,Flamengo,2,"0,00",0,0,0,0,"0,00",0,0,19,0,0,6,7,"3,77",0,0,0,8,8
35,6.743540185304892,Renato Chaves ,1,ZAG,"2,52",10,16,Fluminense,3,"0,00",1,0,0,1,"0,00",0,0,13,0,0,4,1,"2,15",0,3,0,16,3
35,6.743540185304892,Eduardo ,7,LAT,"6,96",33,153,Bahia,3,"1,60",2,0,0,0,"-0,20",0,0,62,0,1,38,10,"3,14",0,7,0,44,2
35,6.743540185304892,Wallace Oliveira ,0,LAT,"5,00",0,0,Grêmio,2,"0,00",0,0,0,0,"0,00",0,0,0,0,0,0,0,"0,00",0,0,0,0,0
35,6.743540185304892,Rafael Longuine ,0,MEI,"4,00",0,0,Santos,2,"0,00",0,0,0,0,"0,00",0,0,0,0,0,0,0,"0,00",0,0,0,0,0
35,6.743540185304892,Kaio ,2,MEI,"5,02",6,16,Grêmio,3,"0,00",0,0,0,1,"0,00",0,0,8,0,0,24,0,"3,95",0,1,0,15,3
35,6.743540185304892,Sornoza ,2,MEI,"12,57",12,30,Fluminense,3,"1,10",0,0,0,2,"0,06",0,0,16,1,0,6,0,"2,92",0,3,0,8,3
35,6.743540185304892,Grafite ,0,ATA,"12,00",0,0,Atlético-PR,2,"0,00",0,0,0,0,"0,00",0,0,0,0,0,0,0,"0,00",0,0,0,0,0
35,6.743540185304892,Lourency ,0,ATA,"3,00",0,0,Chapecoense,2,"0,00",0,0,0,0,"0,00",0,0,0,0,0,0,0,"0,00",0,0,0,0,0
35,6.743540185304892,Ángel Romero ,9,ATA,"12,00",28,98,Corinthians,3,"1,20",13,0,0,3,"-0,24",0,0,53,0,3,86,0,"4,20",0,10,0,38,14
36,15.777772063054366,Mano Menezes ,0,TEC,"12,87",35,0,Cruzeiro,3,"3,89",0,0,0,0,"-0,21",0,0,0,0,0,0,0,"3,84",0,0,0,0,0
36,15.777772063054366,Cássio ,0,GOL,"10,94",32,11,Corinthians,3,"-6,60",0,0,0,0,"-0,60",0,36,0,0,0,8,15,"4,39",26,3,2,0,0
36,15.777772063054366,Werley ,7,ZAG,"7,56",24,59,Coritiba,3,"-3,30",1,1,2,4,"-1,86",0,0,22,1,0,9,8,"3,71",0,0,2,17,0
36,15.777772063054366,Gabriel ,6,ZAG,"9,81",24,38,Atlético-MG,3,"6,70",1,0,2,1,"0,81",0,0,30,0,0,19,8,"3,58",0,0,2,26,0
36,15.777772063054366,Patric ,16,LAT,"7,10",31,110,Vitória,3,"-0,90",7,0,3,1,"-0,50",0,0,40,0,4,18,6,"2,78",0,0,7,49,0
36,15.777772063054366,Raul Prata ,5,LAT,"5,71",13,52,Sport,3,"6,50",0,0,0,0,"0,86",0,0,30,0,1,8,4,"4,80",0,1,0,13,3
36,15.777772063054366,Marlone ,4,MEI,"5,13",13,38,Atlético-MG,2,"0,00",4,0,2,2,"0,00",0,0,4,0,0,8,0,"0,83",0,0,3,9,0
36,15.777772063054366,Moisés ,6,MEI,"10,00",17,73,Palmeiras,3,"5,20",0,0,0,3,"-0,14",0,0,29,1,3,39,0,"5,35",0,1,0,13,6
36,15.777772063054366,Cuéllar ,2,MEI,"6,72",23,35,Flamengo,3,"7,20",0,0,0,0,"0,18",0,0,73,0,0,15,0,"4,62",0,4,0,22,3
36,15.777772063054366,Jô ,21,ATA,"12,58",32,70,Corinthians,3,"2,10",32,0,4,17,"-2,27",1,0,8,0,2,39,0,"4,39",0,0,21,52,0
36,15.777772063054366,Rodrigão ,0,ATA,"6,00",0,0,Santos,2,"0,00",0,0,0,0,"0,00",0,0,0,0,0,0,0,"0,00",0,0,0,0,0
36,15.777772063054366,Yuri ,2,ATA,"1,05",3,1,Ponte Preta,2,"0,00",0,0,0,0,"0,00",0,0,0,0,0,1,0,"0,70",0,0,3,5,0
37,16.635538720538722,Fábio Carille ,0,TEC,"12,26",36,0,Corinthians,3,"5,42",0,0,0,0,"0,87",0,0,0,0,0,0,0,"4,12",0,0,0,0,0
37,16.635538720538722,Victor ,0,GOL,"11,58",35,23,Atlético-MG,3,"1,70",0,0,4,0,"-1,44",0,60,0,0,0,6,8,"4,20",44,0,0,2,4
37,16.635538720538722,Lucas Veríssimo ,7,ZAG,"8,55",33,52,Santos,3,"0,00",2,0,9,0,"0,00",0,0,40,0,0,21,17,"3,86",0,0,7,27,0
37,16.635538720538722,Yerry Mina ,5,ZAG,"14,24",14,36,Palmeiras,3,"5,80",2,0,4,2,"0,35",0,0,22,0,1,13,5,"4,69",0,0,4,24,0
37,16.635538720538722,Caju ,0,LAT,"3,50",3,14,Santos,5,"0,00",0,0,0,0,"0,00",0,0,7,0,0,3,0,"2,40",0,0,0,4,0
37,16.635538720538722,João Paulo ,2,LAT,"4,05",12,27,Avaí,3,"4,60",0,0,3,0,"0,30",0,0,8,1,0,9,3,"1,50",0,0,1,14,0
37,16.635538720538722,Diego Rosa ,0,MEI,"8,77",1,1,Bahia,1,"6,40",0,0,0,0,"2,77",0,0,1,0,1,1,0,"6,40",0,0,0,1,0
37,16.635538720538722,Willians ,0,MEI,"4,00",0,0,Cruzeiro,2,"0,00",0,0,0,0,"0,00",0,0,0,0,0,0,0,"0,00",0,0,0,0,0
37,16.635538720538722,Jonas ,12,MEI,"9,30",30,66,Coritiba,3,"7,20",1,0,0,2,"-0,05",0,0,91,0,0,22,0,"4,14",0,8,0,61,1
37,16.635538720538722,Ty Sandows ,0,ATA,"1,00",0,0,Grêmio,2,"0,00",0,0,0,0,"0,00",0,0,0,0,0,0,0,"0,00",0,0,0,0,0
37,16.635538720538722,Fred ,15,ATA,"15,34",28,61,Atlético-MG,3,"9,60",21,0,0,11,"1,45",2,0,7,1,4,58,0,"3,45",0,7,0,53,10
37,16.635538720538722,Bruno Henrique ,16,ATA,"14,55",27,92,Santos,3,"7,40",10,1,6,8,"0,15",0,0,33,1,11,82,0,"6,05",0,0,18,71,0
