round,fitness,name,position,team,situation,price,meatches,average,last_score,difference,disarms,goals,assists,no_goals,fouls_suffered,strikes_out,strikes_defended,strikes_post,difficult_defense,penalty_defense,own_goal,red_card,yellow_card,goal_suffered,penalty_lost,fouls_commited,offsides,wrong_pass
0,8.200000000000003,Mano Menezes ,0,TEC,"12,31",1,0,Cruzeiro,3,"5,40",0,0,0,0,"0,31",0,0,0,0,0,0,0,"5,40",0,0,0,0,0
0,8.200000000000003,Walter ,0,GOL,"6,00",0,0,Corinthians,2,"0,00",0,0,0,0,"0,00",0,0,0,0,0,0,0,"0,00",0,0,0,0,0
0,8.200000000000003,Walisson Maia ,0,ZAG,"5,87",1,3,Coritiba,3,"1,30",0,0,0,0,"-1,13",0,0,1,0,0,0,0,"1,30",0,0,1,1,0
0,8.200000000000003,Pedro Geromel ,0,ZAG,"7,00",1,2,Grêmio,3,"4,90",0,0,0,0,"2,00",0,0,0,0,0,0,1,"4,90",0,0,1,1,0
0,8.200000000000003,Sidcley ,0,LAT,"11,60",1,0,Atlético-PR,3,"9,40",0,0,0,0,"4,60",0,0,2,0,1,3,0,"9,40",0,0,0,1,0
0,8.200000000000003,João Pedro  ,1,LAT,"5,87",1,2,Chapecoense,3,"2,30",0,0,0,0,"-0,13",0,0,1,0,0,1,0,"2,30",0,0,0,0,0
0,8.200000000000003,Jean ,0,MEI,"4,74",1,1,Vasco,3,"0,70",0,0,0,0,"-1,26",0,0,0,0,0,2,0,"0,70",0,0,0,0,0
0,8.200000000000003,Orejuela ,0,MEI,"11,25",1,0,Fluminense,1,"4,90",0,0,0,0,"0,25",0,0,2,0,0,3,0,"4,90",0,0,0,0,0
0,8.200000000000003,Vinícius ,0,MEI,"2,00",0,0,Sport,2,"0,00",0,0,0,0,"0,00",0,0,0,0,0,0,0,"0,00",0,0,0,0,0
0,8.200000000000003,Robinho ,0,ATA,"17,75",1,2,Atlético-MG,3,"1,10",0,0,0,0,"-6,25",0,0,1,0,0,1,0,"1,10",0,0,0,1,0
0,8.200000000000003,Willian ,0,ATA,"8,98",1,4,Palmeiras,3,"1,70",0,0,0,0,"-2,02",0,0,2,0,0,0,0,"1,70",0,0,0,1,0
0,8.200000000000003,Ángel Romero ,0,ATA,"8,13",1,2,Corinthians,3,"6,50",0,0,0,0,"3,13",0,0,3,0,0,2,0,"6,50",0,0,1,0,0
1,33.349999999999994,Rogério Ceni ,0,TEC,"7,39",1,0,São Paulo,3,"2,45",0,0,0,0,"-0,61",0,0,0,0,0,0,0,"2,45",0,0,0,0,0
1,33.349999999999994,Jandrei ,0,GOL,"2,48",1,0,Chapecoense,3,"2,50",0,0,0,0,"1,48",0,1,0,0,0,3,0,"2,50",1,0,0,0,0
1,33.349999999999994,Tiago  ,0,ZAG,"9,97",1,2,Bahia,3,"8,10",1,0,0,1,"3,97",0,0,1,0,0,1,0,"8,10",0,0,0,2,0
1,33.349999999999994,Marllon ,0,ZAG,"8,56",1,2,Ponte Preta,3,"6,10",0,0,0,0,"2,56",0,0,1,0,0,0,1,"6,10",0,0,0,0,0
1,33.349999999999994,Cedric ,0,LAT,"2,00",0,0,Vitória,2,"0,00",0,0,0,0,"0,00",0,0,0,0,0,0,0,"0,00",0,0,0,0,0
1,33.349999999999994,Léo ,0,LAT,"5,80",1,1,Fluminense,3,"2,20",0,0,0,0,"-0,20",0,0,0,0,1,1,0,"2,20",0,1,0,4,1
1,33.349999999999994,Willian Farias ,0,MEI,"8,77",1,4,Vitória,3,"4,40",0,0,1,0,"0,77",0,0,3,1,0,1,0,"4,40",0,0,0,3,0
1,33.349999999999994,Jadson ,1,MEI,"15,99",1,6,Corinthians,3,"0,60",0,0,0,0,"-6,01",0,0,1,0,0,0,0,"0,60",0,0,0,0,0
1,33.349999999999994,Tomas Bastos ,1,MEI,"14,08",1,9,Coritiba,1,"17,90",0,0,0,2,"12,08",0,0,2,0,0,1,0,"17,90",0,0,0,0,0
1,33.349999999999994,Walter ,1,ATA,"11,67",1,4,Atlético-GO,3,"10,50",0,0,0,1,"5,67",0,0,0,0,0,5,0,"10,50",0,0,0,1,1
1,33.349999999999994,Douglas Coutinho  ,1,ATA,"3,47",1,1,Atlético-PR,3,"-0,10",0,0,0,0,"-1,53",0,0,0,0,0,0,0,"-0,10",0,0,0,1,0
1,33.349999999999994,Vladimir Hernández ,1,ATA,"11,46",1,0,Santos,2,"10,20",1,0,0,1,"5,46",0,0,0,0,0,3,0,"10,20",0,0,1,1,0
2,42.48,Guto Ferreira ,0,TEC,"10,41",2,0,Bahia,3,"3,56",0,0,0,0,"1,65",0,0,0,0,0,0,0,"5,98",0,0,0,0,0
2,42.48,Fernando Prass ,0,GOL,"16,08",2,1,Palmeiras,3,"7,50",0,0,0,0,"2,85",0,5,0,0,0,1,1,"9,10",1,0,0,0,0
2,42.48,Kannemann ,0,ZAG,"10,60",2,4,Grêmio,3,"3,60",0,0,0,0,"0,41",0,0,1,0,0,2,2,"4,50",0,0,0,5,0
2,42.48,Bruno Bispo ,0,ZAG,"2,00",0,0,Vitória,2,"0,00",0,0,0,0,"0,00",0,0,0,0,0,0,0,"0,00",0,0,0,0,0
2,42.48,Jean ,1,LAT,"19,24",1,4,Palmeiras,3,"0,00",1,0,0,1,"0,00",0,0,1,0,0,0,1,"15,20",0,0,2,1,0
2,42.48,Sidcley ,0,LAT,"10,26",2,4,Atlético-PR,3,"-2,20",0,0,0,0,"-1,34",0,0,2,0,1,4,0,"3,60",0,0,0,4,0
2,42.48,Cafu ,0,MEI,"3,00",0,0,Flamengo,2,"0,00",0,0,0,0,"0,00",0,0,0,0,0,0,0,"0,00",0,0,0,0,0
2,42.48,Wendel ,1,MEI,"12,10",2,5,Fluminense,3,"6,10",0,0,0,0,"2,83",0,0,5,0,1,8,0,"7,60",0,0,0,3,0
2,42.48,Gustavo Bochecha ,0,MEI,"2,00",0,0,Botafogo,5,"0,00",0,0,0,0,"0,00",0,0,0,0,0,0,0,"0,00",0,0,0,0,0
2,42.48,Henrique Almeida ,2,ATA,"14,35",2,5,Coritiba,3,"2,70",2,0,0,1,"1,05",0,0,3,0,0,5,0,"7,25",0,0,0,0,0
2,42.48,Miller Bolaños ,0,ATA,"14,00",0,0,Grêmio,2,"0,00",0,0,0,0,"0,00",0,0,0,0,0,0,0,"0,00",0,0,0,0,0
2,42.48,Luis Henrique ,0,ATA,"4,00",0,0,Atlético-PR,2,"0,00",0,0,0,0,"0,00",0,0,0,0,0,0,0,"0,00",0,0,0,0,0
3,26.51,Mano Menezes ,0,TEC,"12,55",3,0,Cruzeiro,3,"4,95",0,0,0,0,"0,48",0,0,0,0,0,0,0,"4,59",0,0,0,0,0
3,26.51,Walter ,0,GOL,"6,00",0,0,Corinthians,2,"0,00",0,0,0,0,"0,00",0,0,0,0,0,0,0,"0,00",0,0,0,0,0
3,26.51,Walisson Maia ,0,ZAG,"4,67",2,3,Coritiba,5,"0,00",0,0,0,0,"0,00",0,0,1,0,0,0,0,"0,65",0,0,0,1,1
3,26.51,Pedro Geromel ,1,ZAG,"10,14",2,5,Grêmio,3,"0,00",0,0,0,0,"0,00",0,0,2,0,0,0,2,"6,55",0,0,0,1,1
3,26.51,Jean ,2,LAT,"16,51",2,10,Palmeiras,3,"-2,40",1,0,0,1,"-2,73",1,0,2,0,0,1,1,"6,40",0,0,0,1,2
3,26.51,Eduardo ,0,LAT,"3,64",3,11,Bahia,3,"-1,50",0,0,0,0,"-1,22",0,0,5,0,0,2,0,"1,23",0,0,0,5,0
3,26.51,Willian Farias ,1,MEI,"9,35",3,9,Vitória,3,"5,30",0,0,0,0,"1,05",0,0,8,1,0,1,0,"3,70",0,1,0,5,0
3,26.51,Orejuela ,0,MEI,"11,02",3,3,Fluminense,3,"3,30",0,0,0,0,"0,01",0,0,6,0,0,6,0,"3,77",0,0,0,2,0
3,26.51,Vinícius ,0,MEI,"2,00",0,0,Sport,2,"0,00",0,0,0,0,"0,00",0,0,0,0,0,0,0,"0,00",0,0,0,0,0
3,26.51,Kayke ,0,ATA,"3,01",2,2,Santos,2,"-0,30",0,0,0,0,"-1,38",0,0,0,0,0,0,0,"-0,55",0,0,0,1,0
3,26.51,Rossi ,0,ATA,"8,70",3,10,Chapecoense,3,"2,70",1,0,0,0,"0,20",0,0,3,1,0,4,0,"2,70",0,0,0,2,2
3,26.51,Wellington Paulista ,1,ATA,"10,91",3,4,Chapecoense,3,"7,20",2,0,0,2,"1,74",0,0,1,0,0,2,0,"4,73",0,1,0,2,0
4,23.58833333333333,Claudinei Oliveira ,0,TEC,"6,33",4,0,Avaí,3,"5,35",0,0,0,0,"1,35",0,0,0,0,0,0,0,"2,98",0,0,0,0,0
4,23.58833333333333,Marcelo Grohe ,0,GOL,"10,35",3,1,Grêmio,3,"5,00",0,1,0,0,"0,35",0,0,0,0,0,0,3,"3,23",0,0,0,0,0
4,23.58833333333333,Juninho ,0,ZAG,"12,00",0,0,Coritiba,2,"0,00",0,0,0,0,"0,00",0,0,0,0,0,0,0,"0,00",0,0,0,0,0
4,23.58833333333333,Dedé ,0,ZAG,"8,86",3,12,Cruzeiro,3,"0,00",0,0,0,0,"0,00",0,0,2,0,0,2,2,"3,43",0,0,0,1,0
4,23.58833333333333,João Lucas ,0,LAT,"13,06",4,20,Ponte Preta,3,"12,00",0,0,0,0,"3,10",0,0,7,0,1,1,2,"5,47",0,0,1,1,0
4,23.58833333333333,William Matheus ,1,LAT,"7,24",4,12,Coritiba,3,"2,60",1,0,1,0,"0,11",0,0,3,0,0,7,2,"3,42",0,0,4,7,0
4,23.58833333333333,Douglas ,0,MEI,"14,00",0,0,Grêmio,5,"0,00",0,0,0,0,"0,00",0,0,0,0,0,0,0,"0,00",0,0,0,0,0
4,23.58833333333333,Gabriel ,0,MEI,"8,07",4,7,Corinthians,3,"4,30",0,0,0,0,"0,76",0,0,8,0,0,4,0,"3,25",0,0,1,3,0
4,23.58833333333333,Judson ,3,MEI,"4,06",4,10,Avaí,3,"0,00",0,0,0,0,"-0,20",0,0,4,0,0,2,0,"1,22",0,0,1,6,0
4,23.58833333333333,Júnior Dutra ,3,ATA,"6,42",3,12,Avaí,3,"3,80",0,0,0,0,"0,82",0,0,1,1,0,7,0,"2,23",0,0,1,3,0
4,23.58833333333333,Lins ,2,ATA,"4,62",3,9,Ponte Preta,3,"0,80",1,0,0,0,"-0,39",0,0,1,0,1,5,0,"1,97",0,0,1,5,0
4,23.58833333333333,Luan ,4,ATA,"19,66",3,14,Grêmio,3,"9,60",1,0,0,2,"0,42",0,0,5,0,0,6,0,"8,37",0,0,2,5,0
5,23.58833333333333,Claudinei Oliveira ,0,TEC,"5,84",5,0,Avaí,3,"1,55",0,0,0,0,"-0,49",0,0,0,0,0,0,0,"2,69",0,0,0,0,0
5,23.58833333333333,Marcelo Grohe ,0,GOL,"7,01",4,1,Grêmio,3,"-8,00",0,1,0,0,"-3,34",0,0,0,0,0,0,3,"0,42",3,1,0,0,0
5,23.58833333333333,Juninho ,0,ZAG,"12,00",0,0,Coritiba,2,"0,00",0,0,0,0,"0,00",0,0,0,0,0,0,0,"0,00",0,0,0,0,0
5,23.58833333333333,Dedé ,0,ZAG,"8,86",3,12,Cruzeiro,1,"0,00",0,0,0,0,"0,00",0,0,2,0,0,2,2,"3,43",0,0,0,1,0
5,23.58833333333333,João Lucas ,0,LAT,"10,96",5,21,Ponte Preta,3,"-0,30",0,0,0,0,"-2,10",0,0,7,0,1,1,2,"4,32",0,0,0,1,1
5,23.58833333333333,William Matheus ,1,LAT,"8,43",5,16,Coritiba,3,"6,70",1,0,0,0,"1,19",0,0,5,0,0,10,3,"4,08",0,2,0,7,4
5,23.58833333333333,Douglas ,0,MEI,"14,00",0,0,Grêmio,5,"0,00",0,0,0,0,"0,00",0,0,0,0,0,0,0,"0,00",0,0,0,0,0
5,23.58833333333333,Gabriel ,0,MEI,"6,35",5,7,Corinthians,3,"-3,00",0,0,0,0,"-1,72",0,0,8,0,0,4,0,"2,00",0,1,0,5,1
5,23.58833333333333,Judson ,3,MEI,"4,06",4,10,Avaí,2,"0,00",0,0,0,0,"0,00",0,0,4,0,0,2,0,"1,22",0,0,0,6,1
5,23.58833333333333,Júnior Dutra ,3,ATA,"6,42",3,12,Avaí,2,"0,00",0,0,0,0,"0,00",0,0,1,1,0,7,0,"2,23",0,0,0,3,1
5,23.58833333333333,Lins ,2,ATA,"4,37",4,12,Ponte Preta,3,"0,30",1,0,0,0,"-0,25",0,0,2,0,1,6,0,"1,55",0,0,0,7,1
5,23.58833333333333,Luan ,4,ATA,"25,71",4,16,Grêmio,3,"29,90",1,0,0,3,"6,05",0,0,5,0,4,12,0,"13,75",0,0,0,6,2
6,39.81500000000001,Rogério Ceni ,0,TEC,"9,73",6,0,São Paulo,3,"3,73",0,0,0,0,"-0,22",0,0,0,0,0,0,0,"4,05",0,0,0,0,0
6,39.81500000000001,Fernando Prass ,0,GOL,"15,44",6,4,Palmeiras,3,"4,00",0,0,0,0,"0,46",0,11,0,0,0,1,2,"5,38",5,0,0,0,0
6,39.81500000000001,Lucão ,2,ZAG,"4,52",4,10,São Paulo,3,"-1,10",0,0,0,0,"-1,16",0,0,4,0,0,1,2,"3,55",0,0,1,5,0
6,39.81500000000001,Marcio ,1,ZAG,"6,66",5,10,Coritiba,3,"-0,30",1,0,1,1,"-1,33",0,0,5,0,1,5,3,"6,14",0,0,0,7,0
6,39.81500000000001,Breno Lopes ,0,LAT,"3,00",0,0,Ponte Preta,2,"0,00",0,0,0,0,"0,00",0,0,0,0,0,0,0,"0,00",0,0,0,0,0
6,39.81500000000001,Zé Roberto ,0,LAT,"7,75",2,3,Palmeiras,3,"0,60",0,0,1,0,"-1,52",0,0,3,0,0,2,1,"2,85",0,0,0,5,0
6,39.81500000000001,Edson ,3,MEI,"16,64",4,9,Bahia,5,"0,00",1,0,0,1,"0,00",0,0,4,0,1,5,0,"5,42",0,0,1,1,0
6,39.81500000000001,Thiago Maia ,4,MEI,"7,96",6,21,Santos,3,"6,60",0,0,2,0,"0,94",0,0,14,0,1,7,0,"3,13",0,0,1,14,0
6,39.81500000000001,Naldo ,1,MEI,"7,44",3,10,Ponte Preta,3,"6,00",0,0,0,1,"0,63",0,0,7,0,0,1,0,"5,20",0,0,0,5,0
6,39.81500000000001,Rildo ,0,ATA,"7,13",4,5,Coritiba,3,"3,10",0,0,0,1,"0,78",0,0,4,0,0,11,0,"3,70",0,1,0,4,0
6,39.81500000000001,Ábila ,2,ATA,"16,48",6,8,Cruzeiro,3,"17,40",4,0,1,3,"4,24",0,0,2,0,1,8,0,"5,73",0,0,4,2,0
6,39.81500000000001,Ángel Romero ,0,ATA,"14,51",5,9,Corinthians,3,"13,30",3,0,0,2,"1,84",0,0,11,0,0,16,0,"7,90",0,0,0,4,3
7,39.81500000000001,Rogério Ceni ,0,TEC,"10,00",7,0,São Paulo,3,"4,51",0,0,0,0,"0,27",0,0,0,0,0,0,0,"4,12",0,0,0,0,0
7,39.81500000000001,Fernando Prass ,0,GOL,"16,07",7,4,Palmeiras,3,"7,00",0,0,0,0,"0,63",0,14,0,0,0,1,2,"5,61",6,0,0,0,0
7,39.81500000000001,Lucão ,2,ZAG,"5,57",5,12,São Paulo,3,"4,40",0,0,0,0,"1,05",0,0,4,0,0,2,3,"3,72",0,0,0,6,1
7,39.81500000000001,Marcio ,2,ZAG,"7,73",6,12,Coritiba,3,"5,10",1,0,0,1,"1,07",0,0,5,0,1,5,4,"5,97",0,1,0,7,0
7,39.81500000000001,Breno Lopes ,0,LAT,"3,00",0,0,Ponte Preta,2,"0,00",0,0,0,0,"0,00",0,0,0,0,0,0,0,"0,00",0,0,0,0,0
7,39.81500000000001,Zé Roberto ,0,LAT,"7,28",3,6,Palmeiras,1,"-0,40",0,0,0,0,"-0,47",0,0,3,0,0,4,1,"1,77",0,1,0,6,0
7,39.81500000000001,Edson ,4,MEI,"14,09",5,11,Bahia,4,"-3,20",1,1,0,1,"-2,55",0,0,5,0,1,5,0,"3,70",0,0,0,1,1
7,39.81500000000001,Thiago Maia ,4,MEI,"7,86",7,24,Santos,3,"4,20",0,0,0,0,"-0,10",0,0,17,0,1,7,0,"3,28",0,2,0,14,1
7,39.81500000000001,Naldo ,1,MEI,"7,59",4,10,Ponte Preta,1,"4,90",0,0,0,1,"0,15",0,0,9,0,0,4,0,"5,12",0,0,0,5,0
7,39.81500000000001,Rildo ,0,ATA,"6,89",5,9,Coritiba,3,"1,70",1,0,1,1,"-0,24",0,0,6,0,0,12,0,"3,30",0,0,0,5,0
7,39.81500000000001,Ábila ,3,ATA,"13,50",7,8,Cruzeiro,3,"-0,80",7,0,0,3,"-2,98",0,0,2,0,1,9,0,"4,80",0,1,0,3,4
7,39.81500000000001,Ángel Romero ,0,ATA,"12,12",6,12,Corinthians,3,"-0,90",4,0,0,2,"-2,39",0,0,11,0,0,20,0,"6,43",0,0,3,7,0
8,24.211071428571426,Rogério Ceni ,0,TEC,"9,66",8,0,São Paulo,3,"2,12",0,0,0,0,"-0,34",0,0,0,0,0,0,0,"3,87",0,0,0,0,0
8,24.211071428571426,Fernando Prass ,0,GOL,"16,60",8,4,Palmeiras,3,"8,00",0,0,0,0,"0,53",0,18,0,0,0,1,2,"5,91",8,0,0,0,0
8,24.211071428571426,Lucão ,2,ZAG,"5,25",6,17,São Paulo,2,"1,70",0,0,0,0,"-0,32",0,0,5,0,0,5,3,"3,38",0,0,1,6,0
8,24.211071428571426,Pedro Geromel ,2,ZAG,"12,97",6,16,Grêmio,3,"4,40",0,0,0,0,"0,16",0,0,12,0,1,4,5,"8,17",0,0,2,4,0
8,24.211071428571426,Gilberto  ,3,LAT,"11,14",8,37,Vasco,3,"7,10",1,0,2,0,"0,86",0,0,22,0,1,11,1,"4,55",0,0,1,8,0
8,24.211071428571426,Fábio Santos ,3,LAT,"1,76",7,26,Atlético-MG,3,"0,20",2,0,3,0,"-0,19",0,0,5,0,0,11,2,"0,97",0,0,0,9,0
8,24.211071428571426,Andrei Alba ,0,MEI,"2,00",0,0,Chapecoense,5,"0,00",0,0,0,0,"0,00",0,0,0,0,0,0,0,"0,00",0,0,0,0,0
8,24.211071428571426,Nenê ,6,MEI,"14,41",7,32,Vasco,3,"7,30",2,0,2,1,"0,22",0,0,6,0,3,16,0,"4,19",0,0,1,5,0
8,24.211071428571426,Allione ,0,MEI,"11,02",7,22,Bahia,2,"0,00",2,0,1,0,"0,00",0,0,10,0,4,9,0,"4,20",0,0,0,5,0
8,24.211071428571426,Luan ,8,ATA,"22,03",7,29,Grêmio,3,"0,50",1,0,0,4,"-1,63",0,0,10,0,4,17,0,"10,49",0,0,0,11,5
8,24.211071428571426,Henrique Almeida ,7,ATA,"14,64",8,20,Coritiba,3,"2,00",8,0,1,2,"-0,37",0,0,9,1,0,17,0,"4,91",0,0,6,6,0
8,24.211071428571426,Ángel Romero ,0,ATA,"11,26",7,21,Corinthians,3,"-3,00",8,0,0,2,"-0,86",0,0,12,0,0,25,0,"5,08",0,1,0,8,3
9,30.360952380952376,Rogério Ceni ,0,TEC,"9,76",9,0,São Paulo,3,"2,61",0,0,0,0,"0,10",0,0,0,0,0,0,0,"3,73",0,0,0,0,0
9,30.360952380952376,Fernando Prass ,0,GOL,"16,96",9,4,Palmeiras,3,"8,00",0,0,0,0,"0,36",0,19,0,0,0,1,3,"6,14",8,0,0,0,0
9,30.360952380952376,Lucão ,2,ZAG,"5,25",6,17,São Paulo,2,"0,00",0,0,0,0,"0,00",0,0,5,0,0,5,3,"3,38",0,0,0,6,1
9,30.360952380952376,Pedro Geromel ,2,ZAG,"13,87",7,17,Grêmio,3,"7,80",0,0,0,0,"0,90",0,0,15,0,1,5,6,"8,12",0,1,0,5,2
9,30.360952380952376,Gilberto  ,3,LAT,"11,16",9,42,Vasco,3,"5,40",1,0,0,0,"0,02",0,0,24,1,1,13,1,"4,64",0,2,0,10,1
9,30.360952380952376,Fábio Santos ,3,LAT,"1,81",8,30,Atlético-MG,3,"0,50",2,0,0,0,"0,05",0,0,6,0,0,13,2,"0,91",0,3,0,11,0
9,30.360952380952376,Andrei Alba ,0,MEI,"2,00",0,0,Chapecoense,5,"0,00",0,0,0,0,"0,00",0,0,0,0,0,0,0,"0,00",0,0,0,0,0
9,30.360952380952376,Nenê ,6,MEI,"12,61",8,38,Vasco,3,"-2,30",2,0,0,1,"-1,80",0,0,6,0,3,17,0,"3,38",0,2,0,7,1
9,30.360952380952376,Allione ,0,MEI,"10,82",8,24,Bahia,3,"-0,90",2,0,0,0,"-0,20",0,0,11,0,4,10,0,"3,56",0,2,0,6,0
9,30.360952380952376,Luan ,8,ATA,"24,80",8,34,Grêmio,3,"14,70",2,0,0,4,"2,77",0,0,11,0,6,18,0,"11,02",0,0,11,14,0
9,30.360952380952376,David ,7,ATA,"3,03",9,28,Vitória,3,"-0,80",4,0,0,0,"-0,63",0,0,3,1,2,5,0,"1,18",0,2,0,8,3
9,30.360952380952376,Ángel Romero ,1,ATA,"13,56",8,23,Corinthians,3,"9,50",8,0,2,2,"2,30",0,0,14,0,1,28,0,"5,63",0,0,5,9,0
10,30.360952380952376,Rogério Ceni ,0,TEC,"10,19",10,0,São Paulo,3,"0,00",0,0,0,0,"0,43",0,0,0,0,0,0,0,"3,78",0,0,0,0,0
10,30.360952380952376,Fernando Prass ,0,GOL,"16,48",10,0,Palmeiras,3,"0,00",0,0,0,0,"-0,48",0,0,0,0,0,0,0,"5,93",0,0,0,0,0
10,30.360952380952376,Lucão ,0,ZAG,"5,25",6,0,São Paulo,2,"0,00",0,0,0,0,"0,00",0,0,0,0,0,0,0,"3,38",0,0,0,0,0
10,30.360952380952376,Pedro Geromel ,0,ZAG,"13,78",8,0,Grêmio,2,"0,00",0,0,0,0,"-0,09",0,0,0,0,0,0,0,"7,78",0,0,0,0,0
10,30.360952380952376,Gilberto  ,0,LAT,"12,42",10,0,Vasco,3,"0,00",0,0,0,0,"1,26",0,0,0,0,0,0,0,"5,17",0,0,0,0,0
10,30.360952380952376,Fábio Santos ,0,LAT,"1,81",8,0,Atlético-MG,3,"0,00",0,0,0,0,"0,00",0,0,0,0,0,0,0,"0,91",0,0,0,0,0
10,30.360952380952376,Andrei Alba ,0,MEI,"2,00",0,0,Chapecoense,5,"0,00",0,0,0,0,"0,00",0,0,0,0,0,0,0,"0,00",0,0,0,0,0
10,30.360952380952376,Nenê ,0,MEI,"15,55",9,0,Vasco,3,"0,00",0,0,0,0,"2,94",0,0,0,0,0,0,0,"4,44",0,0,0,0,0
10,30.360952380952376,Allione ,0,MEI,"11,51",9,0,Bahia,3,"0,00",0,0,0,0,"0,69",0,0,0,0,0,0,0,"3,53",0,0,0,0,0
10,30.360952380952376,Luan ,0,ATA,"23,12",9,0,Grêmio,2,"0,00",0,0,0,0,"-1,68",0,0,0,0,0,0,0,"10,15",0,0,0,0,0
10,30.360952380952376,David ,0,ATA,"3,88",10,0,Vitória,1,"0,00",0,0,0,0,"0,85",0,0,0,0,0,0,0,"1,42",0,0,0,0,0
10,30.360952380952376,Ángel Romero ,0,ATA,"12,79",9,0,Corinthians,4,"0,00",0,0,0,0,"-0,77",0,0,0,0,0,0,0,"5,38",0,0,0,0,0
11,22.72969696969697,Rogério Ceni ,0,TEC,"9,95",11,0,São Paulo,3,"2,51",0,0,0,0,"-0,24",0,0,0,0,0,0,0,"3,66",0,0,0,0,0
11,22.72969696969697,Fernando Prass ,0,GOL,"16,70",11,4,Palmeiras,3,"5,00",0,0,0,0,"0,22",0,21,0,0,0,1,4,"5,85",9,0,0,0,0
11,22.72969696969697,Kanu ,5,ZAG,"8,74",6,17,Vitória,3,"6,90",1,0,0,1,"1,33",0,0,6,0,1,2,2,"4,43",0,2,0,5,1
11,22.72969696969697,Bruno Rodrigo ,0,ZAG,"5,11",1,1,Grêmio,3,"0,00",0,0,0,0,"0,00",0,0,0,0,0,0,0,"-0,30",0,0,0,0,0
11,22.72969696969697,Fagner ,0,LAT,"11,91",8,40,Corinthians,3,"1,30",0,0,0,0,"-1,55",0,0,12,0,1,11,7,"5,42",0,3,0,9,0
11,22.72969696969697,Bruno Pacheco ,1,LAT,"6,42",10,24,Atlético-GO,3,"-3,80",0,0,0,0,"-1,30",0,0,9,0,1,21,1,"1,97",0,2,0,13,1
11,22.72969696969697,Diego ,7,MEI,"22,11",8,36,Flamengo,3,"14,00",3,0,0,4,"2,88",0,0,9,0,2,20,0,"7,17",0,0,0,11,3
11,22.72969696969697,Jucilei ,4,MEI,"14,62",11,34,São Paulo,3,"5,60",0,0,0,1,"-0,82",0,0,33,0,0,26,0,"5,52",0,0,0,20,1
11,22.72969696969697,Allione ,0,MEI,"10,28",10,33,Bahia,3,"-2,60",3,0,0,0,"-1,23",0,0,13,0,4,14,0,"2,92",0,3,0,7,1
11,22.72969696969697,Luan ,10,ATA,"23,12",9,40,Grêmio,2,"0,00",2,0,0,4,"0,00",1,0,14,0,6,20,0,"10,15",0,0,12,14,0
11,22.72969696969697,David ,10,ATA,"4,03",11,28,Vitória,1,"3,40",5,0,0,0,"0,15",0,0,5,1,2,7,0,"1,60",0,2,0,8,4
11,22.72969696969697,Ángel Romero ,1,ATA,"12,79",9,27,Corinthians,4,"0,00",8,0,3,2,"0,00",0,0,17,0,1,33,0,"5,38",0,0,5,11,0
12,18.234722222222224,Zé Ricardo ,0,TEC,"12,29",12,0,Flamengo,3,"5,66",0,0,0,0,"-0,14",0,0,0,0,0,0,0,"4,60",0,0,0,0,0
12,18.234722222222224,Vanderlei ,0,GOL,"19,46",12,3,Santos,3,"1,70",0,0,0,0,"-1,37",0,26,0,0,0,1,6,"8,90",8,0,0,1,2
12,18.234722222222224,Joel Carli ,1,ZAG,"9,10",8,24,Botafogo,3,"0,00",1,0,0,1,"-0,09",0,0,8,0,0,2,3,"2,39",0,3,0,11,0
12,18.234722222222224,Luis Caicedo ,1,ZAG,"4,75",6,11,Cruzeiro,2,"0,00",0,0,2,0,"0,00",0,0,5,0,0,4,2,"1,65",0,0,1,10,0
12,18.234722222222224,Leonan ,0,LAT,"2,04",1,1,Atlético-MG,3,"0,00",0,0,1,0,"0,00",0,0,0,0,0,1,1,"2,20",0,0,0,2,0
12,18.234722222222224,Julio Cesar ,0,LAT,"3,00",0,0,Vasco,2,"0,00",0,0,0,0,"0,00",0,0,0,0,0,0,0,"0,00",0,0,0,0,0
12,18.234722222222224,Maycon ,6,MEI,"7,84",12,38,Corinthians,3,"4,40",0,0,0,1,"-0,15",0,0,16,0,0,3,0,"2,88",0,0,0,5,3
12,18.234722222222224,Matheus Fernandes ,3,MEI,"3,40",8,6,Botafogo,3,"-0,80",0,0,0,0,"-1,37",0,0,15,0,0,5,0,"2,88",0,0,0,9,0
12,18.234722222222224,Luiz Otávio ,0,MEI,"2,00",0,0,Atlético-PR,2,"0,00",0,0,0,0,"0,00",0,0,0,0,0,0,0,"0,00",0,0,0,0,0
12,18.234722222222224,Copete ,3,ATA,"9,44",9,33,Santos,3,"23,00",3,0,0,2,"4,83",0,0,4,0,0,8,0,"3,60",0,2,0,12,2
12,18.234722222222224,Wellington Paulista ,7,ATA,"10,54",12,19,Chapecoense,3,"1,40",3,0,2,3,"0,00",0,0,2,1,0,15,0,"2,88",0,0,8,14,0
12,18.234722222222224,Lucas Pratto ,22,ATA,"13,81",12,34,São Paulo,3,"-6,40",1,0,0,3,"-2,09",0,0,5,0,2,9,0,"3,82",0,1,0,15,10
13,11.593729603729606,Pachequinho ,0,TEC,"10,03",13,0,Coritiba,3,"4,59",0,0,0,0,"0,79",0,0,0,0,0,0,0,"3,53",0,0,0,0,0
13,11.593729603729606,Vanderlei ,0,GOL,"23,89",13,4,Santos,3,"24,00",0,0,0,0,"4,43",0,28,0,0,0,1,6,"10,06",10,0,0,1,2
13,11.593729603729606,Luan ,2,ZAG,"6,82",5,5,Palmeiras,3,"0,00",0,0,0,0,"0,00",0,0,7,0,0,1,2,"4,16",0,0,0,3,0
13,11.593729603729606,Marcio ,3,ZAG,"6,50",12,21,Coritiba,3,"-2,80",1,0,0,1,"-1,13",0,0,10,0,1,6,5,"3,50",0,2,0,13,2
13,11.593729603729606,Leonan ,0,LAT,"2,04",1,1,Atlético-MG,2,"0,00",0,0,0,0,"0,00",0,0,0,0,0,1,1,"2,20",0,1,0,2,0
13,11.593729603729606,Buffarini ,0,LAT,"7,05",3,4,São Paulo,3,"-0,90",0,0,0,0,"-0,49",0,0,2,0,0,2,1,"2,43",0,0,0,0,0
13,11.593729603729606,Everton ,5,MEI,"14,81",11,34,Flamengo,3,"4,50",3,0,0,2,"-0,86",0,0,17,0,2,20,0,"4,70",0,4,0,15,6
13,11.593729603729606,Wellington ,0,MEI,"3,00",0,0,São Paulo,2,"0,00",0,0,0,0,"0,00",0,0,0,0,0,0,0,"0,00",0,0,0,0,0
13,11.593729603729606,Jadson ,2,MEI,"3,92",9,16,Ponte Preta,3,"1,90",0,0,0,0,"0,36",0,0,7,0,0,6,0,"0,71",0,2,0,6,0
13,11.593729603729606,Bruno Paulo ,0,ATA,"2,00",0,0,Corinthians,2,"0,00",0,0,0,0,"0,00",0,0,0,0,0,0,0,"0,00",0,0,0,0,0
13,11.593729603729606,João Pedro ,0,ATA,"4,00",0,0,Atlético-GO,2,"0,00",0,0,0,0,"0,00",0,0,0,0,0,0,0,"0,00",0,0,0,0,0
13,11.593729603729606,Lucca ,10,ATA,"21,37",13,32,Ponte Preta,3,"5,70",4,0,1,7,"0,96",1,0,13,0,1,40,0,"7,71",0,0,8,13,0
14,16.72602730602731,Cuca ,0,TEC,"13,77",14,0,Palmeiras,3,"4,85",0,0,0,0,"0,62",0,0,0,0,0,0,0,"3,57",0,0,0,0,0
14,16.72602730602731,Agenor ,0,GOL,"4,47",2,0,Sport,3,"4,40",0,0,0,0,"-0,33",0,1,0,0,0,0,1,"6,20",0,0,0,0,0
14,16.72602730602731,Durval ,0,ZAG,"6,31",11,13,Sport,3,"0,10",1,0,0,0,"-0,95",0,0,10,0,1,6,4,"3,33",0,0,0,8,0
14,16.72602730602731,Frazan ,0,ZAG,"1,85",1,0,Fluminense,2,"1,30",0,0,0,0,"-0,15",0,0,0,0,0,0,0,"1,30",0,0,0,0,0
14,16.72602730602731,Daniel Guedes  ,1,LAT,"3,92",4,5,Santos,3,"2,70",0,1,1,1,"-1,27",0,0,6,0,0,2,2,"5,27",0,0,1,8,0
14,16.72602730602731,Ezequiel  ,1,LAT,"5,86",6,13,Cruzeiro,2,"0,00",0,0,2,0,"0,00",0,0,11,0,0,6,2,"3,08",0,0,1,14,0
14,16.72602730602731,Jadson ,6,MEI,"9,70",13,64,Corinthians,3,"1,00",3,0,0,4,"-0,95",0,0,7,0,1,4,0,"2,14",0,2,0,13,3
14,16.72602730602731,Jean ,5,MEI,"9,63",13,25,Vasco,3,"-1,00",0,0,3,1,"-1,25",0,0,32,0,0,18,0,"4,22",0,0,4,19,0
14,16.72602730602731,Jean Mota ,5,MEI,"4,94",12,28,Santos,3,"2,50",0,0,0,0,"0,26",0,0,16,0,2,10,0,"3,19",0,1,0,5,3
14,16.72602730602731,Lucca ,12,ATA,"21,61",14,36,Ponte Preta,3,"6,40",4,0,0,7,"0,24",1,0,13,0,1,42,0,"7,62",0,1,0,14,13
14,16.72602730602731,André Lima ,5,ATA,"8,43",7,8,Vitória,3,"5,40",2,0,0,2,"0,82",0,0,3,0,1,5,0,"4,30",0,1,0,8,2
14,16.72602730602731,Walterson ,0,ATA,"3,32",1,0,Atlético-GO,3,"2,70",0,0,0,0,"1,32",0,0,1,0,0,1,0,"2,70",0,0,1,1,0
15,20.173290043290038,Milton Mendes ,0,TEC,"8,73",15,0,Vasco,3,"1,24",0,0,0,0,"-0,65",0,0,0,0,0,0,0,"3,39",0,0,0,0,0
15,20.173290043290038,Jean ,0,GOL,"14,35",15,13,Bahia,3,"18,00",0,0,0,0,"3,59",0,29,0,0,0,1,6,"5,31",16,1,0,0,0
15,20.173290043290038,Balbuena ,3,ZAG,"10,60",12,23,Corinthians,3,"6,40",2,0,0,2,"0,44",0,0,11,0,0,10,9,"6,33",0,1,0,4,1
15,20.173290043290038,Pedro Geromel ,3,ZAG,"13,66",11,26,Grêmio,3,"0,00",0,0,0,0,"0,00",0,0,26,0,1,7,7,"7,05",0,2,0,7,3
15,20.173290043290038,Edílson ,4,LAT,"10,26",11,25,Grêmio,3,"2,10",1,0,0,1,"-0,01",1,0,13,0,0,7,5,"3,13",0,4,0,19,2
15,20.173290043290038,Leandro Silva ,6,LAT,"8,65",14,69,Avaí,3,"9,20",2,1,0,0,"1,64",0,0,19,0,1,12,5,"2,74",0,1,0,19,4
15,20.173290043290038,Diego Rosa ,0,MEI,"8,77",1,1,Bahia,1,"6,40",0,0,0,0,"2,77",0,0,1,0,1,1,0,"6,40",0,0,0,1,0
15,20.173290043290038,Elton ,3,MEI,"6,39",11,24,Ponte Preta,2,"6,70",2,1,0,0,"1,20",0,0,16,0,1,9,0,"1,78",0,0,0,14,1
15,20.173290043290038,Luiz Otávio ,0,MEI,"2,00",0,0,Atlético-PR,2,"0,00",0,0,0,0,"0,00",0,0,0,0,0,0,0,"0,00",0,0,0,0,0
15,20.173290043290038,Wellington Nem ,2,ATA,"7,90",9,7,São Paulo,3,"3,90",4,0,0,1,"0,86",0,0,5,0,0,19,0,"1,70",0,2,0,10,1
15,20.173290043290038,Gustavo ,1,ATA,"5,09",1,0,Bahia,1,"1,20",0,0,0,0,"-0,91",0,0,0,0,0,1,0,"1,20",0,0,0,0,0
15,20.173290043290038,Richarlison  ,6,ATA,"13,50",12,30,Fluminense,3,"6,10",11,0,0,5,"-1,35",0,0,20,0,2,32,0,"6,23",0,3,0,30,6
16,20.173290043290038,Milton Mendes ,0,TEC,"9,78",16,0,Vasco,3,"6,34",0,0,0,0,"1,05",0,0,0,0,0,0,0,"3,57",0,0,0,0,0
16,20.173290043290038,Jean ,0,GOL,"11,68",16,13,Bahia,3,"0,00",0,0,1,0,"-2,67",0,29,0,0,0,1,6,"4,98",16,0,0,0,0
16,20.173290043290038,Balbuena ,3,ZAG,"12,18",13,23,Corinthians,3,"12,90",2,0,1,2,"1,58",0,0,11,0,0,10,9,"6,84",0,0,1,4,0
16,20.173290043290038,Pedro Geromel ,3,ZAG,"13,92",12,26,Grêmio,1,"5,20",0,0,2,0,"0,26",0,0,26,0,1,7,7,"6,90",0,0,3,7,0
16,20.173290043290038,Edílson ,4,LAT,"10,60",12,25,Grêmio,3,"3,40",1,0,4,1,"0,34",1,0,13,0,0,7,5,"3,15",0,0,2,19,0
16,20.173290043290038,Leandro Silva ,6,LAT,"9,09",15,69,Avaí,3,"9,20",2,1,1,0,"0,44",0,0,19,0,1,12,5,"3,17",0,0,4,19,0
16,20.173290043290038,Diego Rosa ,0,MEI,"8,77",1,1,Bahia,1,"6,40",0,0,0,0,"2,77",0,0,1,0,1,1,0,"6,40",0,0,0,1,0
16,20.173290043290038,Elton ,3,MEI,"5,66",12,24,Ponte Preta,3,"1,40",2,1,0,0,"-0,73",0,0,16,0,1,9,0,"1,75",0,0,1,14,0
16,20.173290043290038,Luiz Otávio ,0,MEI,"2,00",0,0,Atlético-PR,2,"0,00",0,0,0,0,"0,00",0,0,0,0,0,0,0,"0,00",0,0,0,0,0
16,20.173290043290038,Wellington Nem ,2,ATA,"7,90",9,7,São Paulo,1,"0,00",4,0,2,1,"0,00",0,0,5,0,0,19,0,"1,70",0,0,1,10,0
16,20.173290043290038,Gustavo ,1,ATA,"5,09",1,0,Bahia,1,"1,20",0,0,0,0,"-0,91",0,0,0,0,0,1,0,"1,20",0,0,0,0,0
16,20.173290043290038,Richarlison  ,6,ATA,"12,64",13,30,Fluminense,3,"0,30",11,0,3,5,"-0,86",0,0,20,0,2,32,0,"5,77",0,0,6,30,0
17,20.173290043290038,Milton Mendes ,0,TEC,"5,74",1,0,Vasco,3,"2,11",0,0,0,0,"-0,26",0,0,0,0,0,0,0,"2,11",0,0,0,0,0
17,20.173290043290038,Jean ,0,GOL,"12,48",17,14,Bahia,3,"5,70",0,0,0,0,"0,80",0,35,0,0,0,1,6,"5,02",22,1,0,0,0
17,20.173290043290038,Balbuena ,3,ZAG,"11,98",14,25,Corinthians,3,"10,30",2,0,0,3,"-0,20",0,0,15,0,1,13,10,"7,09",0,2,0,5,1
17,20.173290043290038,Pedro Geromel ,3,ZAG,"13,74",13,31,Grêmio,3,"4,80",0,0,0,0,"-0,18",0,0,31,0,2,8,7,"6,74",0,3,0,8,3
17,20.173290043290038,Edílson ,0,LAT,"12,00",0,0,Grêmio,4,"0,00",0,0,0,0,"0,00",0,0,0,0,0,0,0,"0,00",0,0,0,0,0
17,20.173290043290038,Leandro Silva ,0,LAT,"9,20",1,4,Avaí,3,"7,00",0,0,0,0,"3,20",0,0,1,0,0,1,1,"7,00",0,0,0,0,1
17,20.173290043290038,Diego Rosa ,0,MEI,"8,77",1,1,Bahia,1,"6,40",0,0,0,0,"2,77",0,0,1,0,1,1,0,"6,40",0,0,0,1,0
17,20.173290043290038,Elton ,2,MEI,"5,94",1,3,Ponte Preta,3,"3,40",0,0,0,0,"0,94",0,0,2,0,0,1,0,"3,40",0,0,0,2,0
17,20.173290043290038,Luiz Otávio ,0,MEI,"2,00",0,0,Atlético-PR,2,"0,00",0,0,0,0,"0,00",0,0,0,0,0,0,0,"0,00",0,0,0,0,0
17,20.173290043290038,Wellington Nem ,0,ATA,"10,00",0,0,São Paulo,5,"0,00",0,0,0,0,"0,00",0,0,0,0,0,0,0,"0,00",0,0,0,0,0
17,20.173290043290038,Gustavo ,1,ATA,"5,09",1,0,Bahia,1,"1,20",0,0,0,0,"-0,91",0,0,0,0,0,1,0,"1,20",0,0,0,0,0
17,20.173290043290038,Richarlison  ,7,ATA,"12,64",13,32,Fluminense,3,"0,00",14,0,0,5,"0,00",0,0,21,0,2,34,0,"5,77",0,3,0,32,6
18,13.714420024420026,Milton Mendes ,0,TEC,"9,02",18,0,Vasco,3,"1,05",0,0,0,0,"-0,14",0,0,0,0,0,0,0,"3,39",0,0,0,0,0
18,13.714420024420026,Jean ,0,GOL,"11,35",18,14,Bahia,3,"-2,00",0,0,1,0,"-1,13",0,35,0,0,0,1,6,"4,63",23,0,0,0,0
18,13.714420024420026,Balbuena ,3,ZAG,"11,55",15,30,Corinthians,3,"5,20",2,0,2,3,"-0,43",0,0,16,0,1,14,11,"6,96",0,0,1,6,0
18,13.714420024420026,Pedro Geromel ,3,ZAG,"13,74",13,31,Grêmio,1,"0,00",0,0,3,0,"0,00",0,0,31,0,2,8,7,"6,74",0,0,3,8,0
18,13.714420024420026,Wallace Oliveira ,0,LAT,"5,00",0,0,Grêmio,2,"0,00",0,0,0,0,"0,00",0,0,0,0,0,0,0,"0,00",0,0,0,0,0
18,13.714420024420026,Marcos Rocha ,3,LAT,"8,91",7,41,Atlético-MG,2,"-4,90",0,0,2,0,"-2,70",0,0,18,0,2,8,1,"3,77",0,0,1,20,0
18,13.714420024420026,Andrei Girotto ,11,MEI,"4,75",16,33,Chapecoense,3,"-0,90",1,0,7,1,"0,08",0,0,22,0,2,17,0,"1,94",0,0,5,42,0
18,13.714420024420026,Rithely ,14,MEI,"11,39",15,50,Sport,3,"3,40",1,0,0,1,"0,15",0,0,37,0,2,17,0,"4,61",0,4,0,23,5
18,13.714420024420026,Jucilei ,7,MEI,"14,54",18,50,São Paulo,3,"3,80",0,0,0,1,"0,89",0,0,48,0,0,36,0,"4,72",0,0,1,27,0
18,13.714420024420026,Jô ,10,ATA,"13,73",18,42,Corinthians,3,"7,00",21,0,2,11,"0,21",1,0,4,0,2,23,0,"4,78",0,0,11,35,0
18,13.714420024420026,Gustavo ,1,ATA,"5,09",1,0,Bahia,1,"1,20",0,0,0,0,"-0,91",0,0,0,0,0,1,0,"1,20",0,0,0,0,0
18,13.714420024420026,Richarlison  ,1,ATA,"7,50",1,1,Fluminense,3,"1,60",1,0,0,0,"-1,50",0,0,1,0,0,0,0,"1,60",0,0,1,2,0
19,5.992063090418353,Milton Mendes ,0,TEC,"9,30",19,0,Vasco,3,"3,46",0,0,0,0,"0,28",0,0,0,0,0,0,0,"3,39",0,0,0,0,0
19,5.992063090418353,Jean ,0,GOL,"11,09",19,14,Bahia,3,"-1,50",0,0,0,0,"-0,26",0,36,0,0,0,1,6,"4,31",24,2,0,1,0
19,5.992063090418353,Balbuena ,3,ZAG,"11,89",16,34,Corinthians,2,"7,30",2,0,0,3,"0,34",0,0,21,0,1,14,11,"6,98",0,2,0,6,1
19,5.992063090418353,Pedro Geromel ,3,ZAG,"13,74",13,31,Grêmio,2,"0,00",0,0,0,0,"0,00",0,0,31,0,2,8,7,"6,74",0,3,0,8,3
19,5.992063090418353,Mena ,1,LAT,"5,12",8,18,Sport,3,"0,00",3,1,0,1,"0,00",0,0,16,0,4,8,3,"6,13",0,3,0,18,1
19,5.992063090418353,Jeferson ,2,LAT,"6,61",8,35,Ponte Preta,3,"8,00",0,0,0,0,"1,32",0,0,10,0,1,4,6,"4,61",0,2,0,8,0
19,5.992063090418353,Wendel ,6,MEI,"14,35",15,34,Fluminense,3,"11,70",1,0,0,3,"1,61",0,0,22,1,2,40,0,"5,89",0,0,0,12,6
19,5.992063090418353,Rithely ,14,MEI,"11,09",16,53,Sport,3,"2,50",1,0,4,1,"-0,30",0,0,39,0,2,17,0,"4,48",0,0,5,23,0
19,5.992063090418353,Jucilei ,7,MEI,"14,28",19,50,São Paulo,2,"3,40",0,0,0,1,"-0,26",0,0,50,0,0,36,0,"4,65",0,0,0,27,1
19,5.992063090418353,Jô ,10,ATA,"12,75",19,45,Corinthians,2,"2,00",21,0,0,11,"-0,98",1,0,6,0,2,23,0,"4,63",0,2,0,36,11
19,5.992063090418353,Gustavo ,1,ATA,"5,09",1,0,Bahia,1,"1,20",0,0,0,0,"-0,91",0,0,0,0,0,1,0,"1,20",0,0,0,0,0
19,5.992063090418353,Richarlison  ,1,ATA,"7,50",1,1,Fluminense,3,"1,60",1,0,0,0,"-1,50",0,0,1,0,0,0,0,"1,60",0,0,0,2,1
20,8.393125332270069,Ney Franco ,0,TEC,"2,28",1,0,Sport,3,"-0,77",0,0,0,0,"-1,72",0,0,0,0,0,0,0,"-0,77",0,0,0,0,0
20,8.393125332270069,Vanderlei ,0,GOL,"22,09",19,7,Santos,3,"5,00",0,0,2,0,"-0,38",0,48,0,0,0,3,11,"9,94",13,0,0,1,3
20,8.393125332270069,Marcus Winícius ,0,ZAG,"3,00",0,0,Atlético-GO,2,"0,00",0,0,0,0,"0,00",0,0,0,0,0,0,0,"0,00",0,0,0,0,0
20,8.393125332270069,Marcio ,4,ZAG,"6,67",18,32,Coritiba,3,"0,90",1,0,3,1,"-0,41",0,0,13,0,1,10,6,"2,66",0,0,2,22,0
20,8.393125332270069,Guilherme Arana ,2,LAT,"11,24",18,58,Corinthians,2,"0,00",4,0,3,2,"0,00",0,0,9,0,2,23,13,"4,99",0,0,2,12,0
20,8.393125332270069,Jeferson ,2,LAT,"6,10",9,39,Ponte Preta,3,"3,80",0,0,2,0,"-0,51",0,0,10,0,1,5,7,"4,52",0,0,0,9,0
20,8.393125332270069,Wendel ,6,MEI,"14,01",16,38,Fluminense,3,"7,90",1,0,0,3,"-0,34",0,0,25,2,2,41,0,"6,02",0,0,6,12,0
20,8.393125332270069,Rithely ,15,MEI,"11,56",17,58,Sport,3,"4,80",1,0,0,1,"0,47",0,0,42,0,2,17,0,"4,50",0,4,0,24,6
20,8.393125332270069,Márcio Araújo ,5,MEI,"9,16",18,32,Flamengo,3,"3,60",0,0,2,0,"-0,13",0,0,41,0,0,26,0,"3,45",0,0,0,21,0
20,8.393125332270069,André ,14,ATA,"10,07",18,47,Sport,3,"-1,50",14,0,3,9,"-0,70",0,0,16,1,1,32,0,"5,27",0,0,9,41,0
20,8.393125332270069,Manga Escobar ,3,ATA,"5,79",11,11,Vasco,2,"7,50",2,0,0,2,"1,26",0,0,2,0,1,8,0,"2,35",0,0,0,5,2
20,8.393125332270069,Getterson ,0,ATA,"0,78",3,4,Coritiba,2,"0,00",0,0,0,0,"0,00",0,0,2,0,0,2,0,"-0,27",0,1,0,4,0
21,22.455238813474107,Fábio Carille ,0,TEC,"11,54",20,0,Corinthians,3,"2,62",0,0,0,0,"-0,88",0,0,0,0,0,0,0,"4,71",0,0,0,0,0
21,22.455238813474107,Jean ,0,GOL,"11,89",21,15,Bahia,3,"4,70",0,0,0,0,"0,45",0,39,0,0,0,1,7,"4,17",28,2,0,1,0
21,22.455238813474107,Balbuena ,4,ZAG,"10,40",17,40,Corinthians,3,"-0,70",3,0,0,3,"-1,49",0,0,23,0,1,14,11,"6,53",0,3,0,7,1
21,22.455238813474107,Pedro Geromel ,3,ZAG,"13,74",13,31,Grêmio,5,"0,00",0,0,0,0,"0,00",0,0,31,0,2,8,7,"6,74",0,3,0,8,3
21,22.455238813474107,Victor Ferraz ,2,LAT,"10,42",13,44,Santos,3,"7,50",0,0,0,2,"0,32",0,0,12,0,0,10,7,"4,32",0,2,0,9,0
21,22.455238813474107,Cascardo ,0,LAT,"3,17",9,22,Atlético-PR,3,"0,00",1,0,0,0,"0,00",0,0,7,0,0,13,3,"2,65",0,0,0,7,1
21,22.455238813474107,Rithely ,15,MEI,"10,95",18,61,Sport,3,"2,00",1,0,4,1,"-0,61",0,0,44,0,2,17,0,"4,36",0,0,6,25,0
21,22.455238813474107,Mateus Pet ,0,MEI,"5,02",1,1,Vasco,3,"5,10",0,0,0,0,"3,02",0,0,2,0,0,1,0,"5,10",0,0,0,1,2
21,22.455238813474107,Uillian Correia ,8,MEI,"5,60",18,32,Vitória,3,"3,90",1,0,0,3,"0,03",0,0,33,0,0,7,0,"3,44",0,3,0,26,2
21,22.455238813474107,Rildo ,5,ATA,"8,50",18,43,Coritiba,2,"0,00",5,0,0,4,"0,00",0,0,17,0,2,60,0,"4,34",0,3,0,18,4
21,22.455238813474107,Lucca ,18,ATA,"20,16",20,55,Ponte Preta,3,"-1,40",6,0,0,10,"-0,99",1,0,19,0,1,67,0,"7,16",0,3,0,23,20
21,22.455238813474107,Júnior Viçosa ,1,ATA,"5,80",1,0,Atlético-GO,2,"1,20",0,0,0,0,"-1,20",0,0,0,0,0,1,0,"1,20",0,0,0,0,0
22,22.455238813474107,Fábio Carille ,0,TEC,"11,93",21,0,Corinthians,3,"3,96",0,0,0,0,"0,39",0,0,0,0,0,0,0,"4,67",0,0,0,0,0
22,22.455238813474107,Jean ,0,GOL,"11,45",22,18,Bahia,3,"1,10",0,0,2,0,"-0,44",0,41,0,0,0,1,7,"4,03",30,0,0,1,0
22,22.455238813474107,Balbuena ,4,ZAG,"10,40",17,40,Corinthians,5,"0,00",3,0,3,3,"0,00",0,0,23,0,1,14,11,"6,53",0,0,1,7,0
22,22.455238813474107,Pedro Geromel ,3,ZAG,"13,74",13,31,Grêmio,5,"0,00",0,0,3,0,"0,00",0,0,31,0,2,8,7,"6,74",0,0,3,8,0
22,22.455238813474107,Victor Ferraz ,2,LAT,"9,53",14,48,Santos,3,"1,00",0,0,2,2,"-0,89",0,0,13,0,0,11,7,"4,08",0,0,1,11,0
22,22.455238813474107,Cascardo ,0,LAT,"3,17",9,22,Atlético-PR,2,"0,00",1,0,0,0,"0,00",0,0,7,0,0,13,3,"2,65",0,0,1,7,0
22,22.455238813474107,Rithely ,15,MEI,"10,95",18,61,Sport,2,"0,00",1,0,0,1,"0,00",0,0,44,0,2,17,0,"4,36",0,4,0,25,6
22,22.455238813474107,Mateus Pet ,0,MEI,"5,02",1,1,Vasco,3,"5,10",0,0,0,0,"3,02",0,0,2,0,0,1,0,"5,10",0,0,2,1,0
22,22.455238813474107,Uillian Correia ,9,MEI,"4,69",19,34,Vitória,3,"-1,90",1,0,3,3,"-0,91",0,0,33,0,0,8,0,"3,16",0,0,2,31,0
22,22.455238813474107,Rildo ,6,ATA,"8,42",19,48,Coritiba,3,"0,20",5,0,3,4,"-0,08",0,0,17,0,2,65,0,"4,12",0,0,5,23,0
22,22.455238813474107,Lucca ,18,ATA,"20,16",20,55,Ponte Preta,4,"0,00",6,0,3,10,"0,00",1,0,19,0,1,67,0,"7,16",0,0,20,23,0
22,22.455238813474107,Júnior Viçosa ,1,ATA,"5,80",1,0,Atlético-GO,2,"1,20",0,0,0,0,"-1,20",0,0,0,0,0,1,0,"1,20",0,0,0,0,0
23,16.125593247332375,Fábio Carille ,0,TEC,"11,47",22,0,Corinthians,3,"1,14",0,0,0,0,"-0,46",0,0,0,0,0,0,0,"4,51",0,0,0,0,0
23,16.125593247332375,Jean ,0,GOL,"11,95",23,18,Bahia,3,"4,00",0,0,0,0,"0,50",0,43,0,0,0,1,7,"4,03",31,2,0,1,0
23,16.125593247332375,Balbuena ,4,ZAG,"11,12",18,40,Corinthians,3,"3,40",3,0,0,3,"0,72",0,0,25,0,1,14,11,"6,36",0,3,0,7,1
23,16.125593247332375,Pedro Geromel ,3,ZAG,"13,74",13,31,Grêmio,2,"0,00",0,0,0,0,"0,00",0,0,31,0,2,8,7,"6,74",0,3,0,8,3
23,16.125593247332375,Victor Ferraz ,2,LAT,"10,39",15,50,Santos,3,"5,80",0,0,0,2,"0,86",0,0,15,0,0,12,8,"4,19",0,3,0,12,1
23,16.125593247332375,Norberto  ,0,LAT,"5,00",0,0,Vitória,2,"0,00",0,0,0,0,"0,00",0,0,0,0,0,0,0,"0,00",0,0,0,0,0
23,16.125593247332375,Gustavo Scarpa ,17,MEI,"11,90",21,120,Fluminense,3,"-0,10",0,0,0,1,"-0,28",0,0,20,2,6,34,0,"4,01",0,0,0,17,21
23,16.125593247332375,Mateus Pet ,0,MEI,"5,02",1,1,Vasco,3,"5,10",0,0,0,0,"3,02",0,0,2,0,0,1,0,"5,10",0,0,0,1,2
23,16.125593247332375,Uillian Correia ,10,MEI,"5,64",20,37,Vitória,3,"3,70",1,0,0,3,"0,95",0,0,35,0,0,9,0,"3,19",0,3,0,31,2
23,16.125593247332375,Rildo ,6,ATA,"8,61",20,48,Coritiba,3,"1,50",5,0,0,4,"0,19",0,0,17,0,2,69,0,"3,99",0,3,0,24,5
23,16.125593247332375,Lucca ,19,ATA,"21,34",21,57,Ponte Preta,1,"5,50",6,0,0,10,"1,18",1,0,21,0,1,71,0,"7,08",0,3,0,23,20
23,16.125593247332375,Júnior Viçosa ,1,ATA,"5,80",1,0,Atlético-GO,2,"1,20",0,0,0,0,"-1,20",0,0,0,0,0,1,0,"1,20",0,0,0,0,0
24,25.66538284116087,Fábio Carille ,0,TEC,"12,10",23,0,Corinthians,3,"4,91",0,0,0,0,"0,63",0,0,0,0,0,0,0,"4,53",0,0,0,0,0
24,25.66538284116087,Jean ,0,GOL,"12,64",24,21,Bahia,3,"7,60",0,0,2,0,"0,69",0,44,0,0,0,2,7,"4,18",32,0,0,1,1
24,25.66538284116087,Balbuena ,5,ZAG,"11,77",19,40,Corinthians,3,"6,90",3,0,3,3,"0,65",0,0,26,0,1,14,12,"6,39",0,0,1,8,0
24,25.66538284116087,Lucas Veríssimo ,3,ZAG,"7,81",21,35,Santos,3,"0,00",1,0,0,0,"0,00",0,0,23,0,0,11,13,"4,09",0,6,0,14,4
24,25.66538284116087,Zeca ,3,LAT,"10,65",8,20,Santos,3,"0,00",0,0,0,0,"0,00",0,0,5,1,0,6,5,"4,45",0,0,2,5,0
24,25.66538284116087,Fabrício ,0,LAT,"5,00",0,0,Cruzeiro,2,"0,00",0,0,0,0,"0,00",0,0,0,0,0,0,0,"0,00",0,0,0,0,0
24,25.66538284116087,Danielzinho ,0,MEI,"2,00",0,0,Fluminense,2,"0,00",0,0,0,0,"0,00",0,0,0,0,0,0,0,"0,00",0,0,0,0,0
24,25.66538284116087,Jadson ,12,MEI,"8,29",18,97,Corinthians,3,"-1,40",3,0,2,4,"-0,28",0,0,9,0,1,10,0,"1,50",0,0,3,14,0
24,25.66538284116087,Fábio ,0,MEI,"3,00",0,0,Sport,2,"0,00",0,0,0,0,"0,00",0,0,0,0,0,0,0,"0,00",0,0,0,0,0
24,25.66538284116087,Bruno Paulo ,0,ATA,"2,00",0,0,Corinthians,2,"0,00",0,0,0,0,"0,00",0,0,0,0,0,0,0,"0,00",0,0,0,0,0
24,25.66538284116087,Lucas Pratto ,32,ATA,"14,82",23,63,São Paulo,3,"2,40",4,1,0,5,"-0,73",1,0,12,0,4,26,0,"3,71",0,2,0,32,19
24,25.66538284116087,Henrique Dourado ,9,ATA,"23,18",18,47,Fluminense,3,"10,30",6,0,0,14,"0,50",0,0,8,0,2,35,0,"6,78",0,4,0,43,9
25,25.718448165869216,Fábio Carille ,0,TEC,"11,79",24,0,Corinthians,3,"2,99",0,0,0,0,"-0,31",0,0,0,0,0,0,0,"4,47",0,0,0,0,0
25,25.718448165869216,Jean ,0,GOL,"13,32",25,22,Bahia,3,"10,70",0,0,0,0,"0,68",0,46,0,0,0,2,8,"4,44",32,2,1,1,0
25,25.718448165869216,Balbuena ,5,ZAG,"10,71",20,43,Corinthians,3,"0,50",3,0,0,3,"-1,06",0,0,28,0,1,15,12,"6,10",0,4,0,9,1
25,25.718448165869216,Lucas Veríssimo ,3,ZAG,"8,64",22,35,Santos,3,"8,40",1,0,6,0,"0,83",0,0,25,0,0,12,14,"4,29",0,0,4,15,0
25,25.718448165869216,Zeca ,3,LAT,"11,43",9,20,Santos,3,"8,20",0,0,0,0,"0,78",0,0,6,1,0,9,6,"4,87",0,0,0,5,2
25,25.718448165869216,Fabrício ,0,LAT,"5,00",0,0,Cruzeiro,2,"0,00",0,0,0,0,"0,00",0,0,0,0,0,0,0,"0,00",0,0,0,0,0
25,25.718448165869216,Diego Rosa ,0,MEI,"8,77",1,1,Bahia,1,"6,40",0,0,0,0,"2,77",0,0,1,0,1,1,0,"6,40",0,0,0,1,0
25,25.718448165869216,Jadson ,12,MEI,"8,29",19,101,Corinthians,3,"-0,70",3,0,0,4,"0,00",0,0,9,0,1,11,0,"1,38",0,2,0,14,3
25,25.718448165869216,Fábio ,0,MEI,"3,00",0,0,Sport,2,"0,00",0,0,0,0,"0,00",0,0,0,0,0,0,0,"0,00",0,0,0,0,0
25,25.718448165869216,Bruno Paulo ,0,ATA,"2,00",0,0,Corinthians,2,"0,00",0,0,0,0,"0,00",0,0,0,0,0,0,0,"0,00",0,0,0,0,0
25,25.718448165869216,Lucas Pratto ,32,ATA,"14,95",24,66,São Paulo,3,"3,50",4,1,2,5,"0,13",1,0,14,0,4,27,0,"3,70",0,0,20,33,0
25,25.718448165869216,Henrique Dourado ,9,ATA,"21,17",19,50,Fluminense,3,"-1,20",6,0,4,14,"-2,01",0,0,9,0,2,36,0,"6,36",0,0,9,48,0
26,27.064848702022616,Marcelo Cabo ,0,TEC,"3,25",1,0,Atlético-GO,3,"2,60",0,0,0,0,"1,25",0,0,0,0,0,0,0,"2,60",0,0,0,0,0
26,27.064848702022616,Jean ,0,GOL,"11,88",26,23,Bahia,3,"0,70",0,0,2,0,"-1,44",0,47,0,0,0,2,8,"4,30",33,0,0,1,1
26,27.064848702022616,Balbuena ,5,ZAG,"10,25",21,45,Corinthians,3,"-2,40",4,0,5,3,"-0,46",0,0,29,0,1,15,12,"5,70",0,0,1,11,0
26,27.064848702022616,Lucas Veríssimo ,4,ZAG,"8,15",23,37,Santos,3,"4,10",1,0,0,0,"-0,49",0,0,25,0,0,13,15,"4,28",0,6,0,18,4
26,27.064848702022616,Zeca ,3,LAT,"11,44",10,25,Santos,3,"6,60",0,0,1,0,"0,01",0,0,9,1,0,9,7,"5,04",0,0,2,5,0
26,27.064848702022616,Fabrício ,0,LAT,"5,00",0,0,Cruzeiro,2,"0,00",0,0,0,0,"0,00",0,0,0,0,0,0,0,"0,00",0,0,0,0,0
26,27.064848702022616,Gustavo Scarpa ,22,MEI,"12,56",24,134,Fluminense,3,"3,30",2,0,0,1,"0,85",0,0,22,2,7,38,0,"3,91",0,0,22,17,0
26,27.064848702022616,Mateus Pet ,0,MEI,"5,02",1,1,Vasco,3,"5,10",0,0,0,0,"3,02",0,0,2,0,0,1,0,"5,10",0,0,2,1,0
26,27.064848702022616,Uillian Correia ,10,MEI,"4,79",23,44,Vitória,3,"-2,10",1,0,4,3,"-1,19",0,0,39,1,0,10,0,"2,94",0,0,2,37,0
26,27.064848702022616,Rildo ,6,ATA,"10,49",23,61,Coritiba,3,"10,90",6,0,3,5,"2,20",0,0,21,0,2,84,0,"4,22",0,0,5,25,0
26,27.064848702022616,Lucca ,22,ATA,"20,07",24,65,Ponte Preta,3,"-2,40",7,0,3,10,"-0,61",2,0,23,0,1,83,0,"6,49",0,0,24,27,0
26,27.064848702022616,Júnior Viçosa ,1,ATA,"5,80",1,0,Atlético-GO,2,"1,20",0,0,0,0,"-1,20",0,0,0,0,0,1,0,"1,20",0,0,0,0,0
27,27.064848702022616,Marcelo Cabo ,0,TEC,"3,25",1,0,Atlético-GO,3,"2,60",0,0,0,0,"1,25",0,0,0,0,0,0,0,"2,60",0,0,0,0,0
27,27.064848702022616,Jean ,0,GOL,"11,45",27,0,Bahia,3,"0,00",0,0,0,0,"-0,43",0,0,0,0,0,0,0,"4,09",0,0,0,0,0
27,27.064848702022616,Balbuena ,0,ZAG,"10,29",22,0,Corinthians,3,"0,00",0,0,0,0,"0,04",0,0,0,0,0,0,0,"5,38",0,0,0,0,0
27,27.064848702022616,Lucas Veríssimo ,0,ZAG,"8,31",24,0,Santos,3,"0,00",0,0,0,0,"0,16",0,0,0,0,0,0,0,"4,29",0,0,0,0,0
27,27.064848702022616,Zeca ,0,LAT,"9,89",11,0,Santos,3,"0,00",0,0,0,0,"-1,55",0,0,0,0,0,0,0,"4,35",0,0,0,0,0
27,27.064848702022616,Fabrício ,0,LAT,"5,00",0,0,Cruzeiro,2,"0,00",0,0,0,0,"0,00",0,0,0,0,0,0,0,"0,00",0,0,0,0,0
27,27.064848702022616,Gustavo Scarpa ,0,MEI,"12,32",25,0,Fluminense,3,"0,00",0,0,0,0,"-0,24",0,0,0,0,0,0,0,"3,83",0,0,0,0,0
27,27.064848702022616,Mateus Pet ,0,MEI,"5,02",1,1,Vasco,3,"5,10",0,0,0,0,"3,02",0,0,2,0,0,1,0,"5,10",0,0,0,1,2
27,27.064848702022616,Uillian Correia ,0,MEI,"4,96",24,0,Vitória,3,"0,00",0,0,0,0,"0,17",0,0,0,0,0,0,0,"2,79",0,0,0,0,0
27,27.064848702022616,Rildo ,0,ATA,"8,90",24,0,Coritiba,3,"0,00",0,0,0,0,"-1,59",0,0,0,0,0,0,0,"4,08",0,0,0,0,0
27,27.064848702022616,Lucca ,0,ATA,"20,39",25,0,Ponte Preta,2,"0,00",0,0,0,0,"0,32",0,0,0,0,0,0,0,"6,25",0,0,0,0,0
27,27.064848702022616,Júnior Viçosa ,1,ATA,"5,80",1,0,Atlético-GO,2,"1,20",0,0,0,0,"-1,20",0,0,0,0,0,1,0,"1,20",0,0,0,0,0
28,0.0,Marcelo Cabo ,0,TEC,"3,25",1,0,Atlético-GO,3,"2,60",0,0,0,0,"1,25",0,0,0,0,0,0,0,"2,60",0,0,0,0,0
28,0.0,Fernando Prass ,0,GOL,"15,67",24,0,Palmeiras,3,"0,00",0,0,0,0,"-0,10",0,0,0,0,0,0,0,"4,57",0,0,0,0,0
28,0.0,Marllon ,0,ZAG,"11,81",25,0,Ponte Preta,3,"0,00",0,0,0,0,"0,00",0,0,0,0,0,0,0,"4,18",0,0,0,0,0
28,0.0,Cléber ,0,ZAG,"7,00",0,0,Santos,2,"0,00",0,0,0,0,"0,00",0,0,0,0,0,0,0,"0,00",0,0,0,0,0
28,0.0,Reinaldo ,0,LAT,"12,97",23,0,Chapecoense,3,"0,00",0,0,0,0,"-0,52",0,0,0,0,0,0,0,"4,93",0,0,0,0,0
28,0.0,Jeferson ,0,LAT,"5,43",13,0,Ponte Preta,3,"0,00",0,0,0,0,"0,00",0,0,0,0,0,0,0,"3,76",0,0,0,0,0
28,0.0,Alan Santos ,0,MEI,"5,77",19,0,Coritiba,3,"0,00",0,0,0,0,"1,49",0,0,0,0,0,0,0,"2,27",0,0,0,0,0
28,0.0,Moisés ,0,MEI,"9,72",9,0,Palmeiras,3,"0,00",0,0,0,0,"0,05",0,0,0,0,0,0,0,"4,29",0,0,0,0,0
28,0.0,Willian Arão ,0,MEI,"9,65",21,0,Flamengo,3,"0,00",0,0,0,0,"0,11",0,0,0,0,0,0,0,"3,74",0,0,0,0,0
28,0.0,Luan ,0,ATA,"20,87",15,0,Grêmio,1,"0,00",0,0,0,0,"0,00",0,0,0,0,0,0,0,"7,37",0,0,0,0,0
28,0.0,Jô ,0,ATA,"12,02",25,0,Corinthians,3,"0,00",0,0,0,0,"-2,12",0,0,0,0,0,0,0,"4,25",0,0,0,0,0
28,0.0,Ángel Romero ,0,ATA,"11,98",21,0,Corinthians,3,"0,00",0,0,0,0,"0,80",0,0,0,0,0,0,0,"3,73",0,0,0,0,0
29,25.932607808857806,Marcelo Cabo ,0,TEC,"3,25",1,0,Atlético-GO,3,"2,60",0,0,0,0,"1,25",0,0,0,0,0,0,0,"2,60",0,0,0,0,0
29,25.932607808857806,Fernando Prass ,0,GOL,"15,40",25,9,Palmeiras,3,"5,50",0,0,0,0,"-0,27",0,43,1,0,0,6,7,"4,61",27,2,1,0,0
29,25.932607808857806,Marllon ,3,ZAG,"11,30",26,42,Ponte Preta,3,"-0,10",1,0,0,0,"-0,51",0,0,39,1,0,29,9,"4,02",0,4,0,16,2
29,25.932607808857806,Cléber ,0,ZAG,"7,00",0,0,Santos,2,"0,00",0,0,0,0,"0,00",0,0,0,0,0,0,0,"0,00",0,0,0,0,0
29,25.932607808857806,Reinaldo ,11,LAT,"13,85",24,108,Chapecoense,3,"9,00",1,0,0,4,"0,88",0,0,45,0,4,21,6,"5,10",0,6,0,33,7
29,25.932607808857806,Trauco ,7,LAT,"6,52",19,72,Flamengo,3,"3,70",0,1,3,1,"-0,18",0,0,23,1,0,8,7,"2,60",0,0,3,31,0
29,25.932607808857806,Alan Santos ,8,MEI,"4,77",20,47,Coritiba,3,"-0,40",2,0,3,0,"-1,00",0,0,36,1,0,11,0,"2,14",0,0,4,32,0
29,25.932607808857806,Moisés ,3,MEI,"9,14",10,47,Palmeiras,3,"4,20",0,0,0,1,"-0,58",0,0,17,1,1,21,0,"4,28",0,1,0,10,6
29,25.932607808857806,Willian Arão ,4,MEI,"9,24",22,53,Flamengo,3,"2,00",1,0,2,1,"-0,41",0,0,45,1,2,15,0,"3,66",0,0,3,21,0
29,25.932607808857806,Luan ,15,ATA,"19,86",16,79,Grêmio,1,"1,70",3,0,1,5,"-1,01",1,0,22,0,6,38,0,"7,02",0,0,15,18,0
29,25.932607808857806,Jô ,17,ATA,"11,93",26,56,Corinthians,3,"-0,60",30,0,0,13,"-0,09",1,0,8,0,2,28,0,"4,06",0,3,0,47,17
29,25.932607808857806,Ángel Romero ,6,ATA,"12,83",22,82,Corinthians,3,"8,30",13,0,0,2,"0,85",0,0,45,0,2,65,0,"3,94",0,8,0,29,9
30,21.71179160654161,Vagner Mancini ,0,TEC,"6,51",1,0,Chapecoense,3,"2,20",0,0,0,0,"-0,49",0,0,0,0,0,0,0,"2,20",0,0,0,0,0
30,21.71179160654161,Jean ,0,GOL,"11,25",30,25,Bahia,3,"-1,50",0,0,2,0,"-0,02",0,52,0,0,0,3,9,"3,92",40,0,0,1,1
30,21.71179160654161,Maicon ,1,ZAG,"10,54",1,5,São Paulo,3,"0,90",0,0,0,0,"-3,46",0,0,1,0,0,0,0,"0,90",0,0,0,0,0
30,21.71179160654161,Oswaldo Henríquez ,4,ZAG,"4,57",15,21,Sport,3,"-2,60",0,0,4,0,"-0,91",0,0,28,0,0,6,4,"3,50",0,0,2,17,0
30,21.71179160654161,Victor Luis ,7,LAT,"13,38",25,51,Botafogo,3,"9,00",1,0,4,1,"1,34",0,0,45,0,0,26,9,"4,55",0,0,2,24,0
30,21.71179160654161,Jeferson ,3,LAT,"5,18",15,58,Ponte Preta,3,"-0,90",0,0,4,0,"0,20",0,0,17,0,1,7,8,"3,03",0,0,0,17,0
30,21.71179160654161,Alan Santos ,8,MEI,"5,49",21,48,Coritiba,3,"3,80",2,0,0,0,"0,72",0,0,39,1,0,11,0,"2,22",0,3,0,34,4
30,21.71179160654161,Moisés ,3,MEI,"10,99",11,48,Palmeiras,3,"14,20",0,0,1,2,"1,85",0,0,17,1,2,24,0,"5,18",0,0,6,10,0
30,21.71179160654161,Hudson ,10,MEI,"6,90",16,26,Cruzeiro,5,"1,80",1,0,1,1,"-0,56",0,0,32,0,0,17,0,"3,51",0,0,1,25,0
30,21.71179160654161,Ricardo Oliveira ,14,ATA,"11,81",16,21,Santos,3,"10,10",9,0,1,6,"0,45",0,0,3,1,0,15,0,"3,97",0,0,13,21,0
30,21.71179160654161,Arthur  ,23,ATA,"12,22",27,57,Chapecoense,3,"7,70",9,0,5,6,"0,06",0,0,26,1,6,55,0,"4,83",0,0,16,46,0
30,21.71179160654161,Fred ,12,ATA,"14,45",22,48,Atlético-MG,3,"5,00",12,0,5,7,"0,02",2,0,5,1,3,46,0,"2,84",0,0,7,43,0
31,25.703002575448238,Mano Menezes ,0,TEC,"12,52",30,0,Cruzeiro,3,"2,98",0,0,0,0,"-0,13",0,0,0,0,0,0,0,"3,71",0,0,0,0,0
31,25.703002575448238,Aranha ,0,GOL,"15,07",28,10,Ponte Preta,3,"23,00",0,0,2,0,"4,05",0,47,1,0,0,3,11,"4,23",37,0,0,0,0
31,25.703002575448238,Murilo ,8,ZAG,"2,04",19,43,Cruzeiro,3,"-1,40",1,0,0,0,"-0,40",0,0,15,0,0,8,7,"2,13",0,2,0,25,0
31,25.703002575448238,Durval ,0,ZAG,"6,10",17,27,Sport,3,"0,00",1,0,0,0,"0,00",0,0,21,0,1,11,4,"3,04",0,1,0,16,4
31,25.703002575448238,Egídio ,2,LAT,"8,21",19,82,Palmeiras,3,"1,30",2,0,0,1,"0,14",0,0,45,0,1,24,8,"5,60",0,3,0,18,4
31,25.703002575448238,César ,0,LAT,"1,00",0,0,Atlético-MG,2,"0,00",0,0,0,0,"0,00",0,0,0,0,0,0,0,"0,00",0,0,0,0,0
31,25.703002575448238,José Welison ,1,MEI,"4,89",1,0,Vitória,3,"9,90",0,0,0,1,"0,89",0,0,1,0,0,0,0,"9,90",0,0,0,1,0
31,25.703002575448238,Luiz Otávio ,0,MEI,"2,00",0,0,Atlético-PR,2,"0,00",0,0,0,0,"0,00",0,0,0,0,0,0,0,"0,00",0,0,0,0,0
31,25.703002575448238,Juninho ,19,MEI,"11,03",23,82,Bahia,3,"7,10",0,0,0,2,"0,62",0,0,33,1,2,15,0,"3,02",0,2,0,42,13
31,25.703002575448238,Dudu ,6,ATA,"16,64",19,75,Palmeiras,3,"4,30",7,0,0,6,"-2,58",0,0,18,0,2,79,0,"5,23",0,4,0,18,10
31,25.703002575448238,David ,19,ATA,"4,93",29,74,Vitória,3,"-0,80",14,0,0,4,"-1,33",0,0,22,3,5,16,0,"2,70",0,5,0,38,10
31,25.703002575448238,Jael ,4,ATA,"3,45",7,9,Grêmio,3,"-2,00",5,0,0,0,"-0,15",0,0,0,0,1,10,0,"0,16",0,2,0,7,1
32,26.887929180571014,Fábio Carille ,0,TEC,"11,81",31,0,Corinthians,3,"3,34",0,0,0,0,"0,32",0,0,0,0,0,0,0,"4,11",0,0,0,0,0
32,26.887929180571014,Vanderlei ,0,GOL,"21,73",31,10,Santos,3,"1,50",0,0,2,0,"0,41",0,70,0,0,0,6,16,"8,38",23,0,0,2,3
32,26.887929180571014,Lucas Veríssimo ,5,ZAG,"8,16",29,45,Santos,3,"3,10",1,0,7,0,"0,27",0,0,36,0,0,17,16,"4,17",0,0,6,21,0
32,26.887929180571014,Durval ,0,ZAG,"5,87",18,29,Sport,3,"-0,90",1,0,2,0,"-0,23",0,0,22,0,1,12,4,"2,82",0,0,4,17,0
32,26.887929180571014,Egídio ,5,LAT,"8,80",20,85,Palmeiras,3,"4,50",2,0,4,1,"0,59",0,0,49,0,1,25,8,"5,54",0,0,4,22,0
32,26.887929180571014,César ,0,LAT,"1,00",0,0,Atlético-MG,2,"0,00",0,0,0,0,"0,00",0,0,0,0,0,0,0,"0,00",0,0,0,0,0
32,26.887929180571014,José Welison ,2,MEI,"2,96",2,0,Vitória,3,"-2,30",0,0,0,1,"-1,93",0,0,1,0,0,0,0,"3,80",0,0,0,7,0
32,26.887929180571014,Luiz Otávio ,0,MEI,"2,00",0,0,Atlético-PR,2,"0,00",0,0,0,0,"0,00",0,0,0,0,0,0,0,"0,00",0,0,0,0,0
32,26.887929180571014,Juninho ,19,MEI,"10,65",24,85,Bahia,3,"4,00",0,0,2,2,"-0,38",0,0,35,1,2,16,0,"3,06",0,0,14,42,0
32,26.887929180571014,Dudu ,6,ATA,"16,79",20,78,Palmeiras,3,"4,60",7,0,5,6,"0,15",0,0,18,0,3,84,0,"5,20",0,0,10,18,0
32,26.887929180571014,David ,21,ATA,"5,79",30,76,Vitória,3,"4,20",15,0,5,4,"0,86",0,0,24,3,5,17,0,"2,75",0,0,10,38,0
32,26.887929180571014,Jael ,4,ATA,"3,81",8,12,Grêmio,3,"0,30",5,0,2,0,"0,36",0,0,1,0,1,10,0,"0,18",0,0,1,8,0
33,4.543166738377692,Jair Ventura ,0,TEC,"12,11",33,0,Botafogo,3,"0,00",0,0,0,0,"0,21",0,0,0,0,0,0,0,"4,15",0,0,0,0,0
33,4.543166738377692,Renan Ribeiro ,0,GOL,"8,90",20,0,São Paulo,2,"0,00",0,0,0,0,"0,00",0,0,0,0,0,0,0,"2,06",0,0,0,0,0
33,4.543166738377692,Pedro Geromel ,0,ZAG,"13,12",18,0,Grêmio,3,"0,00",0,0,0,0,"0,00",0,0,0,0,0,0,0,"6,55",0,0,0,0,0
33,4.543166738377692,Douglas Grolli ,0,ZAG,"5,79",18,0,Chapecoense,5,"0,00",0,0,0,0,"0,00",0,0,0,0,0,0,0,"0,74",0,0,0,0,0
33,4.543166738377692,Fabiano ,0,LAT,"4,32",5,0,Palmeiras,2,"0,00",0,0,0,0,"0,00",0,0,0,0,0,0,0,"1,14",0,0,0,0,0
33,4.543166738377692,Jeferson ,0,LAT,"5,58",18,0,Ponte Preta,3,"0,00",0,0,0,0,"0,39",0,0,0,0,0,0,0,"3,08",0,0,0,0,0
33,4.543166738377692,Lucas Lima ,0,MEI,"4,82",23,0,Santos,3,"0,00",0,0,0,0,"-0,76",0,0,0,0,0,0,0,"2,41",0,0,0,0,0
33,4.543166738377692,Ramiro ,0,MEI,"16,72",23,0,Grêmio,3,"0,00",0,0,0,0,"0,34",0,0,0,0,0,0,0,"4,27",0,0,0,0,0
33,4.543166738377692,Nenê ,0,MEI,"14,73",26,0,Vasco,3,"0,00",0,0,0,0,"1,46",0,0,0,0,0,0,0,"3,65",0,0,0,0,0
33,4.543166738377692,Lucca ,0,ATA,"19,88",30,0,Ponte Preta,3,"0,00",0,0,0,0,"0,13",0,0,0,0,0,0,0,"5,54",0,0,0,0,0
33,4.543166738377692,Wellington Paulista ,0,ATA,"10,41",28,0,Chapecoense,3,"0,00",0,0,0,0,"-0,03",0,0,0,0,0,0,0,"2,78",0,0,0,0,0
33,4.543166738377692,Berrío  ,0,ATA,"4,45",20,0,Flamengo,5,"0,00",0,0,0,0,"0,00",0,0,0,0,0,0,0,"0,85",0,0,0,0,0
34,19.954319239758547,Fábio Carille ,0,TEC,"12,13",33,0,Corinthians,3,"5,12",0,0,0,0,"-0,09",0,0,0,0,0,0,0,"4,18",0,0,0,0,0
34,19.954319239758547,Vanderlei ,0,GOL,"20,95",33,11,Santos,3,"-1,30",0,0,2,0,"-0,83",0,73,0,0,0,6,16,"7,89",27,0,0,2,3
34,19.954319239758547,Lucas Veríssimo ,6,ZAG,"7,12",31,50,Santos,3,"-3,20",2,0,8,0,"-1,52",0,0,39,0,0,18,16,"3,97",0,0,7,23,0
34,19.954319239758547,Joel Carli ,4,ZAG,"8,59",24,53,Botafogo,3,"2,40",1,0,0,1,"-0,20",0,0,25,0,2,15,6,"1,97",0,10,0,36,1
34,19.954319239758547,Zeca ,3,LAT,"11,62",14,38,Santos,2,"0,00",0,0,2,0,"0,00",0,0,13,1,1,14,8,"4,41",0,0,2,9,0
34,19.954319239758547,Arnaldo ,1,LAT,"10,05",26,74,Botafogo,3,"7,20",1,0,5,0,"1,37",0,0,57,0,1,41,8,"4,40",0,0,2,36,0
34,19.954319239758547,Guilherme ,9,MEI,"11,37",19,77,Atlético-PR,3,"11,90",3,0,3,5,"1,45",0,0,22,1,5,26,0,"4,56",0,0,8,32,0
34,19.954319239758547,Luiz Otávio ,0,MEI,"2,00",0,0,Atlético-PR,2,"0,00",0,0,0,0,"0,00",0,0,0,0,0,0,0,"0,00",0,0,0,0,0
34,19.954319239758547,Juninho ,19,MEI,"12,12",26,96,Bahia,3,"11,80",0,0,2,2,"0,66",0,0,44,2,3,17,0,"3,60",0,0,14,44,0
34,19.954319239758547,Dudu ,8,ATA,"16,25",22,85,Palmeiras,3,"1,30",7,0,5,7,"-1,50",0,0,19,0,3,88,0,"5,22",0,0,11,20,0
34,19.954319239758547,David ,21,ATA,"6,22",32,83,Vitória,3,"6,70",16,0,5,4,"1,21",0,0,27,3,6,17,0,"2,77",0,0,11,43,0
34,19.954319239758547,Jael ,6,ATA,"3,63",10,13,Grêmio,1,"-0,50",5,0,2,0,"-0,31",0,0,1,0,1,12,0,"0,20",0,0,1,11,0
35,19.954319239758547,Fábio Carille ,0,TEC,"12,15",34,0,Corinthians,3,"4,60",0,0,0,0,"0,02",0,0,0,0,0,0,0,"4,19",0,0,0,0,0
35,19.954319239758547,Vanderlei ,0,GOL,"20,61",34,11,Santos,3,"-3,00",0,0,0,0,"-0,34",0,74,0,0,0,6,16,"7,57",30,2,3,2,0
35,19.954319239758547,Lucas Veríssimo ,6,ZAG,"7,33",32,52,Santos,3,"-1,60",2,0,0,0,"0,21",0,0,39,0,0,19,16,"3,80",0,8,0,26,7
35,19.954319239758547,Joel Carli ,4,ZAG,"8,34",25,53,Botafogo,3,"0,70",1,0,10,1,"-0,25",0,0,26,0,2,16,6,"1,92",0,0,1,39,0
35,19.954319239758547,Zeca ,3,LAT,"11,62",14,38,Santos,2,"0,00",0,0,0,0,"0,00",0,0,13,1,1,14,8,"4,41",0,2,0,9,2
35,19.954319239758547,Arnaldo ,1,LAT,"8,94",27,79,Botafogo,3,"0,00",1,0,0,0,"-1,11",0,0,57,0,1,41,8,"4,24",0,5,0,37,4
35,19.954319239758547,Guilherme ,9,MEI,"9,60",20,84,Atlético-PR,3,"0,30",3,0,0,5,"-1,77",0,0,24,1,5,29,0,"4,35",0,4,0,33,8
35,19.954319239758547,Luiz Otávio ,0,MEI,"2,00",0,0,Atlético-PR,2,"0,00",0,0,0,0,"0,00",0,0,0,0,0,0,0,"0,00",0,0,0,0,0
35,19.954319239758547,Juninho ,19,MEI,"10,92",27,98,Bahia,3,"3,50",0,0,0,2,"-1,20",0,0,47,2,3,17,0,"3,60",0,2,0,46,14
35,19.954319239758547,Dudu ,9,ATA,"19,65",23,88,Palmeiras,3,"20,50",7,0,0,8,"3,40",0,0,20,0,5,90,0,"5,88",0,5,0,20,11
35,19.954319239758547,David ,21,ATA,"6,63",33,88,Vitória,3,"8,20",16,0,0,5,"0,41",0,0,28,3,6,18,0,"2,93",0,5,0,44,11
35,19.954319239758547,Jael ,6,ATA,"3,69",11,15,Grêmio,3,"-0,10",5,0,0,0,"0,06",0,0,1,0,1,13,0,"0,17",0,2,0,11,1
36,25.197929894179893,Claudinei Oliveira ,0,TEC,"8,44",36,0,Avaí,3,"4,71",0,0,0,0,"0,04",0,0,0,0,0,0,0,"3,26",0,0,0,0,0
36,25.197929894179893,Fernando Prass ,0,GOL,"13,73",32,14,Palmeiras,3,"-3,50",0,0,3,0,"-3,22",0,56,1,0,0,9,8,"4,13",39,0,0,1,1
36,25.197929894179893,Marllon ,3,ZAG,"11,10",27,44,Ponte Preta,3,"0,00",1,0,4,0,"0,00",0,0,40,1,0,29,9,"3,91",0,0,2,16,0
36,25.197929894179893,Edu Dracena ,10,ZAG,"8,49",24,12,Palmeiras,3,"0,00",2,0,5,0,"0,00",0,0,21,0,0,29,8,"3,03",0,0,3,26,0
36,25.197929894179893,Fábio Santos ,5,LAT,"5,38",32,105,Atlético-MG,3,"5,20",3,0,8,5,"1,04",0,0,34,0,2,53,8,"3,53",0,0,3,38,0
36,25.197929894179893,Jeferson ,4,LAT,"5,46",21,80,Ponte Preta,3,"0,90",0,0,4,0,"0,30",0,0,21,0,2,11,9,"2,61",0,0,0,24,0
36,25.197929894179893,Douglas ,5,MEI,"5,99",12,34,Fluminense,1,"13,50",1,0,4,1,"1,49",0,0,32,0,0,10,0,"3,65",0,0,3,23,0
36,25.197929894179893,Moisés Ribeiro ,3,MEI,"3,61",21,45,Chapecoense,3,"1,60",0,0,7,0,"-0,10",0,0,39,0,0,36,0,"1,50",0,0,0,55,0
36,25.197929894179893,Jucilei ,7,MEI,"12,75",33,73,São Paulo,3,"0,00",1,1,2,1,"-0,36",0,0,77,0,0,50,0,"3,48",0,0,2,50,0
36,25.197929894179893,Jô ,21,ATA,"12,58",32,70,Corinthians,3,"2,10",32,0,4,17,"-2,27",1,0,8,0,2,39,0,"4,39",0,0,21,52,0
36,25.197929894179893,Vinicius Júnior ,0,ATA,"1,70",1,2,Flamengo,2,"-0,60",0,0,0,0,"-1,30",0,0,0,0,0,0,0,"-0,60",0,0,0,0,0
36,25.197929894179893,Henrique Dourado ,14,ATA,"22,60",28,66,Fluminense,3,"12,70",9,0,0,18,"2,92",0,0,10,0,3,60,0,"5,53",0,7,0,80,17
37,13.780545658796164,Claudinei Oliveira ,0,TEC,"8,65",37,0,Avaí,3,"5,48",0,0,0,0,"0,21",0,0,0,0,0,0,0,"3,32",0,0,0,0,0
37,13.780545658796164,Fernando Prass ,0,GOL,"13,73",32,14,Palmeiras,3,"0,00",0,0,0,0,"0,00",0,56,1,0,0,9,8,"4,13",39,3,1,1,0
37,13.780545658796164,Marllon ,3,ZAG,"11,21",28,44,Ponte Preta,3,"2,20",1,0,0,0,"0,11",0,0,41,1,0,31,9,"3,85",0,4,0,17,2
37,13.780545658796164,Joel Carli ,5,ZAG,"8,64",27,56,Botafogo,3,"2,10",1,0,11,1,"-0,63",0,0,29,0,2,17,7,"2,09",0,0,2,41,0
37,13.780545658796164,Fábio Santos ,5,LAT,"4,57",33,109,Atlético-MG,3,"0,00",4,0,0,5,"-0,81",0,0,35,0,2,53,8,"3,42",0,8,0,38,3
37,13.780545658796164,Jeferson ,4,LAT,"5,17",22,80,Ponte Preta,3,"-0,80",0,0,0,0,"-0,29",0,0,22,0,2,11,9,"2,46",0,5,0,25,0
37,13.780545658796164,Douglas ,5,MEI,"4,56",13,36,Fluminense,1,"3,80",1,0,0,1,"-1,43",0,0,34,0,0,11,0,"3,66",0,4,0,24,4
37,13.780545658796164,Moisés Ribeiro ,3,MEI,"3,57",22,45,Chapecoense,3,"1,20",0,0,0,0,"-0,04",0,0,40,0,0,37,0,"1,49",0,7,0,57,0
37,13.780545658796164,Jucilei ,7,MEI,"13,90",34,74,São Paulo,3,"6,80",1,1,0,1,"1,15",0,0,80,0,0,54,0,"3,58",0,2,0,50,2
37,13.780545658796164,Jô ,23,ATA,"12,54",33,70,Corinthians,2,"1,90",32,0,0,17,"-0,04",1,0,8,0,2,41,0,"4,31",0,4,0,53,21
37,13.780545658796164,Vinicius Júnior ,0,ATA,"1,70",1,2,Flamengo,2,"-0,60",0,0,0,0,"-1,30",0,0,0,0,0,0,0,"-0,60",0,0,0,0,0
37,13.780545658796164,Henrique Dourado ,14,ATA,"20,31",29,66,Fluminense,3,"-1,50",9,0,8,18,"-2,29",0,0,10,0,3,61,0,"5,29",0,0,17,80,0
