round,fitness,name,position,team,situation,price,meatches,average,last_score,difference,disarms,goals,assists,no_goals,fouls_suffered,strikes_out,strikes_defended,strikes_post,difficult_defense,penalty_defense,own_goal,red_card,yellow_card,goal_suffered,penalty_lost,fouls_commited,offsides,wrong_pass
0,0.0,Cuca ,0,TEC,"15,09",1,0,Palmeiras,3,"8,34",0,0,0,0,"2,09",0,0,0,0,0,0,0,"8,34",0,0,0,0,0
0,0.0,Léo ,0,GOL,"2,00",0,0,Grêmio,2,"0,00",0,0,0,0,"0,00",0,0,0,0,0,0,0,"0,00",0,0,0,0,0
0,0.0,Rodrigo ,0,ZAG,"10,00",0,0,Ponte Preta,2,"0,00",0,0,0,0,"0,00",0,0,0,0,0,0,0,"0,00",0,0,0,0,0
0,0.0,Marllon ,0,ZAG,"8,56",1,2,Ponte Preta,3,"6,10",0,0,0,0,"2,56",0,0,1,0,0,0,1,"6,10",0,0,0,0,0
0,0.0,Eduardo ,0,LAT,"3,54",1,4,Bahia,3,"0,00",0,0,0,0,"-1,46",0,0,1,0,0,1,0,"0,00",0,0,0,2,0
0,0.0,Jonathan ,0,LAT,"8,13",1,3,Atlético-PR,3,"2,50",0,0,0,0,"-0,87",0,0,2,0,0,0,0,"2,50",0,0,0,0,0
0,0.0,Seijas ,0,MEI,"7,00",0,0,Chapecoense,2,"0,00",0,0,0,0,"0,00",0,0,0,0,0,0,0,"0,00",0,0,0,0,0
0,0.0,Caio César ,0,MEI,"3,00",0,0,Avaí,2,"0,00",0,0,0,0,"0,00",0,0,0,0,0,0,0,"0,00",0,0,0,0,0
0,0.0,Douglas ,0,MEI,"7,00",0,0,Fluminense,2,"0,00",0,0,0,0,"0,00",0,0,0,0,0,0,0,"0,00",0,0,0,0,0
0,0.0,Fred ,2,ATA,"21,43",1,2,Atlético-MG,3,"6,30",0,0,0,0,"-2,57",0,0,0,0,1,2,0,"6,30",0,0,0,1,0
0,0.0,Keno ,0,ATA,"7,07",1,0,Palmeiras,2,"0,00",0,0,0,0,"-2,93",0,0,0,0,0,0,0,"0,00",0,0,0,0,0
0,0.0,Arthur  ,1,ATA,"4,46",1,3,Chapecoense,3,"2,30",2,0,0,0,"0,46",0,0,0,1,0,1,0,"2,30",0,0,0,1,0
1,22.43,Renato Gaúcho ,0,TEC,"13,53",1,0,Grêmio,3,"6,13",0,0,0,0,"0,53",0,0,0,0,0,0,0,"6,13",0,0,0,0,0
1,22.43,Gabriel Félix ,0,GOL,"2,00",0,0,Vasco,2,"0,00",0,0,0,0,"0,00",0,0,0,0,0,0,0,"0,00",0,0,0,0,0
1,22.43,Ricardo Silva ,1,ZAG,"4,10",1,1,Atlético-GO,3,"0,80",0,0,0,0,"-0,90",0,0,2,0,0,0,0,"0,80",0,1,0,2,0
1,22.43,Dedé ,0,ZAG,"8,63",1,5,Cruzeiro,3,"6,20",0,0,0,0,"2,63",0,0,1,0,0,2,1,"6,20",0,0,0,0,0
1,22.43,Zé Roberto ,0,LAT,"9,27",1,2,Palmeiras,3,"5,10",0,0,0,0,"1,27",0,0,1,0,0,0,1,"5,10",0,0,0,2,0
1,22.43,Júnior Tavares ,1,LAT,"9,90",1,6,São Paulo,3,"6,00",0,0,0,0,"1,90",0,0,3,0,0,2,0,"6,00",0,0,1,0,0
1,22.43,Rodriguinho ,2,MEI,"16,62",1,2,Corinthians,3,"6,50",0,0,0,0,"-0,38",0,0,1,0,1,3,0,"6,50",0,1,0,1,0
1,22.43,Andrei Alba ,0,MEI,"2,00",0,0,Chapecoense,2,"0,00",0,0,0,0,"0,00",0,0,0,0,0,0,0,"0,00",0,0,0,0,0
1,22.43,Arrascaeta ,1,MEI,"8,56",1,9,Cruzeiro,3,"7,10",0,0,0,0,"3,56",0,0,3,0,0,5,0,"7,10",0,0,0,1,2
1,22.43,David ,1,ATA,"3,75",1,3,Vitória,3,"-0,70",1,0,0,0,"-2,25",0,0,0,0,0,1,0,"-0,70",0,0,0,1,0
1,22.43,Willian ,0,ATA,"8,98",1,4,Palmeiras,3,"1,70",0,0,0,0,"-2,02",0,0,2,0,0,0,0,"1,70",0,0,0,1,0
1,22.43,Pedro Rocha ,0,ATA,"8,21",1,2,Grêmio,3,"3,60",0,0,0,0,"0,21",0,0,1,0,0,3,0,"3,60",0,0,0,0,1
2,38.92,Ney Franco ,0,TEC,"2,15",2,0,Sport,3,"1,62",0,0,0,0,"-0,13",0,0,0,0,0,0,0,"0,42",0,0,0,0,0
2,38.92,Vanderlei ,0,GOL,"17,54",2,1,Santos,3,"26,70",0,0,0,0,"8,34",0,6,0,0,0,0,1,"11,85",3,0,0,0,1
2,38.92,Matheus Ferraz ,1,ZAG,"3,90",2,6,Sport,3,"2,20",0,0,0,0,"-0,20",0,0,3,0,0,1,0,"1,00",0,0,0,5,0
2,38.92,Vilson ,0,ZAG,"4,00",0,0,Corinthians,2,"0,00",0,0,0,0,"0,00",0,0,0,0,0,0,0,"0,00",0,0,0,0,0
2,38.92,William Matheus ,1,LAT,"6,49",2,5,Coritiba,3,"5,70",1,0,0,0,"1,47",0,0,3,0,0,4,0,"3,40",0,0,2,2,0
2,38.92,Jean ,1,LAT,"19,24",1,4,Palmeiras,3,"0,00",1,0,0,1,"0,00",0,0,1,0,0,0,1,"15,20",0,0,2,1,0
2,38.92,Fabrício ,0,MEI,"2,12",1,0,Sport,2,"0,00",0,0,0,0,"-0,88",0,0,0,0,0,0,0,"0,00",0,0,0,0,0
2,38.92,João Paulo ,0,MEI,"7,00",0,0,Coritiba,5,"0,00",0,0,0,0,"0,00",0,0,0,0,0,0,0,"0,00",0,0,0,0,0
2,38.92,Felipe Melo ,0,MEI,"11,46",1,3,Palmeiras,3,"0,00",0,0,0,0,"0,00",0,0,3,0,0,1,0,"3,20",0,0,0,3,0
2,38.92,Getterson ,0,ATA,"0,99",1,1,Coritiba,1,"0,40",0,0,0,0,"-0,01",0,0,1,0,0,0,0,"0,40",0,0,0,2,0
2,38.92,Lourency ,0,ATA,"3,00",0,0,Chapecoense,2,"0,00",0,0,0,0,"0,00",0,0,0,0,0,0,0,"0,00",0,0,0,0,0
2,38.92,Borja ,2,ATA,"22,71",1,1,Palmeiras,3,"0,00",2,0,0,2,"0,00",0,0,0,0,0,2,0,"16,10",0,0,0,2,0
3,24.34,Vagner Mancini ,0,TEC,"8,42",3,0,Chapecoense,3,"6,09",0,0,0,0,"1,28",0,0,0,0,0,0,0,"4,09",0,0,0,0,0
3,24.34,Alex Muralha ,0,GOL,"4,08",3,2,Flamengo,3,"4,70",0,0,0,0,"1,06",0,2,0,0,0,2,1,"2,47",2,0,0,0,0
3,24.34,Thiago Martins ,0,ZAG,"5,00",0,0,Palmeiras,5,"0,00",0,0,0,0,"0,00",0,0,0,0,0,0,0,"0,00",0,0,0,0,0
3,24.34,Henrique ,0,ZAG,"9,92",3,7,Fluminense,3,"-1,30",0,0,0,0,"-1,36",0,0,2,1,0,4,0,"1,93",0,0,0,2,0
3,24.34,Edílson ,0,LAT,"12,00",0,0,Grêmio,2,"0,00",0,0,0,0,"0,00",0,0,0,0,0,0,0,"0,00",0,0,0,0,0
3,24.34,Jean ,2,LAT,"16,51",2,10,Palmeiras,3,"-2,40",1,0,0,1,"-2,73",1,0,2,0,0,1,1,"6,40",0,0,2,1,0
3,24.34,Julio dos Santos ,0,MEI,"5,00",0,0,Vasco,2,"0,00",0,0,0,0,"0,00",0,0,0,0,0,0,0,"0,00",0,0,0,0,0
3,24.34,Rodrigo Lindoso ,0,MEI,"10,55",2,6,Botafogo,3,"3,00",0,0,0,1,"-0,67",0,0,7,0,0,2,0,"9,30",0,0,0,1,0
3,24.34,Betinho ,0,MEI,"2,00",0,0,Atlético-GO,2,"0,00",0,0,0,0,"0,00",0,0,0,0,0,0,0,"0,00",0,0,0,0,0
3,24.34,Lucas Barrios ,0,ATA,"11,95",2,2,Grêmio,3,"0,00",2,0,0,1,"0,00",0,0,1,0,1,4,0,"6,30",0,1,0,3,1
3,24.34,Morato ,0,ATA,"3,00",0,0,São Paulo,5,"0,00",0,0,0,0,"0,00",0,0,0,0,0,0,0,"0,00",0,0,0,0,0
3,24.34,Andres Chavez ,0,ATA,"5,70",1,1,São Paulo,2,"1,40",0,0,0,0,"-1,30",0,0,1,0,0,0,0,"1,40",0,0,0,0,0
4,21.426666666666666,Zé Ricardo ,0,TEC,"10,79",4,0,Flamengo,3,"4,39",0,0,0,0,"0,63",0,0,0,0,0,0,0,"4,01",0,0,0,0,0
4,21.426666666666666,Marcelo Grohe ,0,GOL,"10,35",3,1,Grêmio,3,"5,00",0,1,0,0,"0,35",0,0,0,0,0,0,3,"3,23",0,0,0,0,0
4,21.426666666666666,Frazan ,0,ZAG,"2,00",0,0,Fluminense,2,"0,00",0,0,0,0,"0,00",0,0,0,0,0,0,0,"0,00",0,0,0,0,0
4,21.426666666666666,David Braz ,1,ZAG,"9,68",3,12,Santos,3,"-1,20",0,0,1,1,"-1,13",0,0,2,0,0,1,1,"3,67",0,0,0,2,0
4,21.426666666666666,Victor Ferraz ,1,LAT,"7,76",3,9,Santos,3,"1,40",0,0,2,1,"0,38",0,0,0,0,0,2,0,"0,50",0,0,0,3,0
4,21.426666666666666,Renê ,0,LAT,"5,65",2,5,Flamengo,3,"0,00",0,0,0,0,"0,00",0,0,4,0,0,1,0,"2,65",0,0,0,1,0
4,21.426666666666666,Alisson ,1,MEI,"12,31",4,20,Cruzeiro,3,"-1,50",1,0,0,1,"-0,70",0,0,5,0,1,5,0,"4,05",0,0,3,10,0
4,21.426666666666666,Tchê Tchê ,1,MEI,"9,22",4,8,Palmeiras,3,"3,50",0,0,0,0,"0,09",0,0,5,0,1,4,0,"3,20",0,0,2,6,0
4,21.426666666666666,Thomaz ,0,MEI,"3,81",4,1,São Paulo,3,"2,20",1,0,1,0,"0,35",0,0,5,0,0,5,0,"1,80",0,0,0,2,0
4,21.426666666666666,Henrique Dourado ,2,ATA,"26,23",4,13,Fluminense,2,"9,20",1,0,0,6,"0,11",0,0,2,0,1,6,0,"13,60",0,0,2,8,0
4,21.426666666666666,André ,0,ATA,"8,33",3,6,Sport,3,"-0,70",1,0,1,3,"-3,17",0,0,4,0,0,2,0,"8,17",0,0,0,6,0
4,21.426666666666666,Ángel Romero ,0,ATA,"12,67",4,4,Corinthians,2,"6,70",3,0,0,1,"0,85",0,0,7,0,0,15,0,"6,55",0,0,3,3,0
5,27.723333333333336,Renato Gaúcho ,0,TEC,"15,75",5,0,Grêmio,3,"8,10",0,0,0,0,"0,75",0,0,0,0,0,0,0,"6,14",0,0,0,0,0
5,27.723333333333336,Fábio ,0,GOL,"12,59",5,1,Cruzeiro,3,"4,00",0,0,0,0,"0,23",0,7,0,0,0,0,2,"4,44",4,0,0,1,0
5,27.723333333333336,Kannemann ,1,ZAG,"8,81",4,10,Grêmio,3,"-2,10",0,0,0,0,"-1,47",0,0,1,0,0,2,3,"2,48",0,1,0,7,0
5,27.723333333333336,David Braz ,2,ZAG,"10,39",4,16,Santos,3,"4,00",0,0,0,1,"0,71",0,0,2,0,0,1,2,"3,75",0,1,0,3,0
5,27.723333333333336,Diogo Barbosa ,1,LAT,"12,29",5,20,Cruzeiro,3,"6,10",0,0,1,0,"1,18",0,0,12,0,0,5,2,"4,62",0,0,0,5,0
5,27.723333333333336,Renê ,0,LAT,"5,74",3,9,Flamengo,3,"3,20",0,0,0,0,"0,09",0,0,6,0,0,3,0,"2,83",0,0,0,1,0
5,27.723333333333336,Alisson ,1,MEI,"12,16",5,25,Cruzeiro,3,"1,20",1,0,0,1,"-0,15",0,0,6,0,1,8,0,"3,48",0,0,0,11,3
5,27.723333333333336,Tchê Tchê ,1,MEI,"8,67",5,9,Palmeiras,3,"1,20",0,0,0,0,"-0,55",0,0,5,0,1,5,0,"2,80",0,0,0,6,3
5,27.723333333333336,Thomaz ,1,MEI,"7,37",5,3,São Paulo,1,"14,60",1,0,0,1,"3,56",0,0,5,0,1,6,0,"4,36",0,1,0,2,1
5,27.723333333333336,Henrique Dourado ,2,ATA,"26,23",4,13,Fluminense,2,"0,00",1,0,0,6,"0,00",0,0,2,0,1,6,0,"13,60",0,0,0,8,2
5,27.723333333333336,André ,1,ATA,"8,02",4,8,Sport,3,"-0,20",2,0,0,3,"-0,31",0,0,5,0,0,2,0,"6,08",0,1,0,11,1
5,27.723333333333336,Dudu ,0,ATA,"19,48",2,12,Palmeiras,5,"0,00",3,0,0,0,"0,00",0,0,4,0,0,12,0,"4,35",0,0,1,0,0
6,41.43333333333333,Dorival Júnior ,0,TEC,"12,19",1,0,Santos,3,"2,23",0,0,0,0,"-2,81",0,0,0,0,0,0,0,"2,23",0,0,0,0,0
6,41.43333333333333,Fernando Miguel ,0,GOL,"12,36",6,6,Vitória,3,"7,70",0,0,1,0,"0,61",0,13,0,0,0,2,2,"5,70",6,0,0,0,0
6,41.43333333333333,Durval ,0,ZAG,"4,89",5,6,Sport,3,"0,60",0,0,0,0,"-0,80",0,0,4,0,0,2,1,"2,00",0,0,0,2,0
6,41.43333333333333,Marllon ,1,ZAG,"9,40",6,6,Ponte Preta,3,"-0,90",0,0,1,0,"-0,79",0,0,7,0,0,4,2,"3,22",0,0,0,3,0
6,41.43333333333333,Eduardo ,0,LAT,"4,69",6,28,Bahia,3,"2,50",2,0,1,0,"0,21",0,0,9,0,0,4,2,"1,82",0,0,0,10,0
6,41.43333333333333,Jonathan ,0,LAT,"6,05",5,14,Atlético-PR,3,"-0,80",0,0,0,0,"-1,35",0,0,6,0,0,4,0,"1,50",0,0,0,1,0
6,41.43333333333333,Seijas ,3,MEI,"6,32",5,17,Chapecoense,3,"3,00",1,0,0,0,"0,23",0,0,6,0,1,7,0,"2,34",0,0,0,7,0
6,41.43333333333333,Thiago Maia ,4,MEI,"7,96",6,21,Santos,3,"6,60",0,0,2,0,"0,94",0,0,14,0,1,7,0,"3,13",0,0,1,14,0
6,41.43333333333333,Renato ,0,MEI,"6,54",5,6,Santos,3,"1,20",0,0,0,0,"-0,23",0,0,3,0,0,7,0,"1,26",0,0,0,1,0
6,41.43333333333333,Everaldo ,3,ATA,"8,28",6,12,Atlético-GO,3,"0,60",1,0,0,2,"-2,51",0,0,1,0,1,8,0,"4,70",0,0,7,7,0
6,41.43333333333333,Lucca ,3,ATA,"21,96",6,19,Ponte Preta,3,"14,80",2,0,0,5,"2,85",0,0,6,0,1,17,0,"9,77",0,0,4,9,0
6,41.43333333333333,Luis Fabiano ,6,ATA,"15,52",5,7,Vasco,3,"8,90",4,0,2,5,"-0,63",0,0,2,0,1,7,0,"9,50",0,0,4,9,0
7,36.988571428571426,Mano Menezes ,0,TEC,"11,57",7,0,Cruzeiro,3,"1,96",0,0,0,0,"-0,72",0,0,0,0,0,0,0,"3,39",0,0,0,0,0
7,36.988571428571426,Thiago ,0,GOL,"4,92",2,1,Flamengo,3,"11,00",0,0,0,0,"2,45",0,3,0,0,0,0,1,"5,85",1,0,0,0,0
7,36.988571428571426,Tiago  ,0,ZAG,"10,93",7,16,Bahia,3,"7,20",3,0,1,1,"1,55",0,0,7,0,0,5,3,"3,37",0,0,1,13,0
7,36.988571428571426,Werley ,2,ZAG,"8,94",7,15,Coritiba,3,"6,20",0,0,0,0,"1,05",0,0,8,0,0,1,4,"4,36",0,0,0,1,0
7,36.988571428571426,Diogo Barbosa ,1,LAT,"12,21",7,29,Cruzeiro,3,"3,60",0,0,1,0,"-0,24",0,0,15,0,0,9,3,"4,57",0,0,1,8,0
7,36.988571428571426,William Matheus ,1,LAT,"7,93",6,20,Coritiba,3,"0,00",1,0,3,0,"0,00",0,0,8,0,0,14,3,"3,80",0,0,4,10,0
7,36.988571428571426,Maycon ,4,MEI,"7,37",7,22,Corinthians,3,"2,30",0,0,0,1,"-0,24",0,0,11,0,0,2,0,"3,35",0,0,1,3,0
7,36.988571428571426,Diego ,3,MEI,"19,30",4,13,Flamengo,3,"7,20",1,0,0,0,"0,46",0,0,5,0,1,11,0,"3,92",0,0,1,4,0
7,36.988571428571426,Cazares ,4,MEI,"7,64",4,13,Atlético-MG,3,"0,00",0,0,0,0,"0,00",0,0,3,0,1,1,0,"3,12",0,0,5,4,0
7,36.988571428571426,Kelvin ,0,ATA,"5,03",5,9,Vasco,5,"0,00",2,0,0,0,"0,00",0,0,4,0,0,8,0,"1,72",0,0,3,3,0
7,36.988571428571426,Lucca ,5,ATA,"20,08",7,20,Ponte Preta,3,"3,10",2,0,0,5,"-1,88",0,0,6,0,1,19,0,"8,82",0,0,6,11,0
7,36.988571428571426,Keno ,0,ATA,"5,13",7,20,Palmeiras,3,"-0,50",2,0,0,1,"-1,41",0,0,4,1,0,3,0,"1,47",0,0,0,7,1
8,39.52285714285715,Ney Franco ,0,TEC,"2,28",1,0,Sport,3,"-0,77",0,0,0,0,"-1,72",0,0,0,0,0,0,0,"-0,77",0,0,0,0,0
8,39.52285714285715,Vanderlei ,0,GOL,"19,76",8,3,Santos,3,"11,00",0,0,0,0,"-1,39",0,20,0,0,0,0,5,"9,89",6,0,0,0,1
8,39.52285714285715,Marcio ,2,ZAG,"7,42",7,16,Coritiba,3,"2,30",1,0,2,1,"-0,31",0,0,5,0,1,5,5,"5,45",0,0,1,8,0
8,39.52285714285715,Werley ,2,ZAG,"8,45",8,24,Coritiba,3,"2,30",0,0,0,0,"-0,49",0,0,8,0,0,1,5,"4,10",0,0,0,1,0
8,39.52285714285715,Diogo Barbosa ,1,LAT,"10,91",8,34,Cruzeiro,3,"-2,30",0,0,0,0,"-1,30",0,0,16,0,0,9,3,"3,71",0,2,0,9,1
8,39.52285714285715,William Matheus ,1,LAT,"9,32",7,23,Coritiba,3,"9,00",1,0,0,0,"1,39",0,0,10,0,0,17,4,"4,54",0,3,0,10,4
8,39.52285714285715,Xuxa ,0,MEI,"2,44",2,2,Ponte Preta,5,"0,00",0,0,0,0,"0,00",0,0,1,0,0,0,0,"0,55",0,0,0,0,0
8,39.52285714285715,Diego ,4,MEI,"19,87",5,23,Flamengo,3,"8,90",1,0,0,1,"0,57",0,0,6,0,1,15,0,"4,92",0,0,0,5,1
8,39.52285714285715,Cazares ,5,MEI,"8,65",5,16,Atlético-MG,3,"7,80",0,0,0,1,"1,01",0,0,3,0,1,2,0,"4,06",0,0,0,5,5
8,39.52285714285715,Robinho ,3,ATA,"14,70",7,26,Atlético-MG,3,"3,90",6,0,1,1,"0,31",0,0,10,0,1,10,0,"3,26",0,0,1,5,0
8,39.52285714285715,Lucas Pratto ,14,ATA,"16,07",8,28,São Paulo,3,"2,10",1,0,0,3,"-0,02",0,0,4,0,2,5,0,"5,84",0,0,0,11,8
8,39.52285714285715,Everaldo ,7,ATA,"9,91",8,17,Atlético-GO,3,"-0,10",1,0,0,4,"-3,10",1,0,2,1,1,13,0,"6,15",0,0,9,12,0
9,37.81,Claudinei Oliveira ,0,TEC,"5,63",9,0,Avaí,3,"0,24",0,0,0,0,"-0,37",0,0,0,0,0,0,0,"2,12",0,0,0,0,0
9,37.81,Vanderlei ,0,GOL,"21,13",9,3,Santos,3,"14,50",0,0,0,0,"1,37",0,23,0,0,0,1,6,"10,40",6,0,1,0,0
9,37.81,Marcio ,2,ZAG,"7,56",8,17,Coritiba,3,"2,60",1,0,0,1,"0,14",0,0,7,0,1,5,5,"5,09",0,2,0,9,1
9,37.81,Werley ,2,ZAG,"8,44",9,25,Coritiba,3,"2,10",0,0,0,0,"-0,01",0,0,10,0,0,1,5,"3,88",0,0,0,3,0
9,37.81,Diogo Barbosa ,1,LAT,"10,91",8,34,Cruzeiro,3,"0,00",0,0,2,0,"0,00",0,0,16,0,0,9,3,"3,71",0,0,1,9,0
9,37.81,William Matheus ,1,LAT,"8,12",8,25,Coritiba,3,"0,90",1,0,3,0,"-1,20",0,0,10,0,0,20,4,"4,08",0,0,4,10,0
9,37.81,Xuxa ,0,MEI,"2,44",2,2,Ponte Preta,2,"0,00",0,0,0,0,"0,00",0,0,1,0,0,0,0,"0,55",0,0,0,0,0
9,37.81,Diego ,5,MEI,"22,83",6,25,Flamengo,3,"20,60",2,0,0,3,"2,96",0,0,6,0,2,17,0,"7,53",0,0,1,7,0
9,37.81,Luiz Antonio  ,2,MEI,"8,99",9,19,Chapecoense,3,"0,20",1,0,0,2,"-0,27",0,0,5,1,1,2,0,"3,08",0,1,0,11,6
9,37.81,Luan ,8,ATA,"24,80",8,34,Grêmio,3,"14,70",2,0,0,4,"2,77",0,0,11,0,6,18,0,"11,02",0,0,0,14,11
9,37.81,Everaldo ,8,ATA,"9,50",9,23,Atlético-GO,3,"-1,10",2,0,0,4,"-0,41",1,0,2,1,1,14,0,"5,34",0,0,9,12,0
9,37.81,Wellington Nem ,1,ATA,"7,38",5,3,São Paulo,2,"-2,80",2,0,1,1,"-0,87",0,0,2,0,0,6,0,"1,84",0,0,0,4,0
10,19.612976190476182,Zé Ricardo ,0,TEC,"11,40",10,0,Flamengo,3,"0,00",0,0,0,0,"-0,27",0,0,0,0,0,0,0,"4,12",0,0,0,0,0
10,19.612976190476182,Mauricio Kozlinski ,0,GOL,"8,10",9,0,Avaí,2,"0,00",0,0,0,0,"0,00",0,0,0,0,0,0,0,"3,10",0,0,0,0,0
10,19.612976190476182,Pedro Geromel ,0,ZAG,"13,78",8,0,Grêmio,2,"0,00",0,0,0,0,"-0,09",0,0,0,0,0,0,0,"7,78",0,0,0,0,0
10,19.612976190476182,Yerry Mina ,0,ZAG,"15,15",6,0,Palmeiras,4,"0,00",0,0,0,0,"-0,81",0,0,0,0,0,0,0,"5,38",0,0,0,0,0
10,19.612976190476182,Wellington Silva ,0,LAT,"7,00",0,0,Bahia,5,"0,00",0,0,0,0,"0,00",0,0,0,0,0,0,0,"0,00",0,0,0,0,0
10,19.612976190476182,Júnior Tavares ,0,LAT,"12,31",10,0,São Paulo,3,"0,00",0,0,0,0,"-0,23",0,0,0,0,0,0,0,"4,69",0,0,0,0,0
10,19.612976190476182,Jonas ,0,MEI,"7,49",9,0,Coritiba,3,"0,00",0,0,0,0,"0,39",0,0,0,0,0,0,0,"2,85",0,0,0,0,0
10,19.612976190476182,Willian Farias ,0,MEI,"8,41",8,0,Vitória,3,"0,00",0,0,0,0,"-1,36",0,0,0,0,0,0,0,"3,21",0,0,0,0,0
10,19.612976190476182,Allione ,0,MEI,"11,51",9,0,Bahia,3,"0,00",0,0,0,0,"0,69",0,0,0,0,0,0,0,"3,53",0,0,0,0,0
10,19.612976190476182,David ,0,ATA,"3,88",10,0,Vitória,1,"0,00",0,0,0,0,"0,85",0,0,0,0,0,0,0,"1,42",0,0,0,0,0
10,19.612976190476182,Luiz Araújo ,1,ATA,"8,91",1,1,São Paulo,1,"2,60",0,0,0,0,"-1,09",0,0,1,0,0,0,0,"2,60",0,0,1,1,0
10,19.612976190476182,Edigar Junio ,0,ATA,"9,52",10,0,Bahia,3,"0,00",0,0,0,0,"0,06",0,0,0,0,0,0,0,"2,75",0,0,0,0,0
11,26.969069264069265,Guto Ferreira ,0,TEC,"8,76",1,0,Bahia,3,"8,39",0,0,0,0,"4,76",0,0,0,0,0,0,0,"8,39",0,0,0,0,0
11,26.969069264069265,Aranha ,0,GOL,"12,86",11,4,Ponte Preta,3,"11,00",0,0,0,0,"2,73",0,17,0,0,0,2,5,"4,53",13,0,0,0,0
11,26.969069264069265,Léo ,2,ZAG,"8,47",10,26,Cruzeiro,3,"0,10",0,0,0,0,"-1,58",0,0,6,0,1,10,4,"2,43",0,3,0,9,1
11,26.969069264069265,Marllon ,3,ZAG,"12,07",11,20,Ponte Preta,3,"7,00",0,0,2,0,"0,62",0,0,15,1,0,15,5,"4,60",0,0,0,6,0
11,26.969069264069265,Fagner ,0,LAT,"11,91",8,40,Corinthians,3,"1,30",0,0,0,0,"-1,55",0,0,12,0,1,11,7,"5,42",0,3,0,9,0
11,26.969069264069265,Ezequiel  ,1,LAT,"5,86",6,13,Cruzeiro,3,"1,70",0,0,2,0,"-0,37",0,0,11,0,0,6,2,"3,08",0,0,1,14,0
11,26.969069264069265,Thiago Neves ,6,MEI,"18,06",8,34,Cruzeiro,3,"9,60",2,0,1,4,"0,07",0,0,6,0,1,16,0,"6,65",0,0,12,10,0
11,26.969069264069265,Gabriel Xavier ,1,MEI,"4,34",7,13,Vitória,3,"-0,30",1,1,0,1,"-0,38",0,0,6,0,0,7,0,"1,50",0,0,0,9,2
11,26.969069264069265,Lincoln ,0,MEI,"2,86",3,6,Grêmio,3,"0,50",0,0,0,0,"0,04",0,0,0,0,0,6,0,"0,23",0,0,0,1,0
11,26.969069264069265,Fernandinho ,3,ATA,"9,93",7,10,Grêmio,3,"0,50",0,0,0,3,"-0,27",0,0,6,0,0,17,0,"5,54",0,1,0,8,3
11,26.969069264069265,Marcos Calazans ,2,ATA,"6,70",6,17,Fluminense,3,"4,50",2,0,0,0,"0,02",0,0,20,0,2,10,0,"6,30",0,1,0,13,2
11,26.969069264069265,Muriqui ,0,ATA,"3,56",2,2,Vasco,2,"0,00",0,0,0,0,"0,00",0,0,0,0,0,3,0,"0,45",0,0,0,0,0
12,25.74025252525252,Roger Machado  ,0,TEC,"10,88",12,0,Atlético-MG,3,"2,70",0,0,0,0,"-0,16",0,0,0,0,0,0,0,"3,03",0,0,0,0,0
12,25.74025252525252,Aranha ,0,GOL,"11,49",12,4,Ponte Preta,3,"1,70",0,0,0,0,"-1,37",0,17,0,0,0,2,5,"4,29",13,0,0,0,0
12,25.74025252525252,Réver ,1,ZAG,"11,83",10,15,Flamengo,3,"0,00",0,0,1,1,"0,00",0,0,12,0,0,8,4,"4,61",0,0,2,5,0
12,25.74025252525252,Léo ,2,ZAG,"8,77",11,26,Cruzeiro,3,"2,00",0,0,0,0,"0,30",0,0,6,0,1,10,4,"2,39",0,3,0,9,1
12,25.74025252525252,Léo Moura ,2,LAT,"11,81",4,11,Grêmio,5,"0,00",1,0,0,0,"0,00",0,0,5,0,0,6,3,"6,02",0,0,0,2,1
12,25.74025252525252,Mansur ,0,LAT,"5,00",0,0,Sport,2,"0,00",0,0,0,0,"0,00",0,0,0,0,0,0,0,"0,00",0,0,0,0,0
12,25.74025252525252,Renê Júnior ,6,MEI,"9,73",9,20,Bahia,3,"4,80",3,1,0,1,"0,62",0,0,24,0,0,18,0,"5,25",0,2,0,10,2
12,25.74025252525252,Andrigo ,6,MEI,"6,75",12,44,Atlético-GO,3,"8,80",0,0,0,1,"0,36",0,0,15,0,2,8,0,"3,65",0,2,0,11,6
12,25.74025252525252,Luan ,1,MEI,"5,62",11,17,Avaí,3,"-1,30",0,0,0,0,"-0,72",0,0,21,0,0,27,0,"1,92",0,5,0,27,1
12,25.74025252525252,Marcos Calazans ,2,ATA,"7,78",7,17,Fluminense,3,"8,60",2,0,1,0,"1,08",0,0,20,0,2,10,0,"6,63",0,0,2,13,0
12,25.74025252525252,Luiz Araújo ,1,ATA,"8,91",1,1,São Paulo,1,"2,60",0,0,0,0,"-1,09",0,0,1,0,0,0,0,"2,60",0,0,0,1,1
12,25.74025252525252,Paolo Guerrero ,8,ATA,"11,89",8,14,Flamengo,3,"-0,80",6,0,2,4,"-2,43",0,0,9,0,1,20,0,"6,17",0,0,8,29,0
13,23.317157842157844,Rogério Ceni ,0,TEC,"7,39",1,0,São Paulo,3,"2,45",0,0,0,0,"-0,61",0,0,0,0,0,0,0,"2,45",0,0,0,0,0
13,23.317157842157844,Douglas Friedrich ,0,GOL,"6,88",4,0,Avaí,3,"-2,00",0,0,1,0,"-5,35",0,15,0,0,0,1,3,"15,87",0,0,0,0,1
13,23.317157842157844,Marllon ,3,ZAG,"12,10",13,20,Ponte Preta,3,"4,80",0,0,2,0,"0,04",0,0,17,1,0,17,5,"4,68",0,0,1,6,0
13,23.317157842157844,Tiago  ,0,ZAG,"9,75",13,29,Bahia,3,"1,90",5,0,0,1,"0,15",0,0,10,0,0,14,4,"2,39",0,2,0,17,1
13,23.317157842157844,Eduardo ,0,LAT,"0,79",7,14,Atlético-GO,2,"0,00",1,0,1,0,"0,00",0,0,3,0,0,3,0,"-0,66",0,0,0,9,0
13,23.317157842157844,Capa ,4,LAT,"11,49",13,72,Avaí,3,"2,90",4,0,0,0,"-0,48",0,0,23,0,1,30,5,"4,37",0,2,0,13,1
13,23.317157842157844,Cleiton Xavier ,7,MEI,"6,54",11,26,Vitória,3,"2,30",1,0,0,0,"-0,19",0,0,6,0,3,5,0,"2,33",0,0,4,10,0
13,23.317157842157844,Bruno Silva ,7,MEI,"13,04",11,40,Botafogo,3,"0,00",0,0,5,4,"0,00",0,0,21,0,2,19,0,"5,83",0,0,3,18,0
13,23.317157842157844,Mateus Pet ,0,MEI,"5,02",1,1,Vasco,3,"5,10",0,0,0,0,"3,02",0,0,2,0,0,1,0,"5,10",0,0,2,1,0
13,23.317157842157844,Vinicius Júnior ,0,ATA,"1,70",1,2,Flamengo,2,"-0,60",0,0,0,0,"-1,30",0,0,0,0,0,0,0,"-0,60",0,0,0,0,0
13,23.317157842157844,Wellington Paulista ,9,ATA,"9,85",13,24,Chapecoense,3,"-1,60",3,0,2,3,"-0,69",0,0,2,1,0,15,0,"2,54",0,0,10,15,0
13,23.317157842157844,Kayke ,6,ATA,"4,42",11,32,Santos,3,"-1,70",5,0,0,3,"-1,44",0,0,1,0,1,4,0,"2,15",0,0,5,9,0
14,30.627875457875447,Fábio Carille ,0,TEC,"11,62",14,0,Corinthians,3,"4,03",0,0,0,0,"-0,15",0,0,0,0,0,0,0,"4,72",0,0,0,0,0
14,30.627875457875447,Fábio ,0,GOL,"11,86",14,7,Cruzeiro,3,"-2,00",0,0,0,0,"-1,72",0,18,0,0,0,1,5,"3,50",13,0,0,1,0
14,30.627875457875447,Adryelson ,0,ZAG,"2,00",0,0,Sport,2,"0,00",0,0,0,0,"0,00",0,0,0,0,0,0,0,"0,00",0,0,0,0,0
14,30.627875457875447,Lucas Veríssimo ,3,ZAG,"7,52",13,19,Santos,3,"6,10",0,0,0,0,"-0,07",0,0,12,0,0,2,7,"4,19",0,2,0,7,3
14,30.627875457875447,Sidcley ,3,LAT,"14,21",12,47,Atlético-PR,3,"10,00",5,0,0,3,"1,67",0,0,16,0,2,22,3,"6,31",0,1,0,12,1
14,30.627875457875447,Capa ,4,LAT,"11,82",14,77,Avaí,3,"4,30",4,0,2,0,"0,33",0,0,25,0,1,33,5,"4,37",0,0,1,14,0
14,30.627875457875447,Leandro Donizete ,1,MEI,"3,75",6,7,Santos,3,"-2,40",0,0,0,0,"-0,40",0,0,4,0,0,4,0,"-0,17",0,1,0,8,0
14,30.627875457875447,Nenê ,7,MEI,"13,63",12,48,Vasco,3,"3,90",2,0,0,2,"0,94",0,0,7,0,3,28,0,"3,53",0,3,0,10,3
14,30.627875457875447,Cueva ,3,MEI,"9,40",9,34,São Paulo,3,"1,30",2,0,2,0,"-0,43",0,0,13,1,0,12,0,"2,14",0,0,3,7,0
14,30.627875457875447,Luan ,13,ATA,"22,49",12,55,Grêmio,3,"0,40",2,0,1,5,"-2,04",1,0,20,0,6,23,0,"8,92",0,0,13,16,0
14,30.627875457875447,Lucas Pratto ,23,ATA,"15,44",14,41,São Paulo,3,"2,70",2,0,2,4,"-0,95",1,0,5,0,2,12,0,"4,11",0,0,12,18,0
14,30.627875457875447,Willian ,5,ATA,"7,00",13,20,Palmeiras,3,"5,90",5,0,4,2,"0,60",1,0,10,0,1,17,0,"2,30",0,0,5,22,0
15,34.625695970695965,Abel Braga ,0,TEC,"11,74",14,0,Fluminense,3,"1,41",0,0,0,0,"-0,69",0,0,0,0,0,0,0,"3,40",0,0,0,0,0
15,34.625695970695965,Cássio ,0,GOL,"12,79",15,6,Corinthians,3,"5,00",0,0,2,0,"0,77",0,12,0,0,0,4,11,"5,81",7,0,0,0,2
15,34.625695970695965,Rafael Marques ,1,ZAG,"1,19",7,18,Vasco,3,"-3,60",2,0,2,0,"-1,15",0,0,3,1,0,3,1,"0,06",0,0,0,10,0
15,34.625695970695965,Balbuena ,3,ZAG,"10,60",12,23,Corinthians,3,"6,40",2,0,0,2,"0,44",0,0,11,0,0,10,9,"6,33",0,1,0,4,1
15,34.625695970695965,Reinaldo ,4,LAT,"11,77",13,62,Chapecoense,3,"0,00",1,0,0,2,"0,00",0,0,19,0,1,11,3,"3,77",0,2,0,15,3
15,34.625695970695965,Daniel Guedes  ,1,LAT,"3,92",4,8,Santos,3,"0,00",0,2,1,1,"0,00",0,0,9,0,0,2,3,"5,27",0,0,1,11,0
15,34.625695970695965,Rodrigo Lindoso ,2,MEI,"10,31",12,35,Botafogo,3,"1,30",0,0,1,2,"-2,22",0,0,27,0,0,13,0,"4,52",0,0,3,12,0
15,34.625695970695965,Yuri ,0,MEI,"2,00",0,0,Bahia,2,"0,00",0,0,0,0,"0,00",0,0,0,0,0,0,0,"0,00",0,0,0,0,0
15,34.625695970695965,Diego ,10,MEI,"20,08",12,53,Flamengo,3,"2,20",5,0,0,4,"-1,00",1,0,17,0,2,45,0,"6,33",0,0,5,15,0
15,34.625695970695965,Douglas Coutinho  ,5,ATA,"2,74",13,25,Atlético-PR,3,"2,20",3,0,0,0,"0,47",0,0,5,0,1,8,0,"1,16",0,0,0,8,7
15,34.625695970695965,Fred ,7,ATA,"14,85",12,26,Atlético-MG,3,"-1,20",9,0,0,5,"-1,87",1,0,3,1,1,27,0,"3,78",0,2,0,22,4
15,34.625695970695965,Roger ,12,ATA,"9,18",14,31,Botafogo,3,"1,30",14,0,0,6,"-0,57",1,0,8,0,2,17,0,"4,55",0,2,0,16,7
16,20.726728687978692,Jair Ventura ,0,TEC,"11,20",16,0,Botafogo,3,"1,91",0,0,0,0,"-0,37",0,0,0,0,0,0,0,"4,04",0,0,0,0,0
16,20.726728687978692,Marcelo Grohe ,0,GOL,"7,53",12,2,Grêmio,3,"0,40",0,1,1,0,"0,35",0,3,0,0,0,0,6,"1,15",9,0,0,0,0
16,20.726728687978692,Paulão ,6,ZAG,"4,38",14,29,Vasco,3,"-0,30",2,0,4,0,"0,31",0,0,10,0,1,8,3,"1,07",0,0,1,26,0
16,20.726728687978692,Marcio ,3,ZAG,"6,44",14,25,Coritiba,3,"-1,30",1,0,0,1,"-0,57",0,0,12,0,1,6,5,"3,05",0,3,0,15,2
16,20.726728687978692,Bruno Pacheco ,1,LAT,"7,64",14,31,Atlético-GO,3,"1,90",0,0,3,0,"0,24",0,0,14,0,2,33,1,"2,49",0,0,1,17,0
16,20.726728687978692,Guilherme Arana ,1,LAT,"10,50",15,44,Corinthians,3,"5,60",4,0,0,1,"-0,11",0,0,7,0,2,19,11,"5,09",0,3,0,10,2
16,20.726728687978692,Zé Rafael  ,11,MEI,"19,82",15,34,Bahia,3,"5,80",2,0,0,1,"0,04",0,0,34,0,3,40,0,"6,27",0,3,0,30,12
16,20.726728687978692,Jucilei ,5,MEI,"14,00",16,46,São Paulo,3,"-0,40",0,0,0,1,"-0,77",0,0,46,0,0,36,0,"5,09",0,0,1,26,0
16,20.726728687978692,Cárdenas ,0,MEI,"6,00",0,0,Vitória,2,"0,00",0,0,0,0,"0,00",0,0,0,0,0,0,0,"0,00",0,0,0,0,0
16,20.726728687978692,Paolo Guerrero ,8,ATA,"12,26",11,22,Flamengo,3,"1,70",8,0,0,5,"-1,54",0,0,10,0,2,30,0,"5,75",0,3,0,37,9
16,20.726728687978692,Fernandinho ,4,ATA,"11,34",12,20,Grêmio,1,"4,90",0,0,0,4,"-1,49",0,0,8,0,1,30,0,"5,57",0,1,0,11,7
16,20.726728687978692,Fred ,7,ATA,"14,99",13,26,Atlético-MG,3,"0,00",9,0,2,5,"0,14",1,0,3,1,1,27,0,"3,49",0,0,4,22,0
17,20.889162895927605,Fábio Carille ,0,TEC,"11,33",17,0,Corinthians,3,"2,61",0,0,0,0,"-0,46",0,0,0,0,0,0,0,"4,58",0,0,0,0,0
17,20.889162895927605,Jean ,0,GOL,"12,48",17,14,Bahia,3,"5,70",0,0,0,0,"0,80",0,35,0,0,0,1,6,"5,02",22,1,0,0,0
17,20.889162895927605,Geovane ,0,ZAG,"3,00",0,0,Coritiba,5,"0,00",0,0,0,0,"0,00",0,0,0,0,0,0,0,"0,00",0,0,0,0,0
17,20.889162895927605,Pedro Geromel ,3,ZAG,"13,74",13,31,Grêmio,3,"4,80",0,0,0,0,"-0,18",0,0,31,0,2,8,7,"6,74",0,3,0,8,3
17,20.889162895927605,Guilherme Arana ,2,LAT,"9,39",16,49,Corinthians,3,"-0,20",4,0,3,1,"-1,11",0,0,8,0,2,20,12,"4,76",0,0,2,12,0
17,20.889162895927605,Fagner ,1,LAT,"12,30",13,57,Corinthians,3,"4,00",2,0,4,0,"-0,44",0,0,18,0,1,22,10,"4,97",0,0,1,15,0
17,20.889162895927605,Cristian ,0,MEI,"4,00",0,0,Corinthians,2,"0,00",0,0,0,0,"0,00",0,0,0,0,0,0,0,"0,00",0,0,0,0,0
17,20.889162895927605,Flávio ,0,MEI,"2,12",1,0,Vitória,2,"0,00",0,0,0,0,"-0,88",0,0,0,0,0,0,0,"0,00",0,0,0,0,0
17,20.889162895927605,Andrey ,0,MEI,"1,00",0,0,Vasco,2,"0,00",0,0,0,0,"0,00",0,0,0,0,0,0,0,"0,00",0,0,0,0,0
17,20.889162895927605,Fred ,2,ATA,"21,43",1,2,Atlético-MG,3,"6,30",0,0,0,0,"-2,57",0,0,0,0,1,2,0,"6,30",0,0,0,1,0
17,20.889162895927605,James Dean ,0,ATA,"1,00",0,0,Sport,2,"0,00",0,0,0,0,"0,00",0,0,0,0,0,0,0,"0,00",0,0,0,0,0
17,20.889162895927605,Lucca ,15,ATA,"24,02",16,46,Ponte Preta,3,"0,00",6,0,1,10,"0,00",1,0,17,0,1,56,0,"8,67",0,0,17,17,0
18,17.621855742296926,Jair Ventura ,0,TEC,"10,87",18,0,Botafogo,3,"-0,55",0,0,0,0,"-0,83",0,0,0,0,0,0,0,"3,87",0,0,0,0,0
18,17.621855742296926,Vanderlei ,0,GOL,"21,83",17,7,Santos,3,"2,50",0,0,0,0,"-0,88",0,47,0,0,0,3,9,"10,34",13,2,3,1,0
18,17.621855742296926,Marllon ,3,ZAG,"12,02",17,31,Ponte Preta,3,"3,50",0,0,2,0,"-0,20",0,0,24,1,0,20,7,"4,48",0,0,1,6,0
18,17.621855742296926,Airton  ,2,ZAG,"2,11",2,5,Avaí,2,"0,00",0,0,0,0,"0,00",0,0,2,0,0,0,1,"3,40",0,0,0,3,0
18,17.621855742296926,Victor Ferraz ,1,LAT,"9,09",10,31,Santos,3,"0,00",0,0,0,2,"0,00",0,0,7,0,0,9,4,"3,58",0,2,0,8,0
18,17.621855742296926,Edimar ,1,LAT,"4,77",4,17,São Paulo,3,"1,10",0,0,0,0,"-0,37",0,0,7,0,0,7,1,"4,25",0,0,0,2,2
18,17.621855742296926,Renê Júnior ,15,MEI,"11,36",14,40,Bahia,3,"3,20",3,1,0,3,"-0,30",0,0,44,0,0,30,0,"6,66",0,3,0,27,7
18,17.621855742296926,Vinícius Pacheco ,0,MEI,"3,89",1,0,Avaí,2,"0,50",0,0,0,0,"-1,11",0,0,0,0,0,1,0,"0,50",0,0,0,0,0
18,17.621855742296926,Lucas Romero ,5,MEI,"9,47",17,46,Cruzeiro,3,"10,00",0,0,0,1,"1,56",0,0,37,0,2,20,0,"3,91",0,2,0,20,0
18,17.621855742296926,Pedro Rocha ,5,ATA,"9,19",14,35,Grêmio,1,"-1,60",5,0,0,2,"-0,74",0,0,16,1,2,17,0,"4,27",0,0,0,12,10
18,17.621855742296926,Rildo ,4,ATA,"10,36",16,34,Coritiba,3,"12,80",5,0,2,3,"1,86",0,0,17,0,2,50,0,"4,32",0,0,3,16,0
18,17.621855742296926,Kayke ,9,ATA,"4,35",15,37,Santos,2,"-0,50",8,0,0,3,"-0,65",1,0,3,0,1,6,0,"1,59",0,0,7,16,0
19,12.708607609710553,Renato Gaúcho ,0,TEC,"15,81",19,0,Grêmio,3,"5,13",0,0,0,0,"-0,21",0,0,0,0,0,0,0,"4,68",0,0,0,0,0
19,12.708607609710553,Wilson ,0,GOL,"14,14",19,12,Coritiba,3,"7,40",0,0,2,0,"-0,57",0,38,0,0,0,3,6,"4,99",25,0,0,0,1
19,12.708607609710553,Marcio ,3,ZAG,"7,08",17,31,Coritiba,3,"3,60",1,0,3,1,"0,57",0,0,13,0,1,8,6,"2,76",0,0,2,21,0
19,12.708607609710553,Tiago  ,0,ZAG,"8,53",18,39,Bahia,3,"-3,60",6,0,4,1,"-0,91",0,0,15,0,0,21,6,"2,15",0,0,1,27,0
19,12.708607609710553,Mayke ,2,LAT,"7,38",14,28,Palmeiras,5,"0,00",3,0,1,1,"0,00",0,0,21,0,0,8,5,"3,70",0,0,0,21,0
19,12.708607609710553,Capa ,6,LAT,"12,24",18,101,Avaí,3,"7,60",4,0,1,0,"1,64",0,0,40,0,1,44,7,"4,31",0,3,0,29,2
19,12.708607609710553,Everton Felipe ,7,MEI,"4,16",15,85,Sport,3,"-1,70",2,0,0,1,"-0,21",0,0,16,0,2,21,0,"2,04",0,2,0,23,12
19,12.708607609710553,Nenê ,7,MEI,"13,63",12,53,Vasco,2,"0,00",2,0,3,2,"0,00",0,0,9,0,3,31,0,"3,53",0,0,5,13,0
19,12.708607609710553,Matheus Galdezani ,9,MEI,"6,78",18,73,Coritiba,3,"-1,50",1,0,0,1,"-0,26",0,0,27,0,1,34,0,"2,39",0,5,0,38,12
19,12.708607609710553,Ángel Romero ,5,ATA,"11,87",15,54,Corinthians,2,"-0,20",10,0,0,2,"-1,01",0,0,27,0,2,49,0,"4,48",0,5,0,15,6
19,12.708607609710553,Lucca ,16,ATA,"21,36",18,52,Ponte Preta,3,"2,60",6,0,0,10,"-0,24",1,0,18,0,1,64,0,"7,94",0,1,0,20,18
19,12.708607609710553,Yuri ,2,ATA,"1,05",3,1,Ponte Preta,2,"0,00",0,0,0,0,"0,00",0,0,0,0,0,1,0,"0,70",0,0,0,5,3
20,17.879036675398897,Fábio Carille ,0,TEC,"12,42",19,0,Corinthians,2,"0,00",0,0,0,0,"0,00",0,0,0,0,0,0,0,"4,82",0,0,0,0,0
20,17.879036675398897,Vanderlei ,0,GOL,"22,09",19,7,Santos,3,"5,00",0,0,0,0,"-0,38",0,48,0,0,0,3,11,"9,94",13,2,3,1,0
20,17.879036675398897,Lucas Veríssimo ,3,ZAG,"7,73",18,32,Santos,3,"4,70",1,0,4,0,"0,09",0,0,20,0,0,8,11,"4,17",0,0,4,12,0
20,17.879036675398897,Luan ,5,ZAG,"7,24",10,11,Palmeiras,3,"3,10",0,0,0,0,"0,16",0,0,13,0,0,10,4,"4,08",0,1,0,11,1
20,17.879036675398897,Geferson ,1,LAT,"11,19",12,25,Vitória,2,"0,00",2,0,5,0,"0,00",0,0,26,0,0,9,3,"3,12",0,0,1,19,0
20,17.879036675398897,Sidcley ,4,LAT,"14,23",18,64,Atlético-PR,3,"7,70",9,0,1,4,"0,62",0,0,24,0,3,29,7,"5,97",0,0,3,20,0
20,17.879036675398897,Fábio ,0,MEI,"3,00",0,0,Sport,2,"0,00",0,0,0,0,"0,00",0,0,0,0,0,0,0,"0,00",0,0,0,0,0
20,17.879036675398897,Wellington Simião ,7,MEI,"2,19",17,32,Avaí,3,"-1,20",3,0,0,1,"-0,42",0,0,8,1,0,19,0,"0,98",0,3,0,17,3
20,17.879036675398897,Jadson ,3,MEI,"4,69",13,22,Ponte Preta,3,"3,80",0,0,0,0,"0,28",0,0,17,0,0,15,0,"1,72",0,2,0,13,1
20,17.879036675398897,Guilherme ,10,ATA,"7,09",16,30,Botafogo,3,"9,70",0,0,0,2,"1,32",0,0,10,1,1,26,0,"3,37",0,0,7,11,0
20,17.879036675398897,Mendoza ,0,ATA,"2,00",0,0,Corinthians,2,"0,00",0,0,0,0,"0,00",0,0,0,0,0,0,0,"0,00",0,0,0,0,0
20,17.879036675398897,Jô ,10,ATA,"12,75",19,45,Corinthians,2,"0,00",21,0,2,11,"0,00",1,0,6,0,2,23,0,"4,63",0,0,11,36,0
21,15.634486031254607,Abel Braga ,0,TEC,"11,97",19,0,Fluminense,3,"4,20",0,0,0,0,"-0,08",0,0,0,0,0,0,0,"3,35",0,0,0,0,0
21,15.634486031254607,Fernando Prass ,0,GOL,"14,90",17,4,Palmeiras,3,"7,20",0,0,0,0,"1,30",0,28,1,0,0,3,4,"3,89",20,0,0,0,0
21,15.634486031254607,Henrique ,1,ZAG,"8,33",18,32,Fluminense,3,"1,90",0,0,3,0,"-1,11",0,0,18,2,0,23,2,"1,98",0,0,1,19,0
21,15.634486031254607,Wanderson ,0,ZAG,"6,76",12,16,Atlético-PR,3,"5,90",1,0,1,2,"0,39",0,0,8,0,0,3,6,"4,65",0,0,6,8,0
21,15.634486031254607,Madson ,1,LAT,"3,34",4,12,Vasco,2,"0,00",0,0,0,0,"0,00",0,0,2,0,0,7,1,"2,12",0,0,0,1,0
21,15.634486031254607,Thiago Carleto ,3,LAT,"6,03",7,24,Coritiba,3,"8,60",0,0,0,1,"1,42",0,0,6,0,1,6,3,"5,73",0,0,7,6,0
21,15.634486031254607,Otero ,11,MEI,"6,74",12,10,Atlético-MG,2,"0,00",0,0,4,0,"0,00",0,0,8,0,0,21,0,"1,53",0,0,3,11,0
21,15.634486031254607,Cazares ,18,MEI,"9,51",16,56,Atlético-MG,3,"7,30",1,0,0,2,"0,81",1,0,5,0,6,8,0,"3,72",0,0,16,14,0
21,15.634486031254607,Gustavo Scarpa ,16,MEI,"14,00",19,105,Fluminense,3,"14,00",0,0,0,1,"2,06",0,0,18,2,6,34,0,"4,38",0,0,19,16,0
21,15.634486031254607,Willians ,0,ATA,"5,00",0,0,Atlético-GO,2,"0,00",0,0,0,0,"0,00",0,0,0,0,0,0,0,"0,00",0,0,0,0,0
21,15.634486031254607,André ,18,ATA,"10,74",19,48,Sport,3,"3,70",14,0,0,9,"0,67",0,0,17,1,1,32,0,"5,19",0,3,0,42,9
21,15.634486031254607,Copete ,12,ATA,"6,36",16,57,Santos,3,"2,20",7,0,3,5,"-0,07",0,0,11,0,0,21,0,"2,78",0,0,5,23,0
22,27.163503634308586,Fábio Carille ,0,TEC,"11,93",21,0,Corinthians,3,"3,96",0,0,0,0,"0,39",0,0,0,0,0,0,0,"4,67",0,0,0,0,0
22,27.163503634308586,Wilson ,0,GOL,"14,88",22,13,Coritiba,3,"10,50",0,0,2,0,"0,79",0,43,0,0,0,5,7,"5,07",27,0,0,0,1
22,27.163503634308586,David Braz ,5,ZAG,"10,53",18,44,Santos,3,"-3,10",2,1,6,2,"-1,53",0,0,17,0,1,9,11,"4,12",0,0,1,17,0
22,27.163503634308586,Lucas Veríssimo ,3,ZAG,"6,96",20,34,Santos,3,"-1,10",1,0,0,0,"-1,35",0,0,22,0,0,11,12,"4,10",0,5,0,13,4
22,27.163503634308586,Diogo Barbosa ,3,LAT,"12,00",19,75,Cruzeiro,3,"0,30",2,0,4,0,"-0,52",0,0,31,1,2,23,8,"4,22",0,0,2,20,0
22,27.163503634308586,Victor Luis ,3,LAT,"12,15",17,39,Botafogo,3,"3,60",0,0,0,1,"-0,64",0,0,29,0,0,16,7,"4,48",0,3,0,17,0
22,27.163503634308586,Zé Rafael  ,11,MEI,"20,43",21,45,Bahia,3,"9,10",6,0,4,1,"1,42",0,0,53,0,4,65,0,"6,08",0,0,17,46,0
22,27.163503634308586,Edson ,7,MEI,"13,74",10,20,Bahia,3,"5,40",2,1,0,1,"-0,16",0,0,23,0,1,9,0,"4,29",0,1,0,11,1
22,27.163503634308586,Orejuela ,0,MEI,"8,60",17,28,Fluminense,3,"-0,10",0,1,0,0,"-0,43",0,0,23,0,0,23,0,"1,36",0,2,0,20,0
22,27.163503634308586,Marcos Calazans ,3,ATA,"5,76",11,22,Fluminense,5,"0,00",3,0,4,0,"0,00",0,0,28,0,2,14,0,"3,87",0,0,2,20,0
22,27.163503634308586,Filigrana ,1,ATA,"2,29",6,2,Coritiba,2,"0,00",0,0,0,1,"0,00",0,0,3,0,0,1,0,"1,70",0,1,0,5,1
22,27.163503634308586,Bruno Henrique ,8,ATA,"14,07",17,56,Santos,3,"10,00",5,1,3,5,"2,26",0,0,15,1,6,47,0,"5,01",0,0,9,43,0
23,47.16111917494271,Cuca ,0,TEC,"13,71",23,0,Palmeiras,3,"3,06",0,0,0,0,"-0,47",0,0,0,0,0,0,0,"3,86",0,0,0,0,0
23,47.16111917494271,Douglas Friedrich ,0,GOL,"11,10",14,0,Avaí,3,"11,50",0,0,0,0,"0,41",0,38,0,0,0,4,9,"9,83",13,2,1,1,0
23,47.16111917494271,Pablo ,7,ZAG,"10,52",15,19,Corinthians,3,"-0,30",0,0,2,0,"-1,11",0,0,12,0,0,8,10,"4,44",0,0,2,10,0
23,47.16111917494271,Balbuena ,4,ZAG,"11,12",18,40,Corinthians,3,"3,40",3,0,0,3,"0,72",0,0,25,0,1,14,11,"6,36",0,3,0,7,1
23,47.16111917494271,Sidcley ,4,LAT,"13,26",20,69,Atlético-PR,3,"0,00",9,0,0,4,"0,00",0,0,24,0,3,35,8,"5,75",0,1,0,22,5
23,47.16111917494271,Mayke ,2,LAT,"7,41",15,28,Palmeiras,3,"2,90",3,0,0,1,"0,03",0,0,23,0,0,8,5,"3,65",0,1,0,22,0
23,47.16111917494271,João Filipe ,0,MEI,"5,00",0,0,Atlético-GO,2,"0,00",0,0,0,0,"0,00",0,0,0,0,0,0,0,"0,00",0,0,0,0,0
23,47.16111917494271,Nikão ,9,MEI,"8,08",21,70,Atlético-PR,3,"-3,20",2,0,0,2,"-0,71",1,0,18,1,2,34,0,"2,71",0,2,0,20,13
23,47.16111917494271,Alan Santos ,5,MEI,"5,21",15,35,Coritiba,3,"2,30",1,0,0,0,"-1,09",0,0,28,1,0,8,0,"2,41",0,2,0,21,3
23,47.16111917494271,Júnior Dutra ,18,ATA,"9,56",17,48,Avaí,3,"8,10",4,0,2,6,"0,45",0,0,19,2,1,28,0,"5,39",0,0,7,28,0
23,47.16111917494271,Lucas Pratto ,31,ATA,"15,55",22,63,São Paulo,3,"6,80",4,1,0,5,"0,41",1,0,11,0,4,25,0,"3,77",0,2,0,29,18
23,47.16111917494271,Túlio de Melo ,8,ATA,"5,47",15,14,Chapecoense,3,"8,30",0,0,1,4,"1,53",0,0,2,0,0,7,0,"2,30",0,0,5,18,0
24,20.16660437325197,Fábio Carille ,0,TEC,"12,10",23,0,Corinthians,3,"4,91",0,0,0,0,"0,63",0,0,0,0,0,0,0,"4,53",0,0,0,0,0
24,20.16660437325197,Douglas Friedrich ,0,GOL,"10,03",15,1,Avaí,3,"4,20",0,0,2,0,"-1,07",0,40,0,0,0,5,9,"9,45",14,0,0,1,1
24,20.16660437325197,Pablo ,8,ZAG,"11,72",16,21,Corinthians,3,"6,80",0,0,0,0,"1,20",0,0,13,0,0,8,11,"4,59",0,2,0,10,2
24,20.16660437325197,Balbuena ,5,ZAG,"11,77",19,40,Corinthians,3,"6,90",3,0,3,3,"0,65",0,0,26,0,1,14,12,"6,39",0,0,1,8,0
24,20.16660437325197,Gilson ,2,LAT,"9,68",16,21,Botafogo,2,"7,10",1,0,4,0,"1,25",0,0,13,2,1,21,7,"3,65",0,0,0,16,0
24,20.16660437325197,Mayke ,2,LAT,"7,29",16,30,Palmeiras,3,"2,10",3,0,2,1,"-0,12",0,0,24,0,0,9,6,"3,55",0,0,0,27,0
24,20.16660437325197,Zé Rafael  ,12,MEI,"20,24",23,49,Bahia,3,"6,00",7,0,4,2,"-0,87",0,0,57,0,4,73,0,"6,33",0,0,18,48,0
24,20.16660437325197,Edson ,8,MEI,"13,45",12,22,Bahia,3,"2,30",2,1,0,1,"-1,13",0,0,31,0,1,12,0,"4,55",0,1,0,18,1
24,20.16660437325197,Andrei Girotto ,1,MEI,"5,59",1,3,Chapecoense,3,"1,90",0,0,0,0,"-0,41",0,0,3,0,0,0,0,"1,90",0,1,0,2,0
24,20.16660437325197,Maikon Leite ,0,ATA,"2,22",3,0,Bahia,2,"0,00",1,0,0,0,"0,00",0,0,1,0,0,3,0,"0,57",0,0,0,2,0
24,20.16660437325197,Paolo Guerrero ,19,ATA,"13,13",16,39,Flamengo,2,"11,00",11,0,0,6,"2,12",0,0,13,0,2,42,0,"4,73",0,3,0,57,13
24,20.16660437325197,Bruno Henrique ,9,ATA,"14,19",18,58,Santos,3,"0,00",5,1,3,5,"0,00",0,0,16,1,7,51,0,"5,25",0,0,10,44,0
25,27.47953506528469,Mano Menezes ,0,TEC,"12,88",25,0,Cruzeiro,3,"4,11",0,0,0,0,"-0,04",0,0,0,0,0,0,0,"3,88",0,0,0,0,0
25,27.47953506528469,Wilson ,0,GOL,"13,95",25,13,Coritiba,3,"3,00",0,0,2,0,"-0,65",0,52,0,0,0,5,7,"5,14",32,0,0,0,1
25,27.47953506528469,Balbuena ,5,ZAG,"10,71",20,43,Corinthians,3,"0,50",3,0,0,3,"-1,06",0,0,28,0,1,15,12,"6,10",0,4,0,9,1
25,27.47953506528469,Edu Dracena ,5,ZAG,"9,70",15,8,Palmeiras,3,"7,10",2,0,0,0,"0,91",0,0,14,0,0,19,6,"3,37",0,3,0,18,2
25,27.47953506528469,Júnior Tavares ,6,LAT,"11,54",17,57,São Paulo,3,"1,00",0,0,0,0,"-0,58",0,0,22,0,4,35,4,"4,09",0,3,0,17,2
25,27.47953506528469,Leandro Silva ,8,LAT,"8,05",24,105,Avaí,3,"-1,70",2,1,0,0,"-1,45",0,0,32,0,3,21,10,"3,49",0,1,0,32,4
25,27.47953506528469,Jadson ,12,MEI,"8,29",19,101,Corinthians,3,"-0,70",3,0,0,4,"0,00",0,0,9,0,1,11,0,"1,38",0,2,0,14,3
25,27.47953506528469,Bruno Ramires ,0,MEI,"5,00",0,0,Vitória,5,"0,00",0,0,0,0,"0,00",0,0,0,0,0,0,0,"0,00",0,0,0,0,0
25,27.47953506528469,Julio dos Santos ,0,MEI,"5,00",0,0,Vasco,2,"0,00",0,0,0,0,"0,00",0,0,0,0,0,0,0,"0,00",0,0,0,0,0
25,27.47953506528469,Guilherme ,10,ATA,"7,62",20,43,Botafogo,3,"10,20",0,0,0,4,"0,24",0,0,15,1,1,31,0,"3,71",0,1,0,15,8
25,27.47953506528469,Mendoza ,0,ATA,"2,00",0,0,Corinthians,2,"0,00",0,0,0,0,"0,00",0,0,0,0,0,0,0,"0,00",0,0,0,0,0
25,27.47953506528469,Jô ,13,ATA,"12,24",23,52,Corinthians,3,"0,90",27,0,0,12,"-1,18",1,0,6,0,2,25,0,"4,18",0,2,0,42,16
26,21.43353886693017,Jair Ventura ,0,TEC,"12,16",26,0,Botafogo,3,"3,11",0,0,0,0,"-0,24",0,0,0,0,0,0,0,"4,36",0,0,0,0,0
26,21.43353886693017,Vanderlei ,0,GOL,"23,02",25,8,Santos,3,"5,00",0,0,0,0,"-0,64",0,61,0,0,0,4,15,"9,68",16,2,3,1,0
26,21.43353886693017,Léo ,3,ZAG,"8,89",23,51,Cruzeiro,2,"-1,50",0,0,7,1,"-2,40",0,0,16,1,1,12,10,"3,04",0,0,5,15,0
26,21.43353886693017,Joel Carli ,3,ZAG,"8,46",17,44,Botafogo,3,"-0,10",1,0,8,1,"-0,27",0,0,17,0,1,10,5,"1,90",0,0,1,26,0
26,21.43353886693017,Zeca ,3,LAT,"11,44",10,25,Santos,3,"6,60",0,0,0,0,"0,01",0,0,9,1,0,9,7,"5,04",0,1,0,5,2
26,21.43353886693017,Leandro Silva ,8,LAT,"9,27",25,107,Avaí,3,"5,00",2,1,0,0,"1,22",0,0,35,0,3,23,10,"3,55",0,1,0,33,4
26,21.43353886693017,Montillo ,0,MEI,"7,00",0,0,Botafogo,2,"0,00",0,0,0,0,"0,00",0,0,0,0,0,0,0,"0,00",0,0,0,0,0
26,21.43353886693017,Matheus Galdezani ,14,MEI,"9,05",24,95,Coritiba,3,"9,30",1,0,6,1,"1,01",0,0,46,0,1,42,0,"2,98",0,0,13,46,0
26,21.43353886693017,Luiz Fernando  ,5,MEI,"4,94",22,40,Atlético-GO,3,"8,60",7,0,4,5,"0,67",0,0,11,1,1,22,0,"2,37",0,0,6,24,0
26,21.43353886693017,Fernandinho ,11,ATA,"11,75",20,37,Grêmio,3,"0,00",2,0,1,6,"0,00",0,0,20,0,1,61,0,"5,66",0,0,13,22,0
26,21.43353886693017,Henrique Dourado ,9,ATA,"21,24",20,54,Fluminense,3,"-1,20",6,0,4,14,"0,07",0,0,9,0,2,39,0,"5,98",0,0,10,53,0
26,21.43353886693017,Eder Luis ,0,ATA,"2,02",2,1,Vasco,2,"0,00",0,0,0,0,"0,00",0,0,0,0,0,0,0,"-0,15",0,0,0,0,0
27,8.718109074563882,Renato Gaúcho ,0,TEC,"15,29",26,0,Grêmio,3,"0,00",0,0,0,0,"-0,50",0,0,0,0,0,0,0,"4,22",0,0,0,0,0
27,8.718109074563882,Gabriel Batista ,0,GOL,"1,00",0,0,Flamengo,2,"0,00",0,0,0,0,"0,00",0,0,0,0,0,0,0,"0,00",0,0,0,0,0
27,8.718109074563882,Paulão ,0,ZAG,"6,00",0,0,Vasco,2,"0,00",0,0,0,0,"0,00",0,0,0,0,0,0,0,"0,00",0,0,0,0,0
27,8.718109074563882,Roger Carvalho ,0,ZAG,"7,51",19,0,Atlético-GO,5,"0,00",0,0,0,0,"0,00",0,0,0,0,0,0,0,"2,63",0,0,0,0,0
27,8.718109074563882,Guilherme Arana ,0,LAT,"9,20",23,0,Corinthians,3,"0,00",0,0,0,0,"0,17",0,0,0,0,0,0,0,"3,94",0,0,0,0,0
27,8.718109074563882,Bruno Cortez ,0,LAT,"10,66",20,0,Grêmio,3,"0,00",0,0,0,0,"0,00",0,0,0,0,0,0,0,"3,61",0,0,0,0,0
27,8.718109074563882,Diego Souza ,0,MEI,"17,17",17,0,Sport,3,"0,00",0,0,0,0,"3,22",0,0,0,0,0,0,0,"3,92",0,0,0,0,0
27,8.718109074563882,Cafu ,0,MEI,"3,00",0,0,Flamengo,2,"0,00",0,0,0,0,"0,00",0,0,0,0,0,0,0,"0,00",0,0,0,0,0
27,8.718109074563882,Uillian Correia ,0,MEI,"4,96",24,0,Vitória,3,"0,00",0,0,0,0,"0,17",0,0,0,0,0,0,0,"2,79",0,0,0,0,0
27,8.718109074563882,Lucas Pratto ,0,ATA,"14,72",26,0,São Paulo,3,"0,00",0,0,0,0,"-0,55",0,0,0,0,0,0,0,"3,62",0,0,0,0,0
27,8.718109074563882,Copete ,0,ATA,"6,88",21,0,Santos,3,"0,00",0,0,0,0,"0,32",0,0,0,0,0,0,0,"2,97",0,0,0,0,0
27,8.718109074563882,Walter ,0,ATA,"8,83",20,0,Atlético-GO,3,"0,00",0,0,0,0,"-0,37",0,0,0,0,0,0,0,"2,12",0,0,0,0,0
28,0.0,Renato Gaúcho ,0,TEC,"15,61",27,0,Grêmio,3,"0,00",0,0,0,0,"0,32",0,0,0,0,0,0,0,"4,24",0,0,0,0,0
28,0.0,Victor ,0,GOL,"10,82",26,0,Atlético-MG,3,"0,00",0,0,0,0,"-2,18",0,0,0,0,0,0,0,"4,12",0,0,0,0,0
28,0.0,Maicon ,1,ZAG,"10,54",1,5,São Paulo,3,"0,90",0,0,0,0,"-3,46",0,0,1,0,0,0,0,"0,90",0,0,0,0,0
28,0.0,Joel Carli ,0,ZAG,"7,72",19,0,Botafogo,4,"0,00",0,0,0,0,"-1,83",0,0,0,0,0,0,0,"1,81",0,0,0,0,0
28,0.0,Euller  ,0,LAT,"6,31",2,0,Vitória,2,"0,00",0,0,0,0,"0,00",0,0,0,0,0,0,0,"2,35",0,0,0,0,0
28,0.0,Breno ,0,LAT,"1,00",0,0,Atlético-PR,2,"0,00",0,0,0,0,"0,00",0,0,0,0,0,0,0,"0,00",0,0,0,0,0
28,0.0,Gustavo Scarpa ,0,MEI,"12,53",26,0,Fluminense,3,"0,00",0,0,0,0,"0,21",0,0,0,0,0,0,0,"3,83",0,0,0,0,0
28,0.0,Cafu ,0,MEI,"3,00",0,0,Flamengo,2,"0,00",0,0,0,0,"0,00",0,0,0,0,0,0,0,"0,00",0,0,0,0,0
28,0.0,Uillian Correia ,0,MEI,"6,15",25,0,Vitória,3,"0,00",0,0,0,0,"1,19",0,0,0,0,0,0,0,"2,93",0,0,0,0,0
28,0.0,Lucas Pratto ,0,ATA,"16,21",27,0,São Paulo,3,"0,00",0,0,0,0,"1,49",0,0,0,0,0,0,0,"3,87",0,0,0,0,0
28,0.0,Pablo ,0,ATA,"2,07",16,0,Atlético-PR,2,"0,00",0,0,0,0,"0,23",0,0,0,0,0,0,0,"-1,22",0,0,0,0,0
28,0.0,Henrique Dourado ,0,ATA,"22,01",22,0,Fluminense,3,"0,00",0,0,0,0,"0,47",0,0,0,0,0,0,0,"5,75",0,0,0,0,0
29,36.413338164251215,Jair Ventura ,0,TEC,"12,02",29,0,Botafogo,3,"3,33",0,0,0,0,"0,29",0,0,0,0,0,0,0,"4,19",0,0,0,0,0
29,36.413338164251215,Victor ,0,GOL,"11,39",27,18,Atlético-MG,3,"2,40",0,0,0,0,"0,57",0,43,0,0,0,6,6,"4,06",33,4,4,2,0
29,36.413338164251215,David Braz ,6,ZAG,"11,32",23,53,Santos,3,"1,90",2,1,8,2,"-0,93",0,0,28,0,1,13,13,"4,22",0,0,1,21,0
29,36.413338164251215,Juan ,5,ZAG,"5,72",11,14,Flamengo,3,"-1,30",0,0,4,0,"-0,81",0,0,15,1,2,6,2,"3,79",0,0,3,9,0
29,36.413338164251215,Guilherme Arana ,4,LAT,"10,34",25,84,Corinthians,3,"6,40",4,0,4,2,"0,82",0,0,13,0,2,30,15,"3,93",0,0,2,18,0
29,36.413338164251215,Eduardo ,6,LAT,"7,28",27,130,Bahia,3,"5,20",2,0,7,0,"0,22",0,0,50,0,1,30,9,"3,07",0,0,1,37,0
29,36.413338164251215,Jailson ,2,MEI,"4,70",14,15,Grêmio,3,"7,00",1,0,1,0,"1,22",0,0,12,0,1,8,0,"1,20",0,0,0,14,0
29,36.413338164251215,Amaral ,0,MEI,"5,03",1,1,Chapecoense,3,"6,00",0,0,0,0,"0,03",0,0,4,0,0,0,0,"6,00",0,0,0,1,0
29,36.413338164251215,Elton ,6,MEI,"4,63",20,44,Ponte Preta,3,"-2,40",2,1,0,1,"-0,24",0,0,26,0,1,16,0,"1,18",0,4,0,39,1
29,36.413338164251215,Ricardo Oliveira ,13,ATA,"11,36",15,19,Santos,3,"8,50",8,0,1,5,"0,64",0,0,3,1,0,14,0,"3,56",0,0,11,21,0
29,36.413338164251215,Walterson ,0,ATA,"3,32",1,0,Atlético-GO,3,"2,70",0,0,0,0,"1,32",0,0,1,0,0,1,0,"2,70",0,0,1,1,0
29,36.413338164251215,Fernandinho ,13,ATA,"11,41",23,45,Grêmio,3,"1,80",3,0,1,6,"0,47",0,0,22,0,1,67,0,"5,02",0,0,13,27,0
30,36.413338164251215,Jair Ventura ,0,TEC,"12,27",30,0,Botafogo,3,"4,57",0,0,0,0,"0,25",0,0,0,0,0,0,0,"4,20",0,0,0,0,0
30,36.413338164251215,Victor ,0,GOL,"12,71",28,19,Atlético-MG,3,"9,70",0,0,4,0,"1,32",0,47,0,0,0,6,6,"4,26",34,0,0,2,4
30,36.413338164251215,David Braz ,6,ZAG,"11,98",24,55,Santos,3,"5,60",2,1,0,2,"0,66",0,0,29,0,1,13,14,"4,28",0,8,0,22,1
30,36.413338164251215,Juan ,5,ZAG,"5,72",11,14,Flamengo,1,"0,00",0,0,0,0,"0,00",0,0,15,1,2,6,2,"3,79",0,4,0,9,3
30,36.413338164251215,Guilherme Arana ,4,LAT,"10,30",26,88,Corinthians,3,"5,50",4,0,0,2,"-0,04",0,0,14,0,3,30,15,"3,99",0,4,0,18,2
30,36.413338164251215,Eduardo ,6,LAT,"6,90",28,133,Bahia,3,"2,50",2,0,0,0,"-0,38",0,0,52,0,1,31,9,"3,05",0,7,0,40,2
30,36.413338164251215,Jailson ,2,MEI,"3,75",15,18,Grêmio,2,"0,80",1,0,0,0,"-0,95",0,0,13,0,1,8,0,"1,17",0,1,0,14,0
30,36.413338164251215,Amaral ,1,MEI,"4,89",2,2,Chapecoense,3,"4,50",0,0,0,0,"-0,14",0,0,7,0,0,0,0,"5,25",0,0,0,3,0
30,36.413338164251215,Elton ,6,MEI,"4,63",20,44,Ponte Preta,3,"0,00",2,1,4,1,"0,00",0,0,26,0,1,16,0,"1,18",0,0,1,39,0
30,36.413338164251215,Ricardo Oliveira ,14,ATA,"11,81",16,21,Santos,3,"10,10",9,0,0,6,"0,45",0,0,3,1,0,15,0,"3,97",0,1,0,21,13
30,36.413338164251215,Walterson ,0,ATA,"3,32",1,0,Atlético-GO,3,"2,70",0,0,0,0,"1,32",0,0,1,0,0,1,0,"2,70",0,0,0,1,1
30,36.413338164251215,Fernandinho ,13,ATA,"11,41",23,45,Grêmio,2,"0,00",3,0,0,6,"0,00",0,0,22,0,1,67,0,"5,02",0,1,0,27,13
31,21.434627503580003,Jair Ventura ,0,TEC,"12,29",31,0,Botafogo,3,"5,11",0,0,0,0,"0,02",0,0,0,0,0,0,0,"4,23",0,0,0,0,0
31,21.434627503580003,Magrão ,0,GOL,"6,36",27,10,Sport,3,"4,20",0,0,0,0,"-0,07",0,40,2,0,0,2,7,"2,99",38,0,0,0,0
31,21.434627503580003,Betão ,2,ZAG,"7,54",29,60,Avaí,3,"5,20",0,0,7,1,"0,65",0,0,19,0,1,22,11,"2,45",0,0,1,21,0
31,21.434627503580003,Murilo ,8,ZAG,"2,04",19,43,Cruzeiro,3,"-1,40",1,0,2,0,"-0,40",0,0,15,0,0,8,7,"2,13",0,0,0,25,0
31,21.434627503580003,Arnaldo ,1,LAT,"10,28",23,64,Botafogo,3,"8,50",1,0,0,0,"0,50",0,0,49,0,1,37,8,"4,73",0,3,0,30,2
31,21.434627503580003,Samuel Xavier ,2,LAT,"4,32",21,77,Sport,4,"3,00",1,0,5,0,"1,23",0,0,25,0,1,30,7,"2,70",0,0,4,25,0
31,21.434627503580003,Lucho González ,6,MEI,"5,23",19,56,Atlético-PR,3,"-0,20",3,1,7,2,"-1,49",0,0,18,0,1,13,0,"0,71",0,0,3,29,0
31,21.434627503580003,Bruno Ramires ,0,MEI,"5,00",0,0,Vitória,5,"0,00",0,0,0,0,"0,00",0,0,0,0,0,0,0,"0,00",0,0,0,0,0
31,21.434627503580003,Cuéllar ,0,MEI,"6,19",18,29,Flamengo,3,"0,00",0,0,0,0,"0,00",0,0,50,0,0,12,0,"3,96",0,3,0,16,3
31,21.434627503580003,Lucca ,27,ATA,"20,57",28,74,Ponte Preta,3,"6,80",10,0,4,11,"1,00",2,0,25,0,1,86,0,"5,82",0,0,25,35,0
31,21.434627503580003,Rodrigo Pimpão ,14,ATA,"7,40",26,100,Botafogo,3,"0,90",7,0,5,2,"-0,60",0,0,31,0,8,29,0,"3,23",0,0,15,41,0
31,21.434627503580003,Wellington Paulista ,21,ATA,"9,17",26,56,Chapecoense,3,"-0,60",9,0,0,5,"-1,64",0,0,7,2,1,32,0,"2,51",0,5,0,36,20
32,41.363805584780714,Claudinei Oliveira ,0,TEC,"8,06",32,0,Avaí,3,"3,19",0,0,0,0,"-0,17",0,0,0,0,0,0,0,"3,19",0,0,0,0,0
32,41.363805584780714,Douglas Friedrich ,0,GOL,"8,76",23,1,Avaí,3,"-2,00",0,0,0,0,"-0,20",0,51,0,0,0,9,9,"6,45",28,2,1,2,0
32,41.363805584780714,Werley ,7,ZAG,"8,77",20,47,Coritiba,3,"4,70",1,1,1,3,"-0,22",0,0,19,1,0,8,7,"3,94",0,0,2,11,0
32,41.363805584780714,Tiago  ,3,ZAG,"11,13",29,47,Bahia,3,"10,70",6,0,0,2,"2,09",0,0,25,1,0,30,10,"2,91",0,7,0,37,5
32,41.363805584780714,Thiago Carleto ,5,LAT,"9,09",16,62,Coritiba,3,"20,20",1,0,0,2,"2,20",1,0,22,0,6,12,5,"6,10",0,2,0,11,12
32,41.363805584780714,João Pedro  ,1,LAT,"5,08",3,5,Chapecoense,3,"1,80",0,0,0,0,"-0,45",0,0,2,0,0,1,1,"3,03",0,0,0,0,1
32,41.363805584780714,Nenê ,17,MEI,"13,27",25,114,Vasco,3,"7,20",4,0,0,4,"1,27",0,0,18,0,4,63,0,"3,21",0,5,0,26,13
32,41.363805584780714,Bruno Ramires ,0,MEI,"5,00",0,0,Vitória,5,"0,00",0,0,0,0,"0,00",0,0,0,0,0,0,0,"0,00",0,0,0,0,0
32,41.363805584780714,Cuéllar ,0,MEI,"7,01",19,30,Flamengo,3,"11,60",0,0,3,0,"0,82",0,0,57,0,0,14,0,"4,36",0,0,3,18,0
32,41.363805584780714,Lucca ,28,ATA,"19,75",29,76,Ponte Preta,3,"1,30",10,0,0,11,"-0,82",2,0,26,0,1,87,0,"5,66",0,4,0,37,25
32,41.363805584780714,Rodrigo Pimpão ,14,ATA,"9,08",27,101,Botafogo,3,"10,30",7,0,0,2,"1,68",0,0,34,0,9,31,0,"3,49",0,5,0,42,15
32,41.363805584780714,Wellington Paulista ,21,ATA,"10,44",27,57,Chapecoense,3,"6,70",9,0,5,6,"1,27",0,0,7,2,1,34,0,"2,67",0,0,20,40,0
33,0.0,Claudinei Oliveira ,0,TEC,"8,35",33,0,Avaí,3,"0,00",0,0,0,0,"0,29",0,0,0,0,0,0,0,"3,23",0,0,0,0,0
33,0.0,Rafael Fachin ,0,GOL,"1,00",0,0,Coritiba,2,"0,00",0,0,0,0,"0,00",0,0,0,0,0,0,0,"0,00",0,0,0,0,0
33,0.0,Zé Ivaldo ,0,ZAG,"0,92",6,0,Atlético-PR,2,"0,00",0,0,0,0,"0,00",0,0,0,0,0,0,0,"1,70",0,0,0,0,0
33,0.0,Tiago  ,0,ZAG,"9,36",30,0,Bahia,3,"0,00",0,0,0,0,"-1,77",0,0,0,0,0,0,0,"2,80",0,0,0,0,0
33,0.0,Thiago Carleto ,0,LAT,"7,48",17,0,Coritiba,3,"0,00",0,0,0,0,"-1,61",0,0,0,0,0,0,0,"6,24",0,0,0,0,0
33,0.0,Bruno Pacheco ,0,LAT,"8,22",29,0,Atlético-GO,5,"0,00",0,0,0,0,"0,00",0,0,0,0,0,0,0,"3,19",0,0,0,0,0
33,0.0,Ronaldo ,0,MEI,"3,20",1,0,Sport,2,"0,00",0,0,0,0,"0,00",0,0,0,0,0,0,0,"2,30",0,0,0,0,0
33,0.0,João Schmidt  ,0,MEI,"5,45",1,4,São Paulo,2,"1,70",0,0,0,0,"-0,55",0,0,2,0,0,1,0,"1,70",0,0,0,2,0
33,0.0,Jonas ,0,MEI,"8,90",26,0,Coritiba,3,"0,00",0,0,0,0,"-0,86",0,0,0,0,0,0,0,"4,07",0,0,0,0,0
33,0.0,Ricardo Oliveira ,0,ATA,"11,93",19,0,Santos,3,"0,00",0,0,0,0,"0,17",0,0,0,0,0,0,0,"4,14",0,0,0,0,0
33,0.0,Pachu ,0,ATA,"2,00",0,0,Botafogo,2,"0,00",0,0,0,0,"0,00",0,0,0,0,0,0,0,"0,00",0,0,0,0,0
33,0.0,Wellington Paulista ,0,ATA,"10,41",28,0,Chapecoense,3,"0,00",0,0,0,0,"-0,03",0,0,0,0,0,0,0,"2,78",0,0,0,0,0
34,36.23964371978595,Renato Gaúcho ,0,TEC,"15,23",33,0,Grêmio,3,"3,06",0,0,0,0,"-0,69",0,0,0,0,0,0,0,"4,27",0,0,0,0,0
34,36.23964371978595,Douglas Friedrich ,0,GOL,"9,66",25,2,Avaí,3,"4,00",0,0,2,0,"0,32",0,55,0,0,0,9,9,"6,16",31,0,0,2,1
34,36.23964371978595,Betão ,2,ZAG,"6,91",32,61,Avaí,3,"1,20",1,0,0,1,"-0,28",0,0,22,0,1,24,11,"2,35",0,7,0,23,1
34,36.23964371978595,Werley ,7,ZAG,"7,68",22,58,Coritiba,3,"-2,30",1,1,0,4,"-1,70",0,0,20,1,0,9,7,"3,83",0,1,0,14,2
34,36.23964371978595,Caju ,0,LAT,"3,50",3,14,Santos,3,"0,00",0,0,0,0,"0,00",0,0,7,0,0,3,0,"2,40",0,0,0,4,0
34,36.23964371978595,Guilherme Arana ,5,LAT,"11,48",30,98,Corinthians,3,"11,90",4,0,4,2,"0,47",0,0,18,0,4,36,17,"4,22",0,0,3,19,0
34,36.23964371978595,Thiago Neves ,17,MEI,"19,58",29,106,Cruzeiro,3,"19,80",7,0,0,8,"3,03",1,0,24,2,6,44,0,"5,19",0,4,0,29,36
34,36.23964371978595,Thaciano ,0,MEI,"1,00",0,0,Santos,2,"0,00",0,0,0,0,"0,00",0,0,0,0,0,0,0,"0,00",0,0,0,0,0
34,36.23964371978595,Judson ,10,MEI,"4,43",30,60,Avaí,3,"0,10",0,0,0,0,"-0,94",0,0,58,0,1,22,0,"1,87",0,10,0,62,3
34,36.23964371978595,Fernandinho ,16,ATA,"12,12",26,48,Grêmio,3,"8,20",3,0,2,7,"1,66",0,0,22,0,1,73,0,"4,66",0,0,13,36,0
34,36.23964371978595,Rodrigo Pimpão ,16,ATA,"7,80",29,110,Botafogo,3,"2,40",7,0,0,2,"0,29",0,0,36,0,9,33,0,"3,34",0,5,0,45,16
34,36.23964371978595,Douglas Coutinho  ,9,ATA,"2,87",21,34,Atlético-PR,3,"0,00",3,0,0,2,"0,00",0,0,7,0,1,14,0,"1,78",0,0,0,15,10
35,13.021742636746144,Fábio Carille ,0,TEC,"12,15",34,0,Corinthians,3,"4,60",0,0,0,0,"0,02",0,0,0,0,0,0,0,"4,19",0,0,0,0,0
35,13.021742636746144,João Paulo ,0,GOL,"2,97",1,1,Santos,2,"0,00",0,0,0,0,"0,00",0,2,0,0,0,0,1,"10,70",0,0,0,0,0
35,13.021742636746144,Fabrício Bruno ,0,ZAG,"3,95",21,26,Chapecoense,3,"-0,70",0,0,6,1,"-1,10",0,0,23,0,0,16,7,"2,89",0,0,1,21,0
35,13.021742636746144,Tiago  ,3,ZAG,"9,22",32,48,Bahia,3,"-1,30",6,0,8,2,"-1,23",0,0,30,1,0,31,10,"2,79",0,0,5,41,0
35,13.021742636746144,Apodi ,16,LAT,"8,11",31,71,Chapecoense,3,"2,10",2,0,9,1,"-0,80",0,0,38,0,0,59,10,"3,35",0,0,8,54,0
35,13.021742636746144,Daniel Guedes  ,2,LAT,"3,73",15,28,Santos,2,"0,00",0,2,3,1,"0,00",0,0,14,0,1,16,6,"2,59",0,0,1,28,0
35,13.021742636746144,Allione ,2,MEI,"9,09",23,73,Bahia,3,"-1,00",4,0,5,0,"-1,00",0,0,24,1,7,31,0,"2,40",0,0,4,22,0
35,13.021742636746144,Andrezinho ,0,MEI,"7,00",0,0,Vasco,2,"0,00",0,0,0,0,"0,00",0,0,0,0,0,0,0,"0,00",0,0,0,0,0
35,13.021742636746144,Jean ,11,MEI,"12,15",31,60,Vasco,3,"0,00",0,0,9,1,"0,00",0,0,85,0,1,43,0,"4,06",0,0,6,62,0
35,13.021742636746144,Ángel Romero ,9,ATA,"12,00",28,98,Corinthians,3,"1,20",13,0,10,3,"-0,24",0,0,53,0,3,86,0,"4,20",0,0,14,38,0
35,13.021742636746144,Edigar Junio ,7,ATA,"12,16",23,51,Bahia,3,"12,70",1,0,2,12,"-0,58",0,0,15,1,1,41,0,"5,77",0,0,14,34,0
35,13.021742636746144,Luan ,7,ATA,"6,25",15,32,Atlético-MG,2,"0,00",0,0,3,1,"0,00",0,0,10,1,2,17,0,"2,08",0,0,3,16,0
36,17.336352646009907,Fábio Carille ,0,TEC,"11,39",35,0,Corinthians,3,"0,21",0,0,0,0,"-0,76",0,0,0,0,0,0,0,"4,08",0,0,0,0,0
36,17.336352646009907,Diego Cavalieri ,0,GOL,"4,40",14,6,Fluminense,3,"5,00",0,0,0,0,"1,70",0,18,0,0,0,1,2,"1,47",21,0,0,0,0
36,17.336352646009907,Tiago  ,3,ZAG,"9,98",33,49,Bahia,3,"3,60",6,0,8,2,"0,76",0,0,32,1,0,32,10,"2,81",0,0,5,41,0
36,17.336352646009907,Pablo ,15,ZAG,"11,14",24,26,Corinthians,3,"2,90",0,0,2,0,"0,03",0,0,25,0,0,13,13,"4,49",0,0,3,16,0
36,17.336352646009907,Reinaldo ,13,LAT,"13,92",31,137,Chapecoense,3,"5,40",3,0,0,5,"-0,46",0,0,55,0,8,26,9,"5,63",0,6,0,45,11
36,17.336352646009907,Breno Lopes ,0,LAT,"3,00",0,0,Ponte Preta,2,"0,00",0,0,0,0,"0,00",0,0,0,0,0,0,0,"0,00",0,0,0,0,0
36,17.336352646009907,Zé Rafael  ,16,MEI,"20,12",35,80,Bahia,3,"3,50",11,0,5,3,"0,27",0,0,87,0,5,117,0,"6,24",0,0,26,69,0
36,17.336352646009907,Matheus Rossetto ,3,MEI,"5,49",28,53,Atlético-PR,1,"9,10",1,0,5,1,"1,44",0,0,25,0,2,14,0,"1,14",0,0,4,30,0
36,17.336352646009907,Bruno Silva ,19,MEI,"11,58",32,121,Botafogo,3,"-4,20",0,0,0,6,"-0,62",0,0,60,0,5,47,0,"4,30",0,8,0,64,10
36,17.336352646009907,Bruno Henrique ,16,ATA,"14,40",26,90,Santos,3,"7,10",10,1,6,7,"-1,42",0,0,33,1,11,78,0,"6,00",0,0,18,67,0
36,17.336352646009907,Arthur Gomes ,4,ATA,"2,11",10,16,Santos,3,"1,70",0,0,1,1,"0,44",0,0,6,0,0,9,0,"1,67",0,0,2,8,0
36,17.336352646009907,Rildo ,8,ATA,"8,18",32,81,Coritiba,4,"0,00",9,0,0,6,"0,00",0,0,32,0,2,108,0,"3,71",0,6,0,40,8
37,13.021742636746144,Fábio Carille ,0,TEC,"12,26",36,0,Corinthians,3,"5,42",0,0,0,0,"0,87",0,0,0,0,0,0,0,"4,12",0,0,0,0,0
37,13.021742636746144,João Paulo ,0,GOL,"2,97",1,1,Santos,2,"0,00",0,0,0,0,"0,00",0,2,0,0,0,0,1,"10,70",0,0,0,0,0
37,13.021742636746144,Fabrício Bruno ,0,ZAG,"5,01",23,27,Chapecoense,3,"5,00",0,0,6,1,"-0,03",0,0,26,0,0,18,8,"3,11",0,0,1,21,0
37,13.021742636746144,Tiago  ,4,ZAG,"11,00",34,49,Bahia,3,"9,20",6,0,8,2,"1,02",0,0,37,1,0,32,10,"3,00",0,0,5,41,0
37,13.021742636746144,Apodi ,16,LAT,"9,19",33,75,Chapecoense,3,"8,60",2,0,10,1,"1,62",0,0,40,0,0,66,11,"3,38",0,0,10,60,0
37,13.021742636746144,Daniel Guedes  ,2,LAT,"4,39",16,31,Santos,2,"0,00",0,2,3,1,"0,00",0,0,14,0,1,16,7,"2,68",0,0,1,28,0
37,13.021742636746144,Allione ,3,MEI,"9,57",25,81,Bahia,3,"2,50",5,0,5,0,"0,50",0,0,27,1,7,34,0,"2,28",0,0,4,27,0
37,13.021742636746144,Andrezinho ,0,MEI,"7,00",0,0,Vasco,2,"0,00",0,0,0,0,"0,00",0,0,0,0,0,0,0,"0,00",0,0,0,0,0
37,13.021742636746144,Jean ,11,MEI,"10,92",33,60,Vasco,2,"4,60",0,0,10,1,"1,08",0,0,88,0,1,44,0,"3,89",0,0,6,64,0
37,13.021742636746144,Ángel Romero ,9,ATA,"12,11",29,99,Corinthians,2,"0,00",13,0,11,3,"0,00",0,0,53,0,3,91,0,"4,13",0,0,16,38,0
37,13.021742636746144,Edigar Junio ,7,ATA,"9,33",25,53,Bahia,3,"-4,30",1,0,2,12,"-0,74",1,0,15,1,1,43,0,"5,13",0,0,16,41,0
37,13.021742636746144,Luan ,7,ATA,"5,41",17,35,Atlético-MG,2,"-1,10",0,0,3,1,"-0,50",0,0,11,1,2,18,0,"1,88",0,0,3,17,0
