round,fitness,name,position,team,situation,price,meatches,average,last_score,difference,disarms,goals,assists,no_goals,fouls_suffered,strikes_out,strikes_defended,strikes_post,difficult_defense,penalty_defense,own_goal,red_card,yellow_card,goal_suffered,penalty_lost,fouls_commited,offsides,wrong_pass
0,0.0,Guto Ferreira ,0,TEC,"8,76",1,0,Bahia,3,"8,39",0,0,0,0,"4,76",0,0,0,0,0,0,0,"8,39",0,0,0,0,0
0,0.0,Giovanni ,0,GOL,"6,00",0,0,Atlético-MG,2,"0,00",0,0,0,0,"0,00",0,0,0,0,0,0,0,"0,00",0,0,0,0,0
0,0.0,Salazar ,0,ZAG,"3,00",0,0,Avaí,2,"0,00",0,0,0,0,"0,00",0,0,0,0,0,0,0,"0,00",0,0,0,0,0
0,0.0,Igor ,0,ZAG,"5,80",1,2,Sport,3,"6,20",0,0,0,0,"3,80",0,0,4,0,0,2,0,"6,20",0,0,0,2,0
0,0.0,Moraes ,0,LAT,"1,00",0,0,Flamengo,2,"0,00",0,0,0,0,"0,00",0,0,0,0,0,0,0,"0,00",0,0,0,0,0
0,0.0,Emanuel ,0,LAT,"1,00",0,0,Atlético-MG,2,"0,00",0,0,0,0,"0,00",0,0,0,0,0,0,0,"0,00",0,0,0,0,0
0,0.0,Marquinhos ,0,MEI,"4,95",1,9,Avaí,3,"-1,00",0,0,0,0,"-3,05",0,0,1,0,0,0,0,"-1,00",0,0,0,0,0
0,0.0,Fernandes ,0,MEI,"5,00",0,0,Botafogo,2,"0,00",0,0,0,0,"0,00",0,0,0,0,0,0,0,"0,00",0,0,0,0,0
0,0.0,Rodrigo Figueiredo ,0,MEI,"1,00",0,0,Corinthians,2,"0,00",0,0,0,0,"0,00",0,0,0,0,0,0,0,"0,00",0,0,0,0,0
0,0.0,Pedro ,0,ATA,"5,00",0,0,Fluminense,2,"0,00",0,0,0,0,"0,00",0,0,0,0,0,0,0,"0,00",0,0,0,0,0
0,0.0,Niltinho ,0,ATA,"6,00",0,0,Chapecoense,2,"0,00",0,0,0,0,"0,00",0,0,0,0,0,0,0,"0,00",0,0,0,0,0
0,0.0,Paulinho ,1,ATA,"6,15",1,5,Vitória,3,"2,70",0,0,0,0,"0,15",0,0,0,1,0,0,0,"2,70",0,0,0,0,0
1,29.35,Zé Ricardo ,0,TEC,"9,51",1,0,Flamengo,3,"2,45",0,0,0,0,"-1,49",0,0,0,0,0,0,0,"2,45",0,0,0,0,0
1,29.35,Luiz Felipe ,0,GOL,"2,00",0,0,Chapecoense,2,"0,00",0,0,0,0,"0,00",0,0,0,0,0,0,0,"0,00",0,0,0,0,0
1,29.35,Igor Rabello ,0,ZAG,"6,37",1,1,Botafogo,3,"6,00",0,0,0,0,"3,37",0,0,4,0,0,0,0,"6,00",0,0,0,1,0
1,29.35,Felipe Santana ,1,ZAG,"5,73",1,1,Atlético-MG,3,"1,10",0,0,0,0,"-1,27",0,0,1,0,0,0,0,"1,10",0,0,0,2,0
1,29.35,Dodô ,1,LAT,"7,36",1,3,Coritiba,3,"4,40",0,0,0,0,"1,36",0,0,3,0,0,0,0,"4,40",0,0,0,1,0
1,29.35,Fábio Santos ,0,LAT,"1,49",1,3,Atlético-MG,3,"-2,90",0,0,0,0,"-3,51",0,0,0,0,0,1,0,"-2,90",0,1,0,1,0
1,29.35,Everton ,0,MEI,"12,87",1,4,Flamengo,3,"7,20",0,0,1,0,"1,87",0,0,2,0,1,2,0,"7,20",0,0,1,0,0
1,29.35,Matheus Sávio ,1,MEI,"11,39",1,0,Flamengo,3,"12,10",0,0,0,1,"7,39",0,0,2,0,0,0,0,"12,10",0,0,0,0,0
1,29.35,Alejandro Guerra ,0,MEI,"14,92",1,6,Palmeiras,3,"10,10",0,0,0,1,"3,92",0,0,2,0,0,1,0,"10,10",0,0,0,2,1
1,29.35,Ángel Romero ,0,ATA,"8,13",1,2,Corinthians,3,"6,50",0,0,0,0,"3,13",0,0,3,0,0,2,0,"6,50",0,0,1,0,0
1,29.35,Júnior Dutra ,1,ATA,"6,65",1,5,Avaí,3,"2,40",0,0,0,0,"-0,35",0,0,1,0,0,4,0,"2,40",0,0,0,1,0
1,29.35,Patrick ,0,ATA,"1,00",0,0,Sport,2,"0,00",0,0,0,0,"0,00",0,0,0,0,0,0,0,"0,00",0,0,0,0,0
2,35.48,Cuca ,0,TEC,"14,22",2,0,Palmeiras,3,"1,73",0,0,0,0,"-0,87",0,0,0,0,0,0,0,"5,03",0,0,0,0,0
2,35.48,Lucas França ,0,GOL,"3,00",0,0,Cruzeiro,2,"0,00",0,0,0,0,"0,00",0,0,0,0,0,0,0,"0,00",0,0,0,0,0
2,35.48,Neto ,0,ZAG,"5,00",0,0,Chapecoense,5,"0,00",0,0,0,0,"0,00",0,0,0,0,0,0,0,"0,00",0,0,0,0,0
2,35.48,Edu Dracena ,0,ZAG,"9,55",1,0,Palmeiras,3,"0,00",0,0,0,0,"0,00",0,0,0,0,0,2,1,"5,50",0,0,0,1,0
2,35.48,Alan Cardoso ,0,LAT,"2,00",0,0,Vasco,2,"0,00",0,0,0,0,"0,00",0,0,0,0,0,0,0,"0,00",0,0,0,0,0
2,35.48,Jean ,1,LAT,"19,24",1,4,Palmeiras,3,"0,00",1,0,0,1,"0,00",0,0,1,0,0,0,1,"15,20",0,0,2,1,0
2,35.48,Fernando Bob ,0,MEI,"10,12",1,3,Ponte Preta,3,"8,10",0,0,0,0,"1,12",0,0,5,0,0,1,0,"8,10",0,0,0,0,0
2,35.48,Bruno Silva ,1,MEI,"10,65",2,9,Botafogo,3,"14,50",0,0,1,1,"4,85",0,0,6,0,0,4,0,"7,35",0,0,0,3,0
2,35.48,Matheus Cassini ,0,MEI,"2,00",0,0,Ponte Preta,2,"0,00",0,0,0,0,"0,00",0,0,0,0,0,0,0,"0,00",0,0,0,0,0
2,35.48,Léo Natel ,0,ATA,"1,00",0,0,São Paulo,2,"0,00",0,0,0,0,"0,00",0,0,0,0,0,0,0,"0,00",0,0,0,0,0
2,35.48,André Lima ,0,ATA,"8,00",0,0,Vitória,5,"0,00",0,0,0,0,"0,00",0,0,0,0,0,0,0,"0,00",0,0,0,0,0
2,35.48,Lucas Barrios ,0,ATA,"11,95",2,2,Grêmio,3,"9,20",2,0,1,1,"2,47",0,0,1,0,1,4,0,"6,30",0,0,1,3,0
3,30.340000000000003,Milton Mendes ,0,TEC,"8,03",3,0,Vasco,3,"4,92",0,0,0,0,"0,83",0,0,0,0,0,0,0,"4,17",0,0,0,0,0
3,30.340000000000003,Fernando Prass ,0,GOL,"14,18",3,1,Palmeiras,3,"-1,00",0,0,0,0,"-1,90",0,6,0,0,0,1,1,"5,73",3,0,0,0,0
3,30.340000000000003,Rafael Vaz ,1,ZAG,"6,94",3,11,Flamengo,3,"-1,00",0,0,0,0,"-1,29",0,0,3,0,0,1,1,"2,33",0,0,0,2,0
3,30.340000000000003,Lucas Fonseca ,0,ZAG,"2,12",2,2,Bahia,3,"0,20",0,0,0,0,"-0,85",0,0,0,0,0,0,0,"-0,30",0,0,0,2,1
3,30.340000000000003,Bruno Pacheco ,0,LAT,"8,01",3,7,Atlético-GO,3,"1,90",0,0,0,0,"-0,11",0,0,5,0,1,6,0,"3,97",0,0,0,5,0
3,30.340000000000003,Breno ,0,LAT,"1,00",0,0,Atlético-PR,2,"0,00",0,0,0,0,"0,00",0,0,0,0,0,0,0,"0,00",0,0,0,0,0
3,30.340000000000003,Douglas ,5,MEI,"16,23",3,12,Vasco,3,"2,40",0,0,1,0,"-0,90",0,0,7,1,0,7,0,"6,43",0,0,3,1,0
3,30.340000000000003,Maicon ,0,MEI,"12,00",0,0,Grêmio,2,"0,00",0,0,0,0,"0,00",0,0,0,0,0,0,0,"0,00",0,0,0,0,0
3,30.340000000000003,Vitor Bueno ,1,MEI,"11,58",2,5,Santos,3,"4,70",0,0,0,0,"-1,22",0,0,3,0,0,5,0,"3,40",0,0,0,0,0
3,30.340000000000003,Michael ,0,ATA,"2,00",0,0,Fluminense,2,"0,00",0,0,0,0,"0,00",0,0,0,0,0,0,0,"0,00",0,0,0,0,0
3,30.340000000000003,Marcinho ,1,ATA,"5,23",3,8,São Paulo,3,"5,40",0,0,0,0,"1,29",0,0,2,0,2,3,0,"3,90",0,0,1,5,0
3,30.340000000000003,Wellington Paulista ,1,ATA,"10,91",3,4,Chapecoense,3,"7,20",2,0,0,2,"1,74",0,0,1,0,0,2,0,"4,73",0,1,0,2,0
4,24.15,Petkovic ,0,TEC,"5,94",1,0,Vitória,3,"3,39",0,0,0,0,"0,94",0,0,0,0,0,0,0,"3,39",0,0,0,0,0
4,24.15,Gabriel Gasparotto ,0,GOL,"2,00",0,0,Santos,2,"0,00",0,0,0,0,"0,00",0,0,0,0,0,0,0,"0,00",0,0,0,0,0
4,24.15,Pablo ,4,ZAG,"10,89",3,3,Corinthians,3,"6,10",0,0,0,0,"0,74",0,0,1,0,0,0,2,"4,37",0,0,0,1,0
4,24.15,Ricardo Silva ,2,ZAG,"2,94",4,11,Atlético-GO,3,"0,80",0,0,1,0,"0,21",0,0,5,0,0,1,0,"0,28",0,0,0,8,0
4,24.15,Jonathan ,0,LAT,"7,40",4,13,Atlético-PR,2,"5,80",0,0,0,0,"1,40",0,0,6,0,0,4,0,"2,07",0,0,0,0,0
4,24.15,Jean ,2,LAT,"16,51",2,10,Palmeiras,2,"0,00",1,0,0,1,"0,00",1,0,2,0,0,1,1,"6,40",0,0,2,1,0
4,24.15,Diego Gomes ,0,MEI,"1,00",0,0,Santos,2,"0,00",0,0,0,0,"0,00",0,0,0,0,0,0,0,"0,00",0,0,0,0,0
4,24.15,Romulo ,0,MEI,"8,00",0,0,Flamengo,2,"0,00",0,0,0,0,"0,00",0,0,0,0,0,0,0,"0,00",0,0,0,0,0
4,24.15,Renê Júnior ,1,MEI,"9,40",2,8,Bahia,3,"15,30",2,0,0,1,"4,17",0,0,6,0,0,6,0,"8,75",0,0,1,4,0
4,24.15,Borja ,3,ATA,"19,54",3,2,Palmeiras,2,"1,00",2,0,0,2,"-0,70",0,0,0,0,0,2,0,"5,83",0,0,1,2,0
4,24.15,Kleber ,5,ATA,"13,56",4,12,Coritiba,3,"1,40",0,0,0,0,"-0,30",0,0,2,0,1,11,0,"4,33",0,0,7,7,0
4,24.15,Kieza ,2,ATA,"10,78",2,3,Vitória,3,"8,00",3,0,0,1,"1,65",0,0,1,0,0,10,0,"5,35",0,0,0,6,0
5,28.465000000000003,Petkovic ,0,TEC,"5,94",1,0,Vitória,3,"3,39",0,0,0,0,"0,94",0,0,0,0,0,0,0,"3,39",0,0,0,0,0
5,28.465000000000003,Fábio ,0,GOL,"12,59",5,1,Cruzeiro,3,"4,00",0,0,0,0,"0,23",0,7,0,0,0,0,2,"4,44",4,0,0,1,0
5,28.465000000000003,Walisson Maia ,0,ZAG,"5,31",3,3,Coritiba,2,"5,00",0,0,0,0,"0,64",0,0,1,0,0,0,1,"2,10",0,0,0,1,1
5,28.465000000000003,Rodrigo ,1,ZAG,"8,67",3,3,Ponte Preta,3,"1,10",0,0,0,0,"-1,41",0,0,2,0,0,4,1,"3,73",0,0,0,0,1
5,28.465000000000003,Victor Luis ,1,LAT,"12,33",4,6,Botafogo,5,"0,00",0,0,0,0,"0,00",0,0,6,0,0,6,3,"6,15",0,0,0,5,0
5,28.465000000000003,William Matheus ,1,LAT,"8,43",5,16,Coritiba,3,"6,70",1,0,0,0,"1,19",0,0,5,0,0,10,3,"4,08",0,2,0,7,4
5,28.465000000000003,Rodrigo Lindoso ,0,MEI,"9,77",3,9,Botafogo,3,"0,80",0,0,0,1,"-0,78",0,0,8,0,0,3,0,"6,47",0,0,0,2,0
5,28.465000000000003,Yago ,0,MEI,"1,40",2,3,Atlético-MG,3,"-0,20",0,0,0,0,"-0,16",0,0,4,0,0,0,0,"-0,05",0,2,0,6,1
5,28.465000000000003,Tomas Bastos ,3,MEI,"14,79",4,13,Coritiba,3,"0,00",0,0,0,2,"0,00",0,0,4,0,0,3,0,"4,88",0,1,0,8,3
5,28.465000000000003,Wellington Paulista ,3,ATA,"11,12",5,9,Chapecoense,3,"0,60",2,0,2,3,"-1,53",0,0,2,0,0,4,0,"4,86",0,0,3,5,0
5,28.465000000000003,Lucca ,3,ATA,"19,11",5,16,Ponte Preta,3,"2,10",1,0,0,4,"-1,50",0,0,5,0,0,13,0,"8,76",0,0,0,8,4
5,28.465000000000003,Everton ,1,ATA,"12,73",2,3,Grêmio,2,"24,70",0,0,0,3,"5,55",0,0,1,1,0,1,0,"16,25",0,0,0,0,3
6,15.68,Fábio Carille ,0,TEC,"10,16",6,0,Corinthians,3,"4,01",0,0,0,0,"0,05",0,0,0,0,0,0,0,"4,58",0,0,0,0,0
6,15.68,Lucas Macanhan ,0,GOL,"2,00",0,0,Atlético-PR,2,"0,00",0,0,0,0,"0,00",0,0,0,0,0,0,0,"0,00",0,0,0,0,0
6,15.68,Pedro Geromel ,1,ZAG,"14,68",4,12,Grêmio,3,"18,80",0,0,0,0,"3,14",0,0,9,0,1,3,4,"10,10",0,0,2,1,0
6,15.68,Dedé ,0,ZAG,"8,86",3,12,Cruzeiro,5,"0,00",0,0,0,0,"0,00",0,0,2,0,0,2,2,"3,43",0,0,0,1,0
6,15.68,Fagner Alemão ,1,LAT,"8,98",6,19,Avaí,3,"3,30",2,0,1,0,"0,32",0,0,13,0,0,3,2,"4,10",0,0,1,4,0
6,15.68,Matheus Reis ,0,LAT,"4,25",5,20,Bahia,3,"2,90",0,0,1,0,"0,26",0,0,3,0,0,11,2,"1,92",0,0,0,6,0
6,15.68,Thiago Maia ,4,MEI,"7,96",6,21,Santos,3,"6,60",0,0,2,0,"0,94",0,0,14,0,1,7,0,"3,13",0,0,1,14,0
6,15.68,Ralph ,0,MEI,"1,00",2,1,Atlético-MG,2,"2,60",0,0,2,0,"0,29",0,0,2,0,0,3,0,"0,30",0,0,0,0,0
6,15.68,Cueva ,2,MEI,"10,57",3,11,São Paulo,2,"0,00",1,0,0,0,"0,00",0,0,2,0,0,4,0,"1,33",0,0,1,0,0
6,15.68,Keno ,0,ATA,"6,54",6,20,Palmeiras,3,"8,30",2,0,0,1,"1,87",0,0,4,1,0,3,0,"1,80",0,0,1,6,0
6,15.68,Luan ,7,ATA,"23,41",5,17,Grêmio,3,"8,90",1,0,0,3,"-2,30",0,0,8,0,4,14,0,"12,78",0,0,4,8,0
6,15.68,Henrique Dourado ,3,ATA,"25,14",5,15,Fluminense,3,"6,60",1,0,1,7,"-1,09",0,0,2,0,1,9,0,"12,20",0,0,3,12,0
7,26.709047619047613,Mano Menezes ,0,TEC,"11,57",7,0,Cruzeiro,3,"1,96",0,0,0,0,"-0,72",0,0,0,0,0,0,0,"3,39",0,0,0,0,0
7,26.709047619047613,Felipe Garcia ,0,GOL,"7,33",6,5,Atlético-GO,3,"-4,60",0,0,1,0,"-2,82",0,17,0,0,0,0,1,"5,42",10,0,0,0,0
7,26.709047619047613,Felipe Santana ,2,ZAG,"8,14",6,10,Atlético-MG,3,"2,30",1,0,0,0,"0,27",0,0,9,0,1,5,1,"3,78",0,0,0,6,0
7,26.709047619047613,Juan ,3,ZAG,"7,76",3,5,Flamengo,2,"0,00",0,0,2,0,"0,00",0,0,7,0,1,2,1,"6,83",0,0,2,2,0
7,26.709047619047613,Rodinei ,1,LAT,"10,73",3,5,Flamengo,3,"11,00",1,0,0,1,"1,52",0,0,4,0,0,2,2,"8,00",0,0,1,3,0
7,26.709047619047613,Júnior Tavares ,1,LAT,"12,63",7,30,São Paulo,3,"3,50",0,0,0,0,"-1,63",0,0,9,0,2,14,4,"5,64",0,0,1,11,0
7,26.709047619047613,Luiz Otávio ,0,MEI,"2,00",0,0,Atlético-PR,2,"0,00",0,0,0,0,"0,00",0,0,0,0,0,0,0,"0,00",0,0,0,0,0
7,26.709047619047613,Lucas de Sá ,0,MEI,"1,00",0,0,Avaí,2,"0,00",0,0,0,0,"0,00",0,0,0,0,0,0,0,"0,00",0,0,0,0,0
7,26.709047619047613,Bruno Silva ,3,MEI,"13,96",6,22,Botafogo,3,"16,00",0,0,0,4,"3,13",0,0,13,0,0,12,0,"7,10",0,5,0,10,2
7,26.709047619047613,Ábila ,3,ATA,"13,50",7,8,Cruzeiro,3,"-0,80",7,0,1,3,"-2,98",0,0,2,0,1,9,0,"4,80",0,0,4,3,0
7,26.709047619047613,Léo Jabá ,0,ATA,"3,68",1,0,Corinthians,2,"0,00",0,0,0,0,"0,00",0,0,1,0,0,1,0,"1,20",0,0,0,2,0
7,26.709047619047613,Everaldo ,7,ATA,"13,01",7,15,Atlético-GO,3,"21,10",1,0,0,4,"4,73",0,0,2,0,1,11,0,"7,04",0,0,0,9,8
8,26.709047619047613,Mano Menezes ,0,TEC,"12,59",8,0,Cruzeiro,3,"6,85",0,0,0,0,"1,02",0,0,0,0,0,0,0,"3,82",0,0,0,0,0
8,26.709047619047613,Felipe Garcia ,0,GOL,"8,63",7,6,Atlético-GO,3,"3,70",0,0,0,0,"1,30",0,19,0,0,0,0,1,"5,17",11,1,0,0,0
8,26.709047619047613,Felipe Santana ,2,ZAG,"7,46",7,11,Atlético-MG,3,"-0,80",1,0,0,0,"-0,68",0,0,9,0,1,5,1,"3,13",0,0,0,7,0
8,26.709047619047613,Juan ,3,ZAG,"6,25",4,6,Flamengo,1,"0,20",0,0,0,0,"-1,51",0,0,7,0,1,4,1,"5,17",0,2,0,3,2
8,26.709047619047613,Rodinei ,1,LAT,"10,37",4,5,Flamengo,3,"5,90",1,0,0,1,"-0,36",0,0,6,0,1,3,2,"7,47",0,1,0,5,1
8,26.709047619047613,Júnior Tavares ,1,LAT,"12,59",8,33,São Paulo,3,"3,10",0,0,0,0,"-0,04",0,0,9,0,3,17,4,"5,32",0,1,0,12,1
8,26.709047619047613,Luiz Otávio ,0,MEI,"2,00",0,0,Atlético-PR,2,"0,00",0,0,0,0,"0,00",0,0,0,0,0,0,0,"0,00",0,0,0,0,0
8,26.709047619047613,Lucas de Sá ,0,MEI,"1,00",0,0,Avaí,2,"0,00",0,0,0,0,"0,00",0,0,0,0,0,0,0,"0,00",0,0,0,0,0
8,26.709047619047613,Bruno Silva ,4,MEI,"13,48",7,25,Botafogo,3,"8,50",0,0,5,4,"-0,48",0,0,14,0,1,14,0,"7,30",0,0,3,10,0
8,26.709047619047613,Ábila ,3,ATA,"13,20",8,9,Cruzeiro,2,"-0,30",7,0,0,3,"-0,30",0,0,2,0,1,9,0,"4,16",0,1,0,3,4
8,26.709047619047613,Léo Jabá ,0,ATA,"3,68",1,0,Corinthians,2,"0,00",0,0,0,0,"0,00",0,0,1,0,0,1,0,"1,20",0,0,0,2,0
8,26.709047619047613,Everaldo ,7,ATA,"9,91",8,17,Atlético-GO,3,"-0,10",1,0,0,4,"-3,10",1,0,2,1,1,13,0,"6,15",0,0,9,12,0
9,17.40761904761905,Vagner Mancini ,0,TEC,"8,53",9,0,Chapecoense,3,"1,79",0,0,0,0,"0,02",0,0,0,0,0,0,0,"3,11",0,0,0,0,0
9,17.40761904761905,Jean ,0,GOL,"9,03",9,9,Bahia,3,"-6,60",0,0,0,0,"-0,99",0,15,0,0,0,1,3,"3,53",13,0,0,0,0
9,17.40761904761905,Juninho ,0,ZAG,"12,00",0,0,Coritiba,2,"0,00",0,0,0,0,"0,00",0,0,0,0,0,0,0,"0,00",0,0,0,0,0
9,17.40761904761905,Marllon ,2,ZAG,"11,51",9,15,Ponte Preta,3,"6,80",0,0,2,0,"0,52",0,0,12,1,0,10,4,"4,31",0,0,0,6,0
9,17.40761904761905,Victor Luis ,1,LAT,"13,12",7,15,Botafogo,3,"8,60",0,0,0,1,"0,74",0,0,14,0,0,7,4,"6,35",0,1,0,10,0
9,17.40761904761905,Júnior Tavares ,2,LAT,"12,54",9,35,São Paulo,3,"2,80",0,0,1,0,"-0,05",0,0,10,0,3,20,4,"5,04",0,0,1,13,0
9,17.40761904761905,João Vitor ,0,MEI,"5,00",0,0,Ponte Preta,2,"0,00",0,0,0,0,"0,00",0,0,0,0,0,0,0,"0,00",0,0,0,0,0
9,17.40761904761905,Marcão Silva ,2,MEI,"7,10",8,19,Atlético-GO,3,"5,70",0,0,0,0,"1,39",0,0,22,0,0,5,0,"2,51",0,4,0,15,0
9,17.40761904761905,Balbino ,0,MEI,"1,00",0,0,Grêmio,2,"0,00",0,0,0,0,"0,00",0,0,0,0,0,0,0,"0,00",0,0,0,0,0
9,17.40761904761905,Richarlison  ,5,ATA,"11,04",7,13,Fluminense,3,"-2,60",7,0,1,2,"-1,37",0,0,11,0,1,18,0,"5,26",0,0,3,18,0
9,17.40761904761905,Ángel Romero ,1,ATA,"13,56",8,23,Corinthians,3,"9,50",8,0,0,2,"2,30",0,0,14,0,1,28,0,"5,63",0,2,0,9,5
9,17.40761904761905,Arthur  ,7,ATA,"10,67",9,17,Chapecoense,3,"6,00",3,0,0,2,"0,86",0,0,10,1,3,16,0,"5,81",0,1,0,17,5
10,10.213333333333336,Cuca ,0,TEC,"13,45",10,0,Palmeiras,3,"0,00",0,0,0,0,"-0,50",0,0,0,0,0,0,0,"3,84",0,0,0,0,0
10,10.213333333333336,Victor ,0,GOL,"9,79",9,0,Atlético-MG,3,"0,00",0,0,0,0,"0,00",0,0,0,0,0,0,0,"3,60",0,0,0,0,0
10,10.213333333333336,Werley ,0,ZAG,"8,10",10,0,Coritiba,3,"0,00",0,0,0,0,"-0,34",0,0,0,0,0,0,0,"3,52",0,0,0,0,0
10,10.213333333333336,Vilson ,0,ZAG,"4,00",0,0,Corinthians,5,"0,00",0,0,0,0,"0,00",0,0,0,0,0,0,0,"0,00",0,0,0,0,0
10,10.213333333333336,Reinaldo ,0,LAT,"11,99",10,0,Chapecoense,3,"0,00",0,0,0,0,"0,27",0,0,0,0,0,0,0,"3,90",0,0,0,0,0
10,10.213333333333336,Jonathan ,0,LAT,"8,14",8,0,Atlético-PR,2,"0,00",0,0,0,0,"0,00",0,0,0,0,0,0,0,"3,17",0,0,0,0,0
10,10.213333333333336,Moisés Ribeiro ,0,MEI,"4,00",0,0,Chapecoense,2,"0,00",0,0,0,0,"0,00",0,0,0,0,0,0,0,"0,00",0,0,0,0,0
10,10.213333333333336,André Castro ,0,MEI,"1,51",9,0,Atlético-GO,3,"0,00",0,0,0,0,"0,38",0,0,0,0,0,0,0,"0,67",0,0,0,0,0
10,10.213333333333336,Zé Rafael  ,0,MEI,"20,70",10,0,Bahia,3,"0,00",0,0,0,0,"1,14",0,0,0,0,0,0,0,"7,29",0,0,0,0,0
10,10.213333333333336,Rodrigo Pimpão ,0,ATA,"6,54",10,0,Botafogo,1,"0,00",0,0,0,0,"0,14",0,0,0,0,0,0,0,"2,21",0,0,0,0,0
10,10.213333333333336,Clayton ,0,ATA,"7,66",3,0,Corinthians,2,"0,00",0,0,0,0,"0,00",0,0,0,0,0,0,0,"4,80",0,0,0,0,0
10,10.213333333333336,Lucca ,0,ATA,"22,14",10,0,Ponte Preta,3,"0,00",0,0,0,0,"0,88",0,0,0,0,0,0,0,"8,66",0,0,0,0,0
11,16.114494949494947,Abel Braga ,0,TEC,"12,15",10,0,Fluminense,3,"3,69",0,0,0,0,"0,20",0,0,0,0,0,0,0,"3,51",0,0,0,0,0
11,16.114494949494947,Fernando Miguel ,0,GOL,"11,63",11,10,Vitória,3,"4,90",0,0,1,0,"0,33",0,21,0,0,0,3,3,"4,05",15,0,0,0,0
11,16.114494949494947,Pedro Geromel ,3,ZAG,"13,78",8,19,Grêmio,2,"0,00",0,0,0,0,"0,00",0,0,19,0,1,7,6,"7,78",0,2,0,6,2
11,16.114494949494947,Wanderson ,0,ZAG,"5,73",5,6,Atlético-PR,3,"-1,20",1,0,0,2,"-1,90",0,0,5,0,0,2,3,"7,44",0,1,0,4,3
11,16.114494949494947,Eduardo ,2,LAT,"7,48",11,59,Bahia,3,"11,00",2,0,0,0,"2,18",0,0,20,0,1,9,4,"3,25",0,1,0,17,0
11,16.114494949494947,Léo ,0,LAT,"1,00",0,0,Avaí,2,"0,00",0,0,0,0,"0,00",0,0,0,0,0,0,0,"0,00",0,0,0,0,0
11,16.114494949494947,Douglas ,14,MEI,"15,94",11,42,Vasco,3,"0,60",1,0,3,1,"-0,63",0,0,23,1,0,23,0,"4,85",0,0,9,17,0
11,16.114494949494947,Wendel ,2,MEI,"12,82",9,21,Fluminense,3,"4,80",1,0,0,2,"-0,68",0,0,12,1,1,25,0,"5,83",0,0,0,11,6
11,16.114494949494947,Uillian Correia ,6,MEI,"3,62",10,16,Vitória,3,"0,00",0,0,1,1,"0,00",0,0,10,0,0,3,0,"1,59",0,0,0,16,0
11,16.114494949494947,Marcinho ,7,ATA,"3,95",11,49,São Paulo,3,"-1,40",1,0,1,1,"-0,66",0,0,7,0,2,11,0,"1,73",0,0,4,16,0
11,16.114494949494947,Ángel Romero ,1,ATA,"12,79",9,27,Corinthians,4,"0,00",8,0,3,2,"0,00",0,0,17,0,1,33,0,"5,38",0,0,5,11,0
11,16.114494949494947,Edigar Junio ,2,ATA,"9,52",10,19,Bahia,3,"0,00",1,0,0,2,"0,00",0,0,4,1,0,16,0,"2,75",0,0,5,14,0
12,18.64883838383838,Zé Ricardo ,0,TEC,"12,29",12,0,Flamengo,3,"5,66",0,0,0,0,"-0,14",0,0,0,0,0,0,0,"4,60",0,0,0,0,0
12,18.64883838383838,Weverton ,0,GOL,"3,53",9,7,Atlético-PR,3,"6,90",0,0,1,0,"1,28",0,9,0,0,0,1,2,"1,82",12,0,0,0,0
12,18.64883838383838,Henrique ,1,ZAG,"8,27",11,23,Fluminense,3,"1,10",0,0,0,0,"0,16",0,0,7,1,0,15,1,"1,21",0,2,0,13,1
12,18.64883838383838,Marcio ,3,ZAG,"7,63",11,20,Coritiba,3,"3,10",1,0,2,1,"0,33",0,0,8,0,1,6,5,"4,07",0,0,1,11,0
12,18.64883838383838,Bruno ,0,LAT,"5,63",4,16,São Paulo,3,"0,00",0,0,1,0,"0,00",0,0,3,0,0,5,1,"1,07",0,0,0,3,0
12,18.64883838383838,Wallace Oliveira ,0,LAT,"5,00",0,0,Grêmio,2,"0,00",0,0,0,0,"0,00",0,0,0,0,0,0,0,"0,00",0,0,0,0,0
12,18.64883838383838,Alisson ,5,MEI,"14,28",11,35,Cruzeiro,3,"3,90",1,0,0,1,"-0,88",0,0,16,2,3,20,0,"5,33",0,0,3,16,0
12,18.64883838383838,Fernando Bob ,0,MEI,"8,54",6,15,Ponte Preta,3,"2,30",0,0,2,0,"0,43",0,0,13,0,0,6,0,"2,40",0,0,0,9,0
12,18.64883838383838,Márcio Araújo ,3,MEI,"9,50",12,21,Flamengo,3,"7,50",0,0,0,0,"0,10",0,0,21,0,0,17,0,"3,29",0,1,0,12,0
12,18.64883838383838,Everaldo ,9,ATA,"9,46",12,24,Atlético-GO,3,"1,60",3,0,0,4,"0,56",2,0,2,1,1,17,0,"3,96",0,0,10,14,0
12,18.64883838383838,Raniel ,0,ATA,"0,73",2,0,Cruzeiro,5,"0,00",0,0,1,0,"0,00",0,0,0,0,0,1,0,"-0,75",0,0,0,0,0
12,18.64883838383838,Henrique Dourado ,7,ATA,"23,53",10,27,Fluminense,3,"2,40",1,0,2,9,"-0,30",0,0,3,0,1,20,0,"8,29",0,0,6,20,0
13,16.85640415140415,Cuca ,0,TEC,"13,15",13,0,Palmeiras,3,"1,45",0,0,0,0,"-0,10",0,0,0,0,0,0,0,"3,47",0,0,0,0,0
13,16.85640415140415,Jean ,0,GOL,"13,92",13,11,Bahia,3,"17,00",0,0,0,0,"3,64",0,20,0,0,0,1,4,"4,94",15,0,0,0,0
13,16.85640415140415,Tiago  ,0,ZAG,"9,75",13,29,Bahia,3,"1,90",5,0,2,1,"0,15",0,0,10,0,0,14,4,"2,39",0,0,1,17,0
13,16.85640415140415,Dedé ,0,ZAG,"8,86",3,12,Cruzeiro,5,"0,00",0,0,0,0,"0,00",0,0,2,0,0,2,2,"3,43",0,0,0,1,0
13,16.85640415140415,Edílson ,1,LAT,"11,16",9,17,Grêmio,3,"6,20",1,0,0,1,"1,63",1,0,9,0,0,4,4,"3,51",0,3,0,13,1
13,16.85640415140415,Guilherme Arana ,0,LAT,"11,00",13,40,Corinthians,3,"11,60",3,0,2,0,"1,99",0,0,6,0,2,14,9,"4,82",0,0,1,9,0
13,16.85640415140415,Matheus Fernandes ,3,MEI,"3,39",9,7,Botafogo,3,"-0,40",0,0,0,0,"-0,01",0,0,15,0,0,5,0,"2,52",0,0,0,10,0
13,16.85640415140415,Kady ,0,MEI,"4,00",0,0,Coritiba,2,"0,00",0,0,0,0,"0,00",0,0,0,0,0,0,0,"0,00",0,0,0,0,0
13,16.85640415140415,Thiago Neves ,7,MEI,"17,77",10,35,Cruzeiro,3,"4,50",2,0,0,5,"-0,77",0,0,6,0,1,19,0,"6,76",0,1,0,10,12
13,16.85640415140415,Lucas Pratto ,23,ATA,"16,39",13,36,São Paulo,3,"9,00",2,0,0,3,"2,58",1,0,5,0,2,10,0,"4,22",0,2,0,17,10
13,16.85640415140415,Leandro Damião ,8,ATA,"11,03",7,4,Flamengo,3,"1,50",1,0,0,3,"0,30",0,0,4,0,0,5,0,"5,46",0,0,5,11,0
13,16.85640415140415,Pedro ,1,ATA,"4,62",4,2,Fluminense,1,"1,20",0,0,0,1,"0,00",0,0,2,0,0,3,0,"3,43",0,0,1,3,0
14,16.85640415140415,Cuca ,0,TEC,"13,77",14,0,Palmeiras,3,"4,85",0,0,0,0,"0,62",0,0,0,0,0,0,0,"3,57",0,0,0,0,0
14,16.85640415140415,Jean ,0,GOL,"10,76",14,11,Bahia,3,"-2,60",0,0,0,0,"-3,16",0,24,0,0,0,1,5,"4,40",15,0,0,0,0
14,16.85640415140415,Tiago  ,0,ZAG,"9,75",13,31,Bahia,4,"0,00",5,0,0,1,"0,00",0,0,10,0,0,15,5,"2,39",0,3,0,19,1
14,16.85640415140415,Dedé ,0,ZAG,"8,86",3,12,Cruzeiro,5,"0,00",0,0,0,0,"0,00",0,0,2,0,0,2,2,"3,43",0,0,0,1,0
14,16.85640415140415,Edílson ,1,LAT,"10,27",10,22,Grêmio,3,"0,70",1,0,3,1,"-0,89",1,0,10,0,0,5,5,"3,23",0,0,2,14,0
14,16.85640415140415,Guilherme Arana ,0,LAT,"11,00",13,42,Corinthians,4,"0,00",4,0,0,1,"0,00",0,0,7,0,2,15,10,"4,82",0,3,0,10,1
14,16.85640415140415,Matheus Fernandes ,4,MEI,"4,39",10,8,Botafogo,3,"4,80",0,0,0,0,"1,00",0,0,16,0,0,5,0,"2,75",0,1,0,11,0
14,16.85640415140415,Kady ,0,MEI,"4,00",0,0,Coritiba,2,"0,00",0,0,0,0,"0,00",0,0,0,0,0,0,0,"0,00",0,0,0,0,0
14,16.85640415140415,Thiago Neves ,8,MEI,"17,40",11,41,Cruzeiro,3,"2,40",3,0,1,5,"-0,37",0,0,9,0,1,22,0,"6,36",0,0,13,13,0
14,16.85640415140415,Lucas Pratto ,23,ATA,"15,44",14,41,São Paulo,3,"2,70",2,0,2,4,"-0,95",1,0,5,0,2,12,0,"4,11",0,0,12,18,0
14,16.85640415140415,Leandro Damião ,11,ATA,"11,03",7,6,Flamengo,2,"0,00",1,0,0,3,"0,00",0,0,4,0,0,5,0,"5,46",0,0,0,13,6
14,16.85640415140415,Pedro ,2,ATA,"3,95",5,2,Fluminense,2,"-2,20",0,0,0,1,"-0,67",0,0,2,0,0,4,0,"2,30",0,0,0,3,1
15,27.81774725274725,Fábio Carille ,0,TEC,"11,59",15,0,Corinthians,3,"4,62",0,0,0,0,"-0,03",0,0,0,0,0,0,0,"4,71",0,0,0,0,0
15,27.81774725274725,Thiago ,0,GOL,"6,24",10,2,Flamengo,3,"10,50",0,0,0,0,"1,34",0,11,0,0,1,1,4,"4,18",8,0,0,0,0
15,27.81774725274725,Thiago Martins ,0,ZAG,"5,00",0,0,Palmeiras,5,"0,00",0,0,0,0,"0,00",0,0,0,0,0,0,0,"0,00",0,0,0,0,0
15,27.81774725274725,Marllon ,3,ZAG,"11,88",15,26,Ponte Preta,3,"4,10",0,0,0,0,"0,04",0,0,22,1,0,17,6,"4,52",0,2,0,6,1
15,27.81774725274725,Guilherme Arana ,1,LAT,"10,61",14,44,Corinthians,3,"8,10",4,0,3,1,"-0,39",0,0,7,0,2,19,11,"5,05",0,0,2,10,0
15,27.81774725274725,Daniel Guedes  ,1,LAT,"3,92",4,8,Santos,3,"0,00",0,2,1,1,"0,00",0,0,9,0,0,2,3,"5,27",0,0,1,11,0
15,27.81774725274725,Escudero ,1,MEI,"3,46",3,2,Vasco,3,"-0,90",0,0,0,0,"-0,51",0,0,1,0,0,1,0,"0,10",0,0,0,4,0
15,27.81774725274725,Jucilei ,5,MEI,"14,77",15,46,São Paulo,3,"4,50",0,0,0,1,"0,75",0,0,46,0,0,36,0,"5,46",0,0,1,26,0
15,27.81774725274725,Arthur ,0,MEI,"10,08",13,26,Grêmio,3,"9,50",0,0,1,1,"1,15",0,0,30,0,0,23,0,"4,44",0,0,1,8,0
15,27.81774725274725,Richarlison  ,6,ATA,"13,50",12,30,Fluminense,3,"6,10",11,0,3,5,"-1,35",0,0,20,0,2,32,0,"6,23",0,0,6,30,0
15,27.81774725274725,Luan ,13,ATA,"22,49",12,57,Grêmio,3,"0,00",3,0,0,5,"0,00",1,0,20,0,6,26,0,"8,92",0,1,0,16,13
15,27.81774725274725,Nickson ,0,ATA,"3,00",0,0,Cruzeiro,2,"0,00",0,0,0,0,"0,00",0,0,0,0,0,0,0,"0,00",0,0,0,0,0
16,20.965489510489512,Renato Gaúcho ,0,TEC,"15,66",16,0,Grêmio,3,"3,55",0,0,0,0,"0,20",0,0,0,0,0,0,0,"4,75",0,0,0,0,0
16,20.965489510489512,Thiago ,0,GOL,"4,24",11,2,Flamengo,3,"-2,30",0,0,0,0,"-2,00",0,11,0,0,1,1,4,"3,59",8,0,0,0,0
16,20.965489510489512,Neto ,0,ZAG,"5,00",0,0,Chapecoense,5,"0,00",0,0,0,0,"0,00",0,0,0,0,0,0,0,"0,00",0,0,0,0,0
16,20.965489510489512,Marllon ,3,ZAG,"12,22",16,26,Ponte Preta,3,"4,90",0,0,2,0,"0,34",0,0,22,1,0,17,6,"4,54",0,0,1,6,0
16,20.965489510489512,Guilherme Arana ,1,LAT,"10,50",15,44,Corinthians,3,"5,60",4,0,0,1,"-0,11",0,0,7,0,2,19,11,"5,09",0,3,0,10,2
16,20.965489510489512,Daniel Guedes  ,1,LAT,"4,33",5,8,Santos,3,"4,60",0,2,0,1,"0,41",0,0,9,0,0,2,3,"5,14",0,1,0,11,1
16,20.965489510489512,Escudero ,1,MEI,"4,55",4,2,Vasco,3,"4,90",0,0,0,0,"1,09",0,0,1,0,0,1,0,"1,30",0,0,0,4,0
16,20.965489510489512,Jucilei ,5,MEI,"14,00",16,46,São Paulo,3,"-0,40",0,0,0,1,"-0,77",0,0,46,0,0,36,0,"5,09",0,0,0,26,1
16,20.965489510489512,Renato ,0,MEI,"3,00",0,0,Avaí,2,"0,00",0,0,0,0,"0,00",0,0,0,0,0,0,0,"0,00",0,0,0,0,0
16,20.965489510489512,Richarlison  ,6,ATA,"12,64",13,30,Fluminense,3,"0,30",11,0,0,5,"-0,86",0,0,20,0,2,32,0,"5,77",0,3,0,30,6
16,20.965489510489512,Luan ,13,ATA,"22,27",13,57,Grêmio,3,"2,70",3,0,1,5,"-0,22",1,0,20,0,6,26,0,"8,44",0,0,13,16,0
16,20.965489510489512,Marquinhos ,0,ATA,"5,05",3,3,Sport,2,"0,00",0,0,0,0,"0,00",0,0,0,0,2,2,0,"3,03",0,0,0,2,0
17,21.94535256410256,Jair Ventura ,0,TEC,"7,32",1,0,Botafogo,3,"1,35",0,0,0,0,"-1,68",0,0,0,0,0,0,0,"1,35",0,0,0,0,0
17,21.94535256410256,Marcos Felipe  ,0,GOL,"3,00",0,0,Fluminense,2,"0,00",0,0,0,0,"0,00",0,0,0,0,0,0,0,"0,00",0,0,0,0,0
17,21.94535256410256,Pedro Geromel ,3,ZAG,"13,74",13,31,Grêmio,3,"4,80",0,0,0,0,"-0,18",0,0,31,0,2,8,7,"6,74",0,3,0,8,3
17,21.94535256410256,Dedé ,0,ZAG,"8,63",1,5,Cruzeiro,3,"6,20",0,0,0,0,"2,63",0,0,1,0,0,2,1,"6,20",0,0,0,0,0
17,21.94535256410256,Guilherme Arana ,2,LAT,"9,39",16,49,Corinthians,3,"-0,20",4,0,0,1,"-1,11",0,0,8,0,2,20,12,"4,76",0,3,0,12,2
17,21.94535256410256,Jeferson ,2,LAT,"6,22",6,28,Ponte Preta,3,"0,00",0,0,2,0,"0,00",0,0,7,0,1,3,5,"4,73",0,0,0,8,0
17,21.94535256410256,Araruna ,0,MEI,"2,00",0,0,São Paulo,2,"0,00",0,0,0,0,"0,00",0,0,0,0,0,0,0,"0,00",0,0,0,0,0
17,21.94535256410256,Cristian ,0,MEI,"4,00",0,0,Corinthians,2,"0,00",0,0,0,0,"0,00",0,0,0,0,0,0,0,"0,00",0,0,0,0,0
17,21.94535256410256,Igor ,1,MEI,"4,03",1,3,Atlético-GO,3,"4,70",0,0,0,0,"3,03",0,0,2,0,0,2,0,"4,70",0,0,1,1,0
17,21.94535256410256,Júnior Dutra ,11,ATA,"7,25",11,28,Avaí,3,"0,10",2,0,0,3,"-1,34",0,0,6,2,1,16,0,"4,68",0,0,5,12,0
17,21.94535256410256,Henrique Dourado ,8,ATA,"21,99",11,34,Fluminense,3,"0,00",1,0,3,9,"0,00",0,0,4,0,2,22,0,"7,53",0,0,6,24,0
17,21.94535256410256,Arthur  ,15,ATA,"11,23",16,36,Chapecoense,3,"3,40",5,0,0,4,"-0,88",0,0,15,1,4,36,0,"5,51",0,3,0,26,11
18,8.197032967032966,Fábio Carille ,0,TEC,"12,32",18,0,Corinthians,3,"6,62",0,0,0,0,"0,99",0,0,0,0,0,0,0,"4,69",0,0,0,0,0
18,8.197032967032966,Lucas França ,0,GOL,"3,00",0,0,Cruzeiro,2,"0,00",0,0,0,0,"0,00",0,0,0,0,0,0,0,"0,00",0,0,0,0,0
18,8.197032967032966,Thiago Heleno ,5,ZAG,"9,33",12,26,Atlético-PR,3,"8,60",0,0,0,1,"1,80",0,0,13,0,0,6,5,"3,23",0,4,0,14,0
18,8.197032967032966,Balbuena ,3,ZAG,"11,55",15,30,Corinthians,3,"5,20",2,0,0,3,"-0,43",0,0,16,0,1,14,11,"6,96",0,2,0,6,1
18,8.197032967032966,Matheus Reis ,1,LAT,"5,41",15,47,Bahia,4,"4,70",0,0,3,0,"0,50",0,0,14,0,1,21,5,"2,29",0,0,1,23,0
18,8.197032967032966,Diego Renan ,3,LAT,"5,47",5,11,Chapecoense,3,"0,00",0,0,1,0,"0,00",0,0,1,0,1,5,1,"2,40",0,0,3,4,0
18,8.197032967032966,Zé Rafael  ,11,MEI,"20,28",17,39,Bahia,3,"5,20",3,0,3,1,"-1,02",0,0,45,0,3,55,0,"6,71",0,0,16,35,0
18,8.197032967032966,Ferdinando ,0,MEI,"5,00",0,0,Avaí,2,"0,00",0,0,0,0,"0,00",0,0,0,0,0,0,0,"0,00",0,0,0,0,0
18,8.197032967032966,Wendel ,5,MEI,"12,74",14,31,Fluminense,3,"2,10",1,0,0,2,"-0,82",0,0,20,1,2,38,0,"5,48",0,0,6,11,0
18,8.197032967032966,Muriqui ,0,ATA,"5,00",0,0,Vasco,2,"0,00",0,0,0,0,"0,00",0,0,0,0,0,0,0,"0,00",0,0,0,0,0
18,8.197032967032966,Paulo Henrique ,0,ATA,"3,00",0,0,Sport,2,"0,00",0,0,0,0,"0,00",0,0,0,0,0,0,0,"0,00",0,0,0,0,0
18,8.197032967032966,Kelvin ,0,ATA,"5,03",5,9,Vasco,5,"0,00",2,0,0,0,"0,00",0,0,4,0,0,8,0,"1,72",0,0,3,3,0
19,15.569989316239313,Jair Ventura ,0,TEC,"11,38",19,0,Botafogo,3,"3,62",0,0,0,0,"0,51",0,0,0,0,0,0,0,"3,86",0,0,0,0,0
19,15.569989316239313,Gabriel Gasparotto ,0,GOL,"2,00",0,0,Santos,2,"0,00",0,0,0,0,"0,00",0,0,0,0,0,0,0,"0,00",0,0,0,0,0
19,15.569989316239313,Réver ,2,ZAG,"9,93",16,19,Flamengo,3,"-1,10",1,0,2,2,"-0,45",0,0,16,0,0,13,4,"3,74",0,0,4,10,0
19,15.569989316239313,Tiago  ,0,ZAG,"8,53",18,39,Bahia,3,"-3,60",6,0,4,1,"-0,91",0,0,15,0,0,21,6,"2,15",0,0,1,27,0
19,15.569989316239313,Jean ,12,LAT,"15,27",9,26,Palmeiras,3,"7,90",1,0,0,1,"-0,27",1,0,11,0,0,10,4,"5,31",0,0,2,5,0
19,15.569989316239313,Wallace Oliveira ,0,LAT,"5,00",0,0,Grêmio,2,"0,00",0,0,0,0,"0,00",0,0,0,0,0,0,0,"0,00",0,0,0,0,0
19,15.569989316239313,Nonoca ,0,MEI,"1,82",3,2,Cruzeiro,3,"1,10",0,0,0,0,"-0,11",0,0,2,0,0,2,0,"1,10",0,0,0,1,0
19,15.569989316239313,Matheus Fernandes ,6,MEI,"4,35",13,23,Botafogo,3,"0,00",0,0,0,0,"0,00",0,0,32,0,0,9,0,"3,45",0,1,0,19,0
19,15.569989316239313,Renê Júnior ,15,MEI,"10,56",15,45,Bahia,3,"-0,30",3,1,3,3,"-0,80",0,0,45,0,0,32,0,"6,20",0,0,7,30,0
19,15.569989316239313,Lucca ,16,ATA,"21,36",18,52,Ponte Preta,3,"2,60",6,0,1,10,"-0,24",1,0,18,0,1,64,0,"7,94",0,0,18,20,0
19,15.569989316239313,Arthur  ,16,ATA,"11,82",18,41,Chapecoense,2,"5,10",5,0,3,4,"-0,39",0,0,18,1,5,43,0,"5,58",0,0,13,31,0
19,15.569989316239313,Ábila ,1,ATA,"13,44",1,3,Cruzeiro,3,"11,00",0,0,0,1,"5,44",0,0,1,0,0,1,0,"11,00",0,0,1,0,0
20,8.456106744133058,Renato Gaúcho ,0,TEC,"15,36",20,0,Grêmio,3,"2,15",0,0,0,0,"-0,45",0,0,0,0,0,0,0,"4,55",0,0,0,0,0
20,8.456106744133058,Thiago ,0,GOL,"4,24",11,3,Flamengo,2,"0,00",0,0,0,0,"0,00",0,11,0,0,1,1,4,"3,59",9,0,0,0,0
20,8.456106744133058,Tiago  ,0,ZAG,"9,78",19,39,Bahia,3,"4,00",6,0,0,1,"1,25",0,0,15,1,0,21,6,"2,25",0,4,0,28,2
20,8.456106744133058,Emerson Silva ,2,ZAG,"5,82",4,10,Botafogo,3,"3,00",0,0,0,0,"-0,56",0,0,7,0,0,6,2,"5,08",0,1,0,2,0
20,8.456106744133058,Capa ,8,LAT,"12,82",19,104,Avaí,3,"9,40",4,0,3,0,"0,58",0,0,42,0,1,48,8,"4,58",0,1,2,32,0
20,8.456106744133058,Marcos Rocha ,3,LAT,"11,86",8,45,Atlético-MG,3,"13,30",1,0,0,0,"2,95",0,0,23,0,2,12,2,"4,96",0,2,0,21,1
20,8.456106744133058,Naldo ,2,MEI,"8,04",11,26,Ponte Preta,3,"6,60",2,0,2,1,"1,18",0,0,30,0,0,8,0,"3,96",0,0,1,18,0
20,8.456106744133058,Yuri ,0,MEI,"1,00",0,0,Botafogo,2,"0,00",0,0,0,0,"0,00",0,0,0,0,0,0,0,"0,00",0,0,0,0,0
20,8.456106744133058,Alexsander ,0,MEI,"1,00",0,0,Atlético-PR,2,"0,00",0,0,0,0,"0,00",0,0,0,0,0,0,0,"0,00",0,0,0,0,0
20,8.456106744133058,Henrique Dourado ,8,ATA,"20,95",14,41,Fluminense,3,"-2,10",1,0,4,10,"-1,82",0,0,6,0,2,29,0,"6,41",0,0,7,34,0
20,8.456106744133058,Lucas Pratto ,30,ATA,"13,84",20,61,São Paulo,3,"-4,40",4,1,2,5,"-1,01",1,0,10,0,2,24,0,"3,56",0,0,18,28,0
20,8.456106744133058,Neto Berola ,8,ATA,"9,36",12,20,Coritiba,2,"0,20",4,0,0,1,"-0,33",0,0,8,0,2,13,0,"2,68",0,1,0,7,2
21,20.81894841269841,Cuca ,0,TEC,"13,45",21,0,Palmeiras,3,"3,33",0,0,0,0,"0,00",0,0,0,0,0,0,0,"3,78",0,0,0,0,0
21,20.81894841269841,Wilson ,0,GOL,"14,09",21,13,Coritiba,3,"8,20",0,0,2,0,"1,51",0,39,0,0,0,4,7,"4,81",26,0,0,0,1
21,20.81894841269841,Lucão ,2,ZAG,"5,25",6,17,São Paulo,2,"0,00",0,0,0,0,"0,00",0,0,5,0,0,5,3,"3,38",0,0,1,6,0
21,20.81894841269841,Paulo André ,0,ZAG,"4,94",12,26,Atlético-PR,3,"6,10",0,0,3,0,"0,69",0,0,9,0,0,8,4,"1,87",0,0,1,8,0
21,20.81894841269841,Diogo Barbosa ,3,LAT,"12,52",18,72,Cruzeiro,3,"4,20",2,0,0,0,"-0,49",0,0,30,1,2,21,8,"4,44",0,4,0,17,2
21,20.81894841269841,Arnaldo ,0,LAT,"9,34",15,42,Botafogo,3,"5,30",0,0,2,0,"-0,81",0,0,30,0,1,22,6,"4,80",0,0,2,21,0
21,20.81894841269841,Dudu Cearense ,0,MEI,"4,44",9,16,Botafogo,3,"7,40",0,0,3,0,"1,57",0,0,11,0,0,7,0,"0,76",0,0,1,11,0
21,20.81894841269841,Marco Antônio ,0,MEI,"3,00",0,0,Bahia,2,"0,00",0,0,0,0,"0,00",0,0,0,0,0,0,0,"0,00",0,0,0,0,0
21,20.81894841269841,Matheus Galdezani ,11,MEI,"7,35",20,81,Coritiba,3,"2,10",1,0,6,1,"-0,45",0,0,32,0,1,38,0,"2,48",0,0,13,42,0
21,20.81894841269841,Bruno Henrique ,7,ATA,"11,81",16,53,Santos,3,"-2,30",5,1,0,4,"-1,29",0,0,14,1,6,44,0,"4,70",0,3,0,41,9
21,20.81894841269841,Everton ,11,ATA,"10,18",18,20,Grêmio,3,"2,70",1,0,1,5,"-0,13",0,0,10,1,2,10,0,"4,43",0,0,10,10,0
21,20.81894841269841,Lucca ,18,ATA,"20,16",20,55,Ponte Preta,3,"-1,40",6,0,0,10,"-0,99",1,0,19,0,1,67,0,"7,16",0,3,0,23,20
22,20.81894841269841,Cuca ,0,TEC,"14,18",22,0,Palmeiras,3,"6,32",0,0,0,0,"0,73",0,0,0,0,0,0,0,"3,90",0,0,0,0,0
22,20.81894841269841,Wilson ,0,GOL,"14,88",22,13,Coritiba,3,"10,50",0,0,0,0,"0,79",0,43,0,0,0,5,7,"5,07",27,2,1,0,0
22,20.81894841269841,Lucão ,0,ZAG,"3,00",0,0,São Paulo,2,"0,00",0,0,0,0,"0,00",0,0,0,0,0,0,0,"0,00",0,0,0,0,0
22,20.81894841269841,Paulo André ,0,ZAG,"4,33",13,28,Atlético-PR,2,"1,50",0,0,0,0,"-0,61",0,0,12,0,0,8,4,"1,84",0,4,0,10,1
22,20.81894841269841,Diogo Barbosa ,3,LAT,"12,00",19,75,Cruzeiro,3,"0,30",2,0,4,0,"-0,52",0,0,31,1,2,23,8,"4,22",0,0,2,20,0
22,20.81894841269841,Arnaldo ,0,LAT,"9,72",16,46,Botafogo,1,"6,10",0,0,0,0,"0,38",0,0,34,0,1,26,6,"4,88",0,2,0,24,2
22,20.81894841269841,Dudu Cearense ,0,MEI,"4,44",9,16,Botafogo,1,"0,00",0,0,0,0,"0,00",0,0,11,0,0,7,0,"0,76",0,3,0,11,1
22,20.81894841269841,Marco Antônio ,0,MEI,"3,00",0,0,Bahia,2,"0,00",0,0,0,0,"0,00",0,0,0,0,0,0,0,"0,00",0,0,0,0,0
22,20.81894841269841,Matheus Galdezani ,11,MEI,"7,35",20,81,Coritiba,4,"0,00",1,0,0,1,"0,00",0,0,32,0,1,38,0,"2,48",0,6,0,42,13
22,20.81894841269841,Bruno Henrique ,8,ATA,"14,07",17,56,Santos,3,"10,00",5,1,3,5,"2,26",0,0,15,1,6,47,0,"5,01",0,0,9,43,0
22,20.81894841269841,Everton ,11,ATA,"10,18",18,20,Grêmio,2,"0,00",1,0,0,5,"0,00",0,0,10,1,2,10,0,"4,43",0,1,0,10,10
22,20.81894841269841,Lucca ,18,ATA,"20,16",20,55,Ponte Preta,4,"0,00",6,0,3,10,"0,00",1,0,19,0,1,67,0,"7,16",0,0,20,23,0
23,18.083315165226928,Fábio Carille ,0,TEC,"11,47",22,0,Corinthians,3,"1,14",0,0,0,0,"-0,46",0,0,0,0,0,0,0,"4,51",0,0,0,0,0
23,18.083315165226928,João Paulo ,0,GOL,"2,97",1,1,Santos,2,"0,00",0,0,0,0,"0,00",0,2,0,0,0,0,1,"10,70",0,0,0,0,0
23,18.083315165226928,Marcelo ,3,ZAG,"5,26",10,19,Botafogo,3,"6,40",0,0,1,0,"1,21",0,0,11,0,0,2,5,"3,66",0,0,1,7,0
23,18.083315165226928,Gabriel ,5,ZAG,"9,12",13,25,Atlético-MG,3,"3,50",1,0,0,1,"0,30",0,0,17,0,0,10,4,"3,65",0,1,0,18,1
23,18.083315165226928,Leandro Silva ,8,LAT,"9,38",22,96,Avaí,3,"7,10",2,1,1,0,"-0,06",0,0,30,0,2,19,10,"3,58",0,0,4,29,0
23,18.083315165226928,Léo Moura ,3,LAT,"9,84",8,33,Grêmio,3,"-0,50",3,0,0,0,"-0,86",0,0,6,0,0,12,6,"4,49",0,0,0,4,1
23,18.083315165226928,Arthur ,0,MEI,"9,56",17,38,Grêmio,3,"5,10",0,0,0,1,"0,71",0,0,41,0,0,37,0,"4,34",0,3,0,12,1
23,18.083315165226928,Diego Rosa ,0,MEI,"8,77",1,1,Bahia,1,"6,40",0,0,0,0,"2,77",0,0,1,0,1,1,0,"6,40",0,0,0,1,0
23,18.083315165226928,Balbino ,0,MEI,"1,00",0,0,Grêmio,2,"0,00",0,0,0,0,"0,00",0,0,0,0,0,0,0,"0,00",0,0,0,0,0
23,18.083315165226928,Túlio de Melo ,8,ATA,"5,47",15,14,Chapecoense,3,"8,30",0,0,0,4,"1,53",0,0,2,0,0,7,0,"2,30",0,1,0,18,5
23,18.083315165226928,André ,19,ATA,"9,96",20,50,Sport,3,"-1,20",14,0,0,9,"-0,78",0,0,18,1,1,32,0,"4,87",0,4,0,44,9
23,18.083315165226928,Grafite ,0,ATA,"12,00",0,0,Atlético-PR,2,"0,00",0,0,0,0,"0,00",0,0,0,0,0,0,0,"0,00",0,0,0,0,0
24,25.38698697501329,Jair Ventura ,0,TEC,"12,59",24,0,Botafogo,3,"7,35",0,0,0,0,"0,16",0,0,0,0,0,0,0,"4,36",0,0,0,0,0
24,25.38698697501329,Wilson ,0,GOL,"14,60",24,13,Coritiba,3,"7,00",0,0,0,0,"0,10",0,49,0,0,0,5,7,"5,23",29,2,1,0,0
24,25.38698697501329,Igor Rabello ,4,ZAG,"12,07",18,28,Botafogo,3,"0,00",1,0,4,0,"0,00",0,0,27,1,0,11,7,"3,60",0,1,3,16,0
24,25.38698697501329,Lucas Fonseca ,1,ZAG,"5,52",19,36,Bahia,3,"1,10",0,1,0,0,"-0,17",0,0,18,0,1,23,6,"2,93",0,2,0,7,1
24,25.38698697501329,Ezequiel  ,3,LAT,"5,79",12,27,Cruzeiro,2,"3,90",0,0,4,0,"0,78",0,0,13,0,1,12,4,"2,46",0,0,1,21,0
24,25.38698697501329,Bruno Pacheco ,3,LAT,"8,96",22,54,Atlético-GO,3,"6,70",0,0,4,0,"1,30",0,0,22,0,5,50,3,"3,10",0,0,2,28,0
24,25.38698697501329,Wendel ,7,MEI,"12,17",20,46,Fluminense,3,"-2,90",2,0,2,4,"-2,38",0,0,27,2,2,49,0,"5,17",0,0,7,18,0
24,25.38698697501329,Cleiton Xavier ,10,MEI,"6,08",15,48,Vitória,4,"3,80",1,0,0,0,"0,90",0,0,14,1,3,8,0,"1,93",0,3,0,19,6
24,25.38698697501329,Moisés Ribeiro ,1,MEI,"4,20",10,18,Chapecoense,3,"6,20",0,0,0,0,"0,55",0,0,18,0,0,11,0,"1,48",0,4,0,17,0
24,25.38698697501329,Júnior Dutra ,19,ATA,"8,49",18,50,Avaí,3,"1,30",4,0,0,6,"-1,07",0,0,20,2,1,28,0,"5,16",0,2,0,29,7
24,25.38698697501329,Henrique Dourado ,9,ATA,"23,18",18,47,Fluminense,3,"10,30",6,0,0,14,"0,50",0,0,8,0,2,35,0,"6,78",0,4,0,43,9
24,25.38698697501329,Arthur  ,17,ATA,"12,93",22,51,Chapecoense,3,"13,00",5,0,4,5,"2,02",0,0,22,1,5,48,0,"4,99",0,0,13,38,0
25,31.420473694116716,Cuca ,0,TEC,"14,38",25,0,Palmeiras,3,"6,36",0,0,0,0,"-0,03",0,0,0,0,0,0,0,"4,08",0,0,0,0,0
25,31.420473694116716,Wilson ,0,GOL,"13,95",25,13,Coritiba,3,"3,00",0,0,2,0,"-0,65",0,52,0,0,0,5,7,"5,14",32,0,0,0,1
25,31.420473694116716,Igor Rabello ,4,ZAG,"10,09",19,32,Botafogo,3,"-0,50",1,0,1,0,"-1,98",0,0,28,1,0,12,7,"3,38",0,4,0,19,3
25,31.420473694116716,Lucas Fonseca ,1,ZAG,"5,95",20,40,Bahia,3,"3,50",0,1,3,0,"0,43",0,0,19,0,1,23,7,"2,96",0,0,2,9,0
25,31.420473694116716,Carlos Cesar ,0,LAT,"4,46",1,4,Atlético-MG,5,"-0,70",0,0,0,0,"-2,54",0,0,0,0,0,1,0,"-0,70",0,0,0,0,0
25,31.420473694116716,Bruno Pacheco ,3,LAT,"8,37",23,55,Atlético-GO,3,"2,80",0,0,0,0,"-0,59",0,0,25,0,5,52,3,"3,09",0,5,0,30,2
25,31.420473694116716,Wendel ,7,MEI,"12,48",21,52,Fluminense,3,"-0,10",2,0,0,4,"0,31",0,0,28,2,2,53,0,"4,92",0,2,0,22,7
25,31.420473694116716,Cleiton Xavier ,10,MEI,"6,08",15,48,Vitória,4,"0,00",1,0,3,0,"0,00",0,0,14,1,3,8,0,"1,93",0,0,6,19,0
25,31.420473694116716,Moisés Ribeiro ,1,MEI,"3,99",11,24,Chapecoense,3,"4,20",0,0,5,0,"-0,21",0,0,23,0,0,13,0,"1,73",0,0,0,20,0
25,31.420473694116716,Júnior Dutra ,20,ATA,"8,01",19,56,Avaí,3,"-1,10",4,0,2,6,"-0,48",0,0,20,2,1,30,0,"4,83",0,0,7,31,0
25,31.420473694116716,Henrique Dourado ,9,ATA,"21,17",19,50,Fluminense,3,"-1,20",6,0,4,14,"-2,01",0,0,9,0,2,36,0,"6,36",0,0,9,48,0
25,31.420473694116716,Lucca ,21,ATA,"20,68",23,63,Ponte Preta,3,"1,80",7,0,0,10,"-1,05",1,0,23,0,1,81,0,"6,88",0,3,0,25,23
26,25.38698697501329,Jair Ventura ,0,TEC,"12,16",26,0,Botafogo,3,"3,11",0,0,0,0,"-0,24",0,0,0,0,0,0,0,"4,36",0,0,0,0,0
26,25.38698697501329,Wilson ,0,GOL,"13,69",26,14,Coritiba,3,"0,70",0,0,0,0,"-0,26",0,53,0,0,0,5,7,"4,97",33,2,1,0,0
26,25.38698697501329,Igor Rabello ,4,ZAG,"10,47",20,33,Botafogo,3,"1,40",1,0,4,0,"0,38",0,0,29,1,0,12,7,"3,28",0,1,3,19,0
26,25.38698697501329,Lucas Fonseca ,1,ZAG,"5,95",20,40,Bahia,3,"0,00",0,1,0,0,"0,00",0,0,19,0,1,23,7,"2,96",0,3,0,9,2
26,25.38698697501329,Ezequiel  ,3,LAT,"5,48",14,28,Cruzeiro,3,"1,40",0,0,4,0,"0,03",0,0,15,0,1,13,4,"2,33",0,0,1,22,0
26,25.38698697501329,Bruno Pacheco ,3,LAT,"9,96",24,58,Atlético-GO,3,"10,70",0,0,5,0,"1,59",0,0,28,0,5,55,4,"3,41",0,0,2,30,0
26,25.38698697501329,Wendel ,7,MEI,"13,05",22,52,Fluminense,3,"2,70",2,0,2,4,"0,57",0,0,29,2,2,54,0,"4,82",0,0,8,23,0
26,25.38698697501329,Cleiton Xavier ,10,MEI,"4,98",16,49,Vitória,2,"-2,80",1,0,0,0,"-1,10",0,0,14,1,3,8,0,"1,63",0,4,0,20,6
26,25.38698697501329,Moisés Ribeiro ,1,MEI,"3,47",12,26,Chapecoense,3,"0,60",0,0,0,0,"-0,52",0,0,24,0,0,15,0,"1,64",0,5,0,23,0
26,25.38698697501329,Júnior Dutra ,21,ATA,"8,13",20,60,Avaí,3,"-0,50",4,0,0,6,"0,12",0,0,20,2,1,30,0,"4,56",0,2,0,31,7
26,25.38698697501329,Henrique Dourado ,9,ATA,"21,24",20,54,Fluminense,3,"-1,20",6,0,0,14,"0,07",0,0,9,0,2,39,0,"5,98",0,4,0,53,10
26,25.38698697501329,Arthur  ,19,ATA,"11,18",24,54,Chapecoense,2,"0,40",6,0,4,5,"-0,94",0,0,24,1,5,54,0,"4,88",0,0,15,40,0
27,18.024139449414047,Cuca ,0,TEC,"15,09",1,0,Palmeiras,3,"8,34",0,0,0,0,"2,09",0,0,0,0,0,0,0,"8,34",0,0,0,0,0
27,18.024139449414047,Magrão ,0,GOL,"6,14",23,0,Sport,3,"0,00",0,0,0,0,"-0,16",0,0,0,0,0,0,0,"3,04",0,0,0,0,0
27,18.024139449414047,Igor Rabello ,0,ZAG,"9,95",21,0,Botafogo,3,"0,00",0,0,0,0,"-0,52",0,0,0,0,0,0,0,"3,06",0,0,0,0,0
27,18.024139449414047,Reginaldo ,0,ZAG,"4,24",12,0,Fluminense,3,"0,00",0,0,0,0,"-0,29",0,0,0,0,0,0,0,"3,41",0,0,0,0,0
27,18.024139449414047,Jonas ,0,LAT,"6,00",0,0,Botafogo,5,"0,00",0,0,0,0,"0,00",0,0,0,0,0,0,0,"0,00",0,0,0,0,0
27,18.024139449414047,Jonathan ,0,LAT,"9,14",19,0,Atlético-PR,3,"0,00",0,0,0,0,"1,21",0,0,0,0,0,0,0,"3,72",0,0,0,0,0
27,18.024139449414047,João Paulo ,0,MEI,"4,18",21,0,Botafogo,3,"0,00",0,0,0,0,"-0,09",0,0,0,0,0,0,0,"2,86",0,0,0,0,0
27,18.024139449414047,Marcos Vinícius ,0,MEI,"6,00",0,0,Cruzeiro,5,"0,00",0,0,0,0,"0,00",0,0,0,0,0,0,0,"0,00",0,0,0,0,0
27,18.024139449414047,Renê Júnior ,0,MEI,"10,75",20,0,Bahia,3,"0,00",0,0,0,0,"-1,47",0,0,0,0,0,0,0,"6,02",0,0,0,0,0
27,18.024139449414047,Rildo ,0,ATA,"8,90",24,0,Coritiba,3,"0,00",0,0,0,0,"-1,59",0,0,0,0,0,0,0,"4,08",0,0,0,0,0
27,18.024139449414047,Everaldo ,1,ATA,"6,30",1,1,Atlético-GO,3,"4,90",1,0,0,0,"2,30",0,0,0,0,0,0,0,"4,90",0,0,5,0,0
27,18.024139449414047,Copete ,0,ATA,"6,88",21,0,Santos,3,"0,00",0,0,0,0,"0,32",0,0,0,0,0,0,0,"2,97",0,0,0,0,0
28,9.051467845879612,Mano Menezes ,0,TEC,"13,37",27,0,Cruzeiro,3,"0,00",0,0,0,0,"0,00",0,0,0,0,0,0,0,"3,87",0,0,0,0,0
28,9.051467845879612,Wilson ,0,GOL,"13,01",28,0,Coritiba,3,"0,00",0,0,0,0,"-0,48",0,0,0,0,0,0,0,"4,57",0,0,0,0,0
28,9.051467845879612,Igor Rabello ,0,ZAG,"10,65",22,0,Botafogo,3,"0,00",0,0,0,0,"0,70",0,0,0,0,0,0,0,"3,08",0,0,0,0,0
28,9.051467845879612,Lucas Fonseca ,0,ZAG,"6,44",22,0,Bahia,3,"0,00",0,0,0,0,"0,80",0,0,0,0,0,0,0,"3,02",0,0,0,0,0
28,9.051467845879612,Carlos Cesar ,0,LAT,"4,46",1,0,Atlético-MG,5,"0,00",0,0,0,0,"0,00",0,0,0,0,0,0,0,"-0,70",0,0,0,0,0
28,9.051467845879612,Bruno Pacheco ,0,LAT,"9,08",26,0,Atlético-GO,3,"0,00",0,0,0,0,"0,23",0,0,0,0,0,0,0,"3,46",0,0,0,0,0
28,9.051467845879612,Wendel ,0,MEI,"11,94",23,0,Fluminense,4,"0,00",0,0,0,0,"-1,11",0,0,0,0,0,0,0,"4,51",0,0,0,0,0
28,9.051467845879612,Mantuan ,0,MEI,"1,00",0,0,Corinthians,2,"0,00",0,0,0,0,"0,00",0,0,0,0,0,0,0,"0,00",0,0,0,0,0
28,9.051467845879612,Maicosuel ,0,MEI,"6,86",1,0,Atlético-MG,3,"1,70",0,0,0,0,"-1,14",0,0,1,0,0,0,0,"1,70",0,0,0,0,0
28,9.051467845879612,Bruno Henrique ,0,ATA,"14,80",21,0,Santos,2,"0,00",0,0,0,0,"0,00",0,0,0,0,0,0,0,"5,86",0,0,0,0,0
28,9.051467845879612,Rafael Sobis ,0,ATA,"11,43",18,0,Cruzeiro,3,"0,00",0,0,0,0,"0,00",0,0,0,0,0,0,0,"2,25",0,0,0,0,0
28,9.051467845879612,Copete ,0,ATA,"6,39",22,0,Santos,3,"0,00",0,0,0,0,"-0,49",0,0,0,0,0,0,0,"2,84",0,0,0,0,0
29,19.783660256410254,Fábio Carille ,0,TEC,"12,04",28,0,Corinthians,3,"4,45",0,0,0,0,"0,42",0,0,0,0,0,0,0,"4,29",0,0,0,0,0
29,19.783660256410254,Douglas Pires ,0,GOL,"4,00",0,0,Bahia,2,"0,00",0,0,0,0,"0,00",0,0,0,0,0,0,0,"0,00",0,0,0,0,0
29,19.783660256410254,Balbuena ,5,ZAG,"11,67",24,56,Corinthians,3,"7,50",5,0,0,3,"0,67",0,0,34,0,1,16,13,"5,39",0,5,0,12,1
29,19.783660256410254,Manoel ,0,ZAG,"7,53",3,4,Cruzeiro,3,"-0,90",1,0,0,0,"-1,13",0,0,0,0,0,2,2,"3,10",0,0,0,0,0
29,19.783660256410254,Fagner Alemão ,6,LAT,"9,84",25,65,Avaí,3,"2,50",8,0,0,0,"0,29",0,0,43,0,1,23,9,"4,03",0,4,0,15,1
29,19.783660256410254,Júnior Tavares ,6,LAT,"11,15",20,67,São Paulo,3,"-0,70",0,0,0,0,"-0,91",0,0,27,0,4,40,4,"3,83",0,3,0,19,2
29,19.783660256410254,Judson ,9,MEI,"4,92",25,56,Avaí,3,"5,50",0,0,9,0,"0,35",0,0,43,0,1,19,0,"1,39",0,0,3,55,0
29,19.783660256410254,Edson ,12,MEI,"14,05",16,25,Bahia,3,"4,70",2,1,3,1,"-1,36",0,0,47,0,1,21,0,"5,08",0,0,3,28,0
29,19.783660256410254,Lucas de Sá ,0,MEI,"1,00",0,0,Avaí,2,"0,00",0,0,0,0,"0,00",0,0,0,0,0,0,0,"0,00",0,0,0,0,0
29,19.783660256410254,Jô ,17,ATA,"11,93",26,56,Corinthians,3,"-0,60",30,0,3,13,"-0,09",1,0,8,0,2,28,0,"4,06",0,0,17,47,0
29,19.783660256410254,Lucas Barrios ,3,ATA,"8,19",15,26,Grêmio,3,"-3,70",9,0,0,4,"-1,02",0,0,9,0,1,17,0,"2,57",0,4,0,18,5
29,19.783660256410254,Giovanny  ,0,ATA,"4,00",0,0,Atlético-PR,5,"0,00",0,0,0,0,"0,00",0,0,0,0,0,0,0,"0,00",0,0,0,0,0
30,16.3603306436633,Abel Braga ,0,TEC,"11,88",28,0,Fluminense,3,"3,48",0,0,0,0,"-0,21",0,0,0,0,0,0,0,"3,07",0,0,0,0,0
30,16.3603306436633,Fernando Prass ,0,GOL,"14,07",26,10,Palmeiras,3,"-2,30",0,0,2,0,"-1,33",0,43,1,0,0,6,7,"4,34",28,0,0,0,1
30,16.3603306436633,Oswaldo Henríquez ,4,ZAG,"4,57",15,21,Sport,3,"-2,60",0,0,4,0,"-0,91",0,0,28,0,0,6,4,"3,50",0,0,2,17,0
30,16.3603306436633,Rodrigo Caio ,8,ZAG,"10,95",25,45,São Paulo,3,"11,70",2,0,0,0,"1,42",0,0,40,1,0,16,5,"2,93",0,8,0,17,2
30,16.3603306436633,Ezequiel  ,3,LAT,"5,26",17,35,Cruzeiro,3,"-0,20",0,0,5,0,"-0,05",0,0,19,0,1,14,5,"2,34",0,0,2,26,0
30,16.3603306436633,Eduardo ,6,LAT,"6,90",28,133,Bahia,3,"2,50",2,0,0,0,"-0,38",0,0,52,0,1,31,9,"3,05",0,7,0,40,2
30,16.3603306436633,Maycon ,16,MEI,"7,66",29,94,Corinthians,3,"-0,40",0,0,0,1,"-0,51",0,0,41,0,3,13,0,"2,77",0,0,0,18,7
30,16.3603306436633,Luiz Fernando  ,5,MEI,"4,43",26,48,Atlético-GO,3,"3,80",7,0,0,6,"0,06",0,0,16,1,1,28,0,"2,55",0,5,0,30,8
30,16.3603306436633,Kaio ,1,MEI,"3,88",5,14,Grêmio,3,"2,70",0,0,0,0,"-0,41",0,0,8,0,0,19,0,"2,92",0,1,0,10,2
30,16.3603306436633,Willian ,11,ATA,"8,50",22,38,Palmeiras,5,"0,00",7,1,4,7,"0,00",1,0,21,1,4,32,0,"4,64",0,0,9,29,0
30,16.3603306436633,Kleber ,7,ATA,"10,74",11,33,Coritiba,2,"0,00",7,1,2,4,"0,00",0,0,4,0,1,31,0,"3,35",0,0,10,30,0
30,16.3603306436633,Borja ,18,ATA,"15,88",20,23,Palmeiras,3,"7,90",4,0,3,4,"0,25",0,0,8,0,0,15,0,"2,47",0,0,9,21,0
31,31.65470485133673,Fábio Carille ,0,TEC,"11,49",30,0,Corinthians,3,"1,72",0,0,0,0,"-0,23",0,0,0,0,0,0,0,"4,14",0,0,0,0,0
31,31.65470485133673,Wilson ,0,GOL,"16,02",31,17,Coritiba,3,"16,40",0,0,2,0,"2,13",0,61,0,0,0,6,8,"5,04",41,0,0,0,3
31,31.65470485133673,Rodrigo ,9,ZAG,"9,81",17,39,Ponte Preta,3,"7,30",2,1,4,0,"1,04",0,0,20,0,0,28,8,"4,16",0,0,7,10,0
31,31.65470485133673,Leonardo Silva ,4,ZAG,"8,88",15,26,Atlético-MG,3,"4,20",1,0,5,0,"0,58",0,0,12,0,0,25,4,"1,89",0,0,1,20,0
31,31.65470485133673,Lucas ,5,LAT,"2,97",24,81,Fluminense,3,"4,90",7,0,0,0,"0,42",0,0,33,0,1,20,1,"0,78",0,8,0,44,5
31,31.65470485133673,Léo ,2,LAT,"3,06",18,41,Fluminense,2,"0,00",3,0,0,1,"0,00",0,0,15,0,1,7,2,"1,01",0,2,0,39,2
31,31.65470485133673,Diego Souza ,16,MEI,"16,93",21,87,Sport,3,"11,00",2,1,7,10,"0,66",2,0,8,3,3,49,0,"4,58",0,0,11,33,0
31,31.65470485133673,Thiago Neves ,13,MEI,"16,58",26,100,Cruzeiro,3,"1,50",6,0,3,7,"-1,63",1,0,23,2,4,41,0,"4,95",0,0,34,29,0
31,31.65470485133673,Sornoza ,2,MEI,"12,81",9,24,Fluminense,3,"1,70",0,0,0,2,"-1,29",0,0,11,1,0,4,0,"3,49",0,1,0,6,2
31,31.65470485133673,Luan ,16,ATA,"19,21",17,84,Grêmio,3,"0,00",4,0,0,5,"0,00",1,0,23,0,6,39,0,"6,51",0,2,0,19,15
31,31.65470485133673,Júnior Dutra ,24,ATA,"8,08",24,81,Avaí,3,"0,20",4,0,0,7,"-1,94",0,0,22,2,2,38,0,"4,31",0,3,0,39,9
31,31.65470485133673,Wellington Paulista ,21,ATA,"9,17",26,56,Chapecoense,3,"-0,60",9,0,5,5,"-1,64",0,0,7,2,1,32,0,"2,51",0,0,20,36,0
32,17.710971617076872,Zé Ricardo ,0,TEC,"9,51",1,0,Flamengo,3,"2,45",0,0,0,0,"-1,49",0,0,0,0,0,0,0,"2,45",0,0,0,0,0
32,17.710971617076872,Fernando Prass ,0,GOL,"15,40",28,11,Palmeiras,3,"7,00",0,0,0,0,"1,43",0,48,1,0,0,8,7,"4,23",33,2,1,0,0
32,17.710971617076872,Réver ,6,ZAG,"11,40",24,28,Flamengo,5,"0,00",2,0,0,5,"0,00",0,0,31,0,0,22,7,"5,27",0,2,0,16,5
32,17.710971617076872,Kannemann ,3,ZAG,"10,14",20,41,Grêmio,3,"6,00",3,0,0,0,"-0,76",0,0,29,1,0,16,9,"3,32",0,7,0,27,0
32,17.710971617076872,Egídio ,5,LAT,"8,80",20,85,Palmeiras,3,"4,50",2,0,0,1,"0,59",0,0,49,0,1,25,8,"5,54",0,4,0,22,4
32,17.710971617076872,Fagner ,4,LAT,"12,36",26,110,Corinthians,3,"1,40",3,0,0,0,"-0,36",0,0,45,2,2,38,13,"4,52",0,8,0,29,2
32,17.710971617076872,Elias ,9,MEI,"10,60",25,83,Atlético-MG,3,"-1,80",3,2,5,3,"-0,07",0,0,40,0,0,21,0,"2,04",0,0,7,37,0
32,17.710971617076872,Thiago Neves ,15,MEI,"16,43",27,103,Cruzeiro,3,"0,50",7,0,0,7,"-0,15",1,0,23,2,4,42,0,"4,79",0,3,0,29,34
32,17.710971617076872,Cárdenas ,0,MEI,"6,00",0,0,Vitória,2,"0,00",0,0,0,0,"0,00",0,0,0,0,0,0,0,"0,00",0,0,0,0,0
32,17.710971617076872,Jael ,4,ATA,"3,81",8,12,Grêmio,3,"0,30",5,0,0,0,"0,36",0,0,1,0,1,10,0,"0,18",0,2,0,8,1
32,17.710971617076872,Luis Fabiano ,17,ATA,"11,30",12,15,Vasco,3,"-0,80",6,0,0,5,"-0,52",0,0,5,0,2,25,0,"4,69",0,6,0,26,6
32,17.710971617076872,Mendoza ,0,ATA,"2,00",0,0,Corinthians,2,"0,00",0,0,0,0,"0,00",0,0,0,0,0,0,0,"0,00",0,0,0,0,0
33,17.710971617076872,Zé Ricardo ,0,TEC,"9,51",1,0,Flamengo,3,"2,45",0,0,0,0,"-1,49",0,0,0,0,0,0,0,"2,45",0,0,0,0,0
33,17.710971617076872,Fernando Prass ,0,GOL,"13,74",29,0,Palmeiras,3,"0,00",0,0,0,0,"-1,66",0,0,0,0,0,0,0,"3,98",0,0,0,0,0
33,17.710971617076872,Réver ,0,ZAG,"11,40",24,0,Flamengo,5,"0,00",0,0,0,0,"0,00",0,0,0,0,0,0,0,"5,27",0,0,0,0,0
33,17.710971617076872,Kannemann ,0,ZAG,"10,14",20,0,Grêmio,3,"0,00",0,0,0,0,"0,00",0,0,0,0,0,0,0,"3,32",0,0,0,0,0
33,17.710971617076872,Egídio ,0,LAT,"8,81",21,0,Palmeiras,2,"0,00",0,0,0,0,"0,01",0,0,0,0,0,0,0,"5,47",0,0,0,0,0
33,17.710971617076872,Fagner ,0,LAT,"13,23",27,0,Corinthians,3,"0,00",0,0,0,0,"0,87",0,0,0,0,0,0,0,"4,59",0,0,0,0,0
33,17.710971617076872,Elias ,0,MEI,"10,73",26,0,Atlético-MG,3,"0,00",0,0,0,0,"0,13",0,0,0,0,0,0,0,"1,94",0,0,0,0,0
33,17.710971617076872,Thiago Neves ,0,MEI,"16,55",28,0,Cruzeiro,3,"0,00",0,0,0,0,"0,12",0,0,0,0,0,0,0,"4,67",0,0,0,0,0
33,17.710971617076872,Cárdenas ,0,MEI,"6,00",0,0,Vitória,2,"0,00",0,0,0,0,"0,00",0,0,0,0,0,0,0,"0,00",0,0,0,0,0
33,17.710971617076872,Jael ,0,ATA,"3,94",9,0,Grêmio,1,"0,00",0,0,0,0,"0,13",0,0,0,0,0,0,0,"0,28",0,0,0,0,0
33,17.710971617076872,Luis Fabiano ,0,ATA,"11,30",12,0,Vasco,2,"0,00",0,0,0,0,"0,00",0,0,0,0,0,0,0,"4,69",0,0,0,0,0
33,17.710971617076872,Mendoza ,0,ATA,"2,00",0,0,Corinthians,2,"0,00",0,0,0,0,"0,00",0,0,0,0,0,0,0,"0,00",0,0,0,0,0
34,26.105415559099768,Fábio Carille ,0,TEC,"12,13",33,0,Corinthians,3,"5,12",0,0,0,0,"-0,09",0,0,0,0,0,0,0,"4,18",0,0,0,0,0
34,26.105415559099768,Walter ,0,GOL,"6,88",1,0,Corinthians,5,"0,00",0,0,0,0,"0,00",0,0,0,0,0,0,1,"12,00",0,0,1,0,0
34,26.105415559099768,Ronaldo Alves ,4,ZAG,"7,71",24,58,Sport,3,"0,20",3,0,0,1,"0,28",0,0,23,0,1,41,8,"3,31",0,5,0,25,5
34,26.105415559099768,Pablo ,13,ZAG,"12,30",22,25,Corinthians,3,"10,70",0,0,2,0,"0,62",0,0,23,0,0,9,13,"4,65",0,0,3,14,0
34,26.105415559099768,Guilherme Arana ,5,LAT,"11,48",30,98,Corinthians,3,"11,90",4,0,4,2,"0,47",0,0,18,0,4,36,17,"4,22",0,0,3,19,0
34,26.105415559099768,Thiago Carleto ,5,LAT,"6,87",18,71,Coritiba,3,"4,50",1,0,0,2,"-0,61",1,0,28,0,7,13,5,"6,14",0,2,0,13,13
34,26.105415559099768,Moisés Ribeiro ,3,MEI,"4,77",19,42,Chapecoense,3,"9,50",0,0,7,0,"1,56",0,0,35,0,0,30,0,"1,45",0,0,0,45,0
34,26.105415559099768,Maxi Rodríguez ,0,MEI,"6,00",0,0,Grêmio,2,"0,00",0,0,0,0,"0,00",0,0,0,0,0,0,0,"0,00",0,0,0,0,0
34,26.105415559099768,Maicosuel ,0,MEI,"6,86",1,0,Atlético-MG,3,"1,70",0,0,0,0,"-1,14",0,0,1,0,0,0,0,"1,70",0,0,0,0,0
34,26.105415559099768,Bruno Henrique ,14,ATA,"12,76",24,80,Santos,4,"0,00",8,1,6,6,"0,00",0,0,24,1,11,69,0,"5,52",0,0,15,58,0
34,26.105415559099768,Júnior Dutra ,28,ATA,"8,12",27,86,Avaí,3,"-0,30",8,0,0,7,"-0,56",0,0,27,2,2,42,0,"4,24",0,4,0,41,13
34,26.105415559099768,Ángel Romero ,8,ATA,"12,24",27,93,Corinthians,3,"2,90",13,0,0,3,"-1,69",0,0,53,0,3,81,0,"4,31",0,10,0,37,14
35,13.918290790004498,Jair Ventura ,0,TEC,"12,10",35,0,Botafogo,3,"3,39",0,0,0,0,"0,11",0,0,0,0,0,0,0,"4,10",0,0,0,0,0
35,13.918290790004498,Cláudio Vitor ,0,GOL,"1,00",0,0,Avaí,2,"0,00",0,0,0,0,"0,00",0,0,0,0,0,0,0,"0,00",0,0,0,0,0
35,13.918290790004498,Matheus Ferraz ,1,ZAG,"4,10",1,3,Sport,3,"-0,20",0,0,0,0,"-1,90",0,0,0,0,0,0,0,"-0,20",0,0,0,0,0
35,13.918290790004498,Wanderson ,2,ZAG,"5,57",22,36,Atlético-PR,3,"0,00",2,0,0,2,"0,00",0,0,14,0,0,5,7,"2,78",0,2,0,21,9
35,13.918290790004498,Fagner Alemão ,7,LAT,"9,81",31,70,Avaí,3,"1,40",11,0,5,0,"-0,05",0,0,56,0,1,31,9,"3,95",0,0,3,19,0
35,13.918290790004498,Jeferson ,4,LAT,"5,16",20,79,Ponte Preta,3,"-1,20",0,0,0,0,"-0,18",0,0,20,0,2,11,9,"2,70",0,4,0,23,0
35,13.918290790004498,Jonas ,10,MEI,"8,39",28,58,Coritiba,3,"2,80",1,0,0,2,"0,48",0,0,81,0,0,21,0,"3,88",0,8,0,59,1
35,13.918290790004498,Lucas Romero ,5,MEI,"8,61",25,66,Cruzeiro,3,"6,50",0,0,0,2,"-0,13",0,0,54,0,2,26,0,"3,66",0,4,0,32,1
35,13.918290790004498,Moisés Ribeiro ,3,MEI,"3,71",20,44,Chapecoense,3,"2,30",0,0,0,0,"-1,06",0,0,37,0,0,34,0,"1,49",0,7,0,50,0
35,13.918290790004498,Ábila ,1,ATA,"13,44",1,3,Cruzeiro,3,"11,00",0,0,0,1,"5,44",0,0,1,0,0,1,0,"11,00",0,0,1,0,0
35,13.918290790004498,Osvaldo ,9,ATA,"4,75",27,77,Sport,1,"0,00",2,0,0,3,"0,00",0,0,18,0,2,32,0,"2,09",0,3,0,14,7
35,13.918290790004498,Arthur  ,27,ATA,"13,58",32,71,Chapecoense,3,"13,60",12,0,0,8,"0,07",0,0,36,2,6,66,0,"5,22",0,5,0,53,17
36,13.964555978398035,Jair Ventura ,0,TEC,"12,46",36,0,Botafogo,3,"5,55",0,0,0,0,"0,36",0,0,0,0,0,0,0,"4,14",0,0,0,0,0
36,13.964555978398035,Vanderlei ,0,GOL,"22,93",35,11,Santos,3,"11,50",0,0,2,0,"2,32",0,76,0,0,0,7,17,"7,68",30,0,0,2,3
36,13.964555978398035,Igor Rabello ,6,ZAG,"11,50",29,44,Botafogo,3,"8,40",5,0,6,1,"0,93",0,0,44,1,0,17,9,"3,36",0,1,3,31,0
36,13.964555978398035,Betão ,2,ZAG,"7,39",34,66,Avaí,3,"3,80",1,0,7,1,"0,23",0,0,26,0,1,26,11,"2,39",0,0,1,23,0
36,13.964555978398035,Thiago Carleto ,5,LAT,"7,48",19,77,Coritiba,4,"0,00",1,0,3,2,"0,00",1,0,29,0,8,14,6,"6,21",0,0,13,15,0
36,13.964555978398035,Caio ,0,LAT,"2,00",0,0,Sport,2,"0,00",0,0,0,0,"0,00",0,0,0,0,0,0,0,"0,00",0,0,0,0,0
36,13.964555978398035,Uillian Correia ,14,MEI,"5,60",31,55,Vitória,3,"2,40",1,1,0,3,"0,73",0,0,61,1,0,18,0,"2,82",0,7,0,61,4
36,13.964555978398035,Jean ,11,MEI,"9,84",32,60,Vasco,3,"-2,00",0,0,10,1,"-2,31",0,0,85,0,1,44,0,"3,87",0,0,6,63,0
36,13.964555978398035,Maxi Rodríguez ,0,MEI,"6,00",0,0,Grêmio,2,"0,00",0,0,0,0,"0,00",0,0,0,0,0,0,0,"0,00",0,0,0,0,0
36,13.964555978398035,Robinho ,9,ATA,"12,27",29,73,Atlético-MG,3,"0,00",21,0,8,7,"-0,35",1,0,25,1,5,32,0,"3,08",0,0,5,26,0
36,13.964555978398035,Henrique Dourado ,14,ATA,"22,60",28,66,Fluminense,3,"12,70",9,0,7,18,"2,92",0,0,10,0,3,60,0,"5,53",0,0,17,80,0
36,13.964555978398035,Lins ,0,ATA,"5,00",0,0,Ponte Preta,2,"0,00",0,0,0,0,"0,00",0,0,0,0,0,0,0,"0,00",0,0,0,0,0
37,13.964555978398035,Jair Ventura ,0,TEC,"11,95",37,0,Botafogo,3,"2,17",0,0,0,0,"-0,51",0,0,0,0,0,0,0,"4,09",0,0,0,0,0
37,13.964555978398035,Vanderlei ,0,GOL,"22,31",36,11,Santos,3,"7,00",0,0,0,0,"-0,62",0,79,0,0,0,7,17,"7,66",31,2,3,2,0
37,13.964555978398035,Igor Rabello ,7,ZAG,"10,94",30,47,Botafogo,3,"4,40",6,0,1,1,"-0,56",0,0,47,1,0,18,9,"3,39",0,6,0,32,3
37,13.964555978398035,Betão ,2,ZAG,"7,64",35,67,Avaí,3,"4,90",1,0,0,1,"0,25",0,0,27,0,1,27,12,"2,46",0,8,0,23,1
37,13.964555978398035,Thiago Carleto ,5,LAT,"6,84",20,83,Coritiba,3,"3,10",1,0,0,2,"-0,64",1,0,31,0,8,14,6,"6,05",0,3,0,16,15
37,13.964555978398035,Caio ,0,LAT,"2,00",0,0,Sport,2,"0,00",0,0,0,0,"0,00",0,0,0,0,0,0,0,"0,00",0,0,0,0,0
37,13.964555978398035,Uillian Correia ,15,MEI,"6,48",32,57,Vitória,3,"7,20",1,1,8,3,"0,88",0,0,64,1,1,19,0,"2,96",0,0,4,64,0
37,13.964555978398035,Jean ,11,MEI,"10,92",33,60,Vasco,2,"4,60",0,0,0,1,"1,08",0,0,88,0,1,44,0,"3,89",0,10,0,64,6
37,13.964555978398035,Maxi Rodríguez ,0,MEI,"6,00",0,0,Grêmio,2,"0,00",0,0,0,0,"0,00",0,0,0,0,0,0,0,"0,00",0,0,0,0,0
37,13.964555978398035,Robinho ,9,ATA,"12,51",30,75,Atlético-MG,3,"1,60",22,0,0,7,"0,24",1,0,26,1,5,35,0,"3,03",0,8,0,27,5
37,13.964555978398035,Henrique Dourado ,14,ATA,"20,31",29,66,Fluminense,3,"-1,50",9,0,0,18,"-2,29",0,0,10,0,3,61,0,"5,29",0,8,0,80,17
37,13.964555978398035,Lins ,0,ATA,"5,00",0,0,Ponte Preta,2,"0,00",0,0,0,0,"0,00",0,0,0,0,0,0,0,"0,00",0,0,0,0,0
