round,fitness,name,position,team,situation,price,meatches,average,last_score,difference,disarms,goals,assists,no_goals,fouls_suffered,strikes_out,strikes_defended,strikes_post,difficult_defense,penalty_defense,own_goal,red_card,yellow_card,goal_suffered,penalty_lost,fouls_commited,offsides,wrong_pass
0,0.0,Claudinei Oliveira ,0,TEC,"4,42",1,0,Avaí,3,"4,25",0,0,0,0,"2,42",0,0,0,0,0,0,0,"4,25",0,0,0,0,0
0,0.0,João Carlos ,0,GOL,"5,00",0,0,Ponte Preta,2,"0,00",0,0,0,0,"0,00",0,0,0,0,0,0,0,"0,00",0,0,0,0,0
0,0.0,Donatti ,0,ZAG,"8,00",0,0,Flamengo,5,"0,00",0,0,0,0,"0,00",0,0,0,0,0,0,0,"0,00",0,0,0,0,0
0,0.0,Rafael ,0,ZAG,"1,00",0,0,Flamengo,2,"0,00",0,0,0,0,"0,00",0,0,0,0,0,0,0,"0,00",0,0,0,0,0
0,0.0,Dodô ,1,LAT,"7,36",1,3,Coritiba,3,"4,40",0,0,0,0,"1,36",0,0,3,0,0,0,0,"4,40",0,0,0,1,0
0,0.0,Wellington Silva ,0,LAT,"7,00",0,0,Bahia,2,"0,00",0,0,0,0,"0,00",0,0,0,0,0,0,0,"0,00",0,0,0,0,0
0,0.0,Tchê Tchê ,0,MEI,"9,34",1,1,Palmeiras,3,"3,20",0,0,0,0,"-0,66",0,0,0,0,1,0,0,"3,20",0,0,0,3,0
0,0.0,Seijas ,0,MEI,"7,00",0,0,Chapecoense,2,"0,00",0,0,0,0,"0,00",0,0,0,0,0,0,0,"0,00",0,0,0,0,0
0,0.0,Bruno Guimarães ,0,MEI,"1,00",0,0,Atlético-PR,2,"0,00",0,0,0,0,"0,00",0,0,0,0,0,0,0,"0,00",0,0,0,0,0
0,0.0,Caio Monteiro ,0,ATA,"1,00",0,0,Vasco,2,"0,00",0,0,0,0,"0,00",0,0,0,0,0,0,0,"0,00",0,0,0,0,0
0,0.0,Alison ,0,ATA,"1,00",0,0,Sport,2,"0,00",0,0,0,0,"0,00",0,0,0,0,0,0,0,"0,00",0,0,0,0,0
0,0.0,Róger Guedes ,0,ATA,"7,43",1,0,Palmeiras,2,"-0,50",0,0,0,0,"-3,57",0,0,0,0,0,1,0,"-0,50",0,0,0,2,0
1,0.0,Mano Menezes ,0,TEC,"12,31",1,0,Cruzeiro,3,"5,40",0,0,0,0,"0,31",0,0,0,0,0,0,0,"5,40",0,0,0,0,0
1,0.0,Anderson ,0,GOL,"1,00",0,0,Bahia,2,"0,00",0,0,0,0,"0,00",0,0,0,0,0,0,0,"0,00",0,0,0,0,0
1,0.0,Luan Peres  ,0,ZAG,"2,00",0,0,Ponte Preta,2,"0,00",0,0,0,0,"0,00",0,0,0,0,0,0,0,"0,00",0,0,0,0,0
1,0.0,Juninho ,0,ZAG,"12,00",0,0,Coritiba,2,"0,00",0,0,0,0,"0,00",0,0,0,0,0,0,0,"0,00",0,0,0,0,0
1,0.0,Arnaldo ,0,LAT,"3,00",0,0,Botafogo,2,"0,00",0,0,0,0,"0,00",0,0,0,0,0,0,0,"0,00",0,0,0,0,0
1,0.0,Léo Principe ,0,LAT,"3,00",0,0,Corinthians,5,"0,00",0,0,0,0,"0,00",0,0,0,0,0,0,0,"0,00",0,0,0,0,0
1,0.0,Matheus Cassini ,0,MEI,"2,00",0,0,Ponte Preta,2,"0,00",0,0,0,0,"0,00",0,0,0,0,0,0,0,"0,00",0,0,0,0,0
1,0.0,Cícero ,0,MEI,"11,00",0,0,São Paulo,3,"0,00",0,0,0,0,"0,00",0,0,0,0,0,0,0,"0,00",0,0,0,0,0
1,0.0,Fernandes ,0,MEI,"5,00",0,0,Botafogo,2,"0,00",0,0,0,0,"0,00",0,0,0,0,0,0,0,"0,00",0,0,0,0,0
1,0.0,Lucca ,1,ATA,"14,78",1,3,Ponte Preta,3,"13,90",1,0,0,1,"7,78",0,0,3,0,0,2,0,"13,90",0,0,0,1,1
1,0.0,Willians ,0,ATA,"5,00",0,0,Atlético-GO,2,"0,00",0,0,0,0,"0,00",0,0,0,0,0,0,0,"0,00",0,0,0,0,0
1,0.0,Raniel ,0,ATA,"1,06",1,0,Cruzeiro,2,"0,50",0,0,0,0,"0,06",0,0,0,0,0,1,0,"0,50",0,0,0,0,0
2,26.89,Renato Gaúcho ,0,TEC,"13,89",2,0,Grêmio,3,"5,05",0,0,0,0,"0,36",0,0,0,0,0,0,0,"5,59",0,0,0,0,0
2,26.89,Cassiano ,0,GOL,"1,00",0,0,Bahia,2,"0,00",0,0,0,0,"0,00",0,0,0,0,0,0,0,"0,00",0,0,0,0,0
2,26.89,Maicon ,1,ZAG,"10,54",1,5,São Paulo,2,"0,00",0,0,0,0,"0,00",0,0,1,0,0,0,0,"0,90",0,0,0,0,0
2,26.89,Victor Ramos ,0,ZAG,"7,97",2,4,Chapecoense,3,"8,90",0,0,0,0,"2,88",0,0,4,0,0,0,1,"5,05",0,0,0,1,0
2,26.89,Bruno Cortez ,0,LAT,"8,68",2,5,Grêmio,3,"5,00",0,0,0,0,"1,47",0,0,1,0,0,1,2,"4,60",0,0,0,3,0
2,26.89,Ezequiel  ,0,LAT,"6,00",0,0,Cruzeiro,2,"0,00",0,0,0,0,"0,00",0,0,0,0,0,0,0,"0,00",0,0,0,0,0
2,26.89,Vinícius ,0,MEI,"2,00",0,0,Sport,2,"0,00",0,0,0,0,"0,00",0,0,0,0,0,0,0,"0,00",0,0,0,0,0
2,26.89,Fernando Bob ,0,MEI,"10,12",1,3,Ponte Preta,3,"8,10",0,0,0,0,"1,12",0,0,5,0,0,1,0,"8,10",0,0,0,0,0
2,26.89,Ederson ,1,MEI,"5,76",2,2,Flamengo,3,"5,60",0,0,0,0,"1,59",0,0,2,0,0,4,0,"3,25",0,0,1,0,0
2,26.89,Leandro Damião ,3,ATA,"10,80",1,1,Flamengo,2,"11,30",0,0,0,1,"2,80",0,0,0,0,0,0,0,"11,30",0,0,2,1,0
2,26.89,Borja ,2,ATA,"22,71",1,1,Palmeiras,3,"0,00",2,0,0,2,"0,00",0,0,0,0,0,2,0,"16,10",0,0,0,2,0
2,26.89,Rafael Moura ,0,ATA,"4,95",1,0,Atlético-MG,2,"-1,00",1,0,0,0,"-3,05",0,0,0,0,0,0,0,"-1,00",0,0,0,1,0
3,15.72,Dorival Júnior ,0,TEC,"10,94",3,0,Santos,3,"1,26",0,0,0,0,"-0,99",0,0,0,0,0,0,0,"2,97",0,0,0,0,0
3,15.72,Fernando Miguel ,0,GOL,"11,42",3,4,Vitória,3,"9,70",0,0,0,0,"2,52",0,6,0,0,0,1,1,"6,10",2,0,0,0,0
3,15.72,Mauricio ,0,ZAG,"2,00",0,0,Avaí,2,"0,00",0,0,0,0,"0,00",0,0,0,0,0,0,0,"0,00",0,0,0,0,0
3,15.72,Renato Chaves ,0,ZAG,"3,32",1,1,Fluminense,2,"0,00",0,0,0,0,"0,00",0,0,0,0,0,0,0,"-1,30",0,0,0,2,0
3,15.72,Bruno Cortez ,0,LAT,"8,68",2,5,Grêmio,3,"0,00",0,0,0,0,"0,00",0,0,1,0,0,1,2,"4,60",0,0,0,3,0
3,15.72,Patric ,1,LAT,"8,63",1,5,Vitória,2,"0,00",1,0,0,0,"0,00",0,0,0,0,0,0,1,"3,20",0,0,0,1,0
3,15.72,Nikão ,2,MEI,"8,99",3,8,Atlético-PR,3,"5,10",0,0,0,0,"0,79",0,0,3,1,0,3,0,"3,87",0,0,0,1,3
3,15.72,Fernando Bob ,0,MEI,"10,12",1,3,Ponte Preta,5,"0,00",0,0,0,0,"0,00",0,0,5,0,0,1,0,"8,10",0,0,0,0,0
3,15.72,Adilson ,1,MEI,"5,18",3,6,Atlético-MG,5,"-1,30",0,0,0,0,"-0,89",0,0,3,0,0,1,0,"0,50",0,0,0,6,0
3,15.72,Matheus Alessandro ,0,ATA,"1,00",0,0,Fluminense,2,"0,00",0,0,0,0,"0,00",0,0,0,0,0,0,0,"0,00",0,0,0,0,0
3,15.72,Ángel Romero ,0,ATA,"11,82",3,3,Corinthians,3,"7,90",2,0,0,0,"1,75",0,0,7,0,0,14,0,"6,50",0,0,0,1,3
3,15.72,Perotti ,0,ATA,"2,00",0,0,Chapecoense,2,"0,00",0,0,0,0,"0,00",0,0,0,0,0,0,0,"0,00",0,0,0,0,0
4,15.21,Jair Ventura ,0,TEC,"10,74",4,0,Botafogo,3,"4,07",0,0,0,0,"0,17",0,0,0,0,0,0,0,"5,19",0,0,0,0,0
4,15.21,Jailson ,0,GOL,"8,00",0,0,Palmeiras,2,"0,00",0,0,0,0,"0,00",0,0,0,0,0,0,0,"0,00",0,0,0,0,0
4,15.21,Airton  ,0,ZAG,"1,00",0,0,Avaí,2,"0,00",0,0,0,0,"0,00",0,0,0,0,0,0,0,"0,00",0,0,0,0,0
4,15.21,Ricardo Silva ,2,ZAG,"2,94",4,11,Atlético-GO,3,"0,80",0,0,1,0,"0,21",0,0,5,0,0,1,0,"0,28",0,0,0,8,0
4,15.21,Apodi ,0,LAT,"8,44",4,10,Chapecoense,3,"3,90",1,0,0,0,"0,08",0,0,4,0,0,6,3,"4,70",0,0,1,7,0
4,15.21,Fernando ,0,LAT,"1,00",0,0,Botafogo,2,"0,00",0,0,0,0,"0,00",0,0,0,0,0,0,0,"0,00",0,0,0,0,0
4,15.21,Carlos Eduardo ,0,MEI,"3,00",0,0,Atlético-MG,2,"0,00",0,0,0,0,"0,00",0,0,0,0,0,0,0,"0,00",0,0,0,0,0
4,15.21,Judson ,3,MEI,"4,06",4,10,Avaí,3,"0,00",0,0,0,0,"-0,20",0,0,4,0,0,2,0,"1,22",0,0,1,6,0
4,15.21,Guilherme Costa ,0,MEI,"5,50",1,0,Vasco,2,"0,50",0,0,0,0,"-1,50",0,0,0,0,0,1,0,"0,50",0,0,0,0,0
4,15.21,Lucas Barrios ,0,ATA,"11,95",3,2,Grêmio,3,"5,00",3,0,2,2,"0,00",0,0,1,0,1,5,0,"5,87",0,0,1,5,0
4,15.21,Bruno Henrique ,2,ATA,"11,01",4,18,Santos,4,"-6,60",2,1,1,0,"-2,53",0,0,2,1,2,9,0,"1,97",0,0,3,9,0
4,15.21,Róger Guedes ,1,ATA,"4,69",4,7,Palmeiras,3,"0,30",0,0,0,0,"-0,23",0,0,0,0,0,7,0,"0,15",0,0,0,3,0
5,15.21,Jair Ventura ,0,TEC,"10,12",5,0,Botafogo,3,"1,33",0,0,0,0,"-0,62",0,0,0,0,0,0,0,"4,42",0,0,0,0,0
5,15.21,Jailson ,0,GOL,"8,00",0,0,Palmeiras,2,"0,00",0,0,0,0,"0,00",0,0,0,0,0,0,0,"0,00",0,0,0,0,0
5,15.21,Airton  ,0,ZAG,"1,00",0,0,Avaí,2,"0,00",0,0,0,0,"0,00",0,0,0,0,0,0,0,"0,00",0,0,0,0,0
5,15.21,Ricardo Silva ,2,ZAG,"2,94",4,11,Atlético-GO,2,"0,00",0,0,0,0,"0,00",0,0,5,0,0,1,0,"0,28",0,1,0,8,0
5,15.21,Apodi ,0,LAT,"7,14",5,13,Chapecoense,3,"-1,70",1,0,0,0,"-1,30",0,0,5,0,0,7,3,"3,42",0,1,0,9,1
5,15.21,Fernando ,0,LAT,"1,00",0,0,Botafogo,2,"0,00",0,0,0,0,"0,00",0,0,0,0,0,0,0,"0,00",0,0,0,0,0
5,15.21,Carlos Eduardo ,0,MEI,"3,00",0,0,Atlético-MG,2,"0,00",0,0,0,0,"0,00",0,0,0,0,0,0,0,"0,00",0,0,0,0,0
5,15.21,Judson ,3,MEI,"4,06",4,10,Avaí,2,"0,00",0,0,0,0,"0,00",0,0,4,0,0,2,0,"1,22",0,0,0,6,1
5,15.21,Guilherme Costa ,0,MEI,"5,50",1,0,Vasco,2,"0,00",0,0,0,0,"0,00",0,0,0,0,0,1,0,"0,50",0,0,0,0,0
5,15.21,Lucas Barrios ,0,ATA,"10,52",4,5,Grêmio,3,"-0,90",4,0,0,2,"-1,43",0,0,1,0,1,6,0,"4,18",0,2,0,5,1
5,15.21,Bruno Henrique ,2,ATA,"11,01",4,18,Santos,4,"0,00",2,1,0,0,"0,00",0,0,2,1,2,9,0,"1,97",0,1,0,9,3
5,15.21,Róger Guedes ,1,ATA,"4,23",5,7,Palmeiras,1,"-0,50",0,0,0,0,"-0,46",0,0,0,0,0,7,0,"0,02",0,0,0,4,0
6,0.0,Roger Machado  ,0,TEC,"10,70",6,0,Atlético-MG,3,"1,14",0,0,0,0,"-0,78",0,0,0,0,0,0,0,"3,34",0,0,0,0,0
6,0.0,Luiz Felipe ,0,GOL,"2,00",0,0,Chapecoense,2,"0,00",0,0,0,0,"0,00",0,0,0,0,0,0,0,"0,00",0,0,0,0,0
6,0.0,Breno ,0,ZAG,"4,00",0,0,São Paulo,2,"0,00",0,0,0,0,"0,00",0,0,0,0,0,0,0,"0,00",0,0,0,0,0
6,0.0,Lucas Fonseca ,0,ZAG,"4,26",5,8,Bahia,3,"1,60",0,0,0,0,"-0,59",0,0,3,0,0,4,2,"2,84",0,0,1,3,0
6,0.0,Leonan ,0,LAT,"2,00",0,0,Atlético-MG,2,"0,00",0,0,0,0,"0,00",0,0,0,0,0,0,0,"0,00",0,0,0,0,0
6,0.0,Wallace Oliveira ,0,LAT,"5,00",0,0,Grêmio,2,"0,00",0,0,0,0,"0,00",0,0,0,0,0,0,0,"0,00",0,0,0,0,0
6,0.0,Douglas ,9,MEI,"18,59",6,27,Vasco,3,"15,80",1,0,1,1,"2,72",0,0,15,1,0,13,0,"6,62",0,0,4,7,0
6,0.0,Arthur ,0,MEI,"8,19",5,8,Grêmio,3,"6,20",0,0,1,0,"0,10",0,0,15,0,0,6,0,"4,42",0,0,0,4,0
6,0.0,Bruno Guimarães ,0,MEI,"1,00",0,0,Atlético-PR,2,"0,00",0,0,0,0,"0,00",0,0,0,0,0,0,0,"0,00",0,0,0,0,0
6,0.0,Walterson ,0,ATA,"2,07",4,5,Atlético-GO,2,"-1,50",0,0,0,0,"-0,67",0,0,2,0,0,1,0,"0,22",0,0,1,5,0
6,0.0,Toshi ,0,ATA,"3,00",0,0,Avaí,2,"0,00",0,0,0,0,"0,00",0,0,0,0,0,0,0,"0,00",0,0,0,0,0
6,0.0,Lenis ,1,ATA,"2,81",2,2,Sport,5,"0,00",0,0,0,0,"0,00",0,0,0,0,0,3,0,"0,30",0,0,0,2,0
7,2.4866666666666672,Abel Braga ,0,TEC,"11,32",6,0,Fluminense,3,"1,68",0,0,0,0,"-0,44",0,0,0,0,0,0,0,"2,87",0,0,0,0,0
7,2.4866666666666672,Rafael ,0,GOL,"10,00",0,0,Cruzeiro,2,"0,00",0,0,0,0,"0,00",0,0,0,0,0,0,0,"0,00",0,0,0,0,0
7,2.4866666666666672,Leonardo Silva ,0,ZAG,"9,42",1,6,Atlético-MG,3,"-2,10",0,0,1,0,"-3,58",0,0,1,0,0,1,0,"-2,10",0,0,0,1,0
7,2.4866666666666672,Kannemann ,1,ZAG,"10,97",6,13,Grêmio,3,"7,10",0,0,0,0,"0,39",0,0,5,0,0,2,5,"4,05",0,1,0,10,0
7,2.4866666666666672,Bruno Pacheco ,1,LAT,"8,19",7,18,Atlético-GO,3,"5,40",0,0,1,0,"0,83",0,0,6,0,1,18,1,"2,85",0,0,1,7,0
7,2.4866666666666672,Moraes ,0,LAT,"1,00",0,0,Flamengo,2,"0,00",0,0,0,0,"0,00",0,0,0,0,0,0,0,"0,00",0,0,0,0,0
7,2.4866666666666672,Airton ,0,MEI,"5,63",3,7,Botafogo,5,"0,00",0,0,0,0,"0,00",0,0,3,0,0,4,0,"1,17",0,0,0,3,0
7,2.4866666666666672,Allione ,0,MEI,"11,02",7,22,Bahia,3,"-4,00",2,0,0,0,"-1,68",0,0,10,0,4,9,0,"4,20",0,1,0,5,0
7,2.4866666666666672,Luiz Antonio  ,1,MEI,"9,27",7,15,Chapecoense,3,"0,10",0,0,1,2,"0,00",0,0,4,1,1,0,0,"3,79",0,0,6,10,0
7,2.4866666666666672,Everaldo ,7,ATA,"13,01",7,15,Atlético-GO,3,"21,10",1,0,0,4,"4,73",0,0,2,0,1,11,0,"7,04",0,0,8,9,0
7,2.4866666666666672,Rildo ,0,ATA,"6,89",5,9,Coritiba,3,"1,70",1,0,0,1,"-0,24",0,0,6,0,0,12,0,"3,30",0,1,0,5,0
7,2.4866666666666672,Jô ,2,ATA,"11,57",7,18,Corinthians,3,"-2,10",10,0,0,4,"-1,26",0,0,1,0,2,9,0,"5,31",0,0,0,12,4
8,0.0,Milton Mendes ,0,TEC,"9,03",8,0,Vasco,3,"5,97",0,0,0,0,"0,72",0,0,0,0,0,0,0,"3,77",0,0,0,0,0
8,0.0,John Victor ,0,GOL,"1,00",0,0,Santos,2,"0,00",0,0,0,0,"0,00",0,0,0,0,0,0,0,"0,00",0,0,0,0,0
8,0.0,Ricardo Silva ,2,ZAG,"2,94",4,11,Atlético-GO,2,"0,00",0,0,0,0,"0,00",0,0,5,0,0,1,0,"0,28",0,1,0,8,0
8,0.0,Éder  ,0,ZAG,"2,95",1,0,Bahia,2,"0,00",0,0,0,0,"0,00",0,0,2,0,0,1,0,"3,40",0,0,0,1,0
8,0.0,Renê ,1,LAT,"6,79",5,17,Flamengo,2,"0,00",0,0,0,0,"0,00",0,0,9,0,0,7,1,"3,18",0,0,0,7,0
8,0.0,Yago Pikachu ,1,LAT,"10,80",5,13,Vasco,3,"13,70",0,0,0,2,"2,57",0,0,2,0,1,5,1,"5,54",0,0,1,4,0
8,0.0,Carlos Eduardo ,0,MEI,"3,00",0,0,Atlético-MG,2,"0,00",0,0,0,0,"0,00",0,0,0,0,0,0,0,"0,00",0,0,0,0,0
8,0.0,Cícero ,3,MEI,"5,14",7,12,São Paulo,3,"0,20",2,0,2,0,"0,31",0,0,1,0,0,6,0,"-0,90",0,0,0,9,0
8,0.0,Fernandes ,1,MEI,"3,72",1,5,Botafogo,2,"0,00",0,0,0,0,"0,00",0,0,0,0,0,1,0,"-0,30",0,0,0,0,0
8,0.0,Lucca ,6,ATA,"20,26",8,21,Ponte Preta,3,"4,60",2,0,0,5,"0,18",0,0,7,0,1,25,0,"8,29",0,0,6,12,0
8,0.0,Wellington Silva ,0,ATA,"10,89",1,1,Fluminense,5,"0,00",1,0,0,0,"0,00",0,0,1,0,0,4,0,"2,40",0,0,0,1,0
8,0.0,Rafael Moura ,5,ATA,"7,08",7,6,Atlético-MG,2,"9,80",4,0,0,2,"1,39",0,0,2,1,0,6,0,"3,30",0,0,0,11,3
9,0.0,Abel Braga ,0,TEC,"12,70",8,0,Fluminense,3,"8,15",0,0,0,0,"1,10",0,0,0,0,0,0,0,"3,60",0,0,0,0,0
9,0.0,Lucas Ferreira ,0,GOL,"1,00",0,0,Sport,2,"0,00",0,0,0,0,"0,00",0,0,0,0,0,0,0,"0,00",0,0,0,0,0
9,0.0,Donatti ,0,ZAG,"8,00",0,0,Flamengo,2,"0,00",0,0,0,0,"0,00",0,0,0,0,0,0,0,"0,00",0,0,0,0,0
9,0.0,Renato Chaves ,0,ZAG,"3,32",1,1,Fluminense,5,"0,00",0,0,0,0,"0,00",0,0,0,0,0,0,0,"-1,30",0,0,0,2,0
9,0.0,Caju ,0,LAT,"4,00",0,0,Santos,5,"0,00",0,0,0,0,"0,00",0,0,0,0,0,0,0,"0,00",0,0,0,0,0
9,0.0,Leonan ,0,LAT,"2,00",0,0,Atlético-MG,2,"0,00",0,0,0,0,"0,00",0,0,0,0,0,0,0,"0,00",0,0,0,0,0
9,0.0,Ferdinando ,0,MEI,"5,00",0,0,Avaí,2,"0,00",0,0,0,0,"0,00",0,0,0,0,0,0,0,"0,00",0,0,0,0,0
9,0.0,Bruno Ramires ,0,MEI,"5,00",0,0,Vitória,5,"0,00",0,0,0,0,"0,00",0,0,0,0,0,0,0,"0,00",0,0,0,0,0
9,0.0,João Pedro ,0,MEI,"1,20",1,1,Atlético-PR,5,"0,00",0,0,0,0,"0,00",0,0,0,0,0,0,0,"-0,30",0,0,0,0,0
9,0.0,Eduardo da Silva ,1,ATA,"7,19",2,2,Atlético-PR,2,"0,00",1,0,0,0,"0,00",0,0,3,0,0,1,0,"2,10",0,0,0,2,0
9,0.0,Fred ,5,ATA,"15,80",7,15,Atlético-MG,3,"3,90",4,0,0,2,"-0,76",0,0,1,1,1,18,0,"3,60",0,1,0,14,2
9,0.0,Kleber ,6,ATA,"10,49",7,23,Coritiba,4,"0,00",5,1,0,1,"0,00",0,0,3,0,1,17,0,"1,84",0,1,0,21,9
10,0.0,Rogério Ceni ,0,TEC,"10,19",10,0,São Paulo,3,"0,00",0,0,0,0,"0,43",0,0,0,0,0,0,0,"3,78",0,0,0,0,0
10,0.0,Daniel Fuzato ,0,GOL,"1,00",0,0,Palmeiras,2,"0,00",0,0,0,0,"0,00",0,0,0,0,0,0,0,"0,00",0,0,0,0,0
10,0.0,Matheus Ferraz ,1,ZAG,"4,10",1,3,Sport,3,"-0,20",0,0,0,0,"-1,90",0,0,0,0,0,0,0,"-0,20",0,0,0,0,0
10,0.0,Ronaldo Alves ,0,ZAG,"6,64",7,0,Sport,3,"0,00",0,0,0,0,"0,74",0,0,0,0,0,0,0,"1,79",0,0,0,0,0
10,0.0,Dodô ,0,LAT,"9,64",9,0,Coritiba,2,"0,00",0,0,0,0,"0,00",0,0,0,0,0,0,0,"3,75",0,0,0,0,0
10,0.0,William Matheus ,0,LAT,"7,45",9,0,Coritiba,3,"0,00",0,0,0,0,"-0,67",0,0,0,0,0,0,0,"3,40",0,0,0,0,0
10,0.0,Moisés ,0,MEI,"2,32",1,0,Chapecoense,2,"0,00",0,0,0,0,"0,00",0,0,0,0,0,0,0,"3,10",0,0,0,0,0
10,0.0,Xuxa ,0,MEI,"2,44",2,0,Ponte Preta,2,"0,00",0,0,0,0,"0,00",0,0,0,0,0,0,0,"0,55",0,0,0,0,0
10,0.0,Alexsander ,0,MEI,"1,00",0,0,Atlético-PR,2,"0,00",0,0,0,0,"0,00",0,0,0,0,0,0,0,"0,00",0,0,0,0,0
10,0.0,Lourenço ,0,ATA,"0,77",5,0,Avaí,2,"0,00",0,0,0,0,"0,00",0,0,0,0,0,0,0,"-0,16",0,0,0,0,0
10,0.0,Everton ,0,ATA,"9,70",7,0,Grêmio,3,"0,00",0,0,0,0,"0,03",0,0,0,0,0,0,0,"6,40",0,0,0,0,0
10,0.0,Alecsandro ,0,ATA,"2,17",6,0,Coritiba,2,"0,00",0,0,0,0,"-0,82",0,0,0,0,0,0,0,"-1,40",0,0,0,0,0
11,0.0,Mano Menezes ,0,TEC,"12,15",11,0,Cruzeiro,3,"2,35",0,0,0,0,"-0,90",0,0,0,0,0,0,0,"3,75",0,0,0,0,0
11,0.0,Ronaldo ,0,GOL,"1,00",0,0,Vitória,2,"0,00",0,0,0,0,"0,00",0,0,0,0,0,0,0,"0,00",0,0,0,0,0
11,0.0,Ronaldo Alves ,0,ZAG,"7,42",8,21,Sport,3,"6,30",1,0,2,0,"0,78",0,0,3,0,0,12,4,"2,35",0,0,3,9,0
11,0.0,Vitor Hugo ,0,ZAG,"12,00",0,0,Palmeiras,2,"0,00",0,0,0,0,"0,00",0,0,0,0,0,0,0,"0,00",0,0,0,0,0
11,0.0,Júnior Tavares ,4,LAT,"13,18",11,42,São Paulo,3,"6,10",0,0,0,0,"0,87",0,0,14,0,3,23,4,"4,82",0,1,0,13,1
11,0.0,Sidcley ,2,LAT,"12,73",9,31,Atlético-PR,2,"0,00",5,0,0,2,"0,00",0,0,13,0,2,18,3,"6,19",0,1,0,10,1
11,0.0,Jadson ,2,MEI,"3,44",7,11,Ponte Preta,1,"-1,30",0,0,0,0,"-0,24",0,0,5,0,0,6,0,"0,65",0,1,0,6,0
11,0.0,Maicon ,0,MEI,"7,99",6,10,Grêmio,5,"0,00",0,0,0,0,"0,00",0,0,4,0,0,5,0,"0,80",0,0,0,3,0
11,0.0,Guilherme Costa ,0,MEI,"5,50",1,0,Vasco,2,"0,00",0,0,0,0,"0,00",0,0,0,0,0,1,0,"0,50",0,0,0,0,0
11,0.0,Lucas Barrios ,0,ATA,"10,05",6,8,Grêmio,2,"0,00",5,0,0,2,"0,00",0,0,3,0,1,9,0,"3,45",0,2,0,8,3
11,0.0,Bruno Henrique ,3,ATA,"12,33",9,33,Santos,1,"0,00",4,1,0,0,"0,00",0,0,10,1,5,27,0,"3,80",0,2,0,24,6
11,0.0,Dudu ,1,ATA,"16,49",4,14,Palmeiras,2,"0,00",3,0,0,0,"0,00",0,0,5,0,0,17,0,"3,13",0,0,0,1,1
12,0.0,Ney Franco ,0,TEC,"2,28",1,0,Sport,3,"-0,77",0,0,0,0,"-1,72",0,0,0,0,0,0,0,"-0,77",0,0,0,0,0
12,0.0,Rafael Martins ,0,GOL,"2,00",0,0,Coritiba,2,"0,00",0,0,0,0,"0,00",0,0,0,0,0,0,0,"0,00",0,0,0,0,0
12,0.0,Ronaldo Alves ,0,ZAG,"8,40",9,21,Sport,1,"9,40",1,0,2,0,"0,98",0,0,3,0,0,12,4,"3,13",0,0,3,9,0
12,0.0,Éder  ,1,ZAG,"3,74",2,0,Bahia,2,"0,00",0,0,0,0,"0,00",0,0,2,0,0,1,1,"4,80",0,0,1,2,0
12,0.0,Victor Ferraz ,1,LAT,"9,76",9,28,Santos,3,"1,10",0,0,2,2,"0,16",0,0,5,0,0,8,4,"3,88",0,0,0,6,0
12,0.0,Leandro Silva ,4,LAT,"8,43",11,54,Avaí,3,"8,10",1,1,1,0,"0,94",0,0,12,0,1,9,3,"2,65",0,0,3,12,0
12,0.0,Balbino ,0,MEI,"1,00",0,0,Grêmio,2,"0,00",0,0,0,0,"0,00",0,0,0,0,0,0,0,"0,00",0,0,0,0,0
12,0.0,Montillo ,0,MEI,"7,00",0,0,Botafogo,2,"0,00",0,0,0,0,"0,00",0,0,0,0,0,0,0,"0,00",0,0,0,0,0
12,0.0,Bruno Guimarães ,0,MEI,"0,79",3,0,Atlético-PR,2,"-0,80",0,0,2,0,"0,01",0,0,0,0,0,0,0,"-2,27",0,0,0,4,0
12,0.0,Lucas Barrios ,0,ATA,"10,28",7,8,Grêmio,3,"3,80",5,0,2,2,"0,23",0,0,3,0,1,9,0,"3,50",0,0,3,8,0
12,0.0,Wellington Nem ,2,ATA,"7,84",6,3,São Paulo,2,"0,00",2,0,1,1,"0,00",0,0,2,0,0,9,0,"1,82",0,0,0,5,0
12,0.0,Borja ,6,ATA,"17,36",6,6,Palmeiras,2,"0,00",3,0,1,3,"0,00",0,0,1,0,0,9,0,"4,52",0,0,2,8,0
13,21.62393190143191,Roger Machado  ,0,TEC,"10,71",13,0,Atlético-MG,3,"1,84",0,0,0,0,"-0,17",0,0,0,0,0,0,0,"2,94",0,0,0,0,0
13,21.62393190143191,Magrão ,0,GOL,"6,68",13,5,Sport,3,"5,00",0,0,0,0,"-0,92",0,20,1,0,0,0,5,"4,47",16,0,0,0,0
13,21.62393190143191,Jomar ,0,ZAG,"1,40",3,1,Vasco,3,"-0,40",0,0,0,0,"-0,27",0,0,1,0,0,2,0,"-0,67",0,1,0,4,0
13,21.62393190143191,Tiago  ,0,ZAG,"9,75",13,29,Bahia,3,"1,90",5,0,0,1,"0,15",0,0,10,0,0,14,4,"2,39",0,2,0,17,1
13,21.62393190143191,Bruno Cortez ,0,LAT,"10,98",11,21,Grêmio,3,"4,10",1,0,0,1,"0,69",0,0,15,0,0,10,6,"4,80",0,3,0,14,0
13,21.62393190143191,Léo ,0,LAT,"1,00",0,0,Atlético-PR,2,"0,00",0,0,0,0,"0,00",0,0,0,0,0,0,0,"0,00",0,0,0,0,0
13,21.62393190143191,Nikão ,4,MEI,"8,92",11,29,Atlético-PR,3,"0,50",1,0,0,1,"-0,51",0,0,7,1,2,21,0,"3,55",0,1,0,12,9
13,21.62393190143191,Fernando Bob ,0,MEI,"9,20",7,21,Ponte Preta,3,"5,40",1,0,0,0,"0,66",0,0,16,0,0,7,0,"2,83",0,2,0,11,0
13,21.62393190143191,Bruno Silva ,7,MEI,"13,04",11,40,Botafogo,3,"0,00",0,0,0,4,"0,00",0,0,21,0,2,19,0,"5,83",0,5,0,18,3
13,21.62393190143191,Lucas Barrios ,2,ATA,"9,74",8,9,Grêmio,3,"0,80",6,0,0,2,"-0,54",0,0,4,0,1,11,0,"3,16",0,2,0,9,4
13,21.62393190143191,Bruno Henrique ,3,ATA,"11,72",10,33,Santos,3,"0,30",4,1,0,0,"-0,61",0,0,10,1,5,27,0,"3,45",0,2,0,24,6
13,21.62393190143191,Róger Guedes ,5,ATA,"7,04",13,31,Palmeiras,3,"2,50",3,0,0,2,"0,06",0,0,4,1,3,15,0,"2,62",0,2,0,16,2
14,20.351367521367518,Jair Ventura ,0,TEC,"11,66",14,0,Botafogo,3,"4,86",0,0,0,0,"-0,01",0,0,0,0,0,0,0,"4,13",0,0,0,0,0
14,20.351367521367518,Renan Ribeiro ,0,GOL,"9,20",14,10,São Paulo,3,"-1,30",0,0,1,0,"0,26",0,18,0,0,0,1,4,"2,58",16,0,0,0,0
14,20.351367521367518,Léo ,2,ZAG,"8,91",13,30,Cruzeiro,3,"1,40",0,0,3,0,"-0,76",0,0,9,0,1,10,5,"2,62",0,0,1,10,0
14,20.351367521367518,Oswaldo Henríquez ,1,ZAG,"4,47",3,3,Sport,3,"1,30",0,0,0,0,"-0,94",0,0,4,0,0,2,2,"5,97",0,0,0,2,0
14,20.351367521367518,Renê ,1,LAT,"7,00",7,17,Flamengo,3,"5,50",0,0,0,0,"0,19",0,0,10,0,0,7,2,"3,87",0,0,0,9,0
14,20.351367521367518,Yago Pikachu ,1,LAT,"10,85",11,25,Vasco,3,"9,20",1,0,0,2,"1,39",0,0,7,0,1,11,2,"4,48",0,0,3,8,0
14,20.351367521367518,Carlos Eduardo ,0,MEI,"3,00",0,0,Atlético-MG,2,"0,00",0,0,0,0,"0,00",0,0,0,0,0,0,0,"0,00",0,0,0,0,0
14,20.351367521367518,Allione ,0,MEI,"10,90",11,33,Bahia,3,"3,30",3,0,3,0,"0,62",0,0,13,0,4,14,0,"2,95",0,0,1,7,0
14,20.351367521367518,Adryan  ,0,MEI,"2,00",0,0,Flamengo,2,"0,00",0,0,0,0,"0,00",0,0,0,0,0,0,0,"0,00",0,0,0,0,0
14,20.351367521367518,Lucas Barrios ,2,ATA,"12,99",9,12,Grêmio,3,"17,10",6,0,0,2,"3,25",0,0,5,0,1,13,0,"4,71",0,2,0,11,4
14,20.351367521367518,Osvaldo ,4,ATA,"5,22",13,38,Sport,5,"0,00",1,0,0,3,"0,00",0,0,8,0,1,18,0,"2,96",0,2,0,8,4
14,20.351367521367518,Marcos Calazans ,3,ATA,"6,85",8,21,Fluminense,3,"0,00",2,0,0,0,"0,00",0,0,28,0,2,13,0,"6,05",0,2,0,17,2
15,0.14139804639804446,Cuca ,0,TEC,"13,25",15,0,Palmeiras,3,"3,06",0,0,0,0,"-0,52",0,0,0,0,0,0,0,"3,54",0,0,0,0,0
15,0.14139804639804446,Fernando Miguel ,0,GOL,"8,48",15,13,Vitória,3,"-6,00",0,0,0,0,"-0,70",0,24,0,0,0,3,3,"1,91",27,1,0,0,0
15,0.14139804639804446,Éder  ,2,ZAG,"3,27",4,3,Bahia,3,"3,00",0,0,1,0,"0,76",0,0,2,0,0,2,2,"2,72",0,0,1,6,0
15,0.14139804639804446,Gabriel ,3,ZAG,"9,73",9,17,Atlético-MG,3,"6,70",0,0,0,1,"0,97",0,0,13,0,0,6,2,"4,12",0,0,1,8,0
15,0.14139804639804446,João Lucas ,0,LAT,"11,26",10,43,Ponte Preta,2,"0,00",1,0,1,0,"0,00",0,0,14,0,1,6,4,"3,39",0,0,1,7,0
15,0.14139804639804446,Leandro Silva ,6,LAT,"8,65",14,69,Avaí,3,"9,20",2,1,0,0,"1,64",0,0,19,0,1,12,5,"2,74",0,1,0,19,4
15,0.14139804639804446,Silva ,1,MEI,"2,65",6,6,Atlético-GO,2,"-0,50",0,0,0,0,"-0,57",0,0,9,0,0,6,0,"1,28",0,1,0,15,0
15,0.14139804639804446,Arthur ,0,MEI,"10,08",13,26,Grêmio,3,"9,50",0,0,0,1,"1,15",0,0,30,0,0,23,0,"4,44",0,1,0,8,1
15,0.14139804639804446,Ariel Cabral ,8,MEI,"6,56",12,46,Cruzeiro,3,"2,40",0,0,3,0,"0,23",0,0,21,0,0,23,0,"2,16",0,0,0,14,0
15,0.14139804639804446,Lucca ,14,ATA,"23,05",15,44,Ponte Preta,3,"15,40",6,0,0,8,"1,44",1,0,17,0,1,53,0,"8,14",0,1,0,15,17
15,0.14139804639804446,Nickson ,0,ATA,"3,00",0,0,Cruzeiro,2,"0,00",0,0,0,0,"0,00",0,0,0,0,0,0,0,"0,00",0,0,0,0,0
15,0.14139804639804446,Pablo ,4,ATA,"2,35",8,27,Atlético-PR,3,"-1,60",8,0,0,0,"-0,18",0,0,1,0,0,10,0,"-1,70",0,3,0,12,1
16,0.0,Milton Mendes ,0,TEC,"9,78",16,0,Vasco,3,"6,34",0,0,0,0,"1,05",0,0,0,0,0,0,0,"3,57",0,0,0,0,0
16,0.0,Lucas Ferreira ,0,GOL,"1,00",0,0,Sport,2,"0,00",0,0,0,0,"0,00",0,0,0,0,0,0,0,"0,00",0,0,0,0,0
16,0.0,Donatti ,0,ZAG,"8,00",0,0,Flamengo,5,"0,00",0,0,0,0,"0,00",0,0,0,0,0,0,0,"0,00",0,0,0,0,0
16,0.0,Renato Chaves ,0,ZAG,"3,32",1,1,Fluminense,5,"0,00",0,0,0,0,"0,00",0,0,0,0,0,0,0,"-1,30",0,0,0,2,0
16,0.0,Bruno Cortez ,0,LAT,"10,06",14,30,Grêmio,3,"0,90",1,0,3,1,"0,29",0,0,17,0,0,12,7,"3,77",0,0,0,21,0
16,0.0,Patric ,7,LAT,"6,19",13,65,Vitória,2,"-0,10",5,0,2,0,"0,05",0,0,16,0,1,8,2,"1,38",0,0,3,20,0
16,0.0,Diego Gomes ,0,MEI,"1,00",0,0,Santos,2,"0,00",0,0,0,0,"0,00",0,0,0,0,0,0,0,"0,00",0,0,0,0,0
16,0.0,Willians ,0,MEI,"4,00",0,0,Cruzeiro,2,"0,00",0,0,0,0,"0,00",0,0,0,0,0,0,0,"0,00",0,0,0,0,0
16,0.0,Guilherme Costa ,0,MEI,"5,95",5,2,Vasco,2,"3,90",0,0,0,1,"0,75",0,0,0,0,1,5,0,"3,56",0,0,0,2,0
16,0.0,Lucas Barrios ,2,ATA,"9,41",10,16,Grêmio,4,"0,00",6,0,3,4,"0,00",0,0,6,0,1,13,0,"3,88",0,0,5,15,0
16,0.0,Bruno Henrique ,5,ATA,"15,73",12,40,Santos,3,"23,70",4,1,3,0,"4,55",0,0,11,1,5,32,0,"4,70",0,0,6,30,0
16,0.0,Dudu ,2,ATA,"16,14",8,31,Palmeiras,4,"0,00",4,0,3,2,"0,00",0,0,8,0,0,37,0,"3,65",0,0,1,8,0
17,0.0,Marcelo Cabo ,0,TEC,"3,25",1,0,Atlético-GO,3,"2,60",0,0,0,0,"1,25",0,0,0,0,0,0,0,"2,60",0,0,0,0,0
17,0.0,William Menezes ,0,GOL,"2,00",0,0,Coritiba,2,"0,00",0,0,0,0,"0,00",0,0,0,0,0,0,0,"0,00",0,0,0,0,0
17,0.0,Rodrigo Becão ,0,ZAG,"3,00",0,0,Bahia,2,"0,00",0,0,0,0,"0,00",0,0,0,0,0,0,0,"0,00",0,0,0,0,0
17,0.0,Éder  ,0,ZAG,"2,00",0,0,Bahia,1,"0,00",0,0,0,0,"0,00",0,0,0,0,0,0,0,"0,00",0,0,0,0,0
17,0.0,Bruno Cortez ,0,LAT,"7,21",1,1,Grêmio,3,"4,20",0,0,0,0,"1,21",0,0,0,0,0,0,1,"4,20",0,0,0,1,0
17,0.0,Carlos Cesar ,0,LAT,"4,46",1,4,Atlético-MG,5,"-0,70",0,0,0,0,"-2,54",0,0,0,0,0,1,0,"-0,70",0,0,0,0,0
17,0.0,Silva ,0,MEI,"3,00",0,0,Atlético-GO,2,"0,00",0,0,0,0,"0,00",0,0,0,0,0,0,0,"0,00",0,0,0,0,0
17,0.0,Bruno Ramires ,0,MEI,"5,00",0,0,Vitória,5,"0,00",0,0,0,0,"0,00",0,0,0,0,0,0,0,"0,00",0,0,0,0,0
17,0.0,Guilherme Costa ,0,MEI,"7,00",0,0,Vasco,2,"0,00",0,0,0,0,"0,00",0,0,0,0,0,0,0,"0,00",0,0,0,0,0
17,0.0,Ábila ,1,ATA,"13,44",1,3,Cruzeiro,3,"11,00",0,0,0,1,"5,44",0,0,1,0,0,1,0,"11,00",0,0,0,0,1
17,0.0,Ty Sandows ,0,ATA,"1,00",0,0,Grêmio,2,"0,00",0,0,0,0,"0,00",0,0,0,0,0,0,0,"0,00",0,0,0,0,0
17,0.0,Róger Guedes ,0,ATA,"7,43",1,0,Palmeiras,2,"-0,50",0,0,0,0,"-3,57",0,0,0,0,0,1,0,"-0,50",0,0,0,2,0
18,1.4337125619478577,Cuca ,0,TEC,"13,79",18,0,Palmeiras,3,"3,08",0,0,0,0,"-0,56",0,0,0,0,0,0,0,"3,91",0,0,0,0,0
18,1.4337125619478577,Rafael Fachin ,0,GOL,"1,00",0,0,Coritiba,2,"0,00",0,0,0,0,"0,00",0,0,0,0,0,0,0,"0,00",0,0,0,0,0
18,1.4337125619478577,Matheus Ferraz ,1,ZAG,"4,10",1,3,Sport,3,"-0,20",0,0,0,0,"-1,90",0,0,0,0,0,0,0,"-0,20",0,0,0,0,0
18,1.4337125619478577,Betão ,1,ZAG,"5,89",17,39,Avaí,3,"-3,40",0,0,5,0,"-0,74",0,0,12,0,0,15,7,"2,13",0,0,1,13,0
18,1.4337125619478577,Victor Ferraz ,1,LAT,"9,09",10,31,Santos,3,"0,00",0,0,2,2,"0,00",0,0,7,0,0,9,4,"3,58",0,0,0,8,0
18,1.4337125619478577,Leandro Silva ,7,LAT,"7,59",17,81,Avaí,3,"-0,40",2,1,1,0,"-0,30",0,0,22,0,2,16,6,"2,88",0,0,4,26,0
18,1.4337125619478577,Carlos Eduardo ,0,MEI,"3,00",0,0,Atlético-MG,2,"0,00",0,0,0,0,"0,00",0,0,0,0,0,0,0,"0,00",0,0,0,0,0
18,1.4337125619478577,Arthur ,0,MEI,"9,66",15,32,Grêmio,1,"3,80",0,0,2,1,"-0,44",0,0,37,0,0,32,0,"4,58",0,0,1,11,0
18,1.4337125619478577,Elton ,3,MEI,"7,02",13,29,Ponte Preta,3,"8,50",2,1,0,1,"1,36",0,0,18,0,1,14,0,"2,27",0,0,0,19,1
18,1.4337125619478577,Jael ,0,ATA,"5,00",0,0,Grêmio,5,"0,00",0,0,0,0,"0,00",0,0,0,0,0,0,0,"0,00",0,0,0,0,0
18,1.4337125619478577,Bruno Henrique ,5,ATA,"14,21",14,45,Santos,3,"9,70",4,1,3,4,"0,79",0,0,13,1,6,42,0,"5,29",0,0,7,37,0
18,1.4337125619478577,Paulo Vitor ,4,ATA,"2,10",7,9,Vasco,3,"-0,70",1,0,1,1,"-1,04",0,0,4,1,0,10,0,"2,77",0,0,3,9,0
19,0.0,Cuca ,0,TEC,"13,67",19,0,Palmeiras,3,"3,52",0,0,0,0,"-0,12",0,0,0,0,0,0,0,"3,89",0,0,0,0,0
19,0.0,Rafael Fachin ,0,GOL,"1,00",0,0,Coritiba,2,"0,00",0,0,0,0,"0,00",0,0,0,0,0,0,0,"0,00",0,0,0,0,0
19,0.0,Léo ,3,ZAG,"9,31",18,46,Cruzeiro,3,"4,10",0,0,0,0,"0,04",0,0,13,0,1,11,8,"2,71",0,4,0,12,2
19,0.0,Bruno Rodrigo ,0,ZAG,"5,22",2,3,Grêmio,3,"5,60",0,0,0,0,"0,11",0,0,1,0,0,0,1,"2,65",0,0,0,1,0
19,0.0,Victor Ferraz ,1,LAT,"10,18",11,35,Santos,3,"7,20",0,0,0,2,"1,09",0,0,9,0,0,10,5,"3,91",0,2,0,9,0
19,0.0,Carlos Cesar ,0,LAT,"4,46",1,4,Atlético-MG,5,"0,00",0,0,0,0,"0,00",0,0,0,0,0,1,0,"-0,70",0,0,0,0,0
19,0.0,Diego Rosa ,0,MEI,"8,77",1,1,Bahia,1,"6,40",0,0,0,0,"2,77",0,0,1,0,1,1,0,"6,40",0,0,0,1,0
19,0.0,Marciel ,0,MEI,"3,00",0,0,Corinthians,2,"0,00",0,0,0,0,"0,00",0,0,0,0,0,0,0,"0,00",0,0,0,0,0
19,0.0,Lima ,0,MEI,"1,00",0,0,Chapecoense,2,"0,00",0,0,0,0,"0,00",0,0,0,0,0,0,0,"0,00",0,0,0,0,0
19,0.0,Mário ,0,ATA,"1,00",0,0,Bahia,2,"0,00",0,0,0,0,"0,00",0,0,0,0,0,0,0,"0,00",0,0,0,0,0
19,0.0,Marcinho ,11,ATA,"4,23",19,70,São Paulo,3,"-0,20",1,0,0,2,"-0,34",0,0,10,0,2,21,0,"1,57",0,2,0,24,6
19,0.0,Marcos Junior ,1,ATA,"2,55",8,9,Fluminense,2,"0,00",2,0,3,1,"0,00",0,0,1,0,0,5,0,"0,34",0,0,1,3,0
20,0.0,Rogério Ceni ,0,TEC,"7,39",1,0,São Paulo,3,"2,45",0,0,0,0,"-0,61",0,0,0,0,0,0,0,"2,45",0,0,0,0,0
20,0.0,Lucas Ferreira ,0,GOL,"1,00",0,0,Sport,2,"0,00",0,0,0,0,"0,00",0,0,0,0,0,0,0,"0,00",0,0,0,0,0
20,0.0,Matheus Ferraz ,1,ZAG,"4,10",1,3,Sport,3,"-0,20",0,0,0,0,"-1,90",0,0,0,0,0,0,0,"-0,20",0,0,0,0,0
20,0.0,Nogueira ,0,ZAG,"1,92",5,6,Fluminense,2,"0,00",0,0,2,0,"0,00",0,0,1,1,0,4,0,"0,48",0,0,2,2,0
20,0.0,João Lucas ,0,LAT,"11,26",10,43,Ponte Preta,2,"0,00",1,0,0,0,"0,00",0,0,14,0,1,6,4,"3,39",0,1,0,7,1
20,0.0,Carlos Cesar ,0,LAT,"4,46",1,4,Atlético-MG,5,"0,00",0,0,0,0,"0,00",0,0,0,0,0,1,0,"-0,70",0,0,0,0,0
20,0.0,Lucas Fernandes ,3,MEI,"4,97",6,4,São Paulo,5,"0,00",0,0,0,1,"0,00",0,0,3,0,0,4,0,"2,42",0,1,0,3,2
20,0.0,Allione ,1,MEI,"10,13",13,44,Bahia,5,"0,00",4,0,3,0,"0,00",0,0,16,1,4,15,0,"2,70",0,0,2,9,0
20,0.0,Douglas ,0,MEI,"3,78",2,7,Fluminense,2,"0,00",0,0,2,0,"0,00",0,0,3,0,0,1,0,"-1,00",0,0,0,3,0
20,0.0,Fernandinho ,4,ATA,"11,62",16,26,Grêmio,3,"1,20",0,0,1,6,"-2,07",0,0,17,0,1,42,0,"6,19",0,0,11,16,0
20,0.0,Judivan  ,0,ATA,"4,00",0,0,Cruzeiro,2,"0,00",0,0,0,0,"0,00",0,0,0,0,0,0,0,"0,00",0,0,0,0,0
20,0.0,Marcos Calazans ,3,ATA,"5,76",11,22,Fluminense,5,"0,00",3,0,0,0,"0,00",0,0,28,0,2,14,0,"3,87",0,4,0,20,2
21,0.0,Renato Gaúcho ,0,TEC,"15,56",21,0,Grêmio,3,"4,77",0,0,0,0,"0,20",0,0,0,0,0,0,0,"4,56",0,0,0,0,0
21,0.0,Luiz Felipe ,0,GOL,"2,00",0,0,Chapecoense,2,"0,00",0,0,0,0,"0,00",0,0,0,0,0,0,0,"0,00",0,0,0,0,0
21,0.0,Marcelo ,3,ZAG,"5,14",8,17,Botafogo,2,"0,00",0,0,0,0,"0,00",0,0,10,0,0,2,4,"3,82",0,1,0,7,1
21,0.0,Alan Costa ,2,ZAG,"8,16",7,12,Vitória,2,"0,00",1,0,0,0,"0,00",0,0,8,0,1,3,1,"2,91",0,0,0,4,0
21,0.0,Apodi ,10,LAT,"8,41",18,39,Chapecoense,3,"9,50",2,0,0,0,"1,51",0,0,24,0,0,35,5,"2,81",0,6,0,40,5
21,0.0,Breno Lopes ,0,LAT,"3,00",0,0,Ponte Preta,2,"0,00",0,0,0,0,"0,00",0,0,0,0,0,0,0,"0,00",0,0,0,0,0
21,0.0,Abuda ,0,MEI,"5,39",1,2,Atlético-GO,2,"0,00",0,0,0,0,"0,00",0,0,2,0,0,1,0,"3,30",0,0,0,0,0
21,0.0,Bruno Ramires ,0,MEI,"5,00",0,0,Vitória,5,"0,00",0,0,0,0,"0,00",0,0,0,0,0,0,0,"0,00",0,0,0,0,0
21,0.0,Guilherme Costa ,0,MEI,"5,21",6,5,Vasco,2,"0,00",0,0,0,1,"0,00",0,0,1,0,2,7,0,"2,95",0,1,0,4,0
21,0.0,Alison ,0,ATA,"1,00",0,0,Sport,2,"0,00",0,0,0,0,"0,00",0,0,0,0,0,0,0,"0,00",0,0,0,0,0
21,0.0,Toshi ,0,ATA,"3,00",0,0,Avaí,2,"0,00",0,0,0,0,"0,00",0,0,0,0,0,0,0,"0,00",0,0,0,0,0
21,0.0,Osman ,4,ATA,"2,99",7,4,Chapecoense,5,"0,00",0,0,0,1,"0,00",0,0,0,0,1,1,0,"1,23",0,2,0,5,0
22,0.0,Marcelo Cabo ,0,TEC,"3,25",1,0,Atlético-GO,3,"2,60",0,0,0,0,"1,25",0,0,0,0,0,0,0,"2,60",0,0,0,0,0
22,0.0,William Menezes ,0,GOL,"2,00",0,0,Coritiba,2,"0,00",0,0,0,0,"0,00",0,0,0,0,0,0,0,"0,00",0,0,0,0,0
22,0.0,Rodrigo Becão ,1,ZAG,"2,88",6,8,Bahia,2,"0,00",0,0,1,0,"-0,54",0,0,5,0,0,4,1,"1,80",0,0,1,4,0
22,0.0,Renato Chaves ,1,ZAG,"3,73",6,7,Fluminense,3,"3,60",1,0,1,1,"0,70",0,0,6,0,0,2,1,"2,97",0,0,2,9,0
22,0.0,Reinaldo ,6,LAT,"12,10",18,86,Chapecoense,3,"2,20",1,0,5,3,"-1,11",0,0,31,0,2,17,4,"4,23",0,0,4,22,0
22,0.0,Léo ,0,LAT,"6,00",0,0,Atlético-PR,2,"0,00",0,0,0,0,"0,00",0,0,0,0,0,0,0,"0,00",0,0,0,0,0
22,0.0,Silva ,1,MEI,"3,18",9,6,Atlético-GO,2,"0,00",0,0,1,0,"0,00",0,0,12,0,0,7,0,"1,26",0,0,0,19,0
22,0.0,Arthur ,0,MEI,"8,85",16,33,Grêmio,2,"0,00",0,0,3,1,"0,00",0,0,38,0,0,33,0,"4,29",0,0,1,11,0
22,0.0,Guilherme Costa ,1,MEI,"5,04",7,7,Vasco,2,"0,10",0,0,1,1,"-0,17",0,0,1,0,2,7,0,"2,54",0,0,0,4,0
22,0.0,Ábila ,1,ATA,"13,44",1,3,Cruzeiro,3,"11,00",0,0,0,1,"5,44",0,0,1,0,0,1,0,"11,00",0,0,1,0,0
22,0.0,Ty Sandows ,0,ATA,"1,00",0,0,Grêmio,2,"0,00",0,0,0,0,"0,00",0,0,0,0,0,0,0,"0,00",0,0,0,0,0
22,0.0,Róger Guedes ,8,ATA,"6,61",20,57,Palmeiras,3,"0,00",6,0,2,4,"0,00",0,0,7,1,3,26,0,"2,25",0,0,4,32,0
23,0.0,Renato Gaúcho ,0,TEC,"15,30",22,0,Grêmio,3,"2,44",0,0,0,0,"-0,26",0,0,0,0,0,0,0,"4,46",0,0,0,0,0
23,0.0,Luiz Felipe ,0,GOL,"2,00",0,0,Chapecoense,2,"0,00",0,0,0,0,"0,00",0,0,0,0,0,0,0,"0,00",0,0,0,0,0
23,0.0,Rodrigo Becão ,1,ZAG,"4,25",7,9,Bahia,3,"7,50",0,0,0,0,"1,37",0,0,9,0,0,6,1,"2,61",0,1,0,4,1
23,0.0,Alan Costa ,2,ZAG,"8,16",7,12,Vitória,2,"0,00",1,0,0,0,"0,00",0,0,8,0,1,3,1,"2,91",0,0,0,4,0
23,0.0,Apodi ,11,LAT,"7,51",20,43,Chapecoense,3,"2,50",2,0,0,0,"0,13",0,0,26,0,0,40,5,"2,75",0,6,0,44,6
23,0.0,Breno Lopes ,0,LAT,"3,00",0,0,Ponte Preta,2,"0,00",0,0,0,0,"0,00",0,0,0,0,0,0,0,"0,00",0,0,0,0,0
23,0.0,Abuda ,0,MEI,"6,00",0,0,Atlético-GO,2,"0,00",0,0,0,0,"0,00",0,0,0,0,0,0,0,"0,00",0,0,0,0,0
23,0.0,Bruno Ramires ,0,MEI,"5,00",0,0,Vitória,5,"0,00",0,0,0,0,"0,00",0,0,0,0,0,0,0,"0,00",0,0,0,0,0
23,0.0,Guilherme Costa ,1,MEI,"5,04",7,7,Vasco,2,"0,00",0,0,0,1,"0,00",0,0,1,0,2,7,0,"2,54",0,1,0,4,0
23,0.0,Alison ,0,ATA,"1,00",0,0,Sport,2,"0,00",0,0,0,0,"0,00",0,0,0,0,0,0,0,"0,00",0,0,0,0,0
23,0.0,Toshi ,0,ATA,"3,00",0,0,Avaí,2,"0,00",0,0,0,0,"0,00",0,0,0,0,0,0,0,"0,00",0,0,0,0,0
23,0.0,Vladimir Hernández ,4,ATA,"7,75",12,19,Santos,2,"0,00",2,0,0,1,"0,00",0,0,5,0,0,17,0,"1,63",0,1,0,5,3
24,0.0,Rogério Ceni ,0,TEC,"7,39",1,0,São Paulo,3,"2,45",0,0,0,0,"-0,61",0,0,0,0,0,0,0,"2,45",0,0,0,0,0
24,0.0,João Paulo ,0,GOL,"2,97",1,1,Santos,2,"0,00",0,0,0,0,"0,00",0,2,0,0,0,0,1,"10,70",0,0,0,0,0
24,0.0,Breno ,0,ZAG,"4,00",0,0,São Paulo,2,"0,00",0,0,0,0,"0,00",0,0,0,0,0,0,0,"0,00",0,0,0,0,0
24,0.0,Paulo André ,0,ZAG,"4,85",14,29,Atlético-PR,3,"0,00",0,0,4,0,"0,00",0,0,12,1,0,10,4,"2,01",0,0,2,12,0
24,0.0,Henrique Gelain ,0,LAT,"1,00",0,0,Coritiba,5,"0,00",0,0,0,0,"0,00",0,0,0,0,0,0,0,"0,00",0,0,0,0,0
24,0.0,Patric ,11,LAT,"7,85",21,83,Vitória,4,"4,60",6,0,3,0,"-1,02",0,0,25,0,3,13,6,"2,77",0,0,6,31,0
24,0.0,Lucas Fernandes ,5,MEI,"4,35",10,8,São Paulo,2,"3,40",0,0,0,1,"-0,28",0,0,7,0,0,10,0,"2,45",0,1,0,7,4
24,0.0,João Filipe ,0,MEI,"5,00",0,0,Atlético-GO,2,"0,00",0,0,0,0,"0,00",0,0,0,0,0,0,0,"0,00",0,0,0,0,0
24,0.0,Rithely ,17,MEI,"10,84",20,65,Sport,3,"0,90",1,0,5,1,"-0,56",0,0,48,0,2,19,0,"4,18",0,0,7,29,0
24,0.0,Lucca ,20,ATA,"21,73",22,60,Ponte Preta,3,"7,70",7,0,3,10,"0,39",1,0,23,0,1,78,0,"7,11",0,0,22,24,0
24,0.0,Fred ,10,ATA,"14,01",16,35,Atlético-MG,3,"2,10",10,0,4,5,"1,16",2,0,5,1,1,30,0,"2,54",0,0,5,26,0
24,0.0,Everaldo ,1,ATA,"6,30",1,1,Atlético-GO,3,"4,90",1,0,0,0,"2,30",0,0,0,0,0,0,0,"4,90",0,0,0,0,5
25,0.0,Cuca ,0,TEC,"14,38",25,0,Palmeiras,3,"6,36",0,0,0,0,"-0,03",0,0,0,0,0,0,0,"4,08",0,0,0,0,0
25,0.0,Wallace ,0,GOL,"1,00",0,0,Vitória,2,"0,00",0,0,0,0,"0,00",0,0,0,0,0,0,0,"0,00",0,0,0,0,0
25,0.0,Donatti ,0,ZAG,"8,00",0,0,Flamengo,5,"0,00",0,0,0,0,"0,00",0,0,0,0,0,0,0,"0,00",0,0,0,0,0
25,0.0,Renato Chaves ,1,ZAG,"2,66",7,11,Fluminense,5,"0,00",1,0,0,1,"0,00",0,0,6,0,0,2,1,"2,16",0,2,0,10,3
25,0.0,Renê ,1,LAT,"7,58",11,34,Flamengo,1,"8,20",0,0,0,0,"0,70",0,0,24,0,0,11,3,"4,12",0,0,0,15,1
25,0.0,Reinaldo ,7,LAT,"12,72",20,95,Chapecoense,3,"4,80",1,0,6,3,"-1,00",0,0,35,0,3,18,6,"4,62",0,0,4,26,0
25,0.0,Douglas ,3,MEI,"15,21",1,4,Vasco,3,"9,50",0,0,0,0,"3,21",0,0,3,1,0,2,0,"9,50",0,1,0,0,1
25,0.0,André Castro ,3,MEI,"2,00",20,39,Atlético-GO,2,"-0,30",1,0,0,0,"-1,18",0,0,28,0,0,10,0,"1,32",0,3,0,22,1
25,0.0,Lucas Lima ,6,MEI,"4,59",16,83,Santos,5,"0,00",0,0,9,1,"0,00",0,0,20,0,3,41,0,"1,93",0,0,7,30,0
25,0.0,Fernandinho ,11,ATA,"11,75",20,37,Grêmio,1,"2,40",2,0,0,6,"-0,79",0,0,20,0,1,61,0,"5,66",0,1,0,22,13
25,0.0,Fernandinho ,11,ATA,"11,75",20,37,Grêmio,1,"2,40",2,0,1,6,"-0,79",0,0,20,0,1,61,0,"5,66",0,0,13,22,0
25,0.0,Marcos Calazans ,3,ATA,"5,76",11,22,Fluminense,5,"0,00",3,0,4,0,"0,00",0,0,28,0,2,14,0,"3,87",0,0,2,20,0
26,0.0,Cuca ,0,TEC,"13,93",26,0,Palmeiras,3,"2,51",0,0,0,0,"-0,45",0,0,0,0,0,0,0,"4,02",0,0,0,0,0
26,0.0,Matheus Phillipe ,0,GOL,"1,00",0,0,Fluminense,2,"0,00",0,0,0,0,"0,00",0,0,0,0,0,0,0,"0,00",0,0,0,0,0
26,0.0,Nathan ,0,ZAG,"1,00",0,0,Atlético-MG,2,"0,00",0,0,0,0,"0,00",0,0,0,0,0,0,0,"0,00",0,0,0,0,0
26,0.0,Bruno Rodrigo ,1,ZAG,"5,81",5,6,Grêmio,2,"6,40",0,0,1,0,"0,32",0,0,6,0,0,1,3,"4,22",0,0,1,5,0
26,0.0,Bruno Cortez ,0,LAT,"10,66",20,38,Grêmio,3,"4,70",2,0,3,1,"-0,18",0,0,25,0,0,18,9,"3,61",0,0,0,28,0
26,0.0,Buffarini ,2,LAT,"7,28",7,20,São Paulo,2,"0,00",0,0,0,0,"0,00",0,0,9,0,1,6,1,"2,67",0,0,0,10,0
26,0.0,Arrascaeta ,7,MEI,"7,46",9,33,Cruzeiro,2,"-1,60",0,0,1,1,"-1,59",0,0,7,0,0,18,0,"2,99",0,0,9,8,0
26,0.0,Hudson ,7,MEI,"6,48",13,19,Cruzeiro,3,"0,00",0,0,0,1,"0,00",0,0,25,0,0,13,0,"3,52",0,1,0,19,1
26,0.0,Judson ,9,MEI,"4,21",23,52,Avaí,3,"1,70",0,0,0,0,"0,34",0,0,37,0,1,13,0,"1,12",0,8,0,53,3
26,0.0,Lucca ,22,ATA,"20,07",24,65,Ponte Preta,3,"-2,40",7,0,3,10,"-0,61",2,0,23,0,1,83,0,"6,49",0,0,24,27,0
26,0.0,James Dean ,0,ATA,"1,00",0,0,Sport,2,"0,00",0,0,0,0,"0,00",0,0,0,0,0,0,0,"0,00",0,0,0,0,0
26,0.0,Paulo Vitor ,4,ATA,"1,97",9,15,Vasco,2,"0,00",1,0,1,1,"0,00",0,0,5,1,0,10,0,"2,03",0,0,3,11,0
27,0.0,Cuca ,0,TEC,"15,09",1,0,Palmeiras,3,"8,34",0,0,0,0,"2,09",0,0,0,0,0,0,0,"8,34",0,0,0,0,0
27,0.0,Luiz Felipe ,0,GOL,"2,00",0,0,Chapecoense,2,"0,00",0,0,0,0,"0,00",0,0,0,0,0,0,0,"0,00",0,0,0,0,0
27,0.0,Airton  ,0,ZAG,"1,60",5,0,Avaí,2,"0,00",0,0,0,0,"0,00",0,0,0,0,0,0,0,"2,74",0,0,0,0,0
27,0.0,Rodrigo Becão ,0,ZAG,"3,41",8,0,Bahia,2,"0,00",0,0,0,0,"-0,84",0,0,0,0,0,0,0,"2,46",0,0,0,0,0
27,0.0,Lucas ,0,LAT,"4,39",1,1,Fluminense,3,"-1,80",0,0,0,0,"-3,61",0,0,0,0,0,0,0,"-1,80",0,0,0,3,0
27,0.0,Yago Pikachu ,0,LAT,"8,91",16,0,Vasco,2,"0,00",0,0,0,0,"-1,06",0,0,0,0,0,0,0,"4,19",0,0,0,0,0
27,0.0,Carlos Eduardo ,0,MEI,"3,00",0,0,Atlético-MG,2,"0,00",0,0,0,0,"0,00",0,0,0,0,0,0,0,"0,00",0,0,0,0,0
27,0.0,Bruno Ramires ,0,MEI,"5,00",0,0,Vitória,5,"0,00",0,0,0,0,"0,00",0,0,0,0,0,0,0,"0,00",0,0,0,0,0
27,0.0,Guilherme Costa ,0,MEI,"4,94",8,0,Vasco,2,"0,00",0,0,0,0,"0,00",0,0,0,0,0,0,0,"2,25",0,0,0,0,0
27,0.0,Lucca ,0,ATA,"20,39",25,0,Ponte Preta,2,"0,00",0,0,0,0,"0,32",0,0,0,0,0,0,0,"6,25",0,0,0,0,0
27,0.0,Osvaldo ,0,ATA,"5,07",20,0,Sport,3,"0,00",0,0,0,0,"-0,31",0,0,0,0,0,0,0,"2,27",0,0,0,0,0
27,0.0,Wellington Silva ,0,ATA,"8,48",13,0,Fluminense,2,"0,00",0,0,0,0,"0,00",0,0,0,0,0,0,0,"2,40",0,0,0,0,0
28,0.0,Renato Gaúcho ,0,TEC,"15,61",27,0,Grêmio,3,"0,00",0,0,0,0,"0,32",0,0,0,0,0,0,0,"4,24",0,0,0,0,0
28,0.0,Luiz Felipe ,0,GOL,"2,00",0,0,Chapecoense,2,"0,00",0,0,0,0,"0,00",0,0,0,0,0,0,0,"0,00",0,0,0,0,0
28,0.0,Rodrigo Becão ,0,ZAG,"3,41",8,0,Bahia,2,"0,00",0,0,0,0,"0,00",0,0,0,0,0,0,0,"2,46",0,0,0,0,0
28,0.0,Igor ,0,ZAG,"5,80",1,0,Sport,2,"0,00",0,0,0,0,"0,00",0,0,0,0,0,0,0,"6,20",0,0,0,0,0
28,0.0,Victor Ferraz ,0,LAT,"10,39",15,0,Santos,5,"0,00",0,0,0,0,"0,00",0,0,0,0,0,0,0,"4,19",0,0,0,0,0
28,0.0,Victor Luis ,0,LAT,"12,60",23,0,Botafogo,3,"0,00",0,0,0,0,"0,51",0,0,0,0,0,0,0,"4,49",0,0,0,0,0
28,0.0,Diego Rosa ,0,MEI,"8,77",1,1,Bahia,1,"6,40",0,0,0,0,"2,77",0,0,1,0,1,1,0,"6,40",0,0,0,1,0
28,0.0,Marciel ,0,MEI,"2,72",1,0,Corinthians,2,"0,00",0,0,0,0,"0,00",0,0,0,0,0,0,0,"1,90",0,0,0,0,0
28,0.0,Elton ,0,MEI,"4,87",19,0,Ponte Preta,3,"0,00",0,0,0,0,"0,00",0,0,0,0,0,0,0,"1,37",0,0,0,0,0
28,0.0,Giovanny  ,0,ATA,"4,00",0,0,Atlético-PR,5,"0,00",0,0,0,0,"0,00",0,0,0,0,0,0,0,"0,00",0,0,0,0,0
28,0.0,Ty Sandows ,0,ATA,"1,00",0,0,Grêmio,2,"0,00",0,0,0,0,"0,00",0,0,0,0,0,0,0,"0,00",0,0,0,0,0
28,0.0,Kleber ,0,ATA,"10,74",11,0,Coritiba,5,"0,00",0,0,0,0,"0,00",0,0,0,0,0,0,0,"3,35",0,0,0,0,0
29,0.0,Rogério Ceni ,0,TEC,"7,39",1,0,São Paulo,3,"2,45",0,0,0,0,"-0,61",0,0,0,0,0,0,0,"2,45",0,0,0,0,0
29,0.0,Helton Leite ,0,GOL,"3,32",1,0,Botafogo,2,"0,00",0,0,0,0,"0,00",0,1,0,0,0,0,0,"1,00",1,0,0,0,0
29,0.0,Pedro Geromel ,5,ZAG,"13,85",17,42,Grêmio,3,"6,30",0,0,0,0,"-0,91",0,0,41,0,2,12,10,"6,78",0,4,0,13,3
29,0.0,Marcus Winícius ,0,ZAG,"3,00",0,0,Atlético-GO,2,"0,00",0,0,0,0,"0,00",0,0,0,0,0,0,0,"0,00",0,0,0,0,0
29,0.0,Dodô ,3,LAT,"7,65",14,57,Coritiba,2,"0,00",0,0,0,0,"0,00",0,0,21,0,0,10,5,"2,40",0,4,0,22,2
29,0.0,Fagner Alemão ,6,LAT,"9,84",25,65,Avaí,3,"2,50",8,0,4,0,"0,29",0,0,43,0,1,23,9,"4,03",0,0,1,15,0
29,0.0,Cuéllar ,0,MEI,"5,98",17,24,Flamengo,3,"7,50",0,0,0,0,"-0,59",0,0,44,0,0,11,0,"3,74",0,2,0,15,2
29,0.0,Tiago Real ,6,MEI,"3,89",17,45,Coritiba,3,"-2,50",2,0,0,0,"-0,44",0,0,10,1,2,14,0,"0,98",0,3,0,21,6
29,0.0,Lucas Romero ,5,MEI,"7,66",21,55,Cruzeiro,2,"0,00",0,0,2,1,"0,00",0,0,43,0,2,22,0,"3,50",0,0,1,25,0
29,0.0,Loran  ,0,ATA,"1,00",0,0,Flamengo,2,"0,00",0,0,0,0,"0,00",0,0,0,0,0,0,0,"0,00",0,0,0,0,0
29,0.0,Marcinho ,11,ATA,"4,17",22,75,São Paulo,2,"0,00",1,0,0,2,"0,00",0,0,11,0,2,23,0,"1,29",0,3,0,27,7
29,0.0,Yuri ,2,ATA,"1,05",3,1,Ponte Preta,2,"0,00",0,0,0,0,"0,00",0,0,0,0,0,1,0,"0,70",0,0,3,5,0
30,0.0,Fábio Carille ,0,TEC,"11,72",29,0,Corinthians,3,"2,36",0,0,0,0,"-0,32",0,0,0,0,0,0,0,"4,22",0,0,0,0,0
30,0.0,Thiago ,0,GOL,"4,24",11,3,Flamengo,5,"0,00",0,0,0,0,"0,00",0,11,0,0,1,1,4,"3,59",9,0,0,0,0
30,0.0,Airton  ,2,ZAG,"1,60",5,6,Avaí,2,"0,00",0,0,0,0,"0,00",0,0,3,0,0,1,2,"2,74",0,0,1,5,0
30,0.0,Donatti ,0,ZAG,"8,00",0,0,Flamengo,5,"0,00",0,0,0,0,"0,00",0,0,0,0,0,0,0,"0,00",0,0,0,0,0
30,0.0,Apodi ,15,LAT,"8,32",27,64,Chapecoense,3,"4,30",2,0,8,1,"-0,03",0,0,33,0,0,52,8,"3,23",0,0,8,50,0
30,0.0,Breno Lopes ,0,LAT,"3,00",0,0,Ponte Preta,2,"0,00",0,0,0,0,"0,00",0,0,0,0,0,0,0,"0,00",0,0,0,0,0
30,0.0,Mateus Norton ,1,MEI,"1,33",10,17,Fluminense,2,"0,00",0,0,0,0,"0,00",0,0,10,0,0,4,0,"0,46",0,3,0,8,0
30,0.0,Elton ,6,MEI,"4,63",20,44,Ponte Preta,3,"0,00",2,1,0,1,"0,00",0,0,26,0,1,16,0,"1,18",0,4,0,39,1
30,0.0,Rithely ,24,MEI,"10,55",25,88,Sport,3,"-0,90",1,0,6,1,"-0,92",0,0,60,0,2,26,0,"3,98",0,0,10,43,0
30,0.0,Lourency ,0,ATA,"3,00",0,0,Chapecoense,2,"0,00",0,0,0,0,"0,00",0,0,0,0,0,0,0,"0,00",0,0,0,0,0
30,0.0,Clayton ,0,ATA,"9,00",0,0,Corinthians,2,"0,00",0,0,0,0,"0,00",0,0,0,0,0,0,0,"0,00",0,0,0,0,0
30,0.0,Marcos Junior ,4,ATA,"2,88",16,20,Fluminense,3,"2,10",3,0,0,1,"0,06",0,0,7,0,0,17,0,"0,76",0,4,0,11,2
31,0.0,Cuca ,0,TEC,"15,09",1,0,Palmeiras,3,"8,34",0,0,0,0,"2,09",0,0,0,0,0,0,0,"8,34",0,0,0,0,0
31,0.0,William Menezes ,0,GOL,"2,00",0,0,Coritiba,2,"0,00",0,0,0,0,"0,00",0,0,0,0,0,0,0,"0,00",0,0,0,0,0
31,0.0,Rodrigo Becão ,2,ZAG,"3,41",8,9,Bahia,2,"0,00",0,0,0,0,"0,00",0,0,10,0,0,6,1,"2,46",0,1,0,6,1
31,0.0,Bruno Rodrigo ,1,ZAG,"4,72",6,6,Grêmio,2,"0,00",0,0,0,0,"0,00",0,0,6,0,0,1,3,"3,52",0,1,0,5,1
31,0.0,Lucas ,5,LAT,"2,97",24,81,Fluminense,3,"4,90",7,0,0,0,"0,42",0,0,33,0,1,20,1,"0,78",0,8,0,44,5
31,0.0,Caju ,0,LAT,"3,83",1,6,Santos,3,"0,00",0,0,0,0,"0,00",0,0,3,0,0,1,0,"3,30",0,0,0,1,0
31,0.0,Abuda ,0,MEI,"6,00",0,0,Atlético-GO,2,"0,00",0,0,0,0,"0,00",0,0,0,0,0,0,0,"0,00",0,0,0,0,0
31,0.0,Allione ,1,MEI,"8,94",19,58,Bahia,3,"-1,10",4,0,0,0,"-0,82",0,0,20,1,5,21,0,"2,19",0,4,0,17,4
31,0.0,Elton ,6,MEI,"5,29",21,46,Ponte Preta,3,"2,30",3,1,4,1,"0,66",0,0,28,0,1,18,0,"1,23",0,0,1,41,0
31,0.0,Giovanny  ,0,ATA,"4,00",0,0,Atlético-PR,5,"0,00",0,0,0,0,"0,00",0,0,0,0,0,0,0,"0,00",0,0,0,0,0
31,0.0,Osvaldo ,6,ATA,"5,83",24,68,Sport,3,"6,70",2,0,0,3,"0,62",0,0,17,0,2,25,0,"2,24",0,2,0,12,6
31,0.0,Luiz Araújo ,1,ATA,"8,91",1,1,São Paulo,1,"2,60",0,0,0,0,"-1,09",0,0,1,0,0,0,0,"2,60",0,0,0,1,1
32,0.4875631313131308,Guto Ferreira ,0,TEC,"8,76",1,0,Bahia,3,"8,39",0,0,0,0,"4,76",0,0,0,0,0,0,0,"8,39",0,0,0,0,0
32,0.4875631313131308,Marcos ,0,GOL,"1,95",11,2,Atlético-GO,3,"-2,00",0,0,0,0,"-2,49",0,20,0,0,0,1,2,"5,08",13,1,2,0,0
32,0.4875631313131308,Pedro Geromel ,5,ZAG,"13,12",18,43,Grêmio,3,"2,60",0,0,4,0,"-0,73",0,0,43,0,2,12,10,"6,55",0,0,3,14,0
32,0.4875631313131308,Paulo André ,0,ZAG,"4,20",16,34,Atlético-PR,3,"1,10",0,0,0,0,"-0,10",0,0,14,1,0,12,4,"1,88",0,4,0,14,2
32,0.4875631313131308,Breno Lopes ,0,LAT,"3,00",0,0,Ponte Preta,2,"0,00",0,0,0,0,"0,00",0,0,0,0,0,0,0,"0,00",0,0,0,0,0
32,0.4875631313131308,Euller  ,0,LAT,"6,31",2,1,Vitória,2,"0,00",0,0,0,0,"0,00",0,0,0,0,0,1,1,"2,35",0,0,0,1,0
32,0.4875631313131308,Arrascaeta ,7,MEI,"9,77",13,47,Cruzeiro,3,"13,10",0,0,1,2,"1,16",0,0,10,0,1,24,0,"3,60",0,0,13,10,0
32,0.4875631313131308,João Filipe ,0,MEI,"5,00",0,0,Atlético-GO,2,"0,00",0,0,0,0,"0,00",0,0,0,0,0,0,0,"0,00",0,0,0,0,0
32,0.4875631313131308,Fabrício Baiano ,0,MEI,"2,00",0,0,Coritiba,2,"0,00",0,0,0,0,"0,00",0,0,0,0,0,0,0,"0,00",0,0,0,0,0
32,0.4875631313131308,Fernandinho ,14,ATA,"10,90",24,46,Grêmio,3,"-0,10",3,0,1,6,"-0,51",0,0,22,0,1,69,0,"4,81",0,0,13,30,0
32,0.4875631313131308,Ty Sandows ,0,ATA,"1,00",0,0,Grêmio,2,"0,00",0,0,0,0,"0,00",0,0,0,0,0,0,0,"0,00",0,0,0,0,0
32,0.4875631313131308,Joel ,0,ATA,"2,62",1,1,Botafogo,2,"-0,30",0,0,0,0,"-1,38",0,0,0,0,0,0,0,"-0,30",0,0,0,0,0
33,0.0,Guto Ferreira ,0,TEC,"8,76",1,0,Bahia,3,"8,39",0,0,0,0,"4,76",0,0,0,0,0,0,0,"8,39",0,0,0,0,0
33,0.0,Luiz Felipe ,0,GOL,"2,00",0,0,Chapecoense,2,"0,00",0,0,0,0,"0,00",0,0,0,0,0,0,0,"0,00",0,0,0,0,0
33,0.0,Rafael Marques ,0,ZAG,"2,08",13,0,Vasco,3,"0,00",0,0,0,0,"0,00",0,0,0,0,0,0,0,"1,00",0,0,0,0,0
33,0.0,Bruno Rodrigo ,0,ZAG,"4,72",6,0,Grêmio,2,"0,00",0,0,0,0,"0,00",0,0,0,0,0,0,0,"3,52",0,0,0,0,0
33,0.0,Lucas ,0,LAT,"3,72",25,0,Fluminense,1,"0,00",0,0,0,0,"0,75",0,0,0,0,0,0,0,"1,08",0,0,0,0,0
33,0.0,Carlos Cesar ,0,LAT,"4,46",1,0,Atlético-MG,2,"0,00",0,0,0,0,"0,00",0,0,0,0,0,0,0,"-0,70",0,0,0,0,0
33,0.0,Silva ,0,MEI,"2,11",10,0,Atlético-GO,2,"0,00",0,0,0,0,"0,00",0,0,0,0,0,0,0,"0,80",0,0,0,0,0
33,0.0,Marciel ,0,MEI,"2,72",1,0,Corinthians,2,"0,00",0,0,0,0,"0,00",0,0,0,0,0,0,0,"1,90",0,0,0,0,0
33,0.0,Elton ,0,MEI,"5,26",23,0,Ponte Preta,3,"0,00",0,0,0,0,"0,32",0,0,0,0,0,0,0,"1,20",0,0,0,0,0
33,0.0,João Vitor  ,0,ATA,"1,00",0,0,Atlético-GO,2,"0,00",0,0,0,0,"0,00",0,0,0,0,0,0,0,"0,00",0,0,0,0,0
33,0.0,Marcinho ,0,ATA,"4,17",22,0,São Paulo,2,"0,00",0,0,0,0,"0,00",0,0,0,0,0,0,0,"1,29",0,0,0,0,0
33,0.0,Yuri ,0,ATA,"1,05",3,0,Ponte Preta,2,"0,00",0,0,0,0,"0,00",0,0,0,0,0,0,0,"0,70",0,0,0,0,0
34,0.0,Milton Mendes ,0,TEC,"5,74",1,0,Vasco,3,"2,11",0,0,0,0,"-0,26",0,0,0,0,0,0,0,"2,11",0,0,0,0,0
34,0.0,Alex Muralha ,0,GOL,"5,11",6,5,Flamengo,2,"0,00",0,0,0,0,"0,00",0,5,0,0,0,3,3,"3,58",4,0,0,1,0
34,0.0,Réver ,6,ZAG,"11,40",24,28,Flamengo,5,"0,00",2,0,0,5,"0,00",0,0,31,0,0,22,7,"5,27",0,2,0,16,5
34,0.0,Marcus Winícius ,0,ZAG,"3,00",0,0,Atlético-GO,2,"0,00",0,0,0,0,"0,00",0,0,0,0,0,0,0,"0,00",0,0,0,0,0
34,0.0,Lucas ,6,LAT,"2,69",26,81,Fluminense,1,"1,70",8,0,0,0,"-1,03",0,0,35,0,2,23,1,"1,10",0,8,0,44,5
34,0.0,Thiago Carleto ,5,LAT,"6,87",18,71,Coritiba,3,"4,50",1,0,0,2,"-0,61",1,0,28,0,7,13,5,"6,14",0,2,0,13,13
34,0.0,Moisés Ribeiro ,3,MEI,"4,77",19,42,Chapecoense,3,"9,50",0,0,7,0,"1,56",0,0,35,0,0,30,0,"1,45",0,0,0,45,0
34,0.0,Matheus Bezerra ,0,MEI,"1,00",0,0,Sport,2,"0,00",0,0,0,0,"0,00",0,0,0,0,0,0,0,"0,00",0,0,0,0,0
34,0.0,Elton ,6,MEI,"4,90",24,58,Ponte Preta,3,"0,00",3,1,0,1,"-0,36",0,0,33,0,1,19,0,"1,15",0,5,0,46,2
34,0.0,Jael ,6,ATA,"3,63",10,13,Grêmio,1,"-0,50",5,0,2,0,"-0,31",0,0,1,0,1,12,0,"0,20",0,0,1,11,0
34,0.0,Judivan  ,0,ATA,"4,00",0,0,Cruzeiro,2,"0,00",0,0,0,0,"0,00",0,0,0,0,0,0,0,"0,00",0,0,0,0,0
34,0.0,Santarém ,0,ATA,"1,00",0,0,Avaí,2,"0,00",0,0,0,0,"0,00",0,0,0,0,0,0,0,"0,00",0,0,0,0,0
35,0.0,Renato Gaúcho ,0,TEC,"15,65",34,0,Grêmio,3,"5,14",0,0,0,0,"0,42",0,0,0,0,0,0,0,"4,30",0,0,0,0,0
35,0.0,Thiago Couto ,0,GOL,"1,00",0,0,São Paulo,2,"0,00",0,0,0,0,"0,00",0,0,0,0,0,0,0,"0,00",0,0,0,0,0
35,0.0,Joel Carli ,4,ZAG,"8,34",25,53,Botafogo,3,"0,70",1,0,10,1,"-0,25",0,0,26,0,2,16,6,"1,92",0,0,1,39,0
35,0.0,Douglas Grolli ,1,ZAG,"5,79",18,27,Chapecoense,5,"0,00",3,0,0,1,"0,00",0,0,16,0,0,4,4,"0,74",0,8,0,38,0
35,0.0,Lucas ,6,LAT,"2,14",27,82,Fluminense,3,"-1,60",8,0,0,0,"-0,55",0,0,36,0,2,23,1,"1,00",0,9,0,46,5
35,0.0,Breno Lopes ,0,LAT,"3,00",0,0,Ponte Preta,2,"0,00",0,0,0,0,"0,00",0,0,0,0,0,0,0,"0,00",0,0,0,0,0
35,0.0,Abuda ,0,MEI,"6,00",0,0,Atlético-GO,2,"0,00",0,0,0,0,"0,00",0,0,0,0,0,0,0,"0,00",0,0,0,0,0
35,0.0,Adryan  ,0,MEI,"2,00",0,0,Flamengo,2,"0,00",0,0,0,0,"0,00",0,0,0,0,0,0,0,"0,00",0,0,0,0,0
35,0.0,Rafael Carioca ,0,MEI,"7,92",1,4,Atlético-MG,2,"-0,80",0,0,1,0,"-4,08",0,0,2,0,0,0,0,"-0,80",0,0,0,2,0
35,0.0,Loran  ,0,ATA,"1,00",0,0,Flamengo,2,"0,00",0,0,0,0,"0,00",0,0,0,0,0,0,0,"0,00",0,0,0,0,0
35,0.0,Pachu ,0,ATA,"2,00",0,0,Botafogo,2,"0,00",0,0,0,0,"0,00",0,0,0,0,0,0,0,"0,00",0,0,0,0,0
35,0.0,Muriqui ,0,ATA,"5,00",0,0,Vasco,2,"0,00",0,0,0,0,"0,00",0,0,0,0,0,0,0,"0,00",0,0,0,0,0
36,3.646161355622304,Rogério Ceni ,0,TEC,"7,39",1,0,São Paulo,3,"2,45",0,0,0,0,"-0,61",0,0,0,0,0,0,0,"2,45",0,0,0,0,0
36,3.646161355622304,João Paulo ,0,GOL,"2,97",1,1,Santos,2,"0,00",0,0,0,0,"0,00",0,2,0,0,0,0,1,"10,70",0,0,0,0,0
36,3.646161355622304,Thiago Heleno ,9,ZAG,"9,28",26,47,Atlético-PR,3,"7,50",2,0,8,4,"1,73",0,0,20,0,0,13,8,"3,04",0,0,3,24,0
36,3.646161355622304,Leonardo Silva ,4,ZAG,"10,61",19,32,Atlético-MG,3,"13,20",1,0,0,1,"0,92",0,0,15,2,1,26,5,"2,85",0,6,0,26,3
36,3.646161355622304,Apodi ,16,LAT,"7,57",32,73,Chapecoense,3,"-0,90",2,0,10,1,"-0,54",0,0,39,0,0,62,10,"3,22",0,0,9,59,0
36,3.646161355622304,Patric ,16,LAT,"7,10",31,110,Vitória,3,"-0,90",7,0,3,1,"-0,50",0,0,40,0,4,18,6,"2,78",0,0,7,49,0
36,3.646161355622304,Jean ,11,MEI,"9,84",32,60,Vasco,3,"-2,00",0,0,10,1,"-2,31",0,0,85,0,1,44,0,"3,87",0,0,6,63,0
36,3.646161355622304,Thomaz ,3,MEI,"4,32",10,6,São Paulo,2,"0,00",3,0,1,1,"0,00",0,0,9,0,1,8,0,"2,41",0,0,1,12,0
36,3.646161355622304,Sornoza ,3,MEI,"12,48",13,34,Fluminense,3,"1,00",0,0,0,2,"-0,09",0,0,16,1,0,7,0,"2,77",0,3,0,8,4
36,3.646161355622304,Alison ,0,ATA,"1,00",0,0,Sport,2,"0,00",0,0,0,0,"0,00",0,0,0,0,0,0,0,"0,00",0,0,0,0,0
36,3.646161355622304,Bruno Henrique ,16,ATA,"14,40",26,90,Santos,3,"7,10",10,1,6,7,"-1,42",0,0,33,1,11,78,0,"6,00",0,0,18,67,0
36,3.646161355622304,Everaldo ,1,ATA,"6,30",1,1,Atlético-GO,3,"4,90",1,0,0,0,"2,30",0,0,0,0,0,0,0,"4,90",0,0,0,0,5
37,1.7954249174734658,Claudinei Oliveira ,0,TEC,"8,65",37,0,Avaí,3,"5,48",0,0,0,0,"0,21",0,0,0,0,0,0,0,"3,32",0,0,0,0,0
37,1.7954249174734658,João Paulo ,0,GOL,"2,97",1,1,Santos,2,"0,00",0,0,0,0,"0,00",0,2,0,0,0,0,1,"10,70",0,0,0,0,0
37,1.7954249174734658,Thiago Heleno ,9,ZAG,"8,39",27,47,Atlético-PR,3,"1,70",2,0,0,4,"-0,89",0,0,21,0,0,13,8,"2,99",0,8,0,24,3
37,1.7954249174734658,Henrique ,1,ZAG,"8,65",26,41,Fluminense,3,"2,00",1,0,4,1,"-1,03",0,0,34,2,0,25,3,"2,76",0,0,2,21,0
37,1.7954249174734658,Lucas ,6,LAT,"2,72",29,87,Fluminense,3,"1,60",9,0,0,0,"-0,28",0,0,37,0,2,26,2,"1,11",0,9,0,48,5
37,1.7954249174734658,Patric ,16,LAT,"7,35",32,112,Vitória,3,"0,80",8,0,0,1,"0,25",0,0,42,0,4,18,6,"2,72",0,3,0,52,7
37,1.7954249174734658,Lucas Fernandes ,8,MEI,"4,00",19,25,São Paulo,5,"0,00",0,0,2,1,"0,00",0,0,12,0,1,16,0,"2,05",0,0,8,9,0
37,1.7954249174734658,Sornoza ,3,MEI,"12,23",14,35,Fluminense,3,"-0,30",0,0,3,2,"-0,25",0,0,16,1,0,7,0,"2,55",0,0,4,8,0
37,1.7954249174734658,Renato Cajá ,10,MEI,"6,29",18,55,Ponte Preta,2,"-0,30",1,1,1,1,"-0,03",0,0,15,0,2,14,0,"1,51",0,0,2,16,0
37,1.7954249174734658,Gustavo ,1,ATA,"5,09",1,0,Bahia,1,"1,20",0,0,0,0,"-0,91",0,0,0,0,0,1,0,"1,20",0,0,0,0,0
37,1.7954249174734658,Bruno Henrique ,16,ATA,"14,55",27,92,Santos,3,"7,40",10,1,0,8,"0,15",0,0,33,1,11,82,0,"6,05",0,6,0,71,18
37,1.7954249174734658,Everaldo ,1,ATA,"6,30",1,1,Atlético-GO,3,"4,90",1,0,0,0,"2,30",0,0,0,0,0,0,0,"4,90",0,0,5,0,0
