name,position,team,situation,price,meatches,average,last_score,difference,disarms,goals,assists,no_goals,fouls_suffered,strikes_out,strikes_defended,strikes_post,difficult_defense,penalty_defense,own_goal,red_card,yellow_card,goal_suffered,penalty_lost,fouls_commited,offsides,wrong_pass
Rodriguinho ,MEI,Corinthians,3,"27,59",2,"16,20","15,90","4,51",2,3,1,0,5,1,0,0,0,0,0,0,0,0,0,1,0,8
Otero ,MEI,Atlético-MG,3,"19,83",2,"13,90","11,30","5,02",3,1,0,0,9,4,3,2,0,0,0,0,0,0,0,2,2,0
Sidcley ,LAT,Corinthians,3,"15,15",2,"12,75","24,00","8,61",5,1,1,1,1,0,0,0,0,0,0,0,0,0,0,1,0,0
Bruno Alves ,ZAG,São Paulo,3,"11,16",1,"12,20","0,00","0,00",0,1,0,1,0,0,0,0,0,0,0,0,0,0,0,1,0,1
Gustavo Blanco ,MEI,Atlético-MG,3,"16,08",2,"11,05","6,70","3,40",7,0,2,0,1,0,3,1,0,0,0,0,1,0,0,6,1,0
Serginho ,MEI,América-MG,3,"17,66",2,"10,75","3,60","1,88",3,2,0,0,3,2,1,0,0,0,0,0,0,0,0,2,1,6
Lucas Paquetá ,MEI,Flamengo,3,"19,90",2,"10,60","9,10","1,92",5,1,0,0,10,2,2,0,0,0,0,0,0,0,0,3,0,6
Arboleda ,ZAG,São Paulo,3,"12,17",1,"10,50","10,50","1,17",3,0,0,1,1,1,0,0,0,0,0,0,0,0,0,0,0,1
Gabriel ,MEI,Corinthians,3,"12,17",1,"10,50","10,50","1,17",3,1,0,0,0,0,0,0,0,0,0,0,0,0,0,4,0,0
Thiago Carleto ,LAT,Atlético-PR,3,"15,58",2,"10,20","7,20","3,04",2,1,1,1,1,1,2,0,0,0,0,0,0,0,0,2,0,11
Richard ,MEI,Fluminense,3,"16,53",2,"10,10","4,00","1,92",7,1,0,0,4,1,0,0,0,0,0,0,0,0,0,1,0,2
Balbuena ,ZAG,Corinthians,3,"19,26",2,"9,55","11,90","1,90",10,0,0,1,1,0,0,0,0,0,0,0,0,0,0,1,0,3
Réver ,ZAG,Flamengo,3,"18,02",2,"9,20","8,30","1,42",1,1,0,1,4,2,1,0,0,0,0,0,0,0,0,0,0,3
Bruno Cortez ,LAT,Grêmio,3,"15,48",2,"9,10","8,20","2,39",6,0,0,2,4,0,0,0,0,0,0,0,0,0,0,2,0,6
Nico López ,ATA,Internacional,3,"17,41",2,"8,95","-0,90","-0,36",1,2,0,0,1,2,1,0,0,0,0,0,0,0,0,0,1,8
Matheus Fernandes ,MEI,Botafogo,3,"13,31",2,"8,90","9,40","3,39",9,0,1,0,0,0,1,0,0,0,0,0,0,0,0,2,0,3
Jailson ,GOL,Palmeiras,3,"15,07",2,"8,55","14,00","3,29",0,0,0,1,0,0,0,0,5,0,0,0,0,0,1,0,0,3
Tiago Alves ,ZAG,Ceará,3,"5,70",1,"8,50","8,50","2,70",2,0,0,1,1,0,0,0,0,0,0,0,0,0,0,0,0,0
Luan ,ATA,Grêmio,3,"18,32",1,"8,40","8,40","-2,68",1,0,0,0,3,4,1,1,0,0,0,0,0,0,0,1,0,5
Rodrigo Moledo ,ZAG,Internacional,2,"9,16",1,"8,30","0,00","0,00",1,0,0,1,3,1,0,0,0,0,0,0,0,0,0,1,0,0
Nino Paraíba ,LAT,Bahia,3,"12,35",2,"8,25","9,30","3,26",6,0,0,1,7,1,2,0,0,0,0,0,1,0,0,2,0,4
Liziero ,LAT,São Paulo,3,"5,57",1,"8,20","8,20","2,57",2,0,0,1,0,1,0,0,0,0,0,0,0,0,0,0,0,2
Henrique Dourado ,ATA,Flamengo,3,"17,76",2,"8,20","15,90","2,26",0,2,0,0,5,0,0,0,0,0,0,0,0,0,0,3,0,2
Clayson ,ATA,Corinthians,2,"12,48",2,"8,15","12,70","3,80",3,1,1,0,3,1,0,0,0,0,0,0,0,0,0,4,0,5
Gatito Fernández ,GOL,Botafogo,3,"14,65",2,"8,05","13,00","2,87",0,0,0,0,0,0,0,0,7,0,0,0,0,0,2,0,0,3
Carlinhos ,LAT,América-MG,3,"14,56",2,"7,90","-0,10","0,16",1,1,0,1,2,1,2,0,0,0,0,0,0,0,0,3,1,3
Víctor Cuesta ,ZAG,Internacional,3,"14,57",2,"7,90","2,70","0,72",9,0,0,1,2,0,0,0,0,0,0,0,0,0,0,5,0,4
Patrick ,MEI,Internacional,3,"14,71",2,"7,90","5,10","1,14",8,0,1,0,5,1,0,0,0,0,0,0,0,0,0,6,0,5
Marcelo Grohe ,GOL,Grêmio,3,"18,65",2,"7,85","4,70","-0,64",0,0,0,2,0,0,0,0,2,0,0,0,0,0,0,0,0,1
Luan ,ATA,Atlético-MG,3,"14,32",2,"7,85","4,60","1,16",12,0,0,0,0,0,1,0,0,0,0,0,0,0,0,3,1,5
Wellington Paulista ,ATA,Chapecoense,3,"13,42",2,"7,75","8,20","2,19",2,2,0,0,3,3,0,0,0,0,0,0,1,0,0,6,3,3
Vanderlei ,GOL,Santos,2,"20,44",2,"7,75","7,50","-0,92",0,0,0,1,1,0,0,0,4,0,0,0,0,0,1,0,0,0
Thiago Heleno ,ZAG,Atlético-PR,3,"10,99",1,"7,70","7,70","-0,01",2,0,0,1,1,0,0,0,0,0,0,0,0,0,0,1,0,1
Guerra ,MEI,Palmeiras,2,"10,06",1,"7,60","0,00","0,00",1,1,0,0,1,1,0,0,0,0,0,0,0,0,0,4,0,4
Éder Militão ,LAT,São Paulo,3,"12,34",2,"7,50","8,80","2,56",5,0,0,2,2,1,0,0,0,0,0,0,1,0,0,1,0,6
Everton ,ATA,Grêmio,3,"13,16",2,"7,50","5,00","1,45",2,0,1,0,2,4,3,0,0,0,0,0,0,0,0,1,0,1
Petros ,MEI,São Paulo,3,"10,20",1,"7,50","7,50","0,20",5,0,0,0,1,0,0,0,0,0,0,0,0,0,0,1,0,0
Vinicius Junior ,ATA,Flamengo,3,"13,30",2,"7,40","8,40","2,00",1,0,2,0,5,2,2,0,0,0,0,0,0,0,0,1,0,9
Borja ,ATA,Palmeiras,3,"13,68",1,"7,40","7,40","-1,32",3,0,0,0,1,6,0,0,0,0,0,0,0,0,0,3,0,3
Fábio Carille ,TEC,Corinthians,3,"14,36",2,"7,26","10,34","1,83",0,0,0,0,0,0,0,0,0,0,0,0,0,0,0,0,0,0
Christian ,MEI,América-MG,3,"11,21",2,"7,20","3,70","1,77",7,0,0,0,6,2,1,0,0,0,0,0,0,0,0,2,0,3
Zé Rafael  ,MEI,Bahia,3,"17,11",2,"7,20","7,70","0,09",5,0,0,0,7,3,3,0,0,0,0,0,0,0,0,4,0,2
Norberto  ,LAT,América-MG,3,"11,24",2,"7,15","3,40","1,66",7,0,0,1,1,0,0,0,0,0,0,0,0,0,0,1,0,4
Ayrton Lucas ,LAT,Fluminense,3,"10,86",2,"7,10","9,90","3,08",4,0,0,1,8,1,0,0,0,0,0,0,0,0,0,2,0,2
Léo Moura ,LAT,Grêmio,3,"11,58",2,"7,10","5,00","1,80",2,0,0,2,4,0,0,0,0,0,0,0,0,0,0,1,0,1
Yago ,MEI,Vitória,3,"12,41",2,"7,05","6,60","1,73",5,1,0,0,6,2,1,0,0,0,0,0,1,0,0,5,0,9
Yago Pikachu ,LAT,Vasco,2,"14,15",2,"6,95","1,10","-0,18",1,1,0,0,4,2,1,1,0,0,0,0,0,0,0,1,1,8
Léo Cittadini ,MEI,Santos,2,"10,44",2,"6,85","7,20","2,52",9,0,0,0,4,2,1,0,0,0,0,0,1,0,0,3,1,2
Fagner ,LAT,Corinthians,3,"14,11",2,"6,75","13,00","2,05",5,0,1,1,1,0,0,0,0,0,0,0,0,0,0,3,0,10
Nikão ,MEI,Atlético-PR,3,"13,63",2,"6,70","2,90","0,20",2,1,0,0,4,1,2,0,0,0,0,0,0,0,0,1,1,6
Pedro Geromel ,ZAG,Grêmio,3,"16,90",1,"6,70","6,70","-3,10",3,0,0,1,0,0,0,0,0,0,0,0,1,0,0,1,0,1
Sidão ,GOL,São Paulo,3,"12,47",2,"6,70","7,70","1,65",0,0,0,2,0,0,0,0,2,0,0,0,1,0,0,0,0,2
Ricardo Oliveira ,ATA,Atlético-MG,3,"7,65",2,"6,60","14,20","4,89",2,1,1,0,3,3,0,0,0,0,0,0,1,0,0,4,3,4
Raphael Alemão ,ATA,Paraná,3,"4,19",1,"6,60","6,60","2,19",3,0,0,0,2,1,1,0,0,0,0,0,0,0,0,0,0,3
Rodrigo Caio ,ZAG,São Paulo,5,"12,76",2,"6,55","9,00","1,67",3,0,0,2,1,0,0,0,0,0,0,0,0,0,0,2,0,3
Éverson ,GOL,Ceará,3,"9,57",2,"6,50","11,00","3,37",0,0,0,1,0,0,0,0,4,0,0,0,0,0,2,0,0,0
Emerson Sheik ,ATA,Corinthians,2,"9,99",1,"6,50","0,00","0,00",0,0,1,0,3,0,0,0,0,0,0,0,0,0,0,0,0,0
Fabiano ,LAT,Internacional,2,"7,85",1,"6,40","0,00","0,00",2,0,0,1,0,0,0,0,0,0,0,0,0,0,0,2,0,2
Jori ,GOL,América-MG,3,"10,56",2,"6,35","-1,00","0,43",0,0,0,1,1,0,0,0,4,0,0,0,0,0,2,1,0,1
Wagner ,MEI,Vasco,2,"13,00",2,"6,25","-0,10","-0,50",2,1,0,0,4,1,3,0,0,0,0,0,1,0,0,2,2,3
Jonathan ,LAT,Atlético-PR,3,"9,78",1,"6,20","0,00","0,00",1,0,1,0,0,0,0,0,0,0,0,0,0,0,0,0,0,1
Arthur ,MEI,Grêmio,3,"15,08",2,"6,20","0,70","-1,25",6,0,0,0,9,0,0,0,0,0,0,0,0,0,0,1,0,2
Dudu ,ATA,Palmeiras,3,"17,96",2,"6,15","10,40","-0,57",1,1,1,0,4,0,1,0,0,0,0,0,1,0,0,2,0,8
Rhayner ,ATA,Vitória,3,"9,81",2,"6,15","5,90","1,96",3,0,1,0,7,3,0,1,0,0,0,0,1,0,0,4,0,7
Pedro ,ATA,Fluminense,3,"10,08",2,"6,05","6,10","1,81",0,1,1,0,2,1,2,0,0,0,0,0,1,0,0,5,0,2
Diego Aguirre ,TEC,São Paulo,3,"10,86",2,"6,04","6,63","1,58",0,0,0,0,0,0,0,0,0,0,0,0,0,0,0,0,0,0
Enderson Moreira ,TEC,América-MG,3,"9,97",2,"6,00","1,95","0,98",0,0,0,0,0,0,0,0,0,0,0,0,0,0,0,0,0,0
Elton ,MEI,Bahia,3,"8,97",2,"6,00","9,10","2,84",8,0,1,0,1,0,0,0,0,0,0,0,0,0,0,8,0,5
Arrascaeta ,MEI,Cruzeiro,2,"15,74",2,"6,00","2,10","-1,41",5,0,0,0,5,1,4,1,0,0,0,0,1,0,0,5,0,7
Edu Dracena ,ZAG,Palmeiras,3,"7,46",1,"6,00","6,00","0,46",0,0,0,1,2,0,0,0,0,0,0,0,0,0,0,0,0,0
Rodrigo Lindoso ,MEI,Botafogo,3,"9,20",2,"5,90","9,40","2,72",1,1,0,0,4,3,0,0,0,0,0,0,0,0,0,0,0,7
Jadson ,MEI,Fluminense,3,"10,26",2,"5,90","4,90","1,37",9,0,0,0,3,1,0,0,0,0,0,0,0,0,0,2,0,10
Renato Gaúcho ,TEC,Grêmio,3,"14,75",2,"5,88","4,47","-0,61",0,0,0,0,0,0,0,0,0,0,0,0,0,0,0,0,0,0
Renê ,LAT,Flamengo,3,"8,15",2,"5,85","9,40","3,12",6,0,0,1,1,0,0,0,0,0,0,0,0,0,0,2,0,6
Cássio ,GOL,Corinthians,3,"11,48",2,"5,85","11,00","2,04",0,0,0,1,0,0,0,0,3,0,0,0,0,0,1,0,0,1
Matheus Rossetto ,MEI,Atlético-PR,3,"12,13",2,"5,75","-1,20","-0,75",4,1,0,0,1,0,0,0,0,0,0,0,0,0,0,3,0,5
Guilherme ,MEI,Atlético-PR,3,"9,44",1,"5,70","5,70","-0,56",3,0,0,0,1,2,0,0,0,0,0,0,0,0,0,0,0,3
Léo Duarte ,ZAG,Flamengo,2,"5,92",1,"5,70","5,70","0,92",0,0,0,1,0,0,1,0,0,0,0,0,0,0,0,1,0,0
Diogo Barbosa ,LAT,Palmeiras,3,"11,40",2,"5,70","13,40","2,44",5,0,1,1,0,0,0,0,0,0,0,0,1,0,0,4,0,7
Maurício Barbieri ,TEC,Flamengo,3,"10,95",2,"5,69","7,59","1,45",0,0,0,0,0,0,0,0,0,0,0,0,0,0,0,0,0,0
Thiago Galhardo ,MEI,Vasco,2,"9,15",2,"5,65","5,60","1,78",1,0,2,0,2,1,0,0,0,0,0,0,0,0,0,1,0,5
Raul Prata ,LAT,Sport,3,"10,07",2,"5,60","4,10","1,05",8,0,0,0,2,1,0,0,0,0,0,0,0,0,0,1,0,7
Henrique ,MEI,Cruzeiro,3,"11,91",2,"5,60","4,40","0,34",7,0,0,0,2,2,0,0,0,0,0,0,0,0,0,2,0,3
Bressan ,ZAG,Grêmio,2,"8,90",2,"5,60","4,70","1,67",1,0,0,2,1,0,0,0,0,0,0,0,0,0,0,1,0,1
Denilson ,ATA,Vitória,3,"11,25",2,"5,60","2,10","0,16",1,1,0,0,1,4,1,0,0,0,0,0,0,0,0,3,1,4
Luan ,ATA,América-MG,3,"12,10",2,"5,55","-0,60","-0,78",5,0,1,0,2,2,1,0,0,0,0,0,1,0,0,3,1,4
Leandro Carvalho ,ATA,Botafogo,5,"5,86",1,"5,50","0,00","0,00",2,0,0,0,4,1,0,0,0,0,0,0,0,0,0,0,0,1
Lucas Fonseca ,ZAG,Bahia,3,"7,25",1,"5,50","5,50","0,25",0,0,0,1,1,0,0,0,0,0,0,0,0,0,0,0,0,0
Dodô ,LAT,Santos,2,"12,33",2,"5,40","2,30","-0,42",5,0,0,1,4,1,1,0,0,0,0,0,1,0,0,2,0,9
Marcos Guilherme  ,ATA,São Paulo,2,"11,99",1,"5,40","0,00","0,00",3,0,0,0,0,2,1,0,0,0,0,0,0,0,0,1,1,3
Róger Guedes ,ATA,Atlético-MG,3,"7,81",2,"5,35","11,00","3,19",1,1,0,0,4,1,0,0,0,0,0,0,0,0,0,2,0,2
Gregore ,MEI,Bahia,3,"7,45",2,"5,35","6,40","2,42",9,0,0,0,1,1,0,0,0,0,0,0,0,0,0,7,0,2
Léo ,LAT,Bahia,3,"8,02",2,"5,20","6,90","2,16",4,0,0,1,2,1,0,0,0,0,0,0,0,0,0,2,1,3
Marcelo Lomba ,GOL,Internacional,2,"7,72",1,"5,20","0,00","0,00",0,0,0,1,1,0,0,0,0,0,0,0,0,0,0,0,0,1
Rodinei ,LAT,Flamengo,3,"8,81",2,"5,15","7,20","1,85",2,0,0,1,5,2,0,0,0,0,0,0,0,0,0,0,0,6
Rodrigo Dourado ,MEI,Internacional,3,"11,01",2,"5,15","2,20","-0,08",9,0,0,0,2,0,1,0,0,0,0,0,1,0,0,5,0,3
Fernando Diniz ,TEC,Atlético-PR,3,"9,55",2,"5,11","3,45","0,75",0,0,0,0,0,0,0,0,0,0,0,0,0,0,0,0,0,0
Vinícius Freitas ,LAT,Chapecoense,3,"4,26",1,"5,10","5,10","1,26",2,0,1,0,0,0,0,0,0,0,0,0,1,0,0,0,0,3
Paulo Miranda ,ZAG,Grêmio,2,"6,96",1,"5,10","0,00","0,00",1,0,0,1,1,0,0,0,0,0,0,0,0,0,0,2,0,3
Edenílson ,MEI,Internacional,3,"10,66",2,"5,10","1,60","-0,09",4,0,1,0,1,1,0,0,0,0,0,0,0,0,0,0,0,7
Cazares ,MEI,Atlético-MG,5,"11,09",1,"5,10","0,00","0,00",2,0,0,0,0,1,2,0,0,0,0,0,0,0,0,1,0,2
Rodrygo ,ATA,Santos,2,"11,17",2,"5,05","1,30","-0,40",1,1,0,0,2,1,1,0,0,0,0,0,0,0,0,3,0,3
Cueva ,MEI,São Paulo,3,"13,01",2,"5,05","4,40","-0,56",4,0,1,0,6,0,0,0,0,0,0,0,0,0,0,2,1,8
Raphael Veiga ,MEI,Atlético-PR,2,"7,58",1,"5,00","0,00","0,00",0,0,1,0,0,0,0,0,0,0,0,0,0,0,0,0,0,0
Júnior Tavares ,LAT,São Paulo,2,"7,58",1,"5,00","0,00","0,00",1,0,0,1,2,0,0,0,0,0,0,0,1,0,0,1,0,0
Luan Peres  ,ZAG,Fluminense,2,"6,33",1,"5,00","5,00","0,33",0,0,0,1,0,0,0,0,0,0,0,0,0,0,0,0,0,0
Régis ,LAT,São Paulo,2,"7,68",2,"5,00","5,60","1,89",2,0,0,2,0,0,1,0,0,0,0,0,1,0,0,2,0,4
Alison ,MEI,Santos,2,"9,19",2,"4,95","6,60","1,41",6,0,0,0,6,1,0,0,0,0,0,0,0,0,0,4,0,3
Lucas Veríssimo ,ZAG,Santos,2,"9,53",2,"4,95","1,40","0,23",3,0,0,1,0,1,1,0,0,0,0,0,0,0,0,1,1,2
Paulo André ,ZAG,Atlético-PR,3,"6,99",1,"4,90","4,90","-0,01",1,0,0,1,1,0,0,0,0,0,0,0,0,0,0,3,0,2
Gum ,ZAG,Fluminense,3,"6,28",2,"4,90","10,60","3,39",1,0,1,1,1,1,0,0,0,0,0,0,0,0,0,3,0,5
Alisson ,MEI,Grêmio,2,"7,70",1,"4,90","4,90","-0,30",1,0,0,0,0,2,2,0,0,0,0,0,0,0,0,0,0,2
Jair Ventura ,TEC,Santos,2,"11,62",2,"4,82","3,19","-0,40",0,0,0,0,0,0,0,0,0,0,0,0,0,0,0,0,0,0
Anselmo ,MEI,Sport,3,"10,24",2,"4,80","2,90","0,11",6,0,0,0,5,2,0,0,0,0,0,0,0,0,0,4,0,5
Juninho ,MEI,América-MG,3,"6,80",2,"4,70","6,80","2,25",6,0,0,0,4,1,0,0,0,0,0,0,0,0,0,3,0,3
Iago ,LAT,Internacional,3,"9,73",2,"4,70","1,10","-0,12",6,0,0,1,2,0,0,0,0,0,0,0,1,0,0,3,0,7
Everton Felipe ,MEI,Sport,2,"6,32",2,"4,65","9,40","2,94",1,1,0,0,3,1,0,0,0,0,0,0,0,0,0,2,0,5
Odair Hellmann ,TEC,Internacional,3,"9,08",2,"4,65","1,35","0,16",0,0,0,0,0,0,0,0,0,0,0,0,0,0,0,0,0,0
Éderson ,ATA,Atlético-PR,2,"9,50",2,"4,55","-0,30","-0,42",2,1,0,0,0,0,0,0,0,0,0,0,0,0,0,1,1,3
Hudson ,MEI,São Paulo,3,"9,37",2,"4,55","4,30","0,55",6,0,0,0,3,2,1,0,0,0,0,0,0,0,0,6,0,4
Abel Braga ,TEC,Fluminense,3,"10,39",2,"4,53","5,45","0,33",0,0,0,0,0,0,0,0,0,0,0,0,0,0,0,0,0,0
Aylon ,ATA,América-MG,3,"8,42",2,"4,45","3,80","0,77",2,0,0,0,4,4,0,1,0,0,0,0,0,0,0,4,0,1
Andrés Ríos ,ATA,Vasco,2,"6,29",2,"4,45","11,40","3,19",1,1,0,0,3,0,2,0,0,0,0,0,1,0,0,5,0,0
Rafael Carioca ,LAT,Ceará,3,"4,97",2,"4,40","10,80","3,59",5,0,0,1,2,1,1,0,0,0,0,0,1,0,0,3,1,9
Santos ,GOL,Atlético-PR,3,"6,28",2,"4,35","11,00","3,04",0,0,0,1,0,0,0,0,2,0,0,0,0,0,1,0,0,1
Arnaldo ,LAT,Ceará,3,"6,58",2,"4,35","8,70","2,45",3,0,0,1,1,0,0,0,0,0,0,0,0,0,0,2,0,1
Thiago Larghi ,TEC,Atlético-MG,3,"7,49",2,"4,32","4,48","1,19",0,0,0,0,0,0,0,0,0,0,0,0,0,0,0,0,0,0
Pio ,MEI,Ceará,3,"6,53",2,"4,25","8,40","2,33",10,0,0,0,1,2,0,0,0,0,1,0,0,0,0,3,0,7
Roger Machado  ,TEC,Palmeiras,3,"10,37",2,"4,22","7,00","0,41",0,0,0,0,0,0,0,0,0,0,0,0,0,0,0,0,0,0
Jean Mota ,MEI,Santos,2,"8,83",2,"4,20","2,90","0,22",4,0,0,0,3,4,2,0,0,0,0,0,0,0,0,4,0,9
Keno ,ATA,Palmeiras,3,"8,98",2,"4,20","6,70","0,92",6,0,0,0,7,0,1,0,0,0,0,0,0,0,0,4,0,11
Messias ,ZAG,América-MG,3,"8,75",2,"4,15","-1,30","-0,62",4,0,0,1,1,0,0,0,0,0,0,0,0,0,0,4,0,4
Alberto Valentim ,TEC,Botafogo,3,"8,27",2,"4,07","3,96","0,57",0,0,0,0,0,0,0,0,0,0,0,0,0,0,0,0,0,0
Guto Ferreira ,TEC,Bahia,3,"7,67",2,"4,06","5,64","1,14",0,0,0,0,0,0,0,0,0,0,0,0,0,0,0,0,0,0
Igor Rabello ,ZAG,Botafogo,3,"11,92",2,"4,05","-1,10","-2,00",2,1,0,0,1,1,0,0,0,0,0,0,1,0,0,2,0,4
Luiz Otávio ,ZAG,Ceará,3,"7,25",2,"4,05","5,40","1,26",4,0,0,1,1,0,0,0,0,0,0,0,1,0,0,1,0,3
Gabriel ,ATA,Santos,2,"13,13",2,"4,00","2,20","-1,89",4,0,0,0,2,7,1,0,0,0,0,0,0,0,0,5,3,6
Carlos ,ATA,Paraná,3,"4,50",1,"4,00","4,00","0,50",2,0,0,0,2,0,0,0,0,0,0,0,0,0,0,0,0,0
Mansur ,LAT,Paraná,3,"5,90",2,"3,95","7,50","2,18",4,0,0,0,3,0,1,1,0,0,0,0,0,0,0,4,0,6
Ángel Romero ,ATA,Corinthians,3,"9,65",2,"3,90","2,00","-0,55",3,0,1,0,4,4,0,0,0,0,0,0,1,0,0,5,0,8
Daniel Guedes  ,LAT,Santos,2,"8,82",2,"3,90","1,60","-0,27",3,0,0,1,0,0,0,0,0,0,0,0,0,0,0,0,1,4
Ferreira ,MEI,Sport,2,"4,75",1,"3,90","0,00","0,00",3,0,0,0,0,0,0,0,0,0,0,0,0,0,0,0,0,2
Zé Ricardo ,TEC,Vasco,2,"9,71",2,"3,88","3,14","-0,36",0,0,0,0,0,0,0,0,0,0,0,0,0,0,0,0,0,0
Pablo ,ATA,Atlético-PR,3,"8,18",2,"3,85","-1,00","-0,57",2,1,0,0,2,2,0,0,0,0,0,0,1,0,0,5,1,3
Paulão ,ZAG,Vasco,2,"6,73",2,"3,80","4,40","1,08",5,0,0,0,2,1,0,0,0,0,0,0,0,0,0,1,0,4
Júnior Brumado ,ATA,Bahia,2,"4,45",2,"3,75","8,00","2,73",0,1,0,0,2,0,0,0,0,0,0,0,0,0,0,3,0,0
Valdo ,ZAG,Ceará,3,"6,62",2,"3,75","4,50","1,11",2,0,0,1,0,0,0,0,0,0,0,0,0,0,0,1,0,0
Tiago  ,ZAG,Bahia,3,"7,53",2,"3,75","6,10","1,05",2,0,0,1,2,3,1,0,0,0,0,0,0,0,0,8,1,2
Marcelo Chamusca ,TEC,Ceará,3,"4,47",2,"3,66","6,14","2,27",0,0,0,0,0,0,0,0,0,0,0,0,0,0,0,0,0,0
Leonardo Valencia ,MEI,Botafogo,3,"7,23",2,"3,65","3,70","0,62",2,0,0,0,3,3,2,0,0,0,0,0,0,0,0,1,0,5
Desábato ,MEI,Vasco,2,"7,20",2,"3,65","5,20","0,93",6,0,0,0,0,0,0,0,0,0,0,0,0,0,0,1,0,4
Gilson ,LAT,Botafogo,3,"6,25",2,"3,60","3,50","0,95",6,0,0,0,6,0,0,0,0,0,0,0,0,0,0,3,0,11
Lucas Fernandes ,MEI,São Paulo,2,"5,24",1,"3,60","0,00","0,00",1,0,0,0,1,0,2,0,0,0,0,0,0,0,0,1,0,1
Cuéllar ,MEI,Flamengo,3,"8,70",2,"3,60","2,00","-0,39",6,0,0,0,0,1,0,0,0,0,0,0,0,0,0,4,0,2
Luiz Antonio  ,MEI,Chapecoense,5,"6,40",1,"3,50","3,50","-0,60",2,0,0,0,1,1,0,0,0,0,0,0,0,0,0,1,0,1
Henrique ,ZAG,Corinthians,3,"8,77",2,"3,50","4,20","-0,05",1,0,0,1,1,1,0,0,0,0,0,0,0,0,0,1,0,1
Edimar ,LAT,São Paulo,3,"3,59",1,"3,50","3,50","0,59",0,0,0,1,1,1,0,0,0,0,0,0,1,0,0,1,0,1
Rafael Moura ,ATA,América-MG,3,"9,47",2,"3,40","1,70","-0,93",1,0,1,0,1,2,1,0,0,0,0,0,0,0,0,2,1,5
Rogério ,ATA,Sport,3,"6,36",1,"3,40","3,40","-0,64",0,0,0,0,3,1,2,0,0,0,0,0,0,0,0,1,1,1
Leandro Damião ,ATA,Internacional,5,"8,43",1,"3,30","3,30","-1,57",0,0,0,0,2,2,1,0,0,0,0,0,0,0,0,0,1,0
Renato Chaves ,ZAG,Fluminense,3,"6,10",2,"3,25","6,60","1,35",4,0,0,1,1,0,0,0,0,0,0,0,1,0,0,3,0,5
Frazan ,ZAG,Fluminense,3,"3,98",2,"3,20","6,90","2,26",2,0,0,1,1,0,0,0,0,0,0,0,0,0,0,3,0,2
Leandro Donizete ,MEI,América-MG,2,"3,46",1,"3,20","3,20","0,46",1,0,0,0,1,0,1,0,0,0,0,0,0,0,0,0,0,0
Sornoza ,MEI,Fluminense,3,"7,56",2,"3,15","-0,90","-0,84",4,0,0,0,2,0,2,0,0,0,0,0,0,0,0,2,0,7
Gustavo Bochecha ,MEI,Botafogo,3,"4,70",2,"3,00","1,10","0,64",6,0,0,0,3,1,0,0,0,0,0,0,1,0,0,3,0,6
Werley ,ZAG,Vasco,2,"5,88",2,"3,00","1,90","0,30",3,0,0,0,2,0,2,0,0,0,0,0,0,0,0,2,0,3
Henrique ,LAT,Vasco,2,"6,89",2,"3,00","3,20","0,14",4,0,0,0,4,1,1,0,0,0,0,0,1,0,0,1,0,5
Ralf ,MEI,Corinthians,2,"8,96",1,"3,00","0,00","0,00",2,0,0,0,1,0,0,0,0,0,0,0,0,0,0,1,0,0
Marcos Rocha ,LAT,Palmeiras,3,"8,60",2,"3,00","9,50","0,68",5,0,0,1,0,0,0,0,0,0,0,0,1,0,0,3,0,10
Arthur  ,ATA,Chapecoense,3,"6,99",2,"2,95","4,10","0,24",3,0,0,0,2,3,0,0,0,0,0,0,0,0,0,1,0,5
Ribamar ,ATA,Atlético-PR,2,"6,13",1,"2,90","0,00","0,00",0,0,0,0,2,4,0,0,0,0,0,0,0,0,0,1,1,1
Bruno Guimarães ,MEI,Atlético-PR,2,"5,69",2,"2,90","0,60","0,04",4,0,0,0,8,0,0,0,0,0,0,0,1,0,0,2,0,4
Antônio Carlos  ,ZAG,Palmeiras,3,"7,31",2,"2,80","3,90","-0,06",1,0,0,1,1,0,0,0,0,0,0,0,0,0,0,1,0,3
Douglas ,ZAG,Chapecoense,3,"5,43",2,"2,75","3,50","0,61",4,0,0,0,2,1,0,0,0,0,0,0,0,0,0,4,0,1
David Braz ,ZAG,Santos,2,"10,38",2,"2,75","-1,00","-2,37",1,0,0,1,2,1,0,0,0,0,0,0,1,0,0,1,0,1
Eduardo Sasha ,ATA,Santos,2,"8,41",2,"2,75","1,90","-0,96",1,0,1,0,5,0,0,0,0,0,0,0,0,0,0,4,0,5
Pachu ,ATA,Botafogo,2,"2,55",1,"2,70","2,70","0,55",1,0,0,0,1,0,1,0,0,0,0,0,0,0,0,1,0,0
Maílson ,GOL,Sport,3,"1,84",1,"2,70","2,70","0,84",0,0,1,0,0,0,0,0,0,0,0,0,0,0,1,0,0,1
Ibañez ,ZAG,Fluminense,5,"5,99",1,"2,70","0,00","0,00",2,0,0,0,0,0,0,0,0,0,0,0,0,0,0,0,0,1
Matheus Pereira ,MEI,Paraná,2,"4,66",1,"2,70","2,70","-0,34",2,0,0,0,0,0,0,0,0,0,0,0,0,0,0,0,0,1
Renê Júnior ,MEI,Corinthians,3,"6,70",2,"2,60","6,20","0,50",4,0,0,0,4,1,0,0,0,0,0,0,0,0,0,6,0,2
Victor ,GOL,Atlético-MG,3,"10,35",2,"2,55","1,00","-2,12",0,0,0,0,0,0,0,0,4,0,0,0,0,0,3,0,0,3
Juninho ,MEI,Ceará,3,"4,98",2,"2,50","5,10","0,92",6,0,0,0,0,1,0,0,0,0,0,0,0,0,0,3,0,11
Martín Silva ,GOL,Vasco,2,"10,27",2,"2,50","1,00","-2,13",0,0,0,0,0,0,0,0,3,0,0,0,0,0,2,0,0,0
Leandro Vilela ,MEI,Paraná,2,"4,48",1,"2,50","0,00","0,00",3,0,0,0,2,1,0,0,0,0,0,0,1,0,0,3,0,1
Pavez ,MEI,Atlético-PR,3,"6,07",2,"2,40","2,90","-0,06",3,0,0,0,3,0,0,0,0,0,0,0,0,0,0,0,0,4
Arthur ,ATA,Ceará,3,"5,68",2,"2,40","1,20","-0,24",2,0,0,0,0,1,2,0,0,0,0,0,0,0,0,1,0,3
Dedé ,ZAG,Cruzeiro,3,"5,86",2,"2,40","2,10","-0,13",5,0,0,0,4,1,1,0,0,0,0,0,2,0,0,3,0,4
André ,ATA,Grêmio,3,"9,94",2,"2,40","-1,30","-2,53",1,1,0,0,4,1,2,0,0,0,0,0,1,0,0,6,5,8
Carlos Eduardo ,MEI,Paraná,5,"5,10",1,"2,40","0,00","0,00",1,0,0,0,2,1,0,0,0,0,0,0,0,0,0,0,0,3
Pedro Botelho ,LAT,Vitória,3,"5,45",2,"2,40","1,90","0,01",4,0,0,0,0,1,0,0,0,0,0,0,0,0,0,1,0,5
Nelsinho Baptista ,TEC,Sport,3,"5,82",2,"2,30","3,19","0,03",0,0,0,0,0,0,0,0,0,0,0,0,0,0,0,0,0,0
Sander ,LAT,Sport,3,"6,47",2,"2,30","2,70","-0,35",2,0,0,0,3,0,1,0,0,0,0,0,0,0,0,1,0,2
Cícero ,MEI,Grêmio,2,"7,10",1,"2,30","0,00","0,00",1,0,0,0,1,0,1,0,0,0,0,0,0,0,0,0,0,3
Adilson ,MEI,Atlético-MG,3,"5,19",1,"2,30","2,30","-0,81",2,0,0,0,3,0,0,0,0,0,0,0,0,0,0,2,0,4
Léo ,ZAG,Cruzeiro,3,"6,15",2,"2,25","2,00","-0,39",4,0,0,0,0,0,0,0,0,0,0,0,0,0,0,3,0,0
Silvinho ,ATA,Paraná,3,"4,39",2,"2,25","2,90","0,53",2,0,0,0,6,1,1,0,0,0,0,0,0,0,0,4,0,5
Ezequiel ,ATA,Botafogo,2,"4,45",1,"2,20","2,20","-0,55",1,0,0,0,2,0,0,0,0,0,0,0,0,0,0,0,0,1
Bruno Henrique ,MEI,Palmeiras,3,"6,87",2,"2,20","2,50","-0,64",5,0,0,0,2,1,0,0,0,0,0,0,1,0,0,4,0,3
Vitor Feijão ,ATA,Paraná,2,"3,74",1,"2,20","2,20","-0,26",0,0,0,0,2,0,1,0,0,0,0,0,0,0,0,0,0,0
Neilton ,ATA,Vitória,3,"8,67",1,"2,20","2,20","-2,33",1,0,0,0,3,1,0,0,0,0,0,0,0,0,0,2,0,2
Gabriel ,MEI,Sport,3,"5,14",2,"2,15","3,10","0,18",1,0,0,0,3,1,2,0,0,0,0,0,0,0,0,2,0,3
Rogério Micale ,TEC,Paraná,3,"4,22",2,"2,10","2,71","0,44",0,0,0,0,0,0,0,0,0,0,0,0,0,0,0,0,0,0
Lucas Lima ,MEI,Palmeiras,3,"8,14",2,"2,10","4,00","-0,95",2,0,0,0,1,0,0,1,0,0,0,0,0,0,0,4,0,1
Alemão ,LAT,Paraná,3,"5,06",2,"2,10","3,10","0,17",4,0,0,0,0,2,1,0,0,0,0,0,0,0,0,5,0,7
Jhonny Lucas ,MEI,Paraná,3,"3,00",1,"2,10","2,10","0,00",3,0,0,0,1,1,1,0,0,0,0,0,1,0,0,4,0,3
Rafael Lima ,ZAG,América-MG,3,"6,77",2,"2,05","-2,10","-1,63",1,0,0,1,0,1,0,0,0,0,0,0,1,0,0,0,0,4
Eduardo ,LAT,Chapecoense,2,"4,82",1,"2,00","0,00","0,00",1,0,0,0,1,0,0,0,0,0,0,0,0,0,0,0,0,0
Canteros ,MEI,Chapecoense,3,"6,70",2,"2,00","-0,70","-1,36",1,0,1,0,0,1,0,0,0,0,0,0,0,0,0,0,0,11
Jailson ,MEI,Grêmio,2,"5,51",1,"2,00","0,00","0,00",1,0,0,0,1,0,0,0,0,0,0,0,0,0,0,0,0,0
Nenê ,MEI,São Paulo,2,"7,16",2,"2,00","3,60","-0,69",1,0,0,0,2,1,2,0,0,0,0,0,0,0,0,1,0,4
Léo Itaperuna ,ATA,Paraná,2,"3,44",1,"2,00","0,00","0,00",0,0,0,0,4,0,0,0,0,0,0,0,0,0,0,0,0,0
Jesiel ,ZAG,Paraná,3,"3,66",2,"2,00","2,50","0,56",3,0,0,0,0,0,0,0,0,0,0,0,0,0,0,1,0,0
Gilson Kleina ,TEC,Chapecoense,3,"5,11",2,"1,97","2,35","-0,11",0,0,0,0,0,0,0,0,0,0,0,0,0,0,0,0,0,0
Vinicius ,ATA,Chapecoense,2,"4,34",2,"1,95","1,70","0,07",1,0,0,0,2,2,1,0,0,0,0,0,0,0,0,1,0,3
Reina ,MEI,Ceará,2,"3,38",1,"1,90","0,00","0,00",0,0,0,0,2,0,1,0,0,0,0,0,0,0,0,0,0,1
Geuvânio ,ATA,Flamengo,2,"5,43",2,"1,90","-1,70","-1,11",2,0,1,0,1,0,0,0,0,0,0,0,1,0,0,2,1,4
Kannemann ,ZAG,Grêmio,3,"10,95",1,"1,90","0,00","0,00",2,0,0,1,1,0,0,0,0,0,0,1,0,0,0,2,0,2
Ariel Cabral ,MEI,Cruzeiro,2,"6,13",1,"1,90","0,00","0,00",3,0,0,0,2,0,0,0,0,0,0,0,1,0,0,2,0,2
Vagner Mancini ,TEC,Vitória,3,"6,22",2,"1,86","1,45","-0,85",0,0,0,0,0,0,0,0,0,0,0,0,0,0,0,0,0,0
Marlone ,MEI,Sport,3,"6,47",2,"1,85","2,10","-0,83",1,0,0,0,2,1,4,0,0,0,0,0,1,0,0,2,1,3
Evander ,MEI,Vasco,2,"6,78",2,"1,85","1,20","-1,14",3,0,0,0,1,3,0,0,0,0,0,0,1,0,0,1,0,4
Mano Menezes ,TEC,Cruzeiro,3,"8,68",2,"1,81","1,13","-1,99",0,0,0,0,0,0,0,0,0,0,0,0,0,0,0,0,0,0
Pablo Dyego ,ATA,Fluminense,2,"3,58",2,"1,75","0,20","-0,07",1,0,0,0,4,1,1,0,0,0,0,0,0,0,0,1,0,5
Maicon ,MEI,Grêmio,3,"5,75",2,"1,65","3,30","-0,45",2,0,0,0,2,0,1,0,0,0,0,0,0,0,0,2,0,3
Brenner ,ATA,Botafogo,3,"4,12",2,"1,60","2,20","-0,01",1,0,0,0,5,1,0,0,0,0,0,0,0,0,0,2,0,2
Neto Moura ,MEI,Sport,3,"3,49",1,"1,60","1,60","-0,51",1,0,0,0,0,1,2,0,0,0,0,0,1,0,0,1,0,2
Valdívia ,MEI,São Paulo,2,"7,23",2,"1,60","0,20","-1,73",2,0,0,0,3,0,0,0,0,0,0,0,0,0,0,2,0,1
Naldo ,MEI,Ceará,2,"3,45",1,"1,50","1,50","-0,55",1,0,0,0,0,0,0,0,0,0,0,0,0,0,0,0,0,0
Leandro Pereira ,ATA,Chapecoense,2,"4,85",1,"1,50","1,50","-1,15",1,0,0,0,0,0,0,0,0,0,0,0,0,0,0,0,0,0
Marlos ,ATA,Flamengo,2,"4,85",1,"1,50","1,50","-1,15",1,0,0,0,1,0,0,0,0,0,0,0,0,0,0,0,1,0
Rafael Sobis ,ATA,Cruzeiro,2,"6,54",1,"1,50","0,00","0,00",1,0,0,0,0,1,0,0,0,0,0,0,0,0,0,1,0,1
Michel ,MEI,Grêmio,2,"5,17",1,"1,50","0,00","0,00",1,0,0,0,0,0,0,0,0,0,0,0,0,0,0,0,0,0
Mancuello ,MEI,Cruzeiro,3,"4,45",2,"1,50","0,80","-0,51",2,0,0,0,0,0,2,0,0,0,0,0,0,0,0,3,0,3
Lucas Silva ,MEI,Cruzeiro,3,"4,15",1,"1,50","1,50","-0,85",0,0,0,0,2,2,0,0,0,0,0,0,0,0,0,1,0,2
Diego ,ATA,Paraná,2,"4,48",1,"1,50","0,00","0,00",2,0,0,0,0,0,0,0,0,0,0,0,0,0,0,0,0,5
Matheus Galdezani ,MEI,Atlético-MG,2,"4,85",1,"1,50","1,50","-1,15",1,0,0,0,0,0,0,0,0,0,0,0,0,0,0,0,0,0
Fellipe Bastos ,MEI,Sport,2,"3,48",2,"1,45","2,00","0,10",0,0,0,0,0,2,2,0,0,0,0,0,0,0,0,1,0,2
Willian Arão ,MEI,Flamengo,3,"4,58",2,"1,45","3,00","-0,17",6,0,0,0,0,0,0,0,0,0,0,0,1,0,0,4,0,7
Mateus Vital ,MEI,Corinthians,3,"3,62",2,"1,45","3,00","0,24",1,0,0,0,4,1,0,0,0,0,0,0,0,0,0,0,1,3
Rayan ,ZAG,Paraná,3,"3,18",2,"1,35","2,40","0,22",1,0,0,0,1,1,1,0,0,0,0,0,0,0,0,0,2,1
Edigar Junio ,ATA,Bahia,3,"5,73",2,"1,25","1,60","-1,09",2,0,0,0,2,0,0,1,0,0,0,0,0,0,0,5,1,5
Gerson Magrão ,MEI,América-MG,2,"4,27",1,"1,20","0,00","0,00",1,0,0,0,0,0,0,0,0,0,0,0,0,0,0,0,0,1
Bruno Pacheco ,LAT,Chapecoense,2,"4,27",1,"1,20","0,00","0,00",1,0,0,0,1,0,0,0,0,0,0,0,0,0,0,1,0,1
Jonas ,MEI,Flamengo,2,"5,43",1,"1,20","1,20","-1,57",1,0,0,0,0,0,0,0,0,0,0,0,0,0,0,0,0,1
Felipe Azevedo ,ATA,Ceará,3,"5,09",2,"1,15","3,00","-0,63",2,0,0,0,2,0,1,0,0,0,0,0,0,0,0,1,0,8
Willian ,ATA,Palmeiras,2,"6,78",2,"1,15","-0,50","-2,04",0,0,0,0,1,0,3,0,0,0,0,0,0,0,0,3,0,1
Caio Henrique ,MEI,Paraná,3,"2,77",2,"1,15","2,70","0,29",2,0,0,0,1,2,1,0,0,0,0,0,0,0,0,4,1,5
Douglas Friedrich ,GOL,Bahia,3,"3,07",2,"1,10","3,00","0,18",0,0,0,1,1,0,0,0,1,0,0,0,1,0,2,0,0,1
Diego Alves ,GOL,Flamengo,3,"9,71",1,"1,10","0,00","0,00",0,0,0,0,0,0,0,0,2,0,0,0,0,0,2,0,0,3
Jeferson ,LAT,Vitória,2,"4,11",2,"1,10","0,00","-0,85",1,0,0,0,1,0,1,0,0,0,0,0,0,0,0,2,0,0
Marco Antônio ,MEI,Bahia,3,"1,89",2,"1,05","0,60","0,17",2,0,0,0,4,1,0,0,0,0,0,0,1,0,0,1,0,4
Ramiro ,MEI,Grêmio,3,"6,25",2,"1,05","-0,80","-1,95",5,0,0,0,3,1,0,0,0,0,0,0,2,0,0,4,1,4
Andrigo ,MEI,Sport,3,"5,27",2,"1,00","0,40","-1,34",1,0,0,0,1,1,2,0,0,0,0,0,0,0,0,3,1,4
Ronaldo Alves ,ZAG,Sport,3,"5,35",1,"1,00","1,00","-1,65",1,0,0,0,1,0,0,0,0,0,0,0,0,0,0,1,1,0
Marcelo Hermes ,LAT,Cruzeiro,3,"3,94",1,"1,00","1,00","-1,06",2,0,0,0,1,1,0,0,0,0,0,0,0,0,0,3,0,6
Rafael Galhardo ,LAT,Vasco,2,"3,28",2,"0,85","-0,10","-0,72",2,0,0,0,0,1,0,0,0,0,0,0,0,0,0,0,0,7
Gabriel Dias ,MEI,Internacional,3,"3,80",2,"0,85","1,20","-0,68",1,0,0,0,3,0,0,0,0,0,0,0,0,0,0,2,0,1
Diego ,MEI,Flamengo,5,"10,89",1,"0,80","0,00","0,00",1,0,0,0,8,1,0,0,0,0,0,0,1,0,0,3,1,5
Marquinhos ,ATA,América-MG,2,"5,26",1,"0,80","0,80","-1,74",1,0,0,0,1,0,0,0,0,0,0,0,0,0,0,0,0,4
Uillian Correia ,MEI,Vitória,3,"4,24",2,"0,80","1,10","-0,93",2,0,0,0,1,0,3,0,0,0,0,0,1,0,0,4,0,5
Zé Ivaldo ,ZAG,Atlético-PR,2,"1,58",2,"0,70","5,00","0,89",0,0,0,1,1,0,0,0,0,0,0,0,1,0,0,3,0,2
Kieza ,ATA,Botafogo,2,"3,81",2,"0,70","0,50","-0,94",1,0,0,0,0,0,1,0,0,0,0,0,0,0,0,2,0,1
Marcos Junior ,ATA,Fluminense,3,"3,98",2,"0,70","1,40","-0,84",1,0,0,0,2,0,0,0,0,0,0,0,0,0,0,1,0,2
Júlio César ,GOL,Fluminense,3,"2,99",2,"0,70","5,70","0,44",0,0,0,1,0,0,0,0,1,0,0,0,1,0,2,0,0,2
Klaus ,ZAG,Internacional,3,"3,11",1,"0,70","0,70","-0,89",1,0,0,0,0,0,0,0,0,0,0,0,0,0,0,1,0,1
Guilherme Costa ,MEI,Vitória,2,"2,60",2,"0,70","1,20","-0,29",0,0,0,0,4,0,0,0,0,0,0,0,0,0,0,0,0,2
José Welison ,MEI,Vitória,3,"3,81",1,"0,70","0,70","-1,19",2,0,0,0,0,0,0,0,0,0,0,0,0,0,0,4,0,1
Bremer ,ZAG,Atlético-MG,3,"2,46",2,"0,65","1,40","-0,23",4,0,0,0,1,0,0,0,0,0,0,0,1,0,0,4,0,4
Joel Carli ,ZAG,Botafogo,3,"4,97",2,"0,65","-0,30","-1,64",2,0,0,0,1,1,0,0,0,0,0,0,0,0,0,3,0,5
D'Alessandro ,MEI,Internacional,2,"7,61",2,"0,65","-0,90","-2,86",0,0,0,0,3,2,0,0,0,0,0,0,0,0,0,0,0,6
Moisés ,MEI,Palmeiras,2,"5,78",2,"0,65","1,60","-1,59",2,0,0,0,0,0,0,0,0,0,0,0,0,0,0,1,0,4
Jucilei ,MEI,São Paulo,2,"7,30",1,"0,60","0,00","0,00",2,0,0,0,1,0,0,0,0,0,0,0,0,0,0,4,0,3
Wescley ,MEI,Ceará,3,"3,19",2,"0,55","0,20","-0,87",1,0,0,0,3,0,0,0,0,0,0,0,0,0,0,2,0,3
Riascos ,ATA,Vasco,2,"4,24",2,"0,55","0,00","-1,34",1,0,0,0,1,0,1,0,0,0,0,0,0,0,0,2,1,2
Robinho ,MEI,Cruzeiro,3,"5,90",2,"0,55","2,20","-1,61",2,0,0,0,2,0,0,0,0,0,0,0,0,0,0,1,0,8
Ernandes ,LAT,Ceará,2,"2,41",1,"0,50","0,00","0,00",0,0,0,0,0,1,0,0,0,0,0,0,0,0,0,0,0,1
Juan ,ZAG,Flamengo,3,"8,61",1,"0,50","0,00","0,00",1,0,0,0,1,0,0,0,0,0,0,0,0,0,0,0,0,5
Rossi ,ATA,Internacional,5,"3,79",1,"0,50","0,00","0,00",0,0,0,0,1,0,0,0,0,0,0,0,0,0,0,0,0,0
Deyverson ,ATA,Palmeiras,2,"3,60",2,"0,45","0,00","-1,15",1,0,0,0,0,0,0,0,0,0,0,0,0,0,0,0,0,2
Zé Ricardo ,MEI,América-MG,2,"0,96",1,"0,40","0,00","0,00",1,0,0,0,0,0,0,0,0,0,0,0,0,0,0,1,0,2
Vinícius ,MEI,Bahia,3,"5,53",2,"0,40","1,20","-1,77",0,0,0,0,2,0,1,0,0,0,0,0,0,0,0,1,0,3
Marcinho ,LAT,Botafogo,3,"3,62",2,"0,40","-0,30","-1,27",3,0,0,0,3,0,0,0,0,0,0,0,1,0,0,1,0,9
Amaral ,MEI,Chapecoense,3,"3,73",2,"0,40","-0,60","-1,37",2,0,0,0,1,0,0,0,0,0,0,0,0,0,0,3,0,4
Edílson ,LAT,Cruzeiro,2,"9,23",1,"0,40","0,00","0,00",1,0,0,0,0,0,0,0,0,0,0,0,0,0,0,1,0,2
Egídio ,LAT,Cruzeiro,2,"7,85",1,"0,40","0,00","0,00",2,0,0,0,1,0,0,0,0,0,0,0,0,0,0,5,0,2
Elias ,MEI,Atlético-MG,2,"6,53",2,"0,40","-0,30","-2,49",1,0,0,0,1,0,0,0,0,0,0,0,0,0,0,0,0,4
Roberto ,ATA,Ceará,2,"3,62",2,"0,35","-0,50","-1,34",1,0,0,0,0,0,0,0,0,0,0,0,0,0,0,1,0,1
Lucho González ,MEI,Atlético-PR,3,"5,75",1,"0,30","0,30","-2,25",1,0,0,0,0,0,0,0,0,0,0,0,0,0,0,0,0,4
Apodi ,LAT,Chapecoense,3,"4,16",2,"0,30","-0,90","-1,70",2,0,0,0,0,2,0,0,0,0,0,0,0,0,0,5,0,5
Thiago Neves ,MEI,Cruzeiro,3,"12,47",2,"0,30","-1,10","-5,24",0,0,0,0,1,0,3,0,0,0,0,0,0,0,0,0,1,10
Richard ,GOL,Paraná,1,"4,18",2,"0,25","-4,00","-2,36",0,0,0,0,1,0,0,0,2,0,0,0,0,0,3,0,0,0
Diego Pituca ,MEI,Santos,2,"0,70",2,"0,25","0,50","0,01",0,0,0,0,1,0,0,0,0,0,0,0,0,0,0,0,0,0
Arthur Gomes ,ATA,Santos,2,"2,63",2,"0,25","0,50","-0,81",0,0,0,0,1,0,0,0,0,0,0,0,0,0,0,0,0,0
Willian Farias ,MEI,Vitória,3,"3,25",2,"0,25","-1,30","-1,43",0,0,0,0,2,1,0,0,0,0,0,0,0,0,0,2,0,1
Marcos Vinícius ,MEI,Botafogo,2,"4,27",1,"0,20","0,00","0,00",0,0,0,0,1,0,0,0,0,0,0,0,0,0,0,0,0,1
Douglas Grolli ,ZAG,Bahia,2,"2,89",1,"0,20","0,00","0,00",1,0,0,0,0,0,0,0,0,0,0,0,0,0,0,2,0,1
Guilherme ,ATA,Chapecoense,2,"5,65",1,"0,20","0,00","0,00",0,0,0,0,1,0,0,0,0,0,0,0,0,0,0,0,0,1
Bruno Henrique ,ATA,Santos,5,"12,75",1,"0,20","0,20","-5,25",0,0,0,0,2,0,0,0,0,0,0,0,0,0,0,1,0,1
Rildo ,ATA,Vasco,2,"2,99",2,"0,10","0,20","-1,14",0,0,0,0,8,2,0,0,0,0,0,0,1,0,0,1,1,8
Alex Baumjohann ,MEI,Vitória,2,"2,12",2,"0,10","-0,10","-0,84",0,0,0,0,1,1,1,0,0,0,0,0,0,0,0,4,0,1
Fábio Santos ,LAT,Atlético-MG,3,"4,24",2,"0,10","2,20","-1,27",3,0,0,0,3,0,0,0,0,0,0,0,1,0,0,3,1,6
Ernando ,ZAG,Sport,3,"4,14",2,"0,10","-0,30","-1,72",0,0,0,0,1,0,0,0,0,0,0,0,0,0,0,0,0,1
Wellington ,MEI,Vasco,2,"3,16",2,"0,05","-0,50","-1,39",1,0,0,0,0,1,1,0,0,0,0,0,1,0,0,1,0,3
Fernando Leal ,GOL,América-MG,2,"3,00",0,"0,00","0,00","0,00",0,0,0,0,0,0,0,0,0,0,0,0,0,0,0,0,0,0
Erick ,GOL,América-MG,2,"1,00",0,"0,00","0,00","0,00",0,0,0,0,0,0,0,0,0,0,0,0,0,0,0,0,0,0
Matheus Santos ,ATA,América-MG,2,"1,00",0,"0,00","0,00","0,00",0,0,0,0,0,0,0,0,0,0,0,0,0,0,0,0,0,0
Lima ,ZAG,América-MG,2,"5,00",0,"0,00","0,00","0,00",0,0,0,0,0,0,0,0,0,0,0,0,0,0,0,0,0,0
Ronaldo ,LAT,América-MG,2,"1,00",0,"0,00","0,00","0,00",0,0,0,0,0,0,0,0,0,0,0,0,0,0,0,0,0,0
Matheus Ferraz ,ZAG,América-MG,2,"6,00",0,"0,00","0,00","0,00",0,0,0,0,0,0,0,0,0,0,0,0,0,0,0,0,0,0
Aderlan ,LAT,América-MG,2,"2,00",0,"0,00","0,00","0,00",0,0,0,0,0,0,0,0,0,0,0,0,0,0,0,0,0,0
Ruy ,MEI,América-MG,2,"6,00",0,"0,00","0,00","0,00",0,0,0,0,0,0,0,0,0,0,0,0,0,0,0,0,0,0
Matheus Sales ,MEI,América-MG,2,"5,00",0,"0,00","0,00","0,00",0,0,0,0,0,0,0,0,0,0,0,0,0,0,0,0,0,0
David ,MEI,América-MG,5,"3,00",0,"0,00","0,00","0,00",0,0,0,0,0,0,0,0,0,0,0,0,0,0,0,0,0,0
Glauco ,GOL,América-MG,2,"4,00",0,"0,00","0,00","0,00",0,0,0,0,0,0,0,0,0,0,0,0,0,0,0,0,0,0
Matheusinho ,MEI,América-MG,5,"4,00",0,"0,00","0,00","0,00",0,0,0,0,0,0,0,0,0,0,0,0,0,0,0,0,0,0
Michel ,LAT,América-MG,2,"2,00",0,"0,00","0,00","0,00",0,0,0,0,0,0,0,0,0,0,0,0,0,0,0,0,0,0
Michael ,GOL,Atlético-MG,2,"1,00",0,"0,00","0,00","0,00",0,0,0,0,0,0,0,0,0,0,0,0,0,0,0,0,0,0
Renan Oliveira ,MEI,América-MG,2,"5,00",0,"0,00","0,00","0,00",0,0,0,0,0,0,0,0,0,0,0,0,0,0,0,0,0,0
Fernando ,GOL,Atlético-MG,2,"1,00",0,"0,00","0,00","0,00",0,0,0,0,0,0,0,0,0,0,0,0,0,0,0,0,0,0
Cleiton ,GOL,Atlético-MG,2,"2,00",0,"0,00","0,00","0,00",0,0,0,0,0,0,0,0,0,0,0,0,0,0,0,0,0,0
Iago Maidana ,ZAG,Atlético-MG,2,"4,00",0,"0,00","0,00","0,00",0,0,0,0,0,0,0,0,0,0,0,0,0,0,0,0,0,0
Marco Túlio ,ATA,Atlético-MG,2,"1,00",0,"0,00","0,00","0,00",0,0,0,0,0,0,0,0,0,0,0,0,0,0,0,0,0,0
Giovanni ,LAT,América-MG,5,"6,00",0,"0,00","0,00","0,00",0,0,0,0,0,0,0,0,0,0,0,0,0,0,0,0,0,0
Tomás Andrade ,MEI,Atlético-MG,2,"5,00",0,"0,00","0,00","0,00",0,0,0,0,0,0,0,0,0,0,0,0,0,0,0,0,0,0
Alerrandro ,ATA,Atlético-MG,2,"1,00",0,"0,00","0,00","0,00",0,0,0,0,0,0,0,0,0,0,0,0,0,0,0,0,0,0
Bruno Roberto ,MEI,Atlético-MG,2,"1,00",0,"0,00","0,00","0,00",0,0,0,0,0,0,0,0,0,0,0,0,0,0,0,0,0,0
Marquinhos ,MEI,Atlético-MG,2,"1,00",0,"0,00","0,00","0,00",0,0,0,0,0,0,0,0,0,0,0,0,0,0,0,0,0,0
João Ricardo ,GOL,América-MG,5,"6,00",0,"0,00","0,00","0,00",0,0,0,0,0,0,0,0,0,0,0,0,0,0,0,0,0,0
Luis Ricardo ,LAT,Botafogo,2,"4,00",0,"0,00","0,00","0,00",0,0,0,0,0,0,0,0,0,0,0,0,0,0,0,0,0,0
Deivid ,MEI,Atlético-PR,2,"2,76",1,"0,00","0,00","0,00",0,0,0,0,0,0,0,0,0,0,0,0,0,0,0,0,0,0
Leo ,GOL,Atlético-PR,2,"2,00",0,"0,00","0,00","0,00",0,0,0,0,0,0,0,0,0,0,0,0,0,0,0,0,0,0
Bergson ,ATA,Atlético-PR,2,"6,00",0,"0,00","0,00","0,00",0,0,0,0,0,0,0,0,0,0,0,0,0,0,0,0,0,0
Felipe Alves ,GOL,Atlético-PR,2,"2,00",0,"0,00","0,00","0,00",0,0,0,0,0,0,0,0,0,0,0,0,0,0,0,0,0,0
Wanderson ,ZAG,Atlético-PR,2,"5,00",0,"0,00","0,00","0,00",0,0,0,0,0,0,0,0,0,0,0,0,0,0,0,0,0,0
Léo Pereira ,ZAG,Atlético-PR,2,"3,00",0,"0,00","0,00","0,00",0,0,0,0,0,0,0,0,0,0,0,0,0,0,0,0,0,0
Felipe Gedoz  ,MEI,Atlético-PR,2,"5,00",0,"0,00","0,00","0,00",0,0,0,0,0,0,0,0,0,0,0,0,0,0,0,0,0,0
Alex ,MEI,Atlético-PR,2,"1,00",0,"0,00","0,00","0,00",0,0,0,0,0,0,0,0,0,0,0,0,0,0,0,0,0,0
Giovanny  ,ATA,Atlético-PR,2,"4,00",0,"0,00","0,00","0,00",0,0,0,0,0,0,0,0,0,0,0,0,0,0,0,0,0,0
Diego ,LAT,Atlético-PR,2,"3,00",0,"0,00","0,00","0,00",0,0,0,0,0,0,0,0,0,0,0,0,0,0,0,0,0,0
João Pedro ,MEI,Atlético-PR,2,"3,00",0,"0,00","0,00","0,00",0,0,0,0,0,0,0,0,0,0,0,0,0,0,0,0,0,0
Yago ,ATA,Atlético-PR,2,"2,00",0,"0,00","0,00","0,00",0,0,0,0,0,0,0,0,0,0,0,0,0,0,0,0,0,0
Cascardo ,LAT,Atlético-PR,2,"4,00",0,"0,00","0,00","0,00",0,0,0,0,0,0,0,0,0,0,0,0,0,0,0,0,0,0
Nicolas ,LAT,Atlético-PR,2,"4,00",0,"0,00","0,00","0,00",0,0,0,0,0,0,0,0,0,0,0,0,0,0,0,0,0,0
João Pedro  ,LAT,Bahia,2,"4,00",0,"0,00","0,00","0,00",0,0,0,0,0,0,0,0,0,0,0,0,0,0,0,0,0,0
Renan Lodi ,LAT,Atlético-PR,2,"2,00",0,"0,00","0,00","0,00",0,0,0,0,0,0,0,0,0,0,0,0,0,0,0,0,0,0
Marcelo ,ATA,Atlético-PR,2,"2,00",0,"0,00","0,00","0,00",0,0,0,0,0,0,0,0,0,0,0,0,0,0,0,0,0,0
Riuler ,LAT,Atlético-PR,2,"1,00",0,"0,00","0,00","0,00",0,0,0,0,0,0,0,0,0,0,0,0,0,0,0,0,0,0
Marcinho ,ATA,Atlético-PR,2,"4,00",0,"0,00","0,00","0,00",0,0,0,0,0,0,0,0,0,0,0,0,0,0,0,0,0,0
Caio ,GOL,Atlético-PR,2,"1,00",0,"0,00","0,00","0,00",0,0,0,0,0,0,0,0,0,0,0,0,0,0,0,0,0,0
Matheus Anjos ,MEI,Atlético-PR,2,"2,00",0,"0,00","0,00","0,00",0,0,0,0,0,0,0,0,0,0,0,0,0,0,0,0,0,0
Leonardo Simas ,LAT,Atlético-PR,2,"1,00",0,"0,00","0,00","0,00",0,0,0,0,0,0,0,0,0,0,0,0,0,0,0,0,0,0
Weverton Almeida ,ZAG,Atlético-PR,2,"1,00",0,"0,00","0,00","0,00",0,0,0,0,0,0,0,0,0,0,0,0,0,0,0,0,0,0
Demethryus ,MEI,Atlético-PR,2,"1,00",0,"0,00","0,00","0,00",0,0,0,0,0,0,0,0,0,0,0,0,0,0,0,0,0,0
Alexsander ,MEI,Atlético-PR,2,"1,00",0,"0,00","0,00","0,00",0,0,0,0,0,0,0,0,0,0,0,0,0,0,0,0,0,0
Daniel  ,ZAG,Atlético-PR,2,"1,00",0,"0,00","0,00","0,00",0,0,0,0,0,0,0,0,0,0,0,0,0,0,0,0,0,0
Guilherme Ribeiro ,MEI,Atlético-PR,2,"1,00",0,"0,00","0,00","0,00",0,0,0,0,0,0,0,0,0,0,0,0,0,0,0,0,0,0
Gabriel ,GOL,Atlético-PR,2,"1,00",0,"0,00","0,00","0,00",0,0,0,0,0,0,0,0,0,0,0,0,0,0,0,0,0,0
Lucas Halter ,ZAG,Atlético-PR,2,"1,00",0,"0,00","0,00","0,00",0,0,0,0,0,0,0,0,0,0,0,0,0,0,0,0,0,0
Vitor Naum ,ATA,Atlético-PR,2,"1,00",0,"0,00","0,00","0,00",0,0,0,0,0,0,0,0,0,0,0,0,0,0,0,0,0,0
Anderson ,GOL,Bahia,2,"3,00",0,"0,00","0,00","0,00",0,0,0,0,0,0,0,0,0,0,0,0,0,0,0,0,0,0
Nilton ,MEI,Bahia,2,"7,00",0,"0,00","0,00","0,00",0,0,0,0,0,0,0,0,0,0,0,0,0,0,0,0,0,0
Kayke ,ATA,Bahia,2,"6,00",0,"0,00","0,00","0,00",0,0,0,0,0,0,0,0,0,0,0,0,0,0,0,0,0,0
Bruno Leite ,MEI,Atlético-PR,2,"1,00",0,"0,00","0,00","0,00",0,0,0,0,0,0,0,0,0,0,0,0,0,0,0,0,0,0
Jackson ,ZAG,Bahia,2,"4,00",0,"0,00","0,00","0,00",0,0,0,0,0,0,0,0,0,0,0,0,0,0,0,0,0,0
Rodrigo Becão ,ZAG,Bahia,2,"3,00",0,"0,00","0,00","0,00",0,0,0,0,0,0,0,0,0,0,0,0,0,0,0,0,0,0
Deijair  ,GOL,Bahia,2,"1,00",0,"0,00","0,00","0,00",0,0,0,0,0,0,0,0,0,0,0,0,0,0,0,0,0,0
Luís Fernando ,MEI,Bahia,2,"1,00",0,"0,00","0,00","0,00",0,0,0,0,0,0,0,0,0,0,0,0,0,0,0,0,0,0
Everson ,ZAG,Bahia,2,"3,00",0,"0,00","0,00","0,00",0,0,0,0,0,0,0,0,0,0,0,0,0,0,0,0,0,0
Geovane Itinga ,ATA,Bahia,2,"2,00",0,"0,00","0,00","0,00",0,0,0,0,0,0,0,0,0,0,0,0,0,0,0,0,0,0
Felipinho ,MEI,Bahia,2,"2,00",0,"0,00","0,00","0,00",0,0,0,0,0,0,0,0,0,0,0,0,0,0,0,0,0,0
Felipe ,GOL,Bahia,2,"1,00",0,"0,00","0,00","0,00",0,0,0,0,0,0,0,0,0,0,0,0,0,0,0,0,0,0
Khevin ,MEI,Chapecoense,5,"2,00",0,"0,00","0,00","0,00",0,0,0,0,0,0,0,0,0,0,0,0,0,0,0,0,0,0
Cassiano ,GOL,Bahia,2,"1,00",0,"0,00","0,00","0,00",0,0,0,0,0,0,0,0,0,0,0,0,0,0,0,0,0,0
João Pedro Ribeiro ,LAT,Bahia,2,"1,00",0,"0,00","0,00","0,00",0,0,0,0,0,0,0,0,0,0,0,0,0,0,0,0,0,0
Jefferson ,GOL,Botafogo,2,"12,00",0,"0,00","0,00","0,00",0,0,0,0,0,0,0,0,0,0,0,0,0,0,0,0,0,0
João Paulo ,MEI,Botafogo,5,"10,00",0,"0,00","0,00","0,00",0,0,0,0,0,0,0,0,0,0,0,0,0,0,0,0,0,0
Yago ,ZAG,Botafogo,2,"5,00",0,"0,00","0,00","0,00",0,0,0,0,0,0,0,0,0,0,0,0,0,0,0,0,0,0
Renatinho ,MEI,Botafogo,2,"4,00",0,"0,00","0,00","0,00",0,0,0,0,0,0,0,0,0,0,0,0,0,0,0,0,0,0
Marcelo ,MEI,Botafogo,5,"4,00",0,"0,00","0,00","0,00",0,0,0,0,0,0,0,0,0,0,0,0,0,0,0,0,0,0
Dudu Cearense ,MEI,Botafogo,2,"4,00",0,"0,00","0,00","0,00",0,0,0,0,0,0,0,0,0,0,0,0,0,0,0,0,0,0
Saulo ,GOL,Botafogo,2,"1,00",0,"0,00","0,00","0,00",0,0,0,0,0,0,0,0,0,0,0,0,0,0,0,0,0,0
Yuri ,LAT,Botafogo,5,"1,00",0,"0,00","0,00","0,00",0,0,0,0,0,0,0,0,0,0,0,0,0,0,0,0,0,0
Leandrinho ,MEI,Botafogo,2,"3,00",0,"0,00","0,00","0,00",0,0,0,0,0,0,0,0,0,0,0,0,0,0,0,0,0,0
Moisés ,LAT,Botafogo,5,"7,00",0,"0,00","0,00","0,00",0,0,0,0,0,0,0,0,0,0,0,0,0,0,0,0,0,0
Luiz Fernando  ,MEI,Botafogo,2,"5,00",0,"0,00","0,00","0,00",0,0,0,0,0,0,0,0,0,0,0,0,0,0,0,0,0,0
Pedro Ken ,MEI,Ceará,5,"5,00",0,"0,00","0,00","0,00",0,0,0,0,0,0,0,0,0,0,0,0,0,0,0,0,0,0
Rafael Pereira ,ZAG,Ceará,5,"5,00",0,"0,00","0,00","0,00",0,0,0,0,0,0,0,0,0,0,0,0,0,0,0,0,0,0
Jackson Caucaia ,MEI,Ceará,2,"2,00",0,"0,00","0,00","0,00",0,0,0,0,0,0,0,0,0,0,0,0,0,0,0,0,0,0
Alex Amado ,ATA,Ceará,2,"4,00",0,"0,00","0,00","0,00",0,0,0,0,0,0,0,0,0,0,0,0,0,0,0,0,0,0
Leandro Silva ,LAT,Ceará,2,"7,00",0,"0,00","0,00","0,00",0,0,0,0,0,0,0,0,0,0,0,0,0,0,0,0,0,0
Ricardinho ,MEI,Ceará,5,"4,82",1,"0,00","0,00","0,00",0,0,0,0,0,0,0,0,0,0,0,0,0,0,0,0,0,0
Bruno Pires ,ZAG,Ceará,2,"4,00",0,"0,00","0,00","0,00",0,0,0,0,0,0,0,0,0,0,0,0,0,0,0,0,0,0
Romário  ,LAT,Ceará,2,"4,00",0,"0,00","0,00","0,00",0,0,0,0,0,0,0,0,0,0,0,0,0,0,0,0,0,0
Romário Rodrigues ,ATA,Ceará,2,"2,00",0,"0,00","0,00","0,00",0,0,0,0,0,0,0,0,0,0,0,0,0,0,0,0,0,0
Douglas Coutinho  ,ATA,Ceará,2,"6,00",0,"0,00","0,00","0,00",0,0,0,0,0,0,0,0,0,0,0,0,0,0,0,0,0,0
Leandro Canhoto ,MEI,Ceará,2,"2,00",0,"0,00","0,00","0,00",0,0,0,0,0,0,0,0,0,0,0,0,0,0,0,0,0,0
Raul ,MEI,Ceará,2,"2,00",0,"0,00","0,00","0,00",0,0,0,0,0,0,0,0,0,0,0,0,0,0,0,0,0,0
Richardson ,MEI,Ceará,5,"6,00",0,"0,00","0,00","0,00",0,0,0,0,0,0,0,0,0,0,0,0,0,0,0,0,0,0
Patrick ,ZAG,Ceará,2,"2,00",0,"0,00","0,00","0,00",0,0,0,0,0,0,0,0,0,0,0,0,0,0,0,0,0,0
Luidy ,ATA,Ceará,2,"4,00",0,"0,00","0,00","0,00",0,0,0,0,0,0,0,0,0,0,0,0,0,0,0,0,0,0
Felipe Jonatan ,LAT,Ceará,2,"1,00",0,"0,00","0,00","0,00",0,0,0,0,0,0,0,0,0,0,0,0,0,0,0,0,0,0
Rafinha ,MEI,Ceará,2,"3,00",0,"0,00","0,00","0,00",0,0,0,0,0,0,0,0,0,0,0,0,0,0,0,0,0,0
Matheus Lira ,MEI,Ceará,2,"1,00",0,"0,00","0,00","0,00",0,0,0,0,0,0,0,0,0,0,0,0,0,0,0,0,0,0
Alan Ruschel ,MEI,Chapecoense,2,"5,00",0,"0,00","0,00","0,00",0,0,0,0,0,0,0,0,0,0,0,0,0,0,0,0,0,0
Neto ,ZAG,Chapecoense,5,"2,00",0,"0,00","0,00","0,00",0,0,0,0,0,0,0,0,0,0,0,0,0,0,0,0,0,0
Nery Bareiro ,ZAG,Chapecoense,5,"5,00",0,"0,00","0,00","0,00",0,0,0,0,0,0,0,0,0,0,0,0,0,0,0,0,0,0
Nenén ,MEI,Chapecoense,2,"3,00",0,"0,00","0,00","0,00",0,0,0,0,0,0,0,0,0,0,0,0,0,0,0,0,0,0
Ivan ,GOL,Chapecoense,2,"2,00",0,"0,00","0,00","0,00",0,0,0,0,0,0,0,0,0,0,0,0,0,0,0,0,0,0
Osman ,ATA,Chapecoense,2,"4,00",0,"0,00","0,00","0,00",0,0,0,0,0,0,0,0,0,0,0,0,0,0,0,0,0,0
Aderllan ,ZAG,São Paulo,2,"2,00",0,"0,00","0,00","0,00",0,0,0,0,0,0,0,0,0,0,0,0,0,0,0,0,0,0
Luiz Otávio  ,ZAG,Chapecoense,2,"6,00",0,"0,00","0,00","0,00",0,0,0,0,0,0,0,0,0,0,0,0,0,0,0,0,0,0
Fabrício Bruno ,ZAG,Chapecoense,5,"6,00",0,"0,00","0,00","0,00",0,0,0,0,0,0,0,0,0,0,0,0,0,0,0,0,0,0
Júnior Santos ,ATA,Chapecoense,2,"1,00",0,"0,00","0,00","0,00",0,0,0,0,0,0,0,0,0,0,0,0,0,0,0,0,0,0
Araruna ,MEI,São Paulo,2,"3,00",0,"0,00","0,00","0,00",0,0,0,0,0,0,0,0,0,0,0,0,0,0,0,0,0,0
Marcelo Benevenuto ,ZAG,Botafogo,2,"8,00",0,"0,00","0,00","0,00",0,0,0,0,0,0,0,0,0,0,0,0,0,0,0,0,0,0
Kanu ,ZAG,Botafogo,2,"2,00",0,"0,00","0,00","0,00",0,0,0,0,0,0,0,0,0,0,0,0,0,0,0,0,0,0
Moisés Ribeiro ,MEI,Chapecoense,4,"4,00",0,"0,00","0,00","0,00",0,0,0,0,0,0,0,0,0,0,0,0,0,0,0,0,0,0
Fernando Henrique ,GOL,Ceará,2,"3,00",0,"0,00","0,00","0,00",0,0,0,0,0,0,0,0,0,0,0,0,0,0,0,0,0,0
Helerson ,ZAG,Botafogo,2,"1,00",0,"0,00","0,00","0,00",0,0,0,0,0,0,0,0,0,0,0,0,0,0,0,0,0,0
Lucas Paes ,GOL,São Paulo,2,"1,00",0,"0,00","0,00","0,00",0,0,0,0,0,0,0,0,0,0,0,0,0,0,0,0,0,0
Toró ,ATA,São Paulo,2,"3,00",0,"0,00","0,00","0,00",0,0,0,0,0,0,0,0,0,0,0,0,0,0,0,0,0,0
Renan ,GOL,Ceará,2,"4,00",0,"0,00","0,00","0,00",0,0,0,0,0,0,0,0,0,0,0,0,0,0,0,0,0,0
Lucas Campos ,ATA,Botafogo,2,"1,00",0,"0,00","0,00","0,00",0,0,0,0,0,0,0,0,0,0,0,0,0,0,0,0,0,0
Kendy ,ATA,Chapecoense,2,"1,00",0,"0,00","0,00","0,00",0,0,0,0,0,0,0,0,0,0,0,0,0,0,0,0,0,0
Magrão ,GOL,Sport,5,"10,00",0,"0,00","0,00","0,00",0,0,0,0,0,0,0,0,0,0,0,0,0,0,0,0,0,0
Durval ,ZAG,Sport,2,"6,00",0,"0,00","0,00","0,00",0,0,0,0,0,0,0,0,0,0,0,0,0,0,0,0,0,0
Felipe Rodrigues ,LAT,Sport,2,"2,00",0,"0,00","0,00","0,00",0,0,0,0,0,0,0,0,0,0,0,0,0,0,0,0,0,0
Élber ,MEI,Bahia,2,"5,00",0,"0,00","0,00","0,00",0,0,0,0,0,0,0,0,0,0,0,0,0,0,0,0,0,0
Adryelson ,ZAG,Sport,2,"3,00",0,"0,00","0,00","0,00",0,0,0,0,0,0,0,0,0,0,0,0,0,0,0,0,0,0
Oswaldo Henríquez ,ZAG,Sport,2,"6,00",0,"0,00","0,00","0,00",0,0,0,0,0,0,0,0,0,0,0,0,0,0,0,0,0,0
Evandro ,LAT,Sport,2,"3,00",0,"0,00","0,00","0,00",0,0,0,0,0,0,0,0,0,0,0,0,0,0,0,0,0,0
Lucas Ferreira ,GOL,Sport,2,"2,00",0,"0,00","0,00","0,00",0,0,0,0,0,0,0,0,0,0,0,0,0,0,0,0,0,0
Thomás ,MEI,Sport,2,"6,00",0,"0,00","0,00","0,00",0,0,0,0,0,0,0,0,0,0,0,0,0,0,0,0,0,0
Juninho ,ATA,Sport,2,"4,00",0,"0,00","0,00","0,00",0,0,0,0,0,0,0,0,0,0,0,0,0,0,0,0,0,0
Mena ,LAT,Bahia,2,"10,00",0,"0,00","0,00","0,00",0,0,0,0,0,0,0,0,0,0,0,0,0,0,0,0,0,0
Índio ,ATA,Sport,2,"2,00",0,"0,00","0,00","0,00",0,0,0,0,0,0,0,0,0,0,0,0,0,0,0,0,0,0
Igor Campos ,GOL,Chapecoense,2,"1,00",0,"0,00","0,00","0,00",0,0,0,0,0,0,0,0,0,0,0,0,0,0,0,0,0,0
Fabrício ,MEI,Sport,2,"3,00",0,"0,00","0,00","0,00",0,0,0,0,0,0,0,0,0,0,0,0,0,0,0,0,0,0
Edson ,MEI,Bahia,2,"7,00",0,"0,00","0,00","0,00",0,0,0,0,0,0,0,0,0,0,0,0,0,0,0,0,0,0
Caíque ,ATA,São Paulo,2,"1,00",0,"0,00","0,00","0,00",0,0,0,0,0,0,0,0,0,0,0,0,0,0,0,0,0,0
Mikael ,ATA,Sport,2,"1,00",0,"0,00","0,00","0,00",0,0,0,0,0,0,0,0,0,0,0,0,0,0,0,0,0,0
Bruno Silva ,ATA,Chapecoense,2,"1,00",0,"0,00","0,00","0,00",0,0,0,0,0,0,0,0,0,0,0,0,0,0,0,0,0,0
Marcelo Mattos ,MEI,Vasco,2,"2,00",0,"0,00","0,00","0,00",0,0,0,0,0,0,0,0,0,0,0,0,0,0,0,0,0,0
Elias ,GOL,Chapecoense,2,"4,00",0,"0,00","0,00","0,00",0,0,0,0,0,0,0,0,0,0,0,0,0,0,0,0,0,0
Perotti ,ATA,Chapecoense,5,"2,00",0,"0,00","0,00","0,00",0,0,0,0,0,0,0,0,0,0,0,0,0,0,0,0,0,0
Shaylon ,MEI,São Paulo,2,"4,00",0,"0,00","0,00","0,00",0,0,0,0,0,0,0,0,0,0,0,0,0,0,0,0,0,0
Igor Gomes ,MEI,São Paulo,2,"1,00",0,"0,00","0,00","0,00",0,0,0,0,0,0,0,0,0,0,0,0,0,0,0,0,0,0
Paulinho ,ATA,São Paulo,2,"1,00",0,"0,00","0,00","0,00",0,0,0,0,0,0,0,0,0,0,0,0,0,0,0,0,0,0
Hiago ,ZAG,Chapecoense,2,"2,00",0,"0,00","0,00","0,00",0,0,0,0,0,0,0,0,0,0,0,0,0,0,0,0,0,0
Bissoli ,ATA,São Paulo,2,"2,00",0,"0,00","0,00","0,00",0,0,0,0,0,0,0,0,0,0,0,0,0,0,0,0,0,0
Tiepo ,GOL,Chapecoense,2,"2,00",0,"0,00","0,00","0,00",0,0,0,0,0,0,0,0,0,0,0,0,0,0,0,0,0,0
Gabriel ,MEI,São Paulo,2,"1,00",0,"0,00","0,00","0,00",0,0,0,0,0,0,0,0,0,0,0,0,0,0,0,0,0,0
Bruno ,LAT,Chapecoense,2,"1,00",0,"0,00","0,00","0,00",0,0,0,0,0,0,0,0,0,0,0,0,0,0,0,0,0,0
Paulo Henrique ,MEI,São Paulo,2,"1,00",0,"0,00","0,00","0,00",0,0,0,0,0,0,0,0,0,0,0,0,0,0,0,0,0,0
Júnior Dutra ,ATA,Corinthians,2,"7,00",0,"0,00","0,00","0,00",0,0,0,0,0,0,0,0,0,0,0,0,0,0,0,0,0,0
Marquinhos Gabriel ,MEI,Corinthians,2,"4,22",1,"0,00","0,00","-1,78",0,0,0,0,0,0,0,0,0,0,0,0,0,0,0,0,0,0
Ederson ,MEI,Flamengo,2,"3,00",0,"0,00","0,00","0,00",0,0,0,0,0,0,0,0,0,0,0,0,0,0,0,0,0,0
Bruno Paulo ,ATA,Corinthians,2,"1,00",0,"0,00","0,00","0,00",0,0,0,0,0,0,0,0,0,0,0,0,0,0,0,0,0,0
César ,GOL,Flamengo,2,"7,00",0,"0,00","0,00","0,00",0,0,0,0,0,0,0,0,0,0,0,0,0,0,0,0,0,0
Paulo Roberto ,MEI,Corinthians,2,"3,00",0,"0,00","0,00","0,00",0,0,0,0,0,0,0,0,0,0,0,0,0,0,0,0,0,0
Thiago ,GOL,Flamengo,2,"4,00",0,"0,00","0,00","0,00",0,0,0,0,0,0,0,0,0,0,0,0,0,0,0,0,0,0
Berrío  ,ATA,Flamengo,5,"5,00",0,"0,00","0,00","0,00",0,0,0,0,0,0,0,0,0,0,0,0,0,0,0,0,0,0
Marllon ,ZAG,Corinthians,2,"7,00",0,"0,00","0,00","0,00",0,0,0,0,0,0,0,0,0,0,0,0,0,0,0,0,0,0
Jajá ,MEI,Flamengo,2,"2,00",0,"0,00","0,00","0,00",0,0,0,0,0,0,0,0,0,0,0,0,0,0,0,0,0,0
Ronaldo ,MEI,Flamengo,2,"3,00",0,"0,00","0,00","0,00",0,0,0,0,0,0,0,0,0,0,0,0,0,0,0,0,0,0
Giovanni Augusto ,MEI,Vasco,5,"8,00",0,"0,00","0,00","0,00",0,0,0,0,0,0,0,0,0,0,0,0,0,0,0,0,0,0
Ramon ,LAT,Vasco,5,"10,00",0,"0,00","0,00","0,00",0,0,0,0,0,0,0,0,0,0,0,0,0,0,0,0,0,0
Felipe Vizeu ,ATA,Flamengo,2,"6,00",0,"0,00","0,00","0,00",0,0,0,0,0,0,0,0,0,0,0,0,0,0,0,0,0,0
Trauco ,LAT,Flamengo,2,"4,00",0,"0,00","0,00","0,00",0,0,0,0,0,0,0,0,0,0,0,0,0,0,0,0,0,0
Kelvin ,ATA,Vasco,2,"6,00",0,"0,00","0,00","0,00",0,0,0,0,0,0,0,0,0,0,0,0,0,0,0,0,0,0
Rafael ,ZAG,Flamengo,2,"1,00",0,"0,00","0,00","0,00",0,0,0,0,0,0,0,0,0,0,0,0,0,0,0,0,0,0
Pedro Henrique ,ZAG,Corinthians,2,"6,00",0,"0,00","0,00","0,00",0,0,0,0,0,0,0,0,0,0,0,0,0,0,0,0,0,0
Matheus Vidotto ,GOL,Corinthians,2,"2,00",0,"0,00","0,00","0,00",0,0,0,0,0,0,0,0,0,0,0,0,0,0,0,0,0,0
Jean ,MEI,Botafogo,2,"3,00",0,"0,00","0,00","0,00",0,0,0,0,0,0,0,0,0,0,0,0,0,0,0,0,0,0
Kazim ,ATA,Corinthians,2,"4,00",0,"0,00","0,00","0,00",0,0,0,0,0,0,0,0,0,0,0,0,0,0,0,0,0,0
Caíque França ,GOL,Corinthians,2,"2,00",0,"0,00","0,00","0,00",0,0,0,0,0,0,0,0,0,0,0,0,0,0,0,0,0,0
Rodolfo ,GOL,Fluminense,2,"3,00",0,"0,00","0,00","0,00",0,0,0,0,0,0,0,0,0,0,0,0,0,0,0,0,0,0
Luiz Gustavo ,ZAG,Vasco,2,"4,00",0,"0,00","0,00","0,00",0,0,0,0,0,0,0,0,0,0,0,0,0,0,0,0,0,0
Léo Principe ,LAT,Corinthians,2,"4,00",0,"0,00","0,00","0,00",0,0,0,0,0,0,0,0,0,0,0,0,0,0,0,0,0,0
Juninho Capixaba ,LAT,Corinthians,2,"7,00",0,"0,00","0,00","0,00",0,0,0,0,0,0,0,0,0,0,0,0,0,0,0,0,0,0
Erazo ,ZAG,Vasco,2,"7,00",0,"0,00","0,00","0,00",0,0,0,0,0,0,0,0,0,0,0,0,0,0,0,0,0,0
Léo Santos ,ZAG,Corinthians,2,"2,00",0,"0,00","0,00","0,00",0,0,0,0,0,0,0,0,0,0,0,0,0,0,0,0,0,0
Filipe ,GOL,Corinthians,2,"1,00",0,"0,00","0,00","0,00",0,0,0,0,0,0,0,0,0,0,0,0,0,0,0,0,0,0
Mantuan ,LAT,Corinthians,2,"2,00",0,"0,00","0,00","0,00",0,0,0,0,0,0,0,0,0,0,0,0,0,0,0,0,0,0
Matheus Matias ,ATA,Corinthians,2,"4,00",0,"0,00","0,00","0,00",0,0,0,0,0,0,0,0,0,0,0,0,0,0,0,0,0,0
Bruno Silva ,MEI,Vasco,2,"2,00",0,"0,00","0,00","0,00",0,0,0,0,0,0,0,0,0,0,0,0,0,0,0,0,0,0
Carlos Augusto ,LAT,Corinthians,2,"1,00",0,"0,00","0,00","0,00",0,0,0,0,0,0,0,0,0,0,0,0,0,0,0,0,0,0
Paolo Guerrero ,ATA,Flamengo,4,"15,00",0,"0,00","0,00","0,00",0,0,0,0,0,0,0,0,0,0,0,0,0,0,0,0,0,0
Jean Pyerre ,MEI,Grêmio,2,"3,00",0,"0,00","0,00","0,00",0,0,0,0,0,0,0,0,0,0,0,0,0,0,0,0,0,0
Bruno Paulista ,MEI,Vasco,2,"4,00",0,"0,00","0,00","0,00",0,0,0,0,0,0,0,0,0,0,0,0,0,0,0,0,0,0
Gabriel Félix ,GOL,Vasco,2,"3,00",0,"0,00","0,00","0,00",0,0,0,0,0,0,0,0,0,0,0,0,0,0,0,0,0,0
Alan Cardoso ,LAT,Vasco,2,"3,00",0,"0,00","0,00","0,00",0,0,0,0,0,0,0,0,0,0,0,0,0,0,0,0,0,0
Andrey ,MEI,Vasco,2,"4,00",0,"0,00","0,00","0,00",0,0,0,0,0,0,0,0,0,0,0,0,0,0,0,0,0,0
Fred ,ATA,Cruzeiro,5,"16,00",0,"0,00","0,00","0,00",0,0,0,0,0,0,0,0,0,0,0,0,0,0,0,0,0,0
Gabriel Batista ,GOL,Flamengo,2,"3,00",0,"0,00","0,00","0,00",0,0,0,0,0,0,0,0,0,0,0,0,0,0,0,0,0,0
Lucas Silva ,ATA,Flamengo,2,"2,00",0,"0,00","0,00","0,00",0,0,0,0,0,0,0,0,0,0,0,0,0,0,0,0,0,0
Esperon ,MEI,Grêmio,2,"1,00",0,"0,00","0,00","0,00",0,0,0,0,0,0,0,0,0,0,0,0,0,0,0,0,0,0
Caio Monteiro ,ATA,Vasco,2,"3,00",0,"0,00","0,00","0,00",0,0,0,0,0,0,0,0,0,0,0,0,0,0,0,0,0,0
Lincoln ,ATA,Flamengo,2,"4,00",0,"0,00","0,00","0,00",0,0,0,0,0,0,0,0,0,0,0,0,0,0,0,0,0,0
Paulo Vitor ,ATA,Vasco,2,"4,00",0,"0,00","0,00","0,00",0,0,0,0,0,0,0,0,0,0,0,0,0,0,0,0,0,0
Thuler ,ZAG,Flamengo,2,"2,00",0,"0,00","0,00","0,00",0,0,0,0,0,0,0,0,0,0,0,0,0,0,0,0,0,0
Bruno Cosendey ,MEI,Vasco,2,"3,00",0,"0,00","0,00","0,00",0,0,0,0,0,0,0,0,0,0,0,0,0,0,0,0,0,0
Kleber ,LAT,Flamengo,2,"2,00",0,"0,00","0,00","0,00",0,0,0,0,0,0,0,0,0,0,0,0,0,0,0,0,0,0
Ricardo ,ZAG,Vasco,2,"5,00",0,"0,00","0,00","0,00",0,0,0,0,0,0,0,0,0,0,0,0,0,0,0,0,0,0
Lucas Santos ,MEI,Vasco,2,"1,00",0,"0,00","0,00","0,00",0,0,0,0,0,0,0,0,0,0,0,0,0,0,0,0,0,0
Hugo Souza ,GOL,Flamengo,2,"1,00",0,"0,00","0,00","0,00",0,0,0,0,0,0,0,0,0,0,0,0,0,0,0,0,0,0
Paulinho ,ATA,Vasco,5,"8,00",0,"0,00","0,00","0,00",0,0,0,0,0,0,0,0,0,0,0,0,0,0,0,0,0,0
Pablo Maldini ,LAT,Flamengo,2,"1,00",0,"0,00","0,00","0,00",0,0,0,0,0,0,0,0,0,0,0,0,0,0,0,0,0,0
Pepê ,MEI,Flamengo,2,"2,00",0,"0,00","0,00","0,00",0,0,0,0,0,0,0,0,0,0,0,0,0,0,0,0,0,0
Wendel ,ATA,Flamengo,2,"1,00",0,"0,00","0,00","0,00",0,0,0,0,0,0,0,0,0,0,0,0,0,0,0,0,0,0
Michael ,LAT,Flamengo,2,"1,00",0,"0,00","0,00","0,00",0,0,0,0,0,0,0,0,0,0,0,0,0,0,0,0,0,0
Bruno Silva ,MEI,Cruzeiro,2,"8,00",0,"0,00","0,00","0,00",0,0,0,0,0,0,0,0,0,0,0,0,0,0,0,0,0,0
Hugo Moura ,MEI,Flamengo,2,"2,00",0,"0,00","0,00","0,00",0,0,0,0,0,0,0,0,0,0,0,0,0,0,0,0,0,0
Matheus Dantas ,ZAG,Flamengo,2,"1,00",0,"0,00","0,00","0,00",0,0,0,0,0,0,0,0,0,0,0,0,0,0,0,0,0,0
Vitor Gabriel ,ATA,Flamengo,2,"1,00",0,"0,00","0,00","0,00",0,0,0,0,0,0,0,0,0,0,0,0,0,0,0,0,0,0
Digão ,ZAG,Cruzeiro,2,"6,00",0,"0,00","0,00","0,00",0,0,0,0,0,0,0,0,0,0,0,0,0,0,0,0,0,0
Patrick ,ZAG,Flamengo,2,"1,00",0,"0,00","0,00","0,00",0,0,0,0,0,0,0,0,0,0,0,0,0,0,0,0,0,0
Ramon ,LAT,Flamengo,2,"1,00",0,"0,00","0,00","0,00",0,0,0,0,0,0,0,0,0,0,0,0,0,0,0,0,0,0
Airton ,MEI,Fluminense,2,"4,00",0,"0,00","0,00","0,00",0,0,0,0,0,0,0,0,0,0,0,0,0,0,0,0,0,0
Danilo ,MEI,Corinthians,2,"4,00",0,"0,00","0,00","0,00",0,0,0,0,0,0,0,0,0,0,0,0,0,0,0,0,0,0
Fabrício ,LAT,Vasco,2,"5,00",0,"0,00","0,00","0,00",0,0,0,0,0,0,0,0,0,0,0,0,0,0,0,0,0,0
Breno ,ZAG,Vasco,2,"6,00",0,"0,00","0,00","0,00",0,0,0,0,0,0,0,0,0,0,0,0,0,0,0,0,0,0
Pará ,LAT,Flamengo,2,"3,44",1,"0,00","0,00","0,00",0,0,0,0,0,0,0,0,0,0,0,0,0,0,0,0,0,0
Vilson ,ZAG,Corinthians,2,"4,00",0,"0,00","0,00","0,00",0,0,0,0,0,0,0,0,0,0,0,0,0,0,0,0,0,0
Romulo ,MEI,Flamengo,2,"4,00",0,"0,00","0,00","0,00",0,0,0,0,0,0,0,0,0,0,0,0,0,0,0,0,0,0
Walter ,GOL,Corinthians,2,"7,00",0,"0,00","0,00","0,00",0,0,0,0,0,0,0,0,0,0,0,0,0,0,0,0,0,0
Lucca ,ATA,Internacional,2,"8,00",0,"0,00","0,00","0,00",0,0,0,0,0,0,0,0,0,0,0,0,0,0,0,0,0,0
Judivan  ,ATA,América-MG,2,"3,00",0,"0,00","0,00","0,00",0,0,0,0,0,0,0,0,0,0,0,0,0,0,0,0,0,0
Lucas França ,GOL,Cruzeiro,2,"3,00",0,"0,00","0,00","0,00",0,0,0,0,0,0,0,0,0,0,0,0,0,0,0,0,0,0
Victor Luiz ,LAT,Cruzeiro,2,"1,00",0,"0,00","0,00","0,00",0,0,0,0,0,0,0,0,0,0,0,0,0,0,0,0,0,0
Marcos Felipe  ,GOL,Fluminense,2,"2,00",0,"0,00","0,00","0,00",0,0,0,0,0,0,0,0,0,0,0,0,0,0,0,0,0,0
Murilo ,ZAG,Cruzeiro,5,"9,00",0,"0,00","0,00","0,00",0,0,0,0,0,0,0,0,0,0,0,0,0,0,0,0,0,0
Lucas Soares ,LAT,Cruzeiro,2,"1,00",0,"0,00","0,00","0,00",0,0,0,0,0,0,0,0,0,0,0,0,0,0,0,0,0,0
Arthur ,ZAG,Cruzeiro,2,"3,00",0,"0,00","0,00","0,00",0,0,0,0,0,0,0,0,0,0,0,0,0,0,0,0,0,0
De Amores ,GOL,Fluminense,2,"3,00",0,"0,00","0,00","0,00",0,0,0,0,0,0,0,0,0,0,0,0,0,0,0,0,0,0
Vander ,MEI,Cruzeiro,2,"1,00",0,"0,00","0,00","0,00",0,0,0,0,0,0,0,0,0,0,0,0,0,0,0,0,0,0
Vitor Eudes ,GOL,Cruzeiro,2,"1,00",0,"0,00","0,00","0,00",0,0,0,0,0,0,0,0,0,0,0,0,0,0,0,0,0,0
Marlon ,LAT,Fluminense,2,"5,00",0,"0,00","0,00","0,00",0,0,0,0,0,0,0,0,0,0,0,0,0,0,0,0,0,0
Nonoca ,MEI,Sport,2,"3,00",0,"0,00","0,00","0,00",0,0,0,0,0,0,0,0,0,0,0,0,0,0,0,0,0,0
Marlon Freitas ,MEI,Fluminense,2,"3,00",0,"0,00","0,00","0,00",0,0,0,0,0,0,0,0,0,0,0,0,0,0,0,0,0,0
Cacá ,ZAG,Cruzeiro,2,"1,00",0,"0,00","0,00","0,00",0,0,0,0,0,0,0,0,0,0,0,0,0,0,0,0,0,0
Luquinhas ,MEI,Fluminense,2,"1,00",0,"0,00","0,00","0,00",0,0,0,0,0,0,0,0,0,0,0,0,0,0,0,0,0,0
Douglas ,MEI,Fluminense,2,"3,52",1,"0,00","0,00","-1,48",0,0,0,0,0,0,0,0,0,0,0,0,0,0,0,0,0,0
Marcelo ,ATA,Cruzeiro,2,"1,00",0,"0,00","0,00","0,00",0,0,0,0,0,0,0,0,0,0,0,0,0,0,0,0,0,0
Rhodolfo ,ZAG,Flamengo,2,"9,00",0,"0,00","0,00","0,00",0,0,0,0,0,0,0,0,0,0,0,0,0,0,0,0,0,0
Mateus Norton ,MEI,Fluminense,2,"3,00",0,"0,00","0,00","0,00",0,0,0,0,0,0,0,0,0,0,0,0,0,0,0,0,0,0
Marcos Calazans ,ATA,Fluminense,5,"3,00",0,"0,00","0,00","0,00",0,0,0,0,0,0,0,0,0,0,0,0,0,0,0,0,0,0
Dionathã ,ATA,Grêmio,2,"2,00",0,"0,00","0,00","0,00",0,0,0,0,0,0,0,0,0,0,0,0,0,0,0,0,0,0
Felipe ,ATA,Fluminense,2,"1,00",0,"0,00","0,00","0,00",0,0,0,0,0,0,0,0,0,0,0,0,0,0,0,0,0,0
Matheus Alessandro ,ATA,Fluminense,2,"4,00",0,"0,00","0,00","0,00",0,0,0,0,0,0,0,0,0,0,0,0,0,0,0,0,0,0
Robinho ,ATA,Fluminense,2,"4,00",0,"0,00","0,00","0,00",0,0,0,0,0,0,0,0,0,0,0,0,0,0,0,0,0,0
Patrick ,MEI,Grêmio,2,"2,00",0,"0,00","0,00","0,00",0,0,0,0,0,0,0,0,0,0,0,0,0,0,0,0,0,0
Matheus Henrique ,MEI,Grêmio,2,"1,00",0,"0,00","0,00","0,00",0,0,0,0,0,0,0,0,0,0,0,0,0,0,0,0,0,0
João Vitor ,LAT,Fluminense,2,"1,00",0,"0,00","0,00","0,00",0,0,0,0,0,0,0,0,0,0,0,0,0,0,0,0,0,0
Caio ,MEI,Fluminense,2,"2,00",0,"0,00","0,00","0,00",0,0,0,0,0,0,0,0,0,0,0,0,0,0,0,0,0,0
Lucas Poletto ,ATA,Grêmio,2,"2,00",0,"0,00","0,00","0,00",0,0,0,0,0,0,0,0,0,0,0,0,0,0,0,0,0,0
Brenno ,GOL,Grêmio,2,"1,00",0,"0,00","0,00","0,00",0,0,0,0,0,0,0,0,0,0,0,0,0,0,0,0,0,0
Guilherme Guedes ,LAT,Grêmio,2,"1,00",0,"0,00","0,00","0,00",0,0,0,0,0,0,0,0,0,0,0,0,0,0,0,0,0,0
Dudu ,ATA,Fluminense,2,"2,00",0,"0,00","0,00","0,00",0,0,0,0,0,0,0,0,0,0,0,0,0,0,0,0,0,0
Macula ,ATA,Fluminense,2,"1,00",0,"0,00","0,00","0,00",0,0,0,0,0,0,0,0,0,0,0,0,0,0,0,0,0,0
Thonny Anderson ,MEI,Grêmio,2,"4,00",0,"0,00","0,00","0,00",0,0,0,0,0,0,0,0,0,0,0,0,0,0,0,0,0,0
Ericson ,ZAG,Grêmio,2,"2,00",0,"0,00","0,00","0,00",0,0,0,0,0,0,0,0,0,0,0,0,0,0,0,0,0,0
Emanuel ,ZAG,Grêmio,2,"2,00",0,"0,00","0,00","0,00",0,0,0,0,0,0,0,0,0,0,0,0,0,0,0,0,0,0
Felipe ,LAT,Grêmio,2,"2,00",0,"0,00","0,00","0,00",0,0,0,0,0,0,0,0,0,0,0,0,0,0,0,0,0,0
Ruan ,ZAG,Grêmio,2,"1,00",0,"0,00","0,00","0,00",0,0,0,0,0,0,0,0,0,0,0,0,0,0,0,0,0,0
Maicosuel ,MEI,Grêmio,2,"3,52",1,"0,00","0,00","-1,48",0,0,0,0,0,0,0,0,0,0,0,0,0,0,0,0,0,0
Lucas Araújo ,MEI,Grêmio,2,"1,00",0,"0,00","0,00","0,00",0,0,0,0,0,0,0,0,0,0,0,0,0,0,0,0,0,0
Marco Saravia ,ZAG,Grêmio,2,"1,00",0,"0,00","0,00","0,00",0,0,0,0,0,0,0,0,0,0,0,0,0,0,0,0,0,0
Mendonça ,ZAG,Grêmio,2,"1,00",0,"0,00","0,00","0,00",0,0,0,0,0,0,0,0,0,0,0,0,0,0,0,0,0,0
Marcelo Oliveira ,LAT,Grêmio,2,"4,00",0,"0,00","0,00","0,00",0,0,0,0,0,0,0,0,0,0,0,0,0,0,0,0,0,0
Isaque ,MEI,Grêmio,2,"2,00",0,"0,00","0,00","0,00",0,0,0,0,0,0,0,0,0,0,0,0,0,0,0,0,0,0
Santiago ,ZAG,Grêmio,2,"1,00",0,"0,00","0,00","0,00",0,0,0,0,0,0,0,0,0,0,0,0,0,0,0,0,0,0
Douglas ,MEI,Grêmio,2,"7,00",0,"0,00","0,00","0,00",0,0,0,0,0,0,0,0,0,0,0,0,0,0,0,0,0,0
Rodrigo Ancheta ,MEI,Grêmio,2,"1,00",0,"0,00","0,00","0,00",0,0,0,0,0,0,0,0,0,0,0,0,0,0,0,0,0,0
Marcelinho ,ATA,Grêmio,2,"4,00",0,"0,00","0,00","0,00",0,0,0,0,0,0,0,0,0,0,0,0,0,0,0,0,0,0
Uendel ,LAT,Internacional,2,"6,00",0,"0,00","0,00","0,00",0,0,0,0,0,0,0,0,0,0,0,0,0,0,0,0,0,0
Roger ,ATA,Corinthians,2,"7,00",0,"0,00","0,00","0,00",0,0,0,0,0,0,0,0,0,0,0,0,0,0,0,0,0,0
Danilo Silva ,ZAG,Internacional,2,"5,00",0,"0,00","0,00","0,00",0,0,0,0,0,0,0,0,0,0,0,0,0,0,0,0,0,0
Emerson Santos ,ZAG,Palmeiras,2,"3,00",0,"0,00","0,00","0,00",0,0,0,0,0,0,0,0,0,0,0,0,0,0,0,0,0,0
Paulo Victor ,GOL,Grêmio,2,"9,00",0,"0,00","0,00","0,00",0,0,0,0,0,0,0,0,0,0,0,0,0,0,0,0,0,0
Bruno Grassi ,GOL,Grêmio,2,"4,00",0,"0,00","0,00","0,00",0,0,0,0,0,0,0,0,0,0,0,0,0,0,0,0,0,0
Wellington Silva ,ATA,Internacional,2,"4,00",0,"0,00","0,00","0,00",0,0,0,0,0,0,0,0,0,0,0,0,0,0,0,0,0,0
Madson ,LAT,Grêmio,2,"7,00",0,"0,00","0,00","0,00",0,0,0,0,0,0,0,0,0,0,0,0,0,0,0,0,0,0
Seijas ,MEI,Internacional,2,"2,00",0,"0,00","0,00","0,00",0,0,0,0,0,0,0,0,0,0,0,0,0,0,0,0,0,0
Hernane ,ATA,Grêmio,2,"5,00",0,"0,00","0,00","0,00",0,0,0,0,0,0,0,0,0,0,0,0,0,0,0,0,0,0
Leonardo ,LAT,Grêmio,2,"2,00",0,"0,00","0,00","0,00",0,0,0,0,0,0,0,0,0,0,0,0,0,0,0,0,0,0
Fabinho ,MEI,Internacional,2,"3,52",1,"0,00","0,00","-1,48",0,0,0,0,0,0,0,0,0,0,0,0,0,0,0,0,0,0
Gabriel ,ZAG,Grêmio,2,"1,00",0,"0,00","0,00","0,00",0,0,0,0,0,0,0,0,0,0,0,0,0,0,0,0,0,0
Léo ,GOL,Grêmio,2,"3,00",0,"0,00","0,00","0,00",0,0,0,0,0,0,0,0,0,0,0,0,0,0,0,0,0,0
Thaciano ,MEI,Grêmio,2,"2,00",0,"0,00","0,00","0,00",0,0,0,0,0,0,0,0,0,0,0,0,0,0,0,0,0,0
Juninho ,ZAG,Palmeiras,2,"6,00",0,"0,00","0,00","0,00",0,0,0,0,0,0,0,0,0,0,0,0,0,0,0,0,0,0
Ruan ,LAT,Internacional,2,"3,00",0,"0,00","0,00","0,00",0,0,0,0,0,0,0,0,0,0,0,0,0,0,0,0,0,0
Dudu ,LAT,Internacional,5,"4,00",0,"0,00","0,00","0,00",0,0,0,0,0,0,0,0,0,0,0,0,0,0,0,0,0,0
Balbino ,MEI,Grêmio,2,"2,00",0,"0,00","0,00","0,00",0,0,0,0,0,0,0,0,0,0,0,0,0,0,0,0,0,0
Thales  ,ZAG,Internacional,2,"4,00",0,"0,00","0,00","0,00",0,0,0,0,0,0,0,0,0,0,0,0,0,0,0,0,0,0
Yan ,MEI,Palmeiras,2,"1,00",0,"0,00","0,00","0,00",0,0,0,0,0,0,0,0,0,0,0,0,0,0,0,0,0,0
Gabriel Furtado ,MEI,Palmeiras,2,"2,00",0,"0,00","0,00","0,00",0,0,0,0,0,0,0,0,0,0,0,0,0,0,0,0,0,0
Artur ,ATA,Palmeiras,2,"3,00",0,"0,00","0,00","0,00",0,0,0,0,0,0,0,0,0,0,0,0,0,0,0,0,0,0
Fernandinho ,ATA,Internacional,2,"1,00",0,"0,00","0,00","0,00",0,0,0,0,0,0,0,0,0,0,0,0,0,0,0,0,0,0
Ronald ,ATA,Internacional,2,"1,00",0,"0,00","0,00","0,00",0,0,0,0,0,0,0,0,0,0,0,0,0,0,0,0,0,0
Juan Alano ,MEI,Internacional,2,"2,00",0,"0,00","0,00","0,00",0,0,0,0,0,0,0,0,0,0,0,0,0,0,0,0,0,0
Daniel Fuzato ,GOL,Palmeiras,2,"2,00",0,"0,00","0,00","0,00",0,0,0,0,0,0,0,0,0,0,0,0,0,0,0,0,0,0
Richard ,MEI,Internacional,2,"1,00",0,"0,00","0,00","0,00",0,0,0,0,0,0,0,0,0,0,0,0,0,0,0,0,0,0
Vitão ,ZAG,Palmeiras,2,"2,00",0,"0,00","0,00","0,00",0,0,0,0,0,0,0,0,0,0,0,0,0,0,0,0,0,0
Michel Bastos ,MEI,Palmeiras,5,"5,00",0,"0,00","0,00","0,00",0,0,0,0,0,0,0,0,0,0,0,0,0,0,0,0,0,0
Léo Passos ,ATA,Palmeiras,2,"2,00",0,"0,00","0,00","0,00",0,0,0,0,0,0,0,0,0,0,0,0,0,0,0,0,0,0
Luan Cândido ,LAT,Palmeiras,2,"1,00",0,"0,00","0,00","0,00",0,0,0,0,0,0,0,0,0,0,0,0,0,0,0,0,0,0
Pedrão ,ZAG,Palmeiras,2,"2,00",0,"0,00","0,00","0,00",0,0,0,0,0,0,0,0,0,0,0,0,0,0,0,0,0,0
Fernando ,ATA,Palmeiras,2,"2,00",0,"0,00","0,00","0,00",0,0,0,0,0,0,0,0,0,0,0,0,0,0,0,0,0,0
Alanzinho ,MEI,Palmeiras,2,"3,00",0,"0,00","0,00","0,00",0,0,0,0,0,0,0,0,0,0,0,0,0,0,0,0,0,0
Fernando Prass ,GOL,Palmeiras,2,"12,00",0,"0,00","0,00","0,00",0,0,0,0,0,0,0,0,0,0,0,0,0,0,0,0,0,0
Esteves ,LAT,Palmeiras,2,"1,00",0,"0,00","0,00","0,00",0,0,0,0,0,0,0,0,0,0,0,0,0,0,0,0,0,0
Jean ,LAT,Palmeiras,2,"7,00",0,"0,00","0,00","0,00",0,0,0,0,0,0,0,0,0,0,0,0,0,0,0,0,0,0
Guilherme Vieira ,ATA,Palmeiras,2,"1,00",0,"0,00","0,00","0,00",0,0,0,0,0,0,0,0,0,0,0,0,0,0,0,0,0,0
Papagaio ,ATA,Palmeiras,2,"2,00",0,"0,00","0,00","0,00",0,0,0,0,0,0,0,0,0,0,0,0,0,0,0,0,0,0
Lucas Perri ,GOL,São Paulo,2,"1,00",0,"0,00","0,00","0,00",0,0,0,0,0,0,0,0,0,0,0,0,0,0,0,0,0,0
Weverton ,GOL,Palmeiras,2,"10,00",0,"0,00","0,00","0,00",0,0,0,0,0,0,0,0,0,0,0,0,0,0,0,0,0,0
Zezinho ,MEI,Paraná,2,"6,00",0,"0,00","0,00","0,00",0,0,0,0,0,0,0,0,0,0,0,0,0,0,0,0,0,0
Thiago Rodrigues ,GOL,Paraná,5,"5,00",0,"0,00","0,00","0,00",0,0,0,0,0,0,0,0,0,0,0,0,0,0,0,0,0,0
Torito González ,MEI,Paraná,2,"3,00",0,"0,00","0,00","0,00",0,0,0,0,0,0,0,0,0,0,0,0,0,0,0,0,0,0
Thiago Santos ,MEI,Palmeiras,2,"7,00",0,"0,00","0,00","0,00",0,0,0,0,0,0,0,0,0,0,0,0,0,0,0,0,0,0
Aníbal ,ATA,Palmeiras,2,"1,00",0,"0,00","0,00","0,00",0,0,0,0,0,0,0,0,0,0,0,0,0,0,0,0,0,0
Pepê ,ATA,Grêmio,2,"3,00",0,"0,00","0,00","0,00",0,0,0,0,0,0,0,0,0,0,0,0,0,0,0,0,0,0
Guilherme Biteco ,MEI,Paraná,2,"6,00",0,"0,00","0,00","0,00",0,0,0,0,0,0,0,0,0,0,0,0,0,0,0,0,0,0
Matheus Guedes ,ZAG,Santos,2,"2,00",0,"0,00","0,00","0,00",0,0,0,0,0,0,0,0,0,0,0,0,0,0,0,0,0,0
Kaio ,MEI,Grêmio,2,"3,00",0,"0,00","0,00","0,00",0,0,0,0,0,0,0,0,0,0,0,0,0,0,0,0,0,0
Lima ,MEI,Grêmio,2,"2,00",0,"0,00","0,00","0,00",0,0,0,0,0,0,0,0,0,0,0,0,0,0,0,0,0,0
Charles ,MEI,Internacional,2,"5,00",0,"0,00","0,00","0,00",0,0,0,0,0,0,0,0,0,0,0,0,0,0,0,0,0,0
Keiller ,GOL,Internacional,2,"3,00",0,"0,00","0,00","0,00",0,0,0,0,0,0,0,0,0,0,0,0,0,0,0,0,0,0
Estevão ,MEI,Grêmio,2,"1,00",0,"0,00","0,00","0,00",0,0,0,0,0,0,0,0,0,0,0,0,0,0,0,0,0,0
Léo Tilica ,ATA,Grêmio,2,"2,00",0,"0,00","0,00","0,00",0,0,0,0,0,0,0,0,0,0,0,0,0,0,0,0,0,0
Daniel ,GOL,Internacional,2,"1,00",0,"0,00","0,00","0,00",0,0,0,0,0,0,0,0,0,0,0,0,0,0,0,0,0,0
Rafael ,GOL,Cruzeiro,2,"6,00",0,"0,00","0,00","0,00",0,0,0,0,0,0,0,0,0,0,0,0,0,0,0,0,0,0
Vico ,ATA,Grêmio,2,"1,00",0,"0,00","0,00","0,00",0,0,0,0,0,0,0,0,0,0,0,0,0,0,0,0,0,0
Marcinho ,ATA,Internacional,2,"4,00",0,"0,00","0,00","0,00",0,0,0,0,0,0,0,0,0,0,0,0,0,0,0,0,0,0
Manoel ,ZAG,Cruzeiro,2,"6,00",0,"0,00","0,00","0,00",0,0,0,0,0,0,0,0,0,0,0,0,0,0,0,0,0,0
Raniel ,ATA,Cruzeiro,5,"7,00",0,"0,00","0,00","0,00",0,0,0,0,0,0,0,0,0,0,0,0,0,0,0,0,0,0
Léo ,LAT,Fluminense,3,"4,00",0,"0,00","0,00","0,00",0,0,0,0,0,0,0,0,0,0,0,0,0,0,0,0,0,0
Caju ,LAT,Santos,2,"5,00",0,"0,00","0,00","0,00",0,0,0,0,0,0,0,0,0,0,0,0,0,0,0,0,0,0
Lucas Fernandes ,ATA,Paraná,2,"5,00",0,"0,00","0,00","0,00",0,0,0,0,0,0,0,0,0,0,0,0,0,0,0,0,0,0
Jadson ,ATA,Grêmio,2,"1,00",0,"0,00","0,00","0,00",0,0,0,0,0,0,0,0,0,0,0,0,0,0,0,0,0,0
Gustavo Henrique ,ZAG,Santos,2,"5,00",0,"0,00","0,00","0,00",0,0,0,0,0,0,0,0,0,0,0,0,0,0,0,0,0,0
Copete ,ATA,Santos,2,"9,00",0,"0,00","0,00","0,00",0,0,0,0,0,0,0,0,0,0,0,0,0,0,0,0,0,0
Tréllez ,ATA,São Paulo,3,"6,33",1,"0,00","0,00","-2,67",0,0,0,0,0,0,0,0,0,0,0,0,0,0,0,0,0,0
Luan ,ZAG,Palmeiras,2,"5,00",0,"0,00","0,00","0,00",0,0,0,0,0,0,0,0,0,0,0,0,0,0,0,0,0,0
Mayke ,LAT,Palmeiras,2,"7,00",0,"0,00","0,00","0,00",0,0,0,0,0,0,0,0,0,0,0,0,0,0,0,0,0,0
Neris ,ZAG,Paraná,2,"5,00",0,"0,00","0,00","0,00",0,0,0,0,0,0,0,0,0,0,0,0,0,0,0,0,0,0
Charles ,ZAG,Paraná,5,"6,00",0,"0,00","0,00","0,00",0,0,0,0,0,0,0,0,0,0,0,0,0,0,0,0,0,0
Igor ,LAT,Paraná,2,"2,00",0,"0,00","0,00","0,00",0,0,0,0,0,0,0,0,0,0,0,0,0,0,0,0,0,0
Luan Viana ,ATA,Paraná,2,"2,00",0,"0,00","0,00","0,00",0,0,0,0,0,0,0,0,0,0,0,0,0,0,0,0,0,0
Ezequiel  ,LAT,Cruzeiro,2,"4,00",0,"0,00","0,00","0,00",0,0,0,0,0,0,0,0,0,0,0,0,0,0,0,0,0,0
Hyoran ,MEI,Palmeiras,2,"3,00",0,"0,00","0,00","0,00",0,0,0,0,0,0,0,0,0,0,0,0,0,0,0,0,0,0
Alex Santana ,MEI,Paraná,2,"3,00",0,"0,00","0,00","0,00",0,0,0,0,0,0,0,0,0,0,0,0,0,0,0,0,0,0
Rafael ,ZAG,Paraná,2,"2,00",0,"0,00","0,00","0,00",0,0,0,0,0,0,0,0,0,0,0,0,0,0,0,0,0,0
João Paulo ,GOL,Santos,2,"2,00",0,"0,00","0,00","0,00",0,0,0,0,0,0,0,0,0,0,0,0,0,0,0,0,0,0
Victor Luis ,LAT,Palmeiras,2,"9,00",0,"0,00","0,00","0,00",0,0,0,0,0,0,0,0,0,0,0,0,0,0,0,0,0,0
Minho ,ATA,Paraná,2,"2,00",0,"0,00","0,00","0,00",0,0,0,0,0,0,0,0,0,0,0,0,0,0,0,0,0,0
Júnior ,LAT,Paraná,2,"3,00",0,"0,00","0,00","0,00",0,0,0,0,0,0,0,0,0,0,0,0,0,0,0,0,0,0
Gabriel Pires ,MEI,Paraná,2,"4,00",0,"0,00","0,00","0,00",0,0,0,0,0,0,0,0,0,0,0,0,0,0,0,0,0,0
Felipe Augusto ,ATA,Paraná,2,"4,00",0,"0,00","0,00","0,00",0,0,0,0,0,0,0,0,0,0,0,0,0,0,0,0,0,0
Tchê Tchê ,MEI,Palmeiras,2,"8,00",0,"0,00","0,00","0,00",0,0,0,0,0,0,0,0,0,0,0,0,0,0,0,0,0,0
Luiz Felipe ,ZAG,Santos,2,"4,00",0,"0,00","0,00","0,00",0,0,0,0,0,0,0,0,0,0,0,0,0,0,0,0,0,0
Jhony ,MEI,Paraná,2,"3,00",0,"0,00","0,00","0,00",0,0,0,0,0,0,0,0,0,0,0,0,0,0,0,0,0,0
Rafael Longuine ,MEI,Santos,2,"3,00",0,"0,00","0,00","0,00",0,0,0,0,0,0,0,0,0,0,0,0,0,0,0,0,0,0
Rodrigo Carioca ,ATA,Paraná,2,"1,00",0,"0,00","0,00","0,00",0,0,0,0,0,0,0,0,0,0,0,0,0,0,0,0,0,0
Murillo Lopes ,GOL,Paraná,2,"2,00",0,"0,00","0,00","0,00",0,0,0,0,0,0,0,0,0,0,0,0,0,0,0,0,0,0
Yuri ,MEI,Santos,2,"4,00",0,"0,00","0,00","0,00",0,0,0,0,0,0,0,0,0,0,0,0,0,0,0,0,0,0
Diogo Vitor ,ATA,Santos,2,"2,00",0,"0,00","0,00","0,00",0,0,0,0,0,0,0,0,0,0,0,0,0,0,0,0,0,0
Renato ,MEI,Santos,2,"9,00",0,"0,00","0,00","0,00",0,0,0,0,0,0,0,0,0,0,0,0,0,0,0,0,0,0
John Victor ,GOL,Santos,2,"1,00",0,"0,00","0,00","0,00",0,0,0,0,0,0,0,0,0,0,0,0,0,0,0,0,0,0
Warley ,MEI,Paraná,2,"1,00",0,"0,00","0,00","0,00",0,0,0,0,0,0,0,0,0,0,0,0,0,0,0,0,0,0
Yuri Alberto ,ATA,Santos,2,"3,00",0,"0,00","0,00","0,00",0,0,0,0,0,0,0,0,0,0,0,0,0,0,0,0,0,0
Emerson Barbosa ,LAT,Santos,2,"1,00",0,"0,00","0,00","0,00",0,0,0,0,0,0,0,0,0,0,0,0,0,0,0,0,0,0
Vladimir ,GOL,Santos,2,"6,00",0,"0,00","0,00","0,00",0,0,0,0,0,0,0,0,0,0,0,0,0,0,0,0,0,0
Vecchio ,MEI,Santos,2,"7,00",0,"0,00","0,00","0,00",0,0,0,0,0,0,0,0,0,0,0,0,0,0,0,0,0,0
Cléber Reis ,ZAG,Paraná,2,"5,00",0,"0,00","0,00","0,00",0,0,0,0,0,0,0,0,0,0,0,0,0,0,0,0,0,0
Jean ,GOL,São Paulo,2,"8,00",0,"0,00","0,00","0,00",0,0,0,0,0,0,0,0,0,0,0,0,0,0,0,0,0,0
Robson Bambu ,ZAG,Santos,2,"1,00",0,"0,00","0,00","0,00",0,0,0,0,0,0,0,0,0,0,0,0,0,0,0,0,0,0
Victor Ferraz ,LAT,Santos,2,"11,00",0,"0,00","0,00","0,00",0,0,0,0,0,0,0,0,0,0,0,0,0,0,0,0,0,0
Gabriel Calabres ,MEI,Santos,2,"3,00",0,"0,00","0,00","0,00",0,0,0,0,0,0,0,0,0,0,0,0,0,0,0,0,0,0
Lucas Lourenço ,MEI,Santos,2,"1,00",0,"0,00","0,00","0,00",0,0,0,0,0,0,0,0,0,0,0,0,0,0,0,0,0,0
Caio ,LAT,Sport,2,"1,00",0,"0,00","0,00","0,00",0,0,0,0,0,0,0,0,0,0,0,0,0,0,0,0,0,0
Roger Bernardo ,MEI,Atlético-MG,2,"4,00",0,"0,00","0,00","0,00",0,0,0,0,0,0,0,0,0,0,0,0,0,0,0,0,0,0
Guilherme Nunes ,MEI,Santos,2,"1,00",0,"0,00","0,00","0,00",0,0,0,0,0,0,0,0,0,0,0,0,0,0,0,0,0,0
Morato ,ATA,São Paulo,2,"2,00",0,"0,00","0,00","0,00",0,0,0,0,0,0,0,0,0,0,0,0,0,0,0,0,0,0
Lucas Cândido ,MEI,Atlético-MG,2,"2,00",0,"0,00","0,00","0,00",0,0,0,0,0,0,0,0,0,0,0,0,0,0,0,0,0,0
Hyuri ,ATA,Atlético-MG,2,"4,00",0,"0,00","0,00","0,00",0,0,0,0,0,0,0,0,0,0,0,0,0,0,0,0,0,0
Arouca ,MEI,Atlético-MG,2,"4,00",0,"0,00","0,00","0,00",0,0,0,0,0,0,0,0,0,0,0,0,0,0,0,0,0,0
Clayton ,ATA,Atlético-MG,5,"6,00",0,"0,00","0,00","0,00",0,0,0,0,0,0,0,0,0,0,0,0,0,0,0,0,0,0
Cleiton Xavier ,MEI,Vitória,5,"5,00",0,"0,00","0,00","0,00",0,0,0,0,0,0,0,0,0,0,0,0,0,0,0,0,0,0
Rafael França ,ZAG,Vasco,2,"1,00",0,"0,00","0,00","0,00",0,0,0,0,0,0,0,0,0,0,0,0,0,0,0,0,0,0
João Pedro ,GOL,Vasco,2,"1,00",0,"0,00","0,00","0,00",0,0,0,0,0,0,0,0,0,0,0,0,0,0,0,0,0,0
André Lima ,ATA,Vitória,5,"6,00",0,"0,00","0,00","0,00",0,0,0,0,0,0,0,0,0,0,0,0,0,0,0,0,0,0
Lucas ,LAT,Vitória,2,"7,00",0,"0,00","0,00","0,00",0,0,0,0,0,0,0,0,0,0,0,0,0,0,0,0,0,0
Uilson ,GOL,Atlético-MG,5,"2,00",0,"0,00","0,00","0,00",0,0,0,0,0,0,0,0,0,0,0,0,0,0,0,0,0,0
Juninho ,LAT,Vitória,2,"3,44",1,"0,00","0,00","0,00",0,0,0,0,0,0,0,0,0,0,0,0,0,0,0,0,0,0
Fillipe Soutto ,MEI,Vitória,2,"6,00",0,"0,00","0,00","0,00",0,0,0,0,0,0,0,0,0,0,0,0,0,0,0,0,0,0
Fernando Miguel ,GOL,Vitória,2,"9,00",0,"0,00","0,00","0,00",0,0,0,0,0,0,0,0,0,0,0,0,0,0,0,0,0,0
Bryan ,LAT,Vitória,5,"7,00",0,"0,00","0,00","0,00",0,0,0,0,0,0,0,0,0,0,0,0,0,0,0,0,0,0
Jonatas Belusso ,ATA,Vitória,2,"5,00",0,"0,00","0,00","0,00",0,0,0,0,0,0,0,0,0,0,0,0,0,0,0,0,0,0
Vinicius ,ZAG,Vitória,2,"3,00",0,"0,00","0,00","0,00",0,0,0,0,0,0,0,0,0,0,0,0,0,0,0,0,0,0
Nickson ,MEI,Vitória,2,"2,00",0,"0,00","0,00","0,00",0,0,0,0,0,0,0,0,0,0,0,0,0,0,0,0,0,0
Júnior ,ATA,Vitória,5,"3,00",0,"0,00","0,00","0,00",0,0,0,0,0,0,0,0,0,0,0,0,0,0,0,0,0,0
Bruno ,LAT,São Paulo,2,"4,00",0,"0,00","0,00","0,00",0,0,0,0,0,0,0,0,0,0,0,0,0,0,0,0,0,0
Walisson Maia ,ZAG,Vitória,2,"5,00",0,"0,00","0,00","0,00",0,0,0,0,0,0,0,0,0,0,0,0,0,0,0,0,0,0
Zeca ,LAT,Internacional,2,"10,00",0,"0,00","0,00","0,00",0,0,0,0,0,0,0,0,0,0,0,0,0,0,0,0,0,0
Bruno Bispo ,ZAG,Vitória,2,"5,00",0,"0,00","0,00","0,00",0,0,0,0,0,0,0,0,0,0,0,0,0,0,0,0,0,0
Ronaldo ,GOL,Vitória,2,"3,00",0,"0,00","0,00","0,00",0,0,0,0,0,0,0,0,0,0,0,0,0,0,0,0,0,0
Carneiro ,ATA,São Paulo,5,"4,00",0,"0,00","0,00","0,00",0,0,0,0,0,0,0,0,0,0,0,0,0,0,0,0,0,0
Lucas Marques ,MEI,Vitória,2,"4,00",0,"0,00","0,00","0,00",0,0,0,0,0,0,0,0,0,0,0,0,0,0,0,0,0,0
Cedric ,LAT,Vitória,2,"3,00",0,"0,00","0,00","0,00",0,0,0,0,0,0,0,0,0,0,0,0,0,0,0,0,0,0
Jhemerson ,MEI,Vitória,2,"3,00",0,"0,00","0,00","0,00",0,0,0,0,0,0,0,0,0,0,0,0,0,0,0,0,0,0
Linik ,MEI,Vitória,2,"1,00",0,"0,00","0,00","0,00",0,0,0,0,0,0,0,0,0,0,0,0,0,0,0,0,0,0
Maurício ,MEI,Ceará,2,"1,00",0,"0,00","0,00","0,00",0,0,0,0,0,0,0,0,0,0,0,0,0,0,0,0,0,0
Pablo Pardal ,MEI,Sport,2,"2,00",0,"0,00","0,00","0,00",0,0,0,0,0,0,0,0,0,0,0,0,0,0,0,0,0,0
Léo Gomes ,MEI,Vitória,2,"1,00",0,"0,00","0,00","0,00",0,0,0,0,0,0,0,0,0,0,0,0,0,0,0,0,0,0
Flávio ,ATA,Vitória,2,"2,00",0,"0,00","0,00","0,00",0,0,0,0,0,0,0,0,0,0,0,0,0,0,0,0,0,0
Luan ,MEI,Vitória,5,"2,00",0,"0,00","0,00","0,00",0,0,0,0,0,0,0,0,0,0,0,0,0,0,0,0,0,0
Luis David ,ATA,Ceará,2,"1,00",0,"0,00","0,00","0,00",0,0,0,0,0,0,0,0,0,0,0,0,0,0,0,0,0,0
Luis Henrique ,ATA,Grêmio,2,"2,00",0,"0,00","0,00","0,00",0,0,0,0,0,0,0,0,0,0,0,0,0,0,0,0,0,0
Aguirre ,ATA,Botafogo,2,"1,00",0,"0,00","0,00","0,00",0,0,0,0,0,0,0,0,0,0,0,0,0,0,0,0,0,0
Alan ,ZAG,Ceará,2,"3,00",0,"0,00","0,00","0,00",0,0,0,0,0,0,0,0,0,0,0,0,0,0,0,0,0,0
Lucas ,MEI,Vasco,2,"3,00",0,"0,00","0,00","0,00",0,0,0,0,0,0,0,0,0,0,0,0,0,0,0,0,0,0
Tiago Cunha ,ATA,Ceará,2,"1,00",0,"0,00","0,00","0,00",0,0,0,0,0,0,0,0,0,0,0,0,0,0,0,0,0,0
Lucas Macanhan ,GOL,Atlético-PR,2,"1,00",0,"0,00","0,00","0,00",0,0,0,0,0,0,0,0,0,0,0,0,0,0,0,0,0,0
Ademir ,ATA,América-MG,2,"2,00",0,"0,00","0,00","0,00",0,0,0,0,0,0,0,0,0,0,0,0,0,0,0,0,0,0
Max ,ZAG,Sport,2,"2,00",0,"0,00","0,00","0,00",0,0,0,0,0,0,0,0,0,0,0,0,0,0,0,0,0,0
Baralhas ,MEI,Atlético-PR,2,"2,00",0,"0,00","0,00","0,00",0,0,0,0,0,0,0,0,0,0,0,0,0,0,0,0,0,0
Léo Xavier ,ZAG,Vitória,2,"1,00",0,"0,00","0,00","0,00",0,0,0,0,0,0,0,0,0,0,0,0,0,0,0,0,0,0
Ricardo Silva ,ZAG,América-MG,2,"3,00",0,"0,00","0,00","0,00",0,0,0,0,0,0,0,0,0,0,0,0,0,0,0,0,0,0
Anderson Martins ,ZAG,São Paulo,2,"9,00",0,"0,00","0,00","0,00",0,0,0,0,0,0,0,0,0,0,0,0,0,0,0,0,0,0
Douglas Moreira ,MEI,Fluminense,2,"4,00",0,"0,00","0,00","0,00",0,0,0,0,0,0,0,0,0,0,0,0,0,0,0,0,0,0
Giovanni ,GOL,Atlético-MG,2,"6,00",0,"0,00","0,00","0,00",0,0,0,0,0,0,0,0,0,0,0,0,0,0,0,0,0,0
Felipe Santana ,ZAG,Atlético-MG,2,"7,00",0,"0,00","0,00","0,00",0,0,0,0,0,0,0,0,0,0,0,0,0,0,0,0,0,0
Leonardo Silva ,ZAG,Atlético-MG,2,"12,00",0,"0,00","0,00","0,00",0,0,0,0,0,0,0,0,0,0,0,0,0,0,0,0,0,0
Reinaldo ,LAT,São Paulo,5,"12,00",0,"0,00","0,00","0,00",0,0,0,0,0,0,0,0,0,0,0,0,0,0,0,0,0,0
Matheus Mancini ,ZAG,Atlético-MG,2,"3,00",0,"0,00","0,00","0,00",0,0,0,0,0,0,0,0,0,0,0,0,0,0,0,0,0,0
Samuel Xavier ,LAT,Atlético-MG,2,"5,00",0,"0,00","0,00","0,00",0,0,0,0,0,0,0,0,0,0,0,0,0,0,0,0,0,0
Diego Souza ,MEI,São Paulo,2,"13,00",0,"0,00","0,00","0,00",0,0,0,0,0,0,0,0,0,0,0,0,0,0,0,0,0,0
Allione ,MEI,Bahia,2,"4,39",2,"-0,05","-0,30","-1,95",0,0,0,0,1,0,0,0,0,0,0,0,0,0,0,0,0,2
Jadson ,MEI,Corinthians,3,"8,40",1,"-0,10","-0,10","-3,60",0,0,0,0,1,0,0,0,0,0,0,0,0,0,0,0,0,2
Nadson ,MEI,Chapecoense,3,"1,84",2,"-0,20","-0,60","-1,05",0,0,0,0,1,0,0,0,0,0,0,0,0,0,0,0,0,3
David ,ATA,Cruzeiro,2,"4,84",1,"-0,20","-0,20","-2,16",0,0,0,0,0,0,1,0,0,0,0,0,0,0,0,0,1,3
Wesley Dias ,MEI,Paraná,3,"1,46",2,"-0,20","-0,90","-0,95",1,0,0,0,5,0,0,0,0,0,0,0,0,0,0,4,0,8
Hygor ,ATA,Sport,2,"0,70",2,"-0,25","0,00","-0,33",0,0,0,0,1,0,0,0,0,0,0,0,0,0,0,1,1,0
Elton ,ATA,Ceará,2,"4,80",1,"-0,30","-0,30","-2,20",0,0,0,0,0,0,0,0,0,0,0,0,0,0,0,0,0,1
Maycon ,MEI,Corinthians,2,"4,62",1,"-0,30","0,00","0,00",0,0,0,0,0,0,0,0,0,0,0,0,0,0,0,0,0,1
Jael ,ATA,Grêmio,2,"3,39",1,"-0,30","-0,30","-1,61",0,0,0,0,0,0,0,0,0,0,0,0,0,0,0,0,0,1
Brenner ,ATA,Internacional,2,"0,69",1,"-0,30","0,00","0,00",0,0,0,0,1,0,1,0,0,0,0,0,1,0,0,0,0,0
Vitor Bueno ,MEI,Santos,2,"7,37",1,"-0,30","0,00","0,00",0,0,0,0,0,0,0,0,0,0,0,0,0,0,0,0,0,1
Everton ,MEI,São Paulo,3,"8,27",1,"-0,40","-0,40","-3,73",0,0,0,0,0,0,1,0,0,0,0,0,0,0,0,2,0,2
Felipe Melo ,MEI,Palmeiras,3,"3,43",2,"-0,40","-1,90","-2,15",4,0,0,0,0,0,0,0,0,0,0,0,1,0,0,3,0,11
Rafael Thyere ,ZAG,Chapecoense,3,"1,42",2,"-0,45","0,90","-0,78",2,0,0,0,0,0,0,0,0,0,0,0,1,0,0,2,0,3
Wesley ,MEI,América-MG,2,"3,10",1,"-0,50","0,00","0,00",0,0,0,0,0,0,0,0,0,0,0,0,0,0,0,1,0,0
Capixaba ,ATA,América-MG,2,"2,60",1,"-0,50","-0,50","-1,40",0,0,0,0,0,0,0,0,0,0,0,0,0,0,0,1,0,0
Elicarlos ,MEI,Chapecoense,3,"3,31",1,"-0,50","-0,50","-1,69",0,0,0,0,2,0,0,0,0,0,0,0,0,0,0,3,0,0
Fábio ,GOL,Cruzeiro,3,"7,68",2,"-0,50","-2,00","-4,03",0,0,0,0,0,0,0,0,1,0,0,0,0,0,2,0,0,0
Jean Lucas ,MEI,Flamengo,2,"1,20",1,"-0,50","-0,50","-0,80",0,0,0,0,0,0,0,0,0,0,0,0,0,0,0,1,0,0
Rafael Marques ,ATA,Cruzeiro,2,"2,41",1,"-0,50","0,00","0,00",0,0,0,0,0,0,0,0,0,0,0,0,0,0,0,1,0,0
Camilo ,MEI,Internacional,3,"4,01",1,"-0,50","-0,50","-1,99",1,0,0,0,0,0,0,0,0,0,0,0,0,0,0,1,0,5
Lucas Romero ,MEI,Cruzeiro,3,"4,71",1,"-0,50","-0,50","-2,29",1,0,0,0,2,0,0,0,0,0,0,0,0,0,0,2,1,5
Báez ,LAT,Paraná,2,"2,41",1,"-0,50","0,00","0,00",0,0,0,0,0,0,0,0,0,0,0,0,0,0,0,1,0,0
João Carlos ,ATA,Fluminense,2,"1,03",1,"-0,50","0,00","0,00",0,0,0,0,0,0,0,0,0,0,0,0,0,0,0,1,0,0
Pedrinho ,MEI,Corinthians,2,"2,20",2,"-0,60","-0,60","-1,52",0,0,0,0,1,0,0,0,0,0,0,0,0,0,0,1,0,4
Rafinha ,MEI,Cruzeiro,2,"7,49",1,"-0,60","-0,60","-3,51",0,0,0,0,0,0,0,0,0,0,0,0,0,0,0,0,0,2
Gilberto  ,LAT,Fluminense,2,"3,13",2,"-0,60","-0,50","-1,90",1,0,0,1,0,0,0,0,0,0,0,1,0,0,0,3,0,4
Sassá ,ATA,Cruzeiro,3,"2,64",2,"-0,65","0,70","-1,49",1,0,0,0,5,0,0,0,0,0,0,0,1,0,0,6,0,1
Kanu ,ZAG,Vitória,3,"2,73",2,"-0,75","0,00","-1,75",2,0,0,0,0,0,0,0,0,0,0,0,1,0,0,4,1,0
William Pottker ,ATA,Internacional,3,"2,12",2,"-0,85","1,30","-1,32",1,0,0,0,2,0,1,0,0,0,0,0,1,0,0,4,1,3
Patric ,LAT,Atlético-MG,3,"2,40",2,"-0,85","-0,90","-1,87",2,0,0,0,1,0,0,0,0,0,0,0,0,0,0,5,0,9
Rodrigo Pimpão ,ATA,Botafogo,3,"3,66",2,"-1,00","-2,40","-2,82",1,0,0,0,1,1,0,0,0,0,0,0,1,0,0,2,0,6
Brenner ,ATA,São Paulo,2,"2,76",1,"-1,00","0,00","0,00",0,0,0,0,0,1,0,0,0,0,0,0,0,0,0,1,2,1
Thiago Santos ,ATA,Paraná,2,"1,38",1,"-1,00","0,00","0,00",1,0,0,0,2,0,0,0,0,0,0,0,1,0,0,2,1,0
Erik ,ATA,Atlético-MG,2,"2,50",2,"-1,05","-2,10","-2,32",0,0,0,0,0,0,0,0,0,0,0,0,0,0,0,2,1,2
Thiago Martins ,ZAG,Palmeiras,2,"4,75",1,"-1,10","0,00","0,00",0,0,0,0,0,0,0,0,0,0,0,0,0,0,0,1,0,2
Ramon ,ZAG,Vitória,3,"1,66",2,"-1,15","-1,50","-1,92",1,0,0,0,0,2,0,0,0,0,0,0,1,0,0,5,0,3
Jandrei ,GOL,Chapecoense,3,"1,98",2,"-1,40","0,70","-1,81",0,0,0,0,1,0,0,0,3,0,0,0,0,0,6,0,0,1
Régis ,MEI,Bahia,2,"2,24",2,"-1,45","-3,10","-2,72",0,0,0,0,1,1,0,0,0,0,0,0,1,0,0,2,0,4
Léo Ortiz ,ZAG,Sport,2,"3,10",1,"-1,50","0,00","0,00",1,0,0,0,0,0,0,0,0,0,0,0,1,0,0,2,0,0
Camacho ,MEI,Atlético-PR,4,"3,22",2,"-1,55","-7,80","-4,15",3,0,0,0,1,0,0,0,0,0,0,1,0,0,0,2,0,7
Márcio Araújo ,MEI,Chapecoense,2,"2,89",1,"-1,80","0,00","0,00",1,0,0,0,0,0,0,0,0,0,0,0,1,0,0,2,0,1
Claudio Winck ,LAT,Sport,2,"2,20",1,"-1,80","0,00","0,00",1,0,0,0,1,0,0,0,0,0,0,0,1,0,0,3,0,1
Caíque ,GOL,Vitória,3,"0,70",2,"-1,90","-2,80","-2,06",0,0,0,0,1,0,0,0,2,0,0,0,1,0,4,0,0,1
Danilo Fernandes ,GOL,Internacional,3,"6,19",1,"-2,00","-2,00","-3,81",0,0,0,0,0,0,0,0,0,0,0,0,0,0,1,0,0,0
Gabriel ,ZAG,Atlético-MG,3,"3,91",2,"-2,05","-3,60","-4,01",1,0,0,0,3,0,0,0,0,0,1,0,0,0,0,3,0,2
Rodrigo Andrade ,MEI,Vitória,2,"0,69",1,"-2,70","0,00","0,00",0,0,0,0,0,1,1,0,0,0,0,0,1,0,0,3,0,4
Yago ,MEI,Atlético-MG,2,"0,69",1,"-3,00","0,00","0,00",0,0,0,0,0,0,0,0,0,0,0,0,1,0,0,2,0,0
Luis Carlos ,GOL,Paraná,1,"0,70",1,"-4,00","-4,00","-1,30",0,0,0,0,0,0,0,0,0,0,0,0,0,0,2,0,0,0
Éverton Ribeiro ,MEI,Flamengo,3,"2,89",1,"-5,80","0,00","0,00",0,0,0,0,0,0,0,0,0,0,0,1,0,0,0,1,0,1
Agenor ,GOL,Sport,2,"0,69",1,"-6,00","0,00","0,00",0,0,0,0,0,0,0,0,0,0,0,0,0,0,3,0,0,0
