name,position,team,situation,price,meatches,average,last_score,difference,disarms,goals,assists,no_goals,fouls_suffered,strikes_out,strikes_defended,strikes_post,difficult_defense,penalty_defense,own_goal,red_card,yellow_card,goal_suffered,penalty_lost,fouls_commited,offsides,wrong_pass
Andrey ,MEI,Vasco,3,"7,27",2,"12,65","16,90","2,45",9,1,1,0,6,1,1,0,0,0,0,0,1,0,0,6,0,4
Rafael ,GOL,Cruzeiro,2,"7,71",1,"10,50","0,00","0,00",0,0,0,1,0,0,0,0,2,0,0,0,0,0,0,1,0,0
Gustavo Blanco ,MEI,Atlético-MG,3,"20,35",8,"10,39","9,40","-0,63",43,0,4,0,3,4,7,2,0,0,0,0,3,0,0,19,1,15
Lucas Paquetá ,MEI,Flamengo,3,"23,32",8,"10,04","10,70","-0,03",29,3,1,0,25,6,8,0,0,0,0,0,2,0,0,14,0,27
Arrascaeta ,MEI,Cruzeiro,2,"17,70",5,"9,82","0,00","0,00",13,1,2,0,12,6,7,1,0,0,0,0,1,0,0,10,0,12
Trauco ,LAT,Flamengo,2,"7,34",2,"9,75","0,00","0,00",4,0,2,1,0,0,1,0,0,0,0,0,0,0,0,3,0,4
Róger Guedes ,ATA,Atlético-MG,3,"16,64",9,"9,73","17,60","2,59",7,6,1,0,32,10,10,1,0,0,0,0,1,0,0,11,1,23
Leonardo ,LAT,Grêmio,2,"3,59",1,"9,70","9,70","1,59",3,0,0,1,1,0,0,0,0,0,0,0,0,0,0,0,0,1
Arthur ,MEI,Grêmio,3,"16,80",4,"9,22","0,00","0,00",11,1,1,0,17,1,0,0,0,0,0,0,0,0,0,2,0,3
Anselmo ,MEI,Sport,3,"15,84",8,"9,15","0,00","0,00",37,2,1,0,14,4,1,1,0,0,0,0,2,0,0,19,0,14
Thiago Carleto ,LAT,Atlético-PR,3,"19,34",9,"9,12","9,80","-0,40",13,2,3,4,12,7,11,1,0,0,0,0,2,0,0,6,0,31
Yago Pikachu ,LAT,Vasco,3,"17,32",8,"8,58","10,60","-0,37",8,3,1,1,26,6,9,1,0,0,0,0,0,0,0,4,2,20
Pedro Geromel ,ZAG,Grêmio,2,"17,65",3,"8,57","0,00","0,00",12,0,0,2,0,1,0,0,0,0,0,0,1,0,0,1,0,2
Thuler ,ZAG,Flamengo,2,"4,36",2,"8,20","0,00","0,00",6,0,0,2,1,1,0,0,0,0,0,0,1,0,0,2,0,3
Everton ,ATA,Grêmio,3,"14,66",7,"8,12","-0,60","-1,57",12,1,3,0,15,13,5,1,0,0,0,0,2,0,0,6,1,12
Dedé ,ZAG,Cruzeiro,3,"11,39",7,"8,06","6,20","-0,01",14,2,0,5,4,3,2,0,0,0,0,0,3,0,0,8,0,8
Gatito Fernández ,GOL,Botafogo,5,"14,65",2,"8,05","0,00","0,00",0,0,0,0,0,0,0,0,7,0,0,0,0,0,2,0,0,3
Paolo Guerrero ,ATA,Flamengo,4,"13,78",2,"8,05","0,00","0,00",0,1,1,0,4,4,0,0,0,0,0,0,0,0,0,2,1,2
Pedro ,ATA,Fluminense,1,"14,04",8,"7,86","0,00","0,00",4,5,2,0,21,4,5,0,0,0,0,0,1,0,0,15,0,11
Víctor Cuesta ,ZAG,Internacional,2,"17,55",8,"7,68","10,90","0,76",32,0,1,5,7,1,0,0,0,0,0,0,4,0,0,14,1,18
Rodriguinho ,MEI,Corinthians,3,"21,66",6,"7,63","3,50","0,50",5,4,1,0,15,3,1,0,0,0,0,0,0,0,0,12,1,11
Neilton ,ATA,Vitória,3,"13,74",8,"7,54","14,10","1,85",14,3,3,0,19,6,1,0,0,0,0,0,1,0,0,7,2,29
Renê ,LAT,Flamengo,3,"12,37",8,"7,49","4,40","-1,34",21,0,2,6,7,1,1,0,0,0,0,0,1,0,0,10,1,32
Gilberto  ,LAT,Fluminense,3,"9,37",7,"7,26","0,00","0,00",15,1,2,3,12,3,1,0,0,0,0,1,0,0,0,8,1,16
Fábio ,GOL,Cruzeiro,3,"12,69",8,"7,18","8,00","0,45",0,0,0,5,0,0,0,0,13,0,0,0,0,0,3,0,0,2
Kannemann ,ZAG,Grêmio,3,"13,28",7,"7,16","11,70","1,58",18,0,0,6,9,2,1,0,0,0,0,1,2,0,0,8,0,4
Egídio ,LAT,Cruzeiro,3,"10,52",6,"7,15","5,90","-0,11",17,0,0,5,6,2,0,0,0,0,0,0,1,0,0,10,2,14
Diego Souza ,MEI,São Paulo,2,"11,88",6,"7,13","1,20","-2,11",2,4,1,0,10,5,2,0,0,0,0,0,0,0,0,7,3,12
Diego Alves ,GOL,Flamengo,3,"12,27",7,"7,12","4,70","-1,08",0,0,0,5,1,0,0,0,11,0,0,0,0,0,3,0,0,9
Thiago Rodrigues ,GOL,Paraná,3,"6,65",4,"7,05","4,00","0,08",0,0,0,2,1,0,0,0,5,1,0,0,0,0,2,0,0,1
Serginho ,MEI,América-MG,3,"20,43",9,"7,02","19,50","3,71",10,4,2,0,11,8,6,0,0,0,0,0,0,0,0,11,1,23
Zé Rafael  ,MEI,Bahia,3,"17,79",9,"7,01","3,80","-0,31",18,1,0,0,33,11,10,3,0,0,0,0,2,0,0,17,0,19
Durval ,ZAG,Sport,2,"5,99",1,"7,00","7,00","-0,01",1,0,0,1,1,0,0,0,0,0,0,0,0,0,0,0,0,0
Júnior ,LAT,Paraná,3,"6,19",5,"6,96","6,40","0,40",14,0,0,2,13,1,1,0,0,0,0,0,1,0,0,3,0,4
Edson ,MEI,Bahia,2,"7,04",2,"6,95","5,70","-0,10",9,0,0,0,5,0,0,0,0,0,0,0,0,0,0,3,0,2
Patrick ,MEI,Internacional,2,"16,13",9,"6,83","2,90","-1,09",30,2,1,0,11,5,4,0,0,0,0,0,2,0,0,17,0,21
Clayson ,ATA,Corinthians,5,"11,94",3,"6,83","0,00","0,00",6,1,1,0,3,1,0,0,0,0,0,0,0,0,0,4,0,6
Balbuena ,ZAG,Corinthians,3,"16,35",7,"6,77","-0,70","-2,33",25,0,0,3,4,3,0,0,0,0,0,0,1,0,0,3,0,20
Rodrigo Moledo ,ZAG,Internacional,2,"12,84",8,"6,74","6,70","0,78",17,1,0,5,8,4,1,0,0,0,0,0,2,0,0,11,1,10
Vinicius Junior ,ATA,Flamengo,3,"15,67",9,"6,73","2,70","-0,21",7,4,3,0,17,5,6,0,0,0,0,0,2,0,0,7,1,29
Bruno Cortez ,LAT,Grêmio,3,"15,42",8,"6,66","4,70","-0,08",18,0,0,7,13,0,1,0,0,0,0,0,1,0,0,15,0,23
Ricardo Oliveira ,ATA,Atlético-MG,3,"10,80",8,"6,59","12,40","1,57",5,4,2,0,9,9,7,0,0,0,0,0,2,0,0,11,7,13
Rodrigo Caio ,ZAG,São Paulo,5,"12,76",2,"6,55","0,00","0,00",3,0,0,2,1,0,0,0,0,0,0,0,0,0,0,2,0,3
Sidcley ,LAT,Corinthians,3,"13,95",8,"6,54","0,90","-0,69",17,1,1,3,9,0,0,0,0,0,0,0,0,0,0,3,0,14
Rodinei ,LAT,Flamengo,3,"13,50",9,"6,52","8,90","0,57",12,0,1,6,13,4,3,0,0,0,0,0,1,0,0,2,1,14
João Pedro  ,LAT,Bahia,2,"5,11",3,"6,40","0,00","0,00",7,0,1,1,2,1,2,0,0,0,0,0,0,0,0,2,0,15
Zeca ,LAT,Internacional,2,"10,87",5,"6,36","7,20","0,25",10,0,1,3,2,2,1,0,0,0,0,0,0,0,0,4,1,15
Nino Paraíba ,LAT,Bahia,3,"12,49",6,"6,32","1,20","-1,35",18,0,0,2,12,2,2,0,0,0,0,0,1,0,0,4,0,17
Rodrygo ,ATA,Santos,3,"15,79",8,"6,31","31,10","6,20",3,5,1,0,17,3,3,0,0,0,0,0,0,0,0,12,0,25
Réver ,ZAG,Flamengo,5,"16,24",5,"6,30","0,00","0,00",1,1,0,3,7,4,1,0,0,0,0,0,0,0,0,0,0,3
Léo Duarte ,ZAG,Flamengo,3,"9,65",7,"6,27","12,10","1,65",12,0,0,5,3,3,1,0,0,0,0,0,1,0,0,2,0,4
Arthur  ,ATA,Chapecoense,3,"10,97",9,"6,27","8,20","-0,26",9,4,0,0,21,13,1,1,0,0,0,0,1,0,0,13,1,17
Marcos Rocha ,LAT,Palmeiras,3,"12,11",8,"6,22","0,00","0,00",27,1,1,3,8,0,0,1,0,0,0,0,3,0,0,16,0,39
Léo Moura ,LAT,Grêmio,3,"11,85",5,"6,12","0,00","0,00",3,0,1,4,7,0,0,0,0,0,0,0,0,0,0,3,0,3
Maurício Barbieri ,TEC,Flamengo,3,"13,68",9,"6,10","6,07","-0,10",0,0,0,0,0,0,0,0,0,0,0,0,0,0,0,0,0,0
Richard ,MEI,Fluminense,3,"16,54",9,"6,10","5,10","-0,42",33,1,0,0,16,2,1,0,0,0,0,0,1,0,0,9,0,23
Wallyson ,ATA,Vitória,3,"9,66",7,"5,97","-2,40","-2,76",6,2,3,0,6,6,3,1,0,0,0,0,1,0,0,7,1,22
Jailson ,GOL,Palmeiras,3,"14,47",8,"5,90","2,00","0,01",0,0,0,2,0,0,0,0,19,0,0,0,1,0,8,0,0,6
Paulo André ,ZAG,Atlético-PR,5,"8,08",2,"5,80","0,00","0,00",3,0,0,2,4,0,0,0,0,0,0,0,1,0,0,4,0,3
Maílson ,GOL,Sport,2,"5,14",3,"5,80","0,00","0,00",0,0,1,1,0,0,0,0,4,0,0,0,0,0,2,0,0,2
Pio ,MEI,Ceará,2,"7,59",5,"5,78","0,00","0,00",13,1,1,0,5,4,5,0,0,0,1,0,1,0,0,6,1,16
Giovanni ,LAT,América-MG,3,"7,34",5,"5,70","0,50","-0,20",7,2,0,1,7,0,0,0,0,0,0,0,2,0,0,2,0,5
Ayrton Lucas ,LAT,Fluminense,5,"10,43",4,"5,70","0,00","0,00",9,0,0,1,15,1,0,0,0,0,0,0,0,0,0,5,0,5
Tiago  ,ZAG,Bahia,3,"8,50",5,"5,60","7,00","0,51",11,0,0,2,3,4,3,0,0,0,0,0,0,0,0,9,1,6
Bruno Cosendey ,MEI,Vasco,2,"4,75",3,"5,60","0,00","0,00",3,1,1,0,1,1,1,0,0,0,0,0,0,0,0,1,0,9
Jean Mota ,MEI,Santos,3,"11,33",8,"5,56","6,50","0,72",16,1,0,0,11,9,10,1,0,0,0,0,0,0,0,13,0,29
Willian ,ATA,Palmeiras,3,"11,66",8,"5,55","17,80","3,75",4,4,0,0,7,3,6,1,0,0,0,0,1,0,0,12,1,4
Fabiano ,LAT,Internacional,2,"9,59",4,"5,55","0,00","0,00",9,0,0,3,1,1,0,0,0,0,0,0,1,0,0,4,0,12
Weverton ,GOL,Palmeiras,2,"8,88",1,"5,50","0,00","0,00",0,0,0,1,1,0,0,0,0,0,0,0,0,0,0,0,0,0
Jonas ,MEI,Flamengo,3,"7,85",6,"5,50","5,90","0,73",25,0,0,0,2,4,1,0,0,0,0,0,2,0,0,7,0,8
Leandro Carvalho ,ATA,Botafogo,5,"5,86",1,"5,50","0,00","0,00",2,0,0,0,4,1,0,0,0,0,0,0,0,0,0,0,0,1
Bressan ,ZAG,Grêmio,3,"9,36",7,"5,41","5,00","-0,07",10,0,0,6,3,0,0,0,0,0,0,0,1,0,0,9,0,7
Paulo Miranda ,ZAG,Grêmio,2,"7,76",2,"5,40","0,00","0,00",4,0,0,1,3,1,0,0,0,0,0,0,0,0,0,2,0,5
Murilo ,ZAG,Cruzeiro,2,"8,07",2,"5,40","0,00","0,00",4,0,0,1,0,0,1,0,0,0,0,0,0,0,0,1,0,3
Rafael Moura ,ATA,América-MG,2,"12,08",6,"5,40","0,00","0,00",2,3,2,0,6,3,4,0,0,0,0,0,1,0,0,13,3,16
Éder Militão ,LAT,São Paulo,2,"12,56",7,"5,37","2,50","0,29",16,1,0,3,7,6,2,0,0,0,0,0,4,0,0,14,0,17
Lucca ,ATA,Internacional,2,"9,09",7,"5,36","2,90","0,25",7,1,2,0,19,5,4,1,0,0,0,0,2,0,0,7,0,16
Marcelo Grohe ,GOL,Grêmio,3,"16,39",8,"5,30","5,00","-0,31",0,0,0,7,2,0,0,0,3,0,0,0,0,0,1,0,0,2
Marcelo ,MEI,Botafogo,2,"4,13",1,"5,30","5,30","0,13",2,0,0,0,3,1,0,0,0,0,0,0,0,0,0,0,0,0
Luan ,ATA,Grêmio,3,"15,80",6,"5,28","0,00","0,00",5,0,1,0,22,13,4,2,0,0,0,0,0,0,0,11,0,25
Matheus Fernandes ,MEI,Botafogo,3,"13,56",8,"5,28","0,00","0,00",28,0,1,0,7,5,1,1,0,0,0,0,3,0,0,9,1,18
Fellipe Bastos ,MEI,Sport,3,"8,70",8,"5,26","4,10","0,46",16,0,2,0,2,8,10,0,0,0,0,0,0,0,0,9,1,21
Walter ,GOL,Corinthians,3,"6,77",4,"5,25","1,00","-1,39",0,0,0,1,0,0,0,0,8,0,0,0,0,0,4,0,0,0
Renato Gaúcho ,TEC,Grêmio,3,"14,81",9,"5,24","4,72","0,12",0,0,0,0,0,0,0,0,0,0,0,0,0,0,0,0,0,0
Léo ,ZAG,Cruzeiro,3,"8,84",7,"5,23","4,20","0,09",10,0,0,5,3,1,0,0,0,0,0,0,0,0,0,8,1,4
Thiago Larghi ,TEC,Atlético-MG,3,"10,63",9,"5,22","5,52","0,47",0,0,0,0,0,0,0,0,0,0,0,0,0,0,0,0,0,0
Santos ,GOL,Atlético-PR,2,"10,05",8,"5,21","0,00","0,00",0,0,0,4,1,0,0,0,13,0,0,0,0,0,8,0,0,6
Gabriel ,ATA,Santos,3,"14,43",8,"5,21","14,30","2,31",7,3,1,0,14,14,2,0,0,0,0,0,1,0,0,13,6,23
Marcelo Lomba ,GOL,Internacional,2,"7,72",1,"5,20","0,00","0,00",0,0,0,1,1,0,0,0,0,0,0,0,0,0,0,0,0,1
Hyoran ,MEI,Palmeiras,3,"5,92",5,"5,14","10,40","1,98",1,1,3,0,5,1,1,0,0,0,0,0,0,0,0,3,0,6
Bruno Henrique ,MEI,Palmeiras,3,"9,66",8,"5,12","2,80","0,41",21,1,1,0,18,5,0,1,0,0,0,0,2,0,0,21,0,17
Borja ,ATA,Palmeiras,2,"12,68",4,"5,08","0,00","0,00",7,1,1,0,4,10,2,0,0,0,0,0,3,0,0,11,4,7
Edigar Junio ,ATA,Bahia,2,"9,88",5,"5,06","0,00","0,00",3,2,0,0,7,1,3,1,0,0,0,0,0,0,0,7,1,7
Leonardo Valencia ,MEI,Botafogo,3,"9,01",7,"5,03","7,90","-0,37",5,1,2,0,11,5,3,1,0,0,0,0,0,0,0,2,0,18
Eduardo ,LAT,Chapecoense,2,"5,82",2,"5,00","0,00","0,00",3,0,1,0,1,0,0,0,0,0,0,0,0,0,0,0,0,0
Yago ,ZAG,Botafogo,2,"4,90",1,"5,00","0,00","0,00",3,0,0,0,1,0,0,0,0,0,0,0,0,0,0,0,0,0
Júnior Tavares ,LAT,São Paulo,2,"7,58",1,"5,00","0,00","0,00",1,0,0,1,2,0,0,0,0,0,0,0,1,0,0,1,0,0
Caio Monteiro ,ATA,Vasco,2,"5,20",4,"4,97","0,00","0,00",4,1,1,0,7,3,1,0,0,0,0,0,0,0,0,6,1,9
Cueva ,MEI,São Paulo,2,"12,56",3,"4,93","0,00","0,00",4,0,2,0,6,0,0,0,0,0,0,0,0,0,0,2,1,9
Odair Hellmann ,TEC,Internacional,2,"11,16",9,"4,93","4,84","0,20",0,0,0,0,0,0,0,0,0,0,0,0,0,0,0,0,0,0
Ángel Romero ,ATA,Corinthians,1,"10,87",5,"4,92","0,00","0,00",9,0,2,0,22,5,1,0,0,0,0,0,2,0,0,9,0,22
Gabriel ,MEI,Corinthians,3,"11,40",7,"4,91","2,60","-0,42",24,1,0,0,11,2,1,0,0,0,0,0,3,0,0,16,0,13
Luan ,ATA,Atlético-MG,3,"13,76",9,"4,86","2,10","-0,58",32,0,1,0,6,6,3,0,0,0,0,0,2,0,0,16,1,27
Raphael Alemão ,ATA,Paraná,2,"4,45",2,"4,85","0,00","0,00",3,0,0,0,2,1,4,0,0,0,0,0,0,0,0,1,0,3
Claudinei Oliveira ,TEC,Sport,3,"8,87",7,"4,82","4,86","0,26",0,0,0,0,0,0,0,0,0,0,0,0,0,0,0,0,0,0
Rogério ,ATA,Sport,3,"9,01",8,"4,80","0,90","-1,24",3,2,1,0,14,7,8,0,0,0,0,0,0,0,0,6,6,11
Alemão ,LAT,Paraná,2,"7,80",6,"4,78","0,00","0,00",17,0,0,1,3,5,2,0,0,0,0,0,0,0,0,8,0,19
Danilo Fernandes ,GOL,Internacional,2,"9,39",8,"4,77","5,00","-0,12",0,0,0,4,1,0,0,0,10,0,0,0,0,0,6,0,0,1
Iago ,LAT,Internacional,2,"11,58",8,"4,74","12,10","1,97",19,0,0,5,2,3,2,0,0,0,0,0,3,0,0,13,1,28
Cléber Reis ,ZAG,Paraná,1,"6,53",5,"4,72","0,00","0,00",9,0,0,2,5,3,1,0,0,0,0,0,1,0,0,4,1,5
Abel Braga ,TEC,Fluminense,3,"11,32",9,"4,70","2,68","-0,34",0,0,0,0,0,0,0,0,0,0,0,0,0,0,0,0,0,0
Norberto  ,LAT,América-MG,3,"10,66",7,"4,70","-0,10","-1,23",17,0,1,2,8,0,1,0,0,0,0,0,2,0,0,11,0,11
Nenê ,MEI,São Paulo,4,"8,50",9,"4,69","-1,90","-1,84",6,3,1,0,19,7,3,2,0,0,0,0,3,0,0,10,1,30
Sander ,LAT,Sport,4,"9,91",9,"4,62","5,90","0,32",25,0,0,2,16,2,4,0,0,0,0,0,3,0,0,20,1,13
Edílson ,LAT,Cruzeiro,3,"8,81",4,"4,60","5,90","-0,23",5,0,0,3,2,1,0,0,0,0,0,0,1,0,0,3,0,8
Dudu ,ATA,Palmeiras,3,"15,54",8,"4,58","8,70","0,79",6,2,1,0,24,5,7,0,0,0,0,0,4,0,0,5,2,21
Everton ,MEI,São Paulo,2,"10,27",8,"4,57","1,80","-0,88",5,2,3,0,19,3,3,0,0,0,0,0,1,0,0,8,6,28
Mano Menezes ,TEC,Cruzeiro,3,"11,02",9,"4,53","5,06","0,24",0,0,0,0,0,0,0,0,0,0,0,0,0,0,0,0,0,0
Thiago Heleno ,ZAG,Atlético-PR,3,"9,74",6,"4,53","3,50","-1,24",6,1,0,3,5,1,0,1,0,0,1,0,0,0,0,8,0,7
Rodrigo Becão ,ZAG,Bahia,2,"3,61",1,"4,50","0,00","0,00",0,0,0,1,1,0,0,0,0,0,0,0,0,0,0,2,0,0
Léo ,LAT,Bahia,3,"9,14",7,"4,49","0,80","-0,62",18,0,0,2,6,1,1,0,0,0,0,0,0,0,0,8,3,17
Renato Chaves ,ZAG,Fluminense,3,"8,64",9,"4,47","6,90","0,58",21,0,1,3,5,0,2,0,0,0,0,0,2,0,0,11,0,22
Jonathan ,LAT,Atlético-PR,5,"9,36",4,"4,45","0,00","0,00",2,0,2,1,2,0,0,0,0,0,0,0,0,0,0,0,0,4
Silvinho ,ATA,Paraná,2,"7,20",8,"4,43","0,00","0,00",11,1,0,0,18,9,7,0,0,0,0,0,1,0,0,10,0,22
Fagner ,LAT,Corinthians,2,"11,70",3,"4,40","0,00","0,00",5,0,1,1,1,0,0,0,0,0,0,0,0,0,0,3,0,11
Kelvin ,ATA,Vasco,2,"6,67",4,"4,40","0,00","0,00",1,1,2,0,4,1,0,0,0,0,0,0,1,0,0,3,0,4
Wellington Paulista ,ATA,Chapecoense,3,"12,40",8,"4,40","12,60","1,59",7,3,2,0,14,11,0,0,0,0,0,0,5,0,0,16,4,17
Thiago Galhardo ,MEI,Vasco,5,"8,65",4,"4,35","0,00","0,00",2,0,2,0,6,3,2,1,0,0,0,0,1,0,0,4,0,8
Pedro Henrique ,ZAG,Corinthians,2,"5,65",2,"4,35","0,00","0,00",4,0,0,0,4,2,0,0,0,0,0,0,0,0,0,0,0,3
Roger Machado  ,TEC,Palmeiras,3,"11,12",9,"4,34","3,02","0,24",0,0,0,0,0,0,0,0,0,0,0,0,0,0,0,0,0,0
Diego Aguirre ,TEC,São Paulo,2,"10,88",9,"4,34","0,93","-0,61",0,0,0,0,0,0,0,0,0,0,0,0,0,0,0,0,0,0
Bremer ,ZAG,Atlético-MG,3,"6,58",8,"4,30","4,70","0,79",18,1,0,2,4,1,1,0,0,0,0,0,2,0,0,11,0,17
Alisson ,MEI,Grêmio,5,"7,73",3,"4,30","0,00","0,00",4,0,0,0,5,4,3,0,0,0,0,0,0,0,0,0,0,8
Nico López ,ATA,Internacional,2,"14,27",7,"4,30","3,30","-0,66",1,3,0,0,1,3,4,1,0,0,0,0,1,0,0,0,1,12
Marlone ,MEI,Sport,3,"8,85",8,"4,29","0,80","-0,22",6,1,2,0,12,4,7,0,0,0,0,0,1,0,0,3,1,21
Cássio ,GOL,Corinthians,2,"10,84",5,"4,28","0,00","0,00",0,0,0,2,0,0,0,0,6,0,0,0,0,0,3,0,0,2
Petros ,MEI,São Paulo,2,"8,51",4,"4,28","2,40","-0,35",12,0,0,0,6,0,0,0,0,0,0,0,0,0,0,6,0,3
Madson ,LAT,Grêmio,2,"6,98",4,"4,25","0,00","0,00",3,0,0,2,4,2,1,0,0,0,0,0,0,0,0,1,0,6
Gilson ,LAT,Botafogo,2,"8,20",6,"4,22","0,00","0,00",14,1,0,0,14,1,1,0,0,0,0,0,1,0,0,7,0,24
Marcos Junior ,ATA,Fluminense,5,"6,65",8,"4,16","0,00","-1,41",5,2,1,0,12,4,2,0,0,0,0,0,0,0,0,4,5,8
Anderson ,GOL,Bahia,2,"3,92",3,"4,13","0,00","0,00",0,0,0,1,0,0,0,0,4,0,0,0,0,0,2,0,0,2
Maicon ,MEI,Grêmio,3,"8,19",8,"4,11","-0,50","-0,27",17,3,0,0,7,3,1,0,0,0,0,0,2,1,0,14,0,29
Ezequiel  ,LAT,Cruzeiro,2,"4,41",2,"4,10","0,00","0,00",5,0,0,1,3,0,0,0,0,0,0,0,1,0,0,4,0,6
Rodrigo Dourado ,MEI,Internacional,4,"10,17",9,"4,09","-3,60","-1,59",32,0,0,0,12,1,2,0,0,0,0,0,3,0,0,20,1,13
Elton ,MEI,Bahia,3,"9,67",8,"4,06","8,40","1,58",27,0,1,0,1,5,1,0,0,0,0,0,1,0,0,25,0,14
Cazares ,MEI,Atlético-MG,3,"10,06",7,"4,06","1,60","-0,68",5,1,2,0,1,10,6,0,0,0,0,0,1,0,0,6,0,26
Keno ,ATA,Palmeiras,5,"9,87",9,"4,04","-1,00","-0,59",17,1,1,0,22,3,4,0,0,0,0,0,0,1,0,12,7,23
Thaciano ,MEI,Grêmio,2,"3,80",3,"4,03","10,30","2,27",1,1,0,0,2,1,2,0,0,0,0,0,0,0,0,2,0,2
Marquinhos ,ATA,América-MG,2,"7,00",5,"4,02","0,00","0,00",4,1,1,0,4,1,2,0,0,0,0,0,0,0,0,1,0,12
Alison ,MEI,Santos,5,"9,00",5,"4,02","0,00","0,00",17,0,0,0,6,1,0,0,0,0,0,0,1,0,0,9,0,9
Jair Ventura ,TEC,Santos,3,"11,61",8,"4,00","8,09","1,14",0,0,0,0,0,0,0,0,0,0,0,0,0,0,0,0,0,0
Aderlan ,LAT,América-MG,2,"3,97",5,"3,96","5,00","0,39",13,0,1,1,2,1,0,0,0,0,0,0,2,0,0,9,0,10
Torito González ,MEI,Paraná,4,"4,77",6,"3,95","1,40","0,05",15,0,0,0,16,4,1,0,0,0,0,0,3,0,0,8,0,4
Pablo Dyego ,ATA,Fluminense,1,"6,22",6,"3,92","9,20","1,58",1,2,0,0,9,3,2,0,0,0,0,0,0,0,0,3,0,6
Rafael Sobis ,ATA,Cruzeiro,3,"6,72",7,"3,90","0,10","-1,39",6,1,0,0,7,11,3,0,0,0,0,0,1,0,0,3,0,7
Renato ,MEI,Santos,3,"8,60",4,"3,90","9,30","1,37",4,1,0,0,2,2,2,0,0,0,0,0,0,0,0,0,2,8
Rafael Marques ,ATA,Sport,3,"4,24",6,"3,90","4,50","0,08",4,1,1,0,4,4,3,0,0,0,0,0,0,0,0,6,1,3
Juninho ,MEI,América-MG,3,"7,92",9,"3,86","1,70","0,33",24,1,0,0,10,3,0,0,0,0,0,0,2,0,0,11,0,24
Thiago Santos ,ATA,Paraná,3,"2,84",2,"3,85","8,70","1,46",1,1,0,0,3,1,0,1,0,0,0,0,2,0,0,3,2,2
Christian ,MEI,América-MG,3,"9,18",4,"3,85","0,90","-0,02",7,0,0,0,10,4,1,0,0,0,0,0,0,0,0,3,0,10
Moisés ,LAT,Botafogo,3,"6,08",4,"3,85","0,10","-1,27",11,0,0,0,7,1,1,0,0,0,0,0,0,0,0,6,0,12
Felipe Vizeu ,ATA,Flamengo,2,"5,86",2,"3,85","7,70","1,38",0,1,0,0,0,0,0,0,0,0,0,0,0,0,0,0,0,1
Andrés Ríos ,ATA,Vasco,3,"6,84",7,"3,84","1,80","0,13",3,3,1,0,14,4,4,1,0,0,0,0,3,1,0,24,1,7
Neris ,ZAG,Paraná,3,"4,09",3,"3,83","0,00","0,00",9,0,0,2,1,2,1,0,0,0,0,1,2,0,0,6,0,11
Cuéllar ,MEI,Flamengo,2,"9,43",6,"3,82","0,00","0,00",22,0,1,0,2,1,0,0,0,0,0,1,2,0,0,11,0,8
Fernando Diniz ,TEC,Atlético-PR,3,"9,84",9,"3,82","1,22","-0,84",0,0,0,0,0,0,0,0,0,0,0,0,0,0,0,0,0,0
Enderson Moreira ,TEC,América-MG,3,"10,42",9,"3,76","4,66","0,68",0,0,0,0,0,0,0,0,0,0,0,0,0,0,0,0,0,0
Raul Prata ,LAT,Sport,3,"9,63",5,"3,74","9,40","2,28",15,0,0,1,5,1,0,0,0,0,0,1,1,0,0,3,0,12
Diogo Barbosa ,LAT,Palmeiras,5,"9,53",8,"3,73","-0,30","-1,42",14,0,2,3,2,0,0,0,0,0,0,0,3,0,0,11,0,19
Patric ,LAT,Atlético-MG,2,"6,25",5,"3,72","0,00","0,00",11,0,1,1,2,1,1,0,0,0,0,0,0,0,0,10,1,18
Carlinhos ,LAT,América-MG,5,"11,48",5,"3,70","2,70","-1,10",5,1,0,1,3,2,5,0,0,0,0,0,1,0,0,13,1,7
Jucilei ,MEI,São Paulo,2,"8,44",8,"3,70","6,40","0,24",24,0,0,0,13,0,0,0,0,0,0,0,0,0,0,15,0,18
Juninho ,MEI,Ceará,5,"6,25",7,"3,69","0,00","0,00",21,0,0,0,4,5,1,0,0,0,0,0,0,0,0,12,0,23
Canteros ,MEI,Chapecoense,3,"8,03",9,"3,69","0,90","-0,98",14,2,1,0,9,2,1,1,0,0,0,0,1,0,0,9,0,42
Marcos Guilherme  ,ATA,São Paulo,2,"9,51",6,"3,68","0,20","-1,03",8,0,1,0,6,5,3,0,0,0,0,0,0,0,0,7,1,5
Osmar Loss ,TEC,Corinthians,3,"10,90",3,"3,68","1,61","-0,81",0,0,0,0,0,0,0,0,0,0,0,0,0,0,0,0,0,0
Diego ,MEI,Flamengo,4,"9,16",7,"3,67","1,60","-1,64",9,2,0,0,27,7,1,0,0,0,0,0,3,0,0,14,6,27
Arboleda ,ZAG,São Paulo,2,"9,63",6,"3,67","0,00","0,00",13,0,0,1,4,4,2,0,0,0,0,0,2,0,0,7,1,7
Henrique ,ZAG,Corinthians,3,"9,27",9,"3,66","0,90","-1,12",5,1,0,3,9,1,0,0,0,0,0,0,0,0,0,2,0,6
Nikão ,MEI,Atlético-PR,3,"11,84",8,"3,65","0,60","-0,77",5,1,0,0,17,6,7,1,0,0,0,0,0,0,0,6,4,20
Rafael Pereira ,ZAG,Ceará,2,"5,07",3,"3,63","5,00","0,05",6,0,0,0,5,0,0,0,0,0,0,0,0,0,0,0,0,2
Rodrigo Lindoso ,MEI,Botafogo,3,"8,37",9,"3,63","-0,10","-1,27",9,2,1,0,15,6,2,0,0,0,0,0,2,0,0,12,1,20
Rhayner ,ATA,Vitória,3,"9,65",8,"3,62","5,80","0,92",16,0,1,0,16,6,3,1,0,0,0,0,3,0,0,16,0,18
Douglas ,ZAG,Chapecoense,3,"7,83",9,"3,62","4,70","0,35",15,0,0,2,7,3,0,1,0,0,0,0,1,0,0,10,0,6
Luiz Gustavo ,ZAG,Vasco,3,"3,89",2,"3,60","2,90","-0,02",5,0,0,1,1,0,0,0,0,0,0,0,1,0,0,4,0,6
Vinícius Freitas ,LAT,Chapecoense,2,"3,82",3,"3,60","0,00","-0,84",3,0,1,1,0,0,0,0,0,0,0,0,1,0,0,1,0,4
Dodô ,LAT,Santos,3,"11,59",8,"3,59","6,00","0,98",17,0,0,1,15,3,2,0,0,0,0,0,2,0,0,4,0,27
Gilson Kleina ,TEC,Chapecoense,3,"7,33",9,"3,59","2,95","-0,40",0,0,0,0,0,0,0,0,0,0,0,0,0,0,0,0,0,0
Thiago Santos ,MEI,Palmeiras,2,"6,97",6,"3,58","3,00","0,37",15,0,0,0,5,0,1,1,0,0,0,0,1,0,0,9,0,4
Leandro Pereira ,ATA,Chapecoense,4,"6,66",8,"3,58","1,20","0,14",8,2,0,0,11,4,3,1,0,0,0,1,1,0,0,10,3,4
Alberto Valentim ,TEC,Botafogo,3,"9,09",9,"3,58","3,35","-0,03",0,0,0,0,0,0,0,0,0,0,0,0,0,0,0,0,0,0
Emerson ,LAT,Atlético-MG,3,"4,51",4,"3,52","-0,30","-0,64",9,0,0,1,7,0,0,0,0,0,0,0,1,0,0,7,0,8
Éverson ,GOL,Ceará,3,"9,08",9,"3,51","4,00","0,37",0,0,0,1,2,0,0,0,19,0,0,0,1,0,14,1,0,3
Richardson ,MEI,Ceará,3,"6,32",7,"3,51","0,10","-0,37",15,0,0,0,19,1,1,0,0,0,0,0,1,0,0,7,0,13
Luiz Antonio  ,MEI,Chapecoense,2,"6,40",1,"3,50","0,00","0,00",2,0,0,0,1,1,0,0,0,0,0,0,0,0,0,1,0,1
Adilson ,MEI,Atlético-MG,3,"6,21",7,"3,48","0,00","0,00",24,0,0,0,10,0,0,0,0,0,0,0,3,0,0,11,0,17
Élber ,MEI,Bahia,3,"5,27",6,"3,47","0,00","0,00",6,1,1,0,10,0,6,0,0,0,0,0,3,0,0,4,0,18
Paulo Roberto ,MEI,Corinthians,2,"3,31",3,"3,47","0,00","0,00",11,0,0,0,1,1,1,0,0,0,0,0,2,0,0,5,0,7
Ramon ,LAT,Vasco,2,"7,92",2,"3,45","0,70","-0,86",2,0,0,1,0,0,1,0,0,0,0,0,0,0,0,1,0,6
Renatinho ,MEI,Botafogo,2,"5,23",4,"3,45","0,00","0,00",8,0,0,0,5,2,3,0,0,0,0,0,1,0,0,3,0,8
Bruno Alves ,ZAG,São Paulo,4,"9,99",7,"3,44","1,70","0,24",9,1,0,2,3,0,0,1,0,0,0,0,3,0,0,7,0,8
Rhodolfo ,ZAG,Flamengo,3,"7,60",3,"3,43","6,20","0,25",4,0,0,2,2,1,0,0,0,0,0,1,0,0,0,1,1,5
Mena ,LAT,Bahia,2,"7,91",3,"3,43","0,00","0,00",5,0,0,1,1,0,0,0,0,0,0,0,0,0,0,0,0,9
Rafinha ,MEI,Cruzeiro,5,"8,33",3,"3,40","0,00","0,00",4,0,1,0,5,0,1,0,0,0,0,0,0,0,0,4,2,5
Magrão ,GOL,Sport,3,"9,27",5,"3,40","12,00","2,07",0,0,0,1,1,0,0,0,8,1,0,0,2,0,7,0,0,5
Jadson ,MEI,Fluminense,3,"8,98",9,"3,40","2,60","-0,29",21,0,1,0,13,4,3,0,0,0,0,0,2,0,0,16,0,24
Rogério Micale ,TEC,Paraná,3,"6,39",9,"3,35","3,46","0,27",0,0,0,0,0,0,0,0,0,0,0,0,0,0,0,0,0,0
Fernando Miguel ,GOL,Vasco,3,"7,37",3,"3,33","2,00","-1,19",0,0,0,1,0,0,0,0,5,0,0,0,0,0,5,0,0,0
Antônio Carlos  ,ZAG,Palmeiras,4,"7,98",9,"3,32","-2,80","-0,30",8,1,0,3,5,1,1,2,0,0,0,0,3,0,0,10,1,14
Desábato ,MEI,Vasco,3,"7,47",7,"3,32","1,80","-0,13",18,0,1,0,7,2,0,0,0,0,0,1,0,0,0,7,0,18
Sornoza ,MEI,Fluminense,3,"8,26",9,"3,32","0,50","-0,02",13,0,1,0,6,8,9,0,0,0,0,0,2,0,0,6,0,26
Michel Bastos ,MEI,Sport,2,"4,29",3,"3,30","0,40","-1,13",0,1,0,0,2,2,1,0,0,0,0,0,0,0,0,2,0,3
Reinaldo ,LAT,São Paulo,2,"9,41",5,"3,28","1,70","-0,51",11,0,0,1,6,2,2,0,0,0,0,0,1,0,0,10,0,17
Pablo ,ATA,Atlético-PR,3,"8,80",9,"3,28","0,10","-0,21",8,3,0,0,5,10,4,0,0,0,0,0,2,0,0,22,7,11
Judivan  ,ATA,América-MG,3,"4,22",5,"3,28","7,70","0,55",3,0,1,0,6,4,3,0,0,0,0,0,0,0,0,4,0,3
Lucas Veríssimo ,ZAG,Santos,3,"8,57",7,"3,28","0,90","-0,41",12,0,0,1,7,1,2,0,0,0,0,0,1,0,0,3,1,9
João Ricardo ,GOL,América-MG,5,"5,87",3,"3,27","0,00","0,00",0,0,0,1,0,0,0,0,6,0,0,0,0,0,6,0,0,4
Léo Cittadini ,MEI,Santos,2,"8,55",6,"3,25","0,00","-0,38",10,0,1,0,5,3,1,0,0,0,0,0,1,0,0,7,1,2
Walisson Maia ,ZAG,Vitória,5,"5,06",2,"3,25","0,00","0,00",7,0,0,0,1,0,0,0,0,0,0,0,1,0,0,2,0,5
Marlon ,LAT,Fluminense,3,"5,17",6,"3,25","0,30","-0,72",13,0,0,2,3,4,1,0,0,0,0,0,2,0,0,9,1,23
Kieza ,ATA,Botafogo,3,"6,72",9,"3,23","10,00","2,01",6,3,0,0,5,1,3,0,0,0,0,0,0,0,0,10,4,13
Ademir ,ATA,América-MG,2,"3,20",3,"3,23","7,70","1,02",1,1,0,0,4,2,1,0,0,0,0,0,1,0,0,3,1,2
Pedro Botelho ,LAT,Vitória,2,"6,26",5,"3,20","6,90","0,91",8,1,0,0,0,1,1,0,0,0,0,0,0,0,0,3,0,15
Brenner ,ATA,Botafogo,2,"6,36",6,"3,20","0,00","0,00",2,1,0,0,13,4,3,0,0,0,0,0,0,0,0,4,2,7
Bruno Pacheco ,LAT,Chapecoense,3,"5,86",7,"3,20","4,50","0,37",15,0,0,1,12,2,0,0,0,0,0,0,3,0,0,8,0,9
Apodi ,LAT,Chapecoense,3,"7,15",9,"3,18","4,70","-0,11",15,0,1,2,9,5,0,0,0,0,0,0,0,0,0,19,3,21
Gabriel ,ZAG,Atlético-MG,3,"6,80",9,"3,18","0,50","-0,38",12,0,0,2,12,1,2,1,0,0,1,0,0,0,0,9,0,7
Elton ,ATA,Ceará,2,"5,30",5,"3,14","0,00","0,00",3,1,1,0,4,4,4,0,0,0,0,0,1,0,0,15,1,6
Mantuan ,LAT,Corinthians,3,"3,99",7,"3,14","2,20","-0,71",13,0,0,2,9,2,0,0,0,0,0,0,1,0,0,9,1,22
Éderson ,ATA,Atlético-PR,2,"8,10",3,"3,13","0,00","0,00",2,1,0,0,0,1,0,0,0,0,0,0,0,0,0,2,1,3
Mateus Vital ,MEI,Corinthians,3,"5,43",9,"3,12","-0,60","-0,28",6,1,1,0,11,4,3,0,0,0,0,0,0,0,0,4,1,12
Bruno Silva ,MEI,Cruzeiro,2,"7,24",6,"3,08","5,00","1,01",6,1,1,0,1,6,1,0,0,0,0,0,2,0,0,9,0,5
Lucas Fernandes ,ATA,Vitória,2,"5,04",6,"3,07","0,40","-0,45",1,1,0,0,12,2,2,1,0,0,0,0,0,0,0,1,0,12
Jhonny Lucas ,MEI,Paraná,3,"4,81",6,"3,05","0,00","0,00",14,1,0,0,8,3,3,0,0,0,0,0,3,0,0,21,0,14
Henrique ,MEI,Cruzeiro,5,"9,80",5,"3,02","0,00","0,00",12,0,0,0,4,3,1,0,0,0,0,0,2,0,0,6,0,5
Luan Peres  ,ZAG,Fluminense,3,"5,99",6,"3,02","2,70","-0,44",7,0,0,3,0,0,0,0,0,0,0,0,1,0,0,6,0,8
Everton Felipe ,MEI,Sport,2,"5,53",5,"3,02","0,00","0,00",4,1,0,0,6,1,3,0,0,0,0,0,0,0,0,3,0,16
Hudson ,MEI,São Paulo,5,"8,07",7,"3,01","0,50","-0,43",20,0,0,0,7,5,1,0,0,0,0,0,3,0,0,16,0,12
Ralf ,MEI,Corinthians,5,"8,96",1,"3,00","0,00","0,00",2,0,0,0,1,0,0,0,0,0,0,0,0,0,0,1,0,0
Edenílson ,MEI,Internacional,2,"9,35",7,"3,00","3,20","0,32",10,0,2,0,7,3,0,0,0,0,0,0,1,0,0,5,0,18
Luiz Otávio  ,ZAG,Chapecoense,2,"5,09",2,"3,00","0,00","0,00",1,0,0,1,0,1,0,0,0,0,0,0,0,0,0,2,0,1
Ezequiel ,ATA,Botafogo,2,"4,93",3,"3,00","0,00","0,00",2,0,1,0,2,1,0,0,0,0,0,0,0,0,0,1,0,1
Diego Pituca ,MEI,Santos,3,"3,97",6,"2,98","14,70","3,19",8,0,2,0,3,1,0,0,0,0,0,0,1,0,0,7,0,3
Lucas Silva ,MEI,Cruzeiro,3,"5,27",6,"2,98","1,50","0,36",14,0,0,0,11,6,0,0,0,0,0,0,1,0,0,15,0,13
Denilson ,ATA,Vitória,2,"10,04",6,"2,97","0,00","0,00",3,2,0,0,3,5,1,0,0,0,0,0,0,0,0,11,3,8
Marcinho ,LAT,Botafogo,3,"6,05",9,"2,91","-1,10","-0,36",15,0,3,0,4,3,1,0,0,0,0,0,2,0,0,9,0,28
Lucas Fernandes ,MEI,São Paulo,2,"4,79",2,"2,90","0,00","0,00",2,0,0,0,2,2,2,0,0,0,0,0,0,0,0,2,0,4
Tiago Alves ,ZAG,Ceará,2,"4,02",3,"2,87","0,00","0,00",3,0,0,1,2,0,0,0,0,0,0,0,0,0,0,2,0,3
Éverton Ribeiro ,MEI,Flamengo,3,"4,22",7,"2,87","-1,10","-0,20",7,2,0,0,15,2,3,0,0,0,0,1,1,0,0,11,0,22
Aylon ,ATA,América-MG,3,"8,15",7,"2,86","9,20","1,71",6,0,1,0,10,7,3,1,0,0,0,0,1,0,0,10,3,9
Elicarlos ,MEI,Chapecoense,3,"4,66",6,"2,85","1,70","-0,24",11,0,0,0,14,3,1,0,0,0,0,0,1,0,0,10,0,10
Eduardo Sasha ,ATA,Santos,3,"8,05",8,"2,84","1,70","-0,17",6,0,3,0,15,4,1,0,0,0,0,0,0,0,0,10,5,19
Valdo ,ZAG,Ceará,3,"7,14",8,"2,84","5,70","0,85",11,0,0,1,3,3,0,0,0,0,0,0,0,0,0,3,0,4
Luiz Otávio ,ZAG,Ceará,3,"7,04",8,"2,83","0,00","0,00",17,0,0,1,5,1,0,0,0,0,0,0,3,0,0,5,0,9
Régis ,LAT,São Paulo,2,"6,86",6,"2,82","0,00","0,00",10,0,0,2,2,1,1,0,0,0,0,0,2,0,0,7,0,12
Yago ,MEI,Vitória,1,"9,23",5,"2,82","0,00","0,00",9,1,0,0,8,3,2,0,0,0,0,0,3,0,0,8,1,19
Wagner ,MEI,Vasco,3,"9,96",7,"2,79","-1,60","-0,94",5,2,0,0,12,4,4,0,0,0,0,0,4,0,0,9,2,15
Claudio Winck ,LAT,Sport,5,"3,96",6,"2,75","0,00","0,00",5,1,0,1,8,2,2,0,0,0,0,0,1,0,0,11,0,15
Carlos ,ATA,Paraná,5,"5,76",8,"2,75","0,00","-0,08",5,1,0,0,11,6,4,0,0,0,0,0,1,0,0,7,5,2
Luan ,ATA,América-MG,2,"9,80",7,"2,74","0,00","0,00",12,0,2,0,15,6,1,0,0,0,0,1,2,0,0,15,2,16
Vagner Mancini ,TEC,Vitória,3,"7,02",9,"2,73","2,64","0,05",0,0,0,0,0,0,0,0,0,0,0,0,0,0,0,0,0,0
Victor ,GOL,Atlético-MG,3,"9,27",9,"2,72","-6,00","-1,07",0,0,0,2,1,0,0,0,14,0,0,0,0,0,13,0,0,7
Lucas Fonseca ,ZAG,Bahia,3,"7,01",8,"2,71","1,60","0,05",7,0,0,3,7,0,1,1,0,0,0,0,2,0,0,6,0,15
Pachu ,ATA,Botafogo,2,"2,55",1,"2,70","0,00","0,00",1,0,0,0,1,0,1,0,0,0,0,0,0,0,0,1,0,0
Ibañez ,ZAG,Fluminense,2,"5,99",1,"2,70","0,00","0,00",2,0,0,0,0,0,0,0,0,0,0,0,0,0,0,0,0,1
Manoel ,ZAG,Cruzeiro,2,"4,94",2,"2,70","0,00","0,00",1,0,0,1,2,0,0,0,0,0,0,0,0,0,0,2,1,2
Thiago Martins ,ZAG,Palmeiras,3,"5,30",2,"2,70","0,00","0,00",0,0,0,1,1,1,1,0,0,0,0,0,0,0,0,3,0,2
Neto Moura ,MEI,Sport,2,"4,68",7,"2,68","1,50","-0,36",11,0,0,0,7,3,3,0,0,0,0,0,1,0,0,8,0,4
Zé Ivaldo ,ZAG,Atlético-PR,3,"3,88",9,"2,68","2,40","-0,70",9,0,0,4,5,2,1,0,0,0,0,0,2,0,0,10,1,17
Edimar ,LAT,São Paulo,2,"3,59",4,"2,67","0,00","0,00",2,0,0,2,3,1,0,0,0,0,0,0,1,0,0,4,0,2
Vanderlei ,GOL,Santos,3,"14,40",8,"2,67","-1,00","-1,60",0,0,0,1,2,0,0,0,14,0,0,0,0,0,13,0,0,2
Ronaldo Alves ,ZAG,Sport,3,"6,40",8,"2,67","5,70","0,59",8,0,0,2,8,3,1,0,0,0,0,0,1,0,0,6,1,9
Everson ,ZAG,Bahia,2,"4,01",4,"2,67","0,00","0,00",4,0,0,1,2,2,0,1,0,0,0,0,1,0,0,2,1,8
Fábio Santos ,LAT,Atlético-MG,4,"6,70",9,"2,67","8,50","1,95",10,1,0,2,14,2,0,0,0,0,0,0,3,0,0,10,3,17
Daniel Guedes  ,LAT,Santos,2,"7,38",4,"2,65","0,00","0,00",6,0,0,1,1,0,0,0,0,0,0,0,0,0,0,2,1,8
Júlio César ,GOL,Fluminense,3,"4,05",9,"2,63","1,70","-0,77",0,0,0,3,1,0,0,0,10,0,0,0,1,0,9,0,0,6
Marcelo Hermes ,LAT,Cruzeiro,2,"4,57",3,"2,63","0,00","0,00",5,0,0,1,3,3,0,0,0,0,0,0,1,0,0,4,0,15
Juan ,ZAG,Flamengo,5,"7,20",3,"2,60","0,00","0,00",2,0,0,1,1,1,0,0,0,0,0,0,0,0,0,0,0,5
Mansur ,LAT,Paraná,2,"4,91",6,"2,60","0,00","0,00",7,0,0,2,5,2,2,1,0,0,0,1,0,0,0,11,0,13
Renê Júnior ,MEI,Corinthians,2,"6,70",2,"2,60","0,00","0,00",4,0,0,0,4,1,0,0,0,0,0,0,0,0,0,6,0,2
Rossi ,ATA,Internacional,2,"4,01",6,"2,58","-1,10","0,02",5,1,1,0,6,1,0,0,0,0,0,0,0,1,0,6,0,6
Pavez ,MEI,Atlético-PR,2,"6,24",6,"2,55","0,00","0,00",11,0,0,0,4,0,1,0,0,0,0,0,0,0,0,4,0,8
Gum ,ZAG,Fluminense,3,"5,40",7,"2,53","2,70","0,12",4,0,1,2,2,1,1,0,0,0,0,0,0,0,0,6,0,11
Robinho ,ATA,Fluminense,1,"4,17",5,"2,52","-1,10","-1,02",2,0,1,0,2,4,1,1,0,0,0,0,0,0,0,3,1,6
Willian Farias ,MEI,Vitória,5,"4,99",5,"2,50","0,00","0,00",10,0,0,0,3,2,1,0,0,0,0,0,1,0,0,6,0,6
Paulinho ,ATA,São Paulo,2,"1,29",1,"2,50","2,50","0,29",0,0,0,0,1,1,1,0,0,0,0,0,0,0,0,0,0,0
Caio Henrique ,MEI,Paraná,3,"4,69",9,"2,49","4,50","0,10",8,0,2,0,6,7,3,0,0,0,0,0,0,0,0,9,2,21
Igor Rabello ,ZAG,Botafogo,3,"10,65",9,"2,49","8,00","1,31",11,2,0,0,7,2,1,0,0,0,1,0,1,0,0,7,1,18
Bruno Guimarães ,MEI,Atlético-PR,2,"6,03",6,"2,48","0,00","0,00",8,0,0,0,25,0,0,0,0,0,0,0,2,0,0,7,0,7
Gregore ,MEI,Bahia,3,"6,95",8,"2,47","0,00","0,00",26,0,0,0,8,2,3,0,0,0,0,0,3,0,0,37,0,13
Victor Ferraz ,LAT,Santos,3,"8,56",4,"2,45","4,40","0,72",8,0,0,0,0,0,2,0,0,0,0,0,0,0,0,3,2,7
Paulão ,ZAG,Vasco,2,"5,71",3,"2,43","0,00","0,00",5,0,0,0,3,1,0,0,0,0,0,0,0,0,0,1,1,5
Guilherme ,ATA,Chapecoense,3,"5,39",6,"2,40","0,00","0,00",3,1,0,0,6,4,2,0,0,0,0,0,0,0,0,4,1,14
Werley ,ZAG,Vasco,5,"5,87",6,"2,35","0,00","0,00",9,0,0,1,5,3,2,0,0,0,1,0,0,0,0,8,0,9
Messias ,ZAG,América-MG,3,"7,68",9,"2,35","0,50","-0,43",10,0,0,2,7,1,2,0,0,0,0,0,0,0,0,9,0,20
Thonny Anderson ,MEI,Grêmio,2,"3,59",4,"2,35","1,70","0,19",0,1,0,0,1,1,1,0,0,0,0,0,0,0,0,1,0,2
Jefferson ,GOL,Botafogo,3,"8,26",7,"2,33","-2,00","-0,61",0,0,1,0,1,0,0,0,10,0,0,0,0,0,9,0,0,4
Régis ,MEI,Bahia,1,"4,28",9,"2,32","1,40","-0,32",8,1,0,0,10,4,0,1,0,0,0,0,1,0,0,6,0,18
Flávio ,MEI,Bahia,2,"3,56",4,"2,25","5,50","0,91",6,0,0,0,2,0,0,0,0,0,0,0,0,0,0,2,0,0
Guerra ,MEI,Palmeiras,5,"7,89",4,"2,23","0,00","0,00",2,1,0,0,1,1,1,0,0,0,0,0,0,0,0,5,0,7
Gabriel ,MEI,Sport,3,"4,83",8,"2,20","-0,80","-1,33",3,1,0,0,14,2,4,0,0,0,0,0,1,0,0,6,0,11
Jean ,MEI,Botafogo,2,"2,88",2,"2,20","4,40","0,70",1,0,1,0,2,0,0,0,0,0,0,0,1,0,0,1,0,2
Igor ,LAT,Paraná,3,"2,02",2,"2,20","0,20","-0,53",4,0,0,0,0,1,0,0,0,0,0,0,0,0,0,2,1,3
Liziero ,LAT,São Paulo,2,"4,42",7,"2,17","-0,80","-0,33",5,0,0,2,7,1,0,0,0,0,0,0,1,0,0,5,0,7
Jadson ,MEI,Corinthians,2,"7,16",6,"2,15","0,80","-0,71",2,1,1,0,1,2,1,0,0,0,0,0,0,0,0,5,0,13
Frazan ,ZAG,Fluminense,2,"3,74",4,"2,12","0,00","0,00",3,0,0,1,2,0,1,0,0,0,0,0,0,0,0,4,0,4
Léo Itaperuna ,ATA,Paraná,3,"4,26",7,"2,10","4,30","0,63",3,0,1,0,11,3,1,0,0,0,0,0,0,0,0,6,0,3
Henrique ,LAT,Vasco,4,"5,94",6,"2,10","0,00","0,00",9,0,0,1,14,1,1,0,0,0,0,0,3,0,0,9,1,13
Carlos Eduardo ,MEI,Paraná,3,"4,44",4,"2,08","1,40","-0,39",4,0,0,0,5,3,0,0,0,0,0,0,0,0,0,1,0,7
Nathan ,ZAG,Fluminense,2,"3,70",3,"2,07","0,00","0,00",3,0,0,1,1,0,0,0,0,0,0,0,1,0,0,3,0,1
Matheus Pereira ,MEI,Paraná,2,"4,39",2,"2,05","0,00","0,00",3,0,0,0,1,0,1,0,0,0,0,0,0,0,0,0,0,7
Ariel Cabral ,MEI,Cruzeiro,2,"4,57",4,"2,02","0,00","0,00",9,0,0,0,3,1,0,0,0,0,0,0,2,0,0,5,0,4
Danilo ,MEI,Corinthians,5,"3,53",1,"2,00","0,00","0,00",1,0,0,0,1,0,0,0,0,0,0,0,0,0,0,0,0,0
Lucas Santos ,MEI,Vasco,2,"1,18",1,"2,00","2,00","0,18",1,0,0,0,0,1,0,0,0,0,0,0,0,0,0,0,0,1
Emerson Sheik ,ATA,Corinthians,2,"7,41",4,"1,98","0,00","0,00",0,0,1,0,7,0,1,0,0,0,0,0,0,0,0,3,0,1
Rafael Lima ,ZAG,América-MG,2,"6,80",4,"1,97","0,00","0,00",4,0,0,1,1,2,0,0,0,0,0,0,1,0,0,1,0,9
Gabriel Dias ,MEI,Internacional,2,"4,24",4,"1,97","0,00","0,00",5,0,0,0,6,1,0,0,0,0,0,0,0,0,0,5,0,3
Guilherme ,MEI,Atlético-PR,3,"6,91",8,"1,96","-2,80","-1,71",7,1,0,0,13,6,1,0,0,0,0,0,2,0,0,10,0,21
Camacho ,MEI,Atlético-PR,3,"5,08",8,"1,96","4,40","0,64",19,0,0,0,4,1,1,0,0,0,0,1,0,0,0,11,0,21
Renan Lodi ,LAT,Atlético-PR,2,"2,48",4,"1,95","3,00","0,01",3,0,0,0,3,2,1,0,0,0,0,0,0,0,0,2,0,0
Vinicius ,ATA,Chapecoense,2,"4,34",2,"1,95","0,00","0,00",1,0,0,0,2,2,1,0,0,0,0,0,0,0,0,1,0,3
Wanderson ,ZAG,Atlético-PR,3,"3,62",4,"1,95","-1,60","-1,35",3,0,0,2,0,0,0,0,0,0,0,0,0,0,0,7,1,9
Ramon ,ZAG,Vitória,2,"4,16",7,"1,95","8,70","1,69",7,1,0,0,3,2,1,0,0,0,0,0,2,0,0,8,0,4
Wescley ,MEI,Ceará,3,"4,23",9,"1,94","-0,30","-0,29",5,2,0,0,4,5,2,0,0,0,0,0,1,0,0,13,1,18
Fabinho ,MEI,Ceará,3,"3,87",3,"1,93","5,20","0,98",4,0,0,0,6,1,0,0,0,0,0,0,0,0,0,5,0,5
Ricardinho ,MEI,Ceará,3,"4,39",6,"1,92","0,10","-0,04",10,0,0,0,6,1,1,0,0,0,0,0,0,0,0,7,1,15
Leonardo Silva ,ZAG,Atlético-MG,2,"9,37",1,"1,90","0,00","0,00",1,0,0,0,1,1,0,0,0,0,0,0,0,0,0,0,0,3
Michel  ,MEI,Grêmio,5,"4,70",2,"1,90","0,00","0,00",3,0,0,0,1,0,0,0,0,0,0,0,0,0,0,0,0,4
Hyuri ,ATA,Ceará,2,"3,71",4,"1,90","0,00","0,00",4,0,0,0,3,3,1,0,0,0,0,0,0,0,0,3,1,5
Matheus Rossetto ,MEI,Atlético-PR,3,"9,22",8,"1,89","-1,90","-0,69",12,1,0,0,3,2,0,0,0,0,0,0,1,0,0,10,2,20
David Braz ,ZAG,Santos,3,"8,29",7,"1,83","-0,10","-0,67",9,0,0,1,2,3,0,0,0,0,0,0,2,0,0,3,0,12
Arthur Gomes ,ATA,Santos,5,"3,63",4,"1,80","0,00","0,00",1,0,1,0,2,0,0,0,0,0,0,0,0,0,0,0,0,1
Leandro Vilela ,MEI,Paraná,3,"3,89",6,"1,80","1,20","-0,61",11,0,0,0,8,3,0,0,0,0,0,0,2,0,0,9,0,12
Raniel ,ATA,Cruzeiro,3,"5,35",7,"1,79","1,00","0,18",4,0,1,0,12,4,1,0,0,0,0,0,0,0,0,14,2,3
Lucas Lima ,MEI,Palmeiras,2,"7,07",8,"1,75","0,00","0,00",10,0,1,0,8,3,0,1,0,0,0,0,2,0,0,15,0,13
Henrique Dourado ,ATA,Flamengo,3,"11,72",9,"1,75","3,30","0,48",2,2,0,0,12,5,1,0,0,0,0,0,2,0,0,12,4,8
Alex Santana ,MEI,Paraná,2,"2,56",2,"1,75","0,00","0,00",1,0,0,0,0,1,1,0,0,0,0,0,0,0,0,0,0,0
Gustavo Bochecha ,MEI,Botafogo,2,"4,17",5,"1,70","0,00","0,00",8,0,0,0,10,2,0,0,0,0,0,0,2,0,0,5,0,12
Paulo Victor ,GOL,Grêmio,2,"6,92",1,"1,70","0,00","0,00",0,0,0,0,0,0,0,0,2,0,0,0,0,0,2,0,0,1
Shaylon ,MEI,São Paulo,2,"2,92",2,"1,70","0,00","0,00",0,1,0,0,0,0,0,0,0,0,0,0,1,0,0,3,1,2
Tréllez ,ATA,São Paulo,2,"5,68",5,"1,70","0,00","0,00",0,1,0,0,2,0,0,1,0,0,0,0,0,0,0,4,0,5
Andrigo ,MEI,Sport,2,"5,60",3,"1,70","0,00","0,00",3,0,0,0,2,2,2,0,0,0,0,0,0,0,0,3,1,8
Jesiel ,ZAG,Paraná,2,"3,75",6,"1,68","3,10","0,38",11,0,0,0,2,1,1,0,0,0,0,0,2,0,0,6,0,8
Marcos Vinícius ,MEI,Botafogo,3,"3,80",4,"1,67","1,50","0,06",3,0,0,0,5,3,0,1,0,0,0,0,1,0,0,2,0,9
Leandro Damião ,ATA,Internacional,2,"6,34",7,"1,65","0,60","-1,35",2,1,0,0,9,10,6,0,0,0,0,0,3,0,0,13,3,17
Rafael Thyere ,ZAG,Chapecoense,3,"2,65",8,"1,63","1,00","-0,62",9,0,0,2,3,0,0,0,0,0,0,0,3,0,0,5,1,10
Aderllan ,ZAG,Vitória,3,"1,92",4,"1,63","2,40","0,02",2,1,0,0,2,1,1,0,0,0,1,0,0,0,0,2,0,5
Jandrei ,GOL,Chapecoense,3,"3,92",9,"1,63","-5,30","-2,71",1,0,0,2,2,0,0,0,14,0,0,0,1,0,18,0,0,6
Amaral ,MEI,Chapecoense,2,"4,43",7,"1,62","0,00","0,00",13,0,0,0,2,1,1,0,0,0,0,0,1,0,0,13,0,9
Lucas ,LAT,Vitória,1,"5,17",5,"1,62","-1,00","-0,40",5,0,0,0,7,2,0,0,0,0,0,0,0,0,0,3,0,10
Edu Dracena ,ZAG,Palmeiras,3,"5,18",7,"1,62","-5,00","-1,55",6,0,0,2,6,0,0,0,0,0,1,0,1,0,0,4,1,4
Caíque ,GOL,Vitória,2,"3,50",5,"1,62","0,00","0,00",0,0,0,0,1,0,0,0,8,1,0,0,1,0,10,1,0,3
Guilherme Biteco ,MEI,Paraná,2,"5,37",3,"1,60","6,00","1,28",0,1,0,0,0,0,0,0,0,0,0,0,1,0,0,0,0,4
Eder Luis ,ATA,Ceará,2,"4,40",4,"1,57","5,10","1,16",2,0,0,0,4,2,2,0,0,0,0,0,0,0,0,0,3,4
Rodrigo Pimpão ,ATA,Botafogo,2,"3,68",6,"1,57","-0,30","-1,38",3,1,0,0,7,2,1,0,0,0,0,0,2,0,0,6,0,8
Arnaldo ,LAT,Ceará,2,"4,42",4,"1,57","0,00","0,00",4,0,0,1,3,0,0,0,0,0,0,0,1,0,0,3,0,9
Sidão ,GOL,São Paulo,2,"7,73",9,"1,52","-6,00","-0,91",0,0,0,3,0,0,0,0,9,0,0,0,2,0,11,0,0,8
Geuvânio ,ATA,Flamengo,5,"5,03",3,"1,50","0,00","0,00",4,0,1,0,1,1,1,0,0,0,0,0,2,0,0,6,1,5
Júnior ,ATA,Vitória,2,"2,55",1,"1,50","0,00","0,00",1,0,0,0,0,0,0,0,0,0,0,0,0,0,0,0,0,0
Diego ,ATA,Paraná,2,"4,48",1,"1,50","0,00","0,00",2,0,0,0,0,0,0,0,0,0,0,0,0,0,0,0,0,5
Evander ,MEI,Vasco,2,"5,68",3,"1,47","0,00","0,00",4,0,0,0,1,3,0,0,0,0,0,0,1,0,0,2,0,5
Robinho ,MEI,Cruzeiro,3,"5,38",8,"1,46","0,00","0,00",12,0,1,0,10,3,1,0,0,0,0,0,3,0,0,10,1,28
Willian Arão ,MEI,Flamengo,2,"4,58",2,"1,45","0,00","0,00",6,0,0,0,0,0,0,0,0,0,0,0,1,0,0,4,0,7
Jailson ,MEI,Grêmio,2,"3,99",5,"1,42","1,20","-0,41",8,0,0,0,4,0,0,0,0,0,0,0,1,0,0,5,0,8
Lima ,MEI,Grêmio,1,"2,16",6,"1,40","2,00","0,22",4,0,0,0,4,2,2,0,0,0,0,0,0,0,0,5,1,2
Patrick ,ZAG,Ceará,3,"1,80",1,"1,40","1,40","-0,20",2,0,0,0,0,0,0,0,0,0,0,0,0,0,0,2,0,2
Jeferson ,LAT,Vitória,3,"4,34",7,"1,40","0,00","0,00",10,0,1,0,4,1,1,0,0,0,0,0,3,0,0,7,1,14
Valdívia ,MEI,São Paulo,2,"5,66",5,"1,40","0,00","0,00",5,0,0,0,6,0,0,0,0,0,0,0,0,0,0,4,0,5
Douglas Friedrich ,GOL,Bahia,3,"3,93",7,"1,40","6,70","1,57",0,0,0,2,2,0,0,0,8,1,1,0,2,0,11,0,0,4
Márcio Araújo ,MEI,Chapecoense,3,"2,88",8,"1,32","0,60","-0,12",10,0,0,0,6,1,1,0,0,0,0,0,1,0,0,6,0,15
Ribamar ,ATA,Atlético-PR,2,"4,48",3,"1,30","0,00","0,00",0,0,0,0,4,5,0,0,0,0,0,0,0,0,0,2,1,2
Cícero ,MEI,Grêmio,2,"5,28",6,"1,27","0,00","0,00",3,0,0,0,1,3,3,0,0,0,0,0,0,0,0,2,0,8
Lucas Romero ,MEI,Cruzeiro,3,"4,58",7,"1,27","2,90","0,02",11,0,0,0,4,0,1,0,0,0,0,0,0,0,0,11,1,16
Uillian Correia ,MEI,Vitória,1,"3,87",5,"1,26","-1,00","-1,13",7,0,0,0,1,1,4,0,0,0,0,0,1,0,0,10,0,11
André ,ATA,Grêmio,3,"7,63",9,"1,24","0,00","-0,32",3,2,0,0,14,7,4,0,0,0,0,0,2,0,0,23,10,21
Zé Ricardo ,MEI,América-MG,2,"1,46",3,"1,23","0,00","0,00",2,0,0,0,2,2,0,0,0,0,0,0,0,0,0,2,0,3
Matheus Alessandro ,ATA,Fluminense,1,"3,13",3,"1,23","1,80","0,25",2,0,0,0,3,2,1,0,0,0,0,0,1,0,0,2,0,2
Romário  ,LAT,Ceará,3,"3,27",6,"1,20","4,70","0,37",10,0,0,0,3,0,1,0,0,0,0,0,0,0,0,7,2,20
Júnior Brumado ,ATA,Bahia,3,"3,41",8,"1,19","2,00","0,37",4,1,0,0,7,6,1,0,0,0,0,0,2,0,0,12,5,5
Pará ,LAT,Flamengo,5,"3,10",2,"1,15","0,00","0,00",2,0,0,0,2,0,0,0,0,0,0,0,0,0,0,1,0,4
Maycon ,MEI,Corinthians,3,"4,04",7,"1,14","4,40","1,21",11,0,0,0,5,1,4,0,0,0,0,0,3,0,0,11,0,17
Lucho González ,MEI,Atlético-PR,3,"4,47",7,"1,11","-0,80","-0,82",11,0,0,0,2,1,1,0,0,0,0,0,2,0,0,4,0,19
Pedrinho ,MEI,Corinthians,3,"2,63",8,"1,07","1,00","-0,34",5,0,0,0,13,3,4,0,0,0,0,0,1,0,0,10,1,17
Marco Antônio ,MEI,Bahia,5,"1,89",2,"1,05","0,00","0,00",2,0,0,0,4,1,0,0,0,0,0,0,1,0,0,1,0,4
Juan Alano ,MEI,Internacional,5,"1,83",5,"1,02","-0,30","-0,06",4,0,0,0,0,2,1,0,0,0,0,0,0,0,0,5,0,4
Carlos Henrique ,ATA,Sport,2,"2,90",6,"1,02","0,00","0,00",1,1,0,0,5,1,1,0,0,0,0,0,1,0,0,3,4,8
Anderson Martins ,ZAG,São Paulo,2,"5,88",4,"1,00","-2,00","-0,49",6,0,0,1,2,3,0,0,0,0,0,1,1,0,0,8,0,8
Allione ,MEI,Bahia,2,"3,64",5,"1,00","-1,00","-0,45",0,0,1,0,3,0,1,0,0,0,0,0,0,0,0,3,0,4
William Pottker ,ATA,Internacional,2,"2,84",8,"1,00","3,40","0,73",6,0,0,0,15,6,4,0,0,0,0,1,1,0,0,7,5,17
Dodi ,MEI,Fluminense,2,"2,96",2,"1,00","0,00","0,00",2,0,0,0,3,0,0,0,0,0,0,0,1,0,0,1,0,0
Bruno Roberto ,MEI,Atlético-MG,2,"0,96",1,"1,00","1,00","-0,04",0,0,0,0,1,1,0,0,0,0,0,0,0,0,0,0,0,1
Roger ,ATA,Corinthians,1,"4,88",6,"1,00","0,50","0,00",1,1,0,0,3,5,0,0,0,0,0,0,0,0,0,12,3,5
Matheus Ferraz ,ZAG,América-MG,3,"4,20",5,"0,98","-2,30","-0,45",5,0,0,1,3,0,0,0,0,0,0,0,2,0,0,5,1,7
Bruno Silva ,ATA,Chapecoense,2,"1,20",5,"0,98","0,70","-0,32",6,0,0,0,0,0,0,0,0,0,0,0,0,0,0,4,0,7
Thiago Neves ,MEI,Cruzeiro,3,"9,47",6,"0,92","2,60","0,42",2,0,0,0,7,2,8,0,0,0,0,0,1,0,0,3,3,24
Moisés ,MEI,Palmeiras,3,"4,91",6,"0,90","1,20","0,39",7,0,0,0,3,1,0,0,0,0,0,0,1,0,0,6,0,8
Pepê ,ATA,Grêmio,2,"2,17",4,"0,90","0,50","-0,09",4,0,0,0,3,1,0,0,0,0,0,0,1,0,0,3,0,4
Lucas Marques ,MEI,Vitória,1,"3,18",1,"0,90","0,90","-0,82",3,0,0,0,0,0,0,0,0,0,0,0,1,0,0,2,0,2
Elias ,MEI,Atlético-MG,2,"5,62",8,"0,86","8,10","1,61",7,0,1,0,5,1,1,0,0,0,0,0,3,0,0,6,1,12
Arthur ,ATA,Ceará,3,"3,90",5,"0,86","0,00","-0,46",2,0,0,0,1,4,3,0,0,0,0,0,1,0,0,5,0,5
Rafael Galhardo ,LAT,Vasco,5,"2,76",6,"0,85","0,00","0,00",5,0,0,0,7,4,2,0,0,0,0,0,1,0,0,6,1,20
Júnior Santos ,ATA,Chapecoense,5,"0,97",1,"0,80","0,00","0,00",0,0,0,0,1,1,0,0,0,0,0,0,0,0,0,1,0,0
Raphael Veiga ,MEI,Atlético-PR,2,"4,93",7,"0,77","0,00","-0,18",0,0,1,0,5,0,0,0,0,0,0,0,0,0,0,0,0,7
Ernando ,ZAG,Sport,3,"3,66",8,"0,74","0,00","0,00",6,0,0,1,4,0,0,0,0,0,0,0,3,0,0,5,0,5
D'Alessandro ,MEI,Internacional,5,"6,68",4,"0,72","0,00","0,00",1,0,0,0,6,3,1,0,0,0,0,0,0,0,0,1,1,14
Jori ,GOL,América-MG,3,"6,91",6,"0,72","-2,30","-0,27",0,0,0,1,1,0,0,0,6,0,0,0,0,0,8,1,0,9
Kayke ,ATA,Bahia,2,"4,53",1,"0,70","0,00","0,00",0,0,0,0,0,0,1,0,0,0,0,0,0,0,0,1,0,0
Vecchio ,MEI,Santos,2,"5,26",1,"0,70","0,00","0,00",1,0,0,0,0,0,0,0,0,0,0,0,0,0,0,1,0,1
Léo ,LAT,Fluminense,5,"2,81",2,"0,70","-3,60","-1,67",3,0,0,0,3,1,0,1,0,0,0,0,2,0,0,5,2,3
Sassá ,ATA,Cruzeiro,4,"2,92",8,"0,70","6,20","1,09",3,1,0,0,12,6,1,0,0,0,0,0,3,0,0,17,7,3
Guilherme Costa ,MEI,Vitória,1,"2,25",4,"0,70","0,00","0,00",2,0,0,0,8,0,0,0,0,0,0,0,1,0,0,2,0,4
Ferreira ,MEI,Sport,2,"3,27",2,"0,70","0,00","0,00",3,0,0,0,0,0,0,0,0,0,0,0,1,0,0,1,0,2
Kazim ,ATA,Corinthians,2,"3,14",1,"0,70","0,70","-0,86",1,0,0,0,0,0,0,0,0,0,0,0,0,0,0,1,0,1
Felipe Azevedo ,ATA,Ceará,2,"4,00",7,"0,69","0,00","0,00",5,0,0,0,6,2,1,0,0,0,0,0,0,0,0,8,0,15
André Lima ,ATA,Vitória,3,"4,30",5,"0,62","-0,10","0,09",0,1,0,0,4,0,1,0,0,0,0,0,1,0,0,5,3,7
Tomás Andrade ,MEI,Atlético-MG,2,"3,76",2,"0,60","1,20","0,03",1,0,0,0,0,0,0,0,0,0,0,0,0,0,0,0,0,1
Victor Luis ,LAT,Palmeiras,3,"6,55",2,"0,60","-0,50","-0,49",0,0,0,0,1,0,1,0,0,0,0,0,0,0,0,1,0,0
Ramiro ,MEI,Grêmio,1,"4,74",6,"0,60","1,20","0,25",8,0,0,0,11,3,1,0,0,0,0,0,4,0,0,11,2,10
Klaus ,ZAG,Internacional,5,"2,61",2,"0,60","0,00","0,00",1,0,0,0,0,1,0,0,0,0,0,0,0,0,0,1,0,2
Luiz Fernando  ,MEI,Botafogo,2,"3,42",6,"0,57","1,70","0,30",2,0,0,0,8,5,1,0,0,0,0,0,2,0,0,3,3,6
Copete ,ATA,Santos,2,"5,77",3,"0,53","1,20","-0,16",2,0,0,0,1,0,0,0,0,0,0,0,0,0,0,2,0,3
Jean Lucas ,MEI,Flamengo,3,"1,32",7,"0,51","-0,30","-0,14",2,0,0,0,3,0,1,0,0,0,0,0,0,0,0,3,0,2
Marcelo Oliveira ,LAT,Grêmio,5,"2,98",2,"0,50","0,00","0,00",3,0,0,0,0,0,0,0,0,0,0,0,1,0,0,3,0,0
Tchê Tchê ,MEI,Palmeiras,2,"5,93",1,"0,50","0,00","0,00",0,0,0,0,0,1,0,0,0,0,0,0,0,0,0,0,0,1
Vitor Bueno ,MEI,Santos,2,"5,23",4,"0,50","0,00","0,00",2,0,0,0,2,2,0,0,0,0,0,0,0,0,0,3,0,7
Vitinho ,LAT,Cruzeiro,2,"0,95",1,"0,50","0,00","0,00",0,0,0,0,1,0,0,0,0,0,0,0,0,0,0,0,0,0
Fernandinho ,ATA,Bahia,2,"1,72",1,"0,50","0,50","-0,28",0,0,0,0,1,0,0,0,0,0,0,0,0,0,0,0,0,0
Maicosuel ,MEI,Grêmio,2,"2,92",3,"0,47","0,00","0,00",0,0,0,0,2,0,1,0,0,0,0,0,0,0,0,1,0,1
Alerrandro ,ATA,Atlético-MG,2,"0,95",4,"0,45","0,00","0,00",1,0,0,0,1,2,0,0,0,0,0,0,0,0,0,3,0,1
Giovanni Augusto ,MEI,Vasco,3,"5,96",3,"0,43","2,20","0,37",4,0,0,0,3,2,1,0,0,0,0,0,1,1,0,0,0,10
José Welison ,MEI,Vitória,1,"2,72",6,"0,42","0,00","0,00",10,0,0,0,1,2,0,0,0,0,0,0,1,0,0,15,0,17
Vinícius ,MEI,Bahia,1,"4,16",9,"0,40","2,50","0,43",1,0,0,0,4,8,3,0,0,0,0,0,0,0,0,5,1,23
Douglas ,MEI,Fluminense,2,"2,78",3,"0,40","0,00","0,00",2,0,0,0,0,0,1,0,0,0,0,0,1,0,0,2,0,0
Mancuello ,MEI,Cruzeiro,2,"3,46",6,"0,37","6,00","1,75",5,0,0,0,2,2,3,0,0,0,0,1,0,0,0,7,0,10
Romulo ,MEI,Flamengo,2,"3,01",2,"0,35","0,00","0,00",1,0,0,0,0,0,0,0,0,0,0,0,0,0,0,1,0,1
Lincoln ,ATA,Flamengo,2,"2,59",2,"0,35","0,00","0,00",0,0,0,0,0,0,1,0,0,0,0,0,0,0,0,1,0,0
Gustavo Henrique ,ZAG,Santos,2,"3,34",3,"0,33","0,00","-0,16",2,0,0,0,1,1,0,0,0,0,0,0,0,0,0,3,0,6
Deivid ,MEI,Sport,2,"2,20",4,"0,32","2,10","0,41",2,0,0,0,2,0,0,0,0,0,0,0,0,0,0,3,0,4
Luan Viana ,ATA,Paraná,2,"1,51",1,"0,30","0,00","0,00",0,0,0,0,0,1,0,0,0,0,0,0,0,0,0,0,1,0
Marlos ,ATA,Flamengo,2,"3,39",4,"0,30","0,00","-0,30",3,0,0,0,4,0,0,0,0,0,0,0,1,0,0,4,2,1
Richard ,GOL,Paraná,2,"4,18",2,"0,25","0,00","0,00",0,0,0,0,1,0,0,0,2,0,0,0,0,0,3,0,0,0
Rayan ,ZAG,Paraná,1,"1,87",5,"0,24","-0,10","-0,18",3,0,0,0,2,2,1,0,0,0,0,0,1,0,0,4,2,7
Wellington ,MEI,Vasco,2,"2,85",3,"0,23","0,00","0,00",2,0,0,0,1,2,2,0,0,0,0,0,2,0,0,2,0,6
Yuri Alberto ,ATA,Santos,2,"2,11",3,"0,23","0,00","0,00",1,0,0,0,0,0,1,0,0,0,0,0,1,0,0,0,0,0
Bill ,ATA,Atlético-PR,2,"1,56",1,"0,20","0,00","0,00",0,0,0,0,0,0,1,0,0,0,0,0,0,0,0,2,0,0
Zezinho ,MEI,Paraná,2,"4,47",1,"0,20","0,00","0,00",0,0,0,0,1,0,0,0,0,0,0,0,0,0,0,0,0,1
Douglas Coutinho  ,ATA,Ceará,3,"4,13",3,"0,20","-0,90","-0,33",2,0,0,0,1,0,2,0,0,0,0,0,1,0,0,3,0,6
Matheus Galdezani ,MEI,Atlético-MG,2,"2,98",5,"0,20","0,00","0,00",2,0,0,0,1,2,0,0,0,0,0,0,1,0,0,3,0,2
Douglas Grolli ,ZAG,Bahia,2,"2,89",1,"0,20","0,00","0,00",1,0,0,0,0,0,0,0,0,0,0,0,0,0,0,2,0,1
Marcelo ,ATA,Cruzeiro,2,"0,79",1,"0,20","0,20","-0,21",1,0,0,0,0,0,0,0,0,0,0,0,0,0,0,2,0,1
Aguirre ,ATA,Botafogo,3,"0,75",5,"0,18","-0,80","-0,38",2,0,0,0,4,1,2,0,0,0,0,0,1,0,0,7,0,6
Júnior Dutra ,ATA,Corinthians,2,"4,55",4,"0,17","0,00","0,00",2,0,0,0,3,0,0,0,0,0,0,0,0,0,0,4,0,6
Ricardo ,ZAG,Vasco,3,"3,48",3,"0,17","-0,30","-0,40",2,0,0,1,1,0,0,0,0,0,0,0,2,0,0,4,1,5
Gerson Magrão ,MEI,América-MG,3,"2,47",4,"0,13","0,60","-0,05",1,0,0,0,1,0,1,0,0,0,0,0,0,0,0,3,0,4
Felipe Melo ,MEI,Palmeiras,3,"2,34",7,"0,10","-1,30","-0,30",10,0,0,0,4,3,1,0,0,0,0,0,4,0,0,13,0,18
Nenén ,MEI,Chapecoense,2,"2,08",2,"0,10","0,00","0,00",0,0,0,0,2,0,0,0,0,0,0,0,0,0,0,1,0,1
Rildo ,ATA,Vasco,5,"2,99",2,"0,10","0,00","0,00",0,0,0,0,8,2,0,0,0,0,0,0,1,0,0,1,1,8
Joel Carli ,ZAG,Botafogo,3,"3,52",8,"0,09","2,30","0,61",12,0,0,0,4,2,0,0,0,0,0,0,4,0,0,14,1,18
Nadson ,MEI,Chapecoense,2,"1,61",3,"0,07","0,00","0,00",1,0,0,0,3,0,0,0,0,0,0,0,0,0,0,2,0,6
João Carlos ,ATA,Fluminense,1,"0,81",4,"0,02","0,70","-0,10",1,0,0,0,7,0,2,0,0,0,0,0,1,0,0,10,0,1
Fernando Henrique ,GOL,Ceará,2,"3,00",0,"0,00","0,00","0,00",0,0,0,0,0,0,0,0,0,0,0,0,0,0,0,0,0,0
Lima ,ZAG,América-MG,5,"5,00",0,"0,00","0,00","0,00",0,0,0,0,0,0,0,0,0,0,0,0,0,0,0,0,0,0
Renan ,GOL,Ceará,2,"4,00",0,"0,00","0,00","0,00",0,0,0,0,0,0,0,0,0,0,0,0,0,0,0,0,0,0
Nilton ,MEI,Bahia,2,"7,00",0,"0,00","0,00","0,00",0,0,0,0,0,0,0,0,0,0,0,0,0,0,0,0,0,0
Fred ,ATA,Cruzeiro,5,"16,00",0,"0,00","0,00","0,00",0,0,0,0,0,0,0,0,0,0,0,0,0,0,0,0,0,0
Fernando Prass ,GOL,Palmeiras,2,"12,00",0,"0,00","0,00","0,00",0,0,0,0,0,0,0,0,0,0,0,0,0,0,0,0,0,0
Dudu Cearense ,MEI,Botafogo,2,"4,00",0,"0,00","0,00","0,00",0,0,0,0,0,0,0,0,0,0,0,0,0,0,0,0,0,0
Douglas ,MEI,Grêmio,2,"7,00",0,"0,00","0,00","0,00",0,0,0,0,0,0,0,0,0,0,0,0,0,0,0,0,0,0
Fabrício ,LAT,Vasco,3,"3,47",2,"0,00","-0,30","-0,33",2,0,0,0,3,0,0,0,0,0,0,0,1,0,0,2,0,5
Bruno ,LAT,São Paulo,2,"4,00",0,"0,00","0,00","0,00",0,0,0,0,0,0,0,0,0,0,0,0,0,0,0,0,0,0
Vilson ,ZAG,Corinthians,2,"4,00",0,"0,00","0,00","0,00",0,0,0,0,0,0,0,0,0,0,0,0,0,0,0,0,0,0
Pedro Ken ,MEI,Ceará,4,"5,00",0,"0,00","0,00","0,00",0,0,0,0,0,0,0,0,0,0,0,0,0,0,0,0,0,0
Danilo Silva ,ZAG,Internacional,2,"5,00",0,"0,00","0,00","0,00",0,0,0,0,0,0,0,0,0,0,0,0,0,0,0,0,0,0
Perotti ,ATA,Chapecoense,2,"2,00",0,"0,00","0,00","0,00",0,0,0,0,0,0,0,0,0,0,0,0,0,0,0,0,0,0
Luidy ,ATA,Ceará,2,"4,00",0,"0,00","0,00","0,00",0,0,0,0,0,0,0,0,0,0,0,0,0,0,0,0,0,0
Léo Principe ,LAT,Corinthians,2,"4,00",0,"0,00","0,00","0,00",0,0,0,0,0,0,0,0,0,0,0,0,0,0,0,0,0,0
Luis Ricardo ,LAT,Botafogo,2,"4,00",0,"0,00","0,00","0,00",0,0,0,0,0,0,0,0,0,0,0,0,0,0,0,0,0,0
Luís Fernando ,MEI,Bahia,2,"1,00",0,"0,00","0,00","0,00",0,0,0,0,0,0,0,0,0,0,0,0,0,0,0,0,0,0
Geovane Itinga ,ATA,Bahia,2,"2,00",0,"0,00","0,00","0,00",0,0,0,0,0,0,0,0,0,0,0,0,0,0,0,0,0,0
Deijair  ,GOL,Bahia,2,"1,00",0,"0,00","0,00","0,00",0,0,0,0,0,0,0,0,0,0,0,0,0,0,0,0,0,0
David ,MEI,América-MG,2,"3,00",0,"0,00","0,00","0,00",0,0,0,0,0,0,0,0,0,0,0,0,0,0,0,0,0,0
Felipinho ,MEI,Bahia,2,"2,00",0,"0,00","0,00","0,00",0,0,0,0,0,0,0,0,0,0,0,0,0,0,0,0,0,0
Yago ,ATA,Atlético-PR,2,"2,00",0,"0,00","0,00","0,00",0,0,0,0,0,0,0,0,0,0,0,0,0,0,0,0,0,0
Nicolas ,LAT,Atlético-PR,2,"4,00",0,"0,00","0,00","0,00",0,0,0,0,0,0,0,0,0,0,0,0,0,0,0,0,0,0
Índio ,ATA,Sport,2,"2,00",0,"0,00","0,00","0,00",0,0,0,0,0,0,0,0,0,0,0,0,0,0,0,0,0,0
Jean ,LAT,Palmeiras,2,"7,00",0,"0,00","0,00","0,00",0,0,0,0,0,0,0,0,0,0,0,0,0,0,0,0,0,0
Victor Luiz ,LAT,Cruzeiro,2,"1,00",0,"0,00","0,00","0,00",0,0,0,0,0,0,0,0,0,0,0,0,0,0,0,0,0,0
Luquinhas ,MEI,Fluminense,2,"1,00",0,"0,00","0,00","0,00",0,0,0,0,0,0,0,0,0,0,0,0,0,0,0,0,0,0
Bruno Xavier ,ATA,Corinthians,2,"2,00",0,"0,00","0,00","0,00",0,0,0,0,0,0,0,0,0,0,0,0,0,0,0,0,0,0
Marcinho ,ATA,Atlético-PR,2,"4,00",0,"0,00","0,00","0,00",0,0,0,0,0,0,0,0,0,0,0,0,0,0,0,0,0,0
Vico ,ATA,Grêmio,2,"1,00",0,"0,00","0,00","0,00",0,0,0,0,0,0,0,0,0,0,0,0,0,0,0,0,0,0
Marcelo Benevenuto ,ZAG,Botafogo,2,"8,00",0,"0,00","0,00","0,00",0,0,0,0,0,0,0,0,0,0,0,0,0,0,0,0,0,0
Caíque ,ATA,São Paulo,2,"1,00",0,"0,00","0,00","0,00",0,0,0,0,0,0,0,0,0,0,0,0,0,0,0,0,0,0
Jhony ,MEI,Paraná,5,"3,00",0,"0,00","0,00","0,00",0,0,0,0,0,0,0,0,0,0,0,0,0,0,0,0,0,0
Artur ,ATA,Palmeiras,2,"3,00",0,"0,00","0,00","0,00",0,0,0,0,0,0,0,0,0,0,0,0,0,0,0,0,0,0
Marllon ,ZAG,Corinthians,2,"7,00",0,"0,00","0,00","0,00",0,0,0,0,0,0,0,0,0,0,0,0,0,0,0,0,0,0
Léo Santos ,ZAG,Corinthians,2,"2,00",0,"0,00","0,00","0,00",0,0,0,0,0,0,0,0,0,0,0,0,0,0,0,0,0,0
Daniel Fuzato ,GOL,Palmeiras,2,"2,00",0,"0,00","0,00","0,00",0,0,0,0,0,0,0,0,0,0,0,0,0,0,0,0,0,0
Hugo Borges ,ATA,Vasco,2,"2,00",0,"0,00","0,00","0,00",0,0,0,0,0,0,0,0,0,0,0,0,0,0,0,0,0,0
Caprini ,ATA,Atlético-PR,2,"2,00",0,"0,00","0,00","0,00",0,0,0,0,0,0,0,0,0,0,0,0,0,0,0,0,0,0
Seijas ,MEI,Internacional,2,"2,00",0,"0,00","0,00","0,00",0,0,0,0,0,0,0,0,0,0,0,0,0,0,0,0,0,0
Jackson ,ZAG,Bahia,2,"4,00",0,"0,00","0,00","0,00",0,0,0,0,0,0,0,0,0,0,0,0,0,0,0,0,0,0
Jonatas Belusso ,ATA,Vitória,5,"5,00",0,"0,00","0,00","0,00",0,0,0,0,0,0,0,0,0,0,0,0,0,0,0,0,0,0
Rodolfo ,GOL,Fluminense,2,"3,00",0,"0,00","0,00","0,00",0,0,0,0,0,0,0,0,0,0,0,0,0,0,0,0,0,0
Alan Ruschel ,MEI,Chapecoense,2,"3,70",1,"0,00","0,00","0,00",0,0,0,0,0,0,0,0,0,0,0,0,0,0,0,0,0,0
Juninho ,LAT,Vitória,2,"3,44",1,"0,00","0,00","0,00",0,0,0,0,0,0,0,0,0,0,0,0,0,0,0,0,0,0
Charles ,MEI,Internacional,2,"5,00",0,"0,00","0,00","0,00",0,0,0,0,0,0,0,0,0,0,0,0,0,0,0,0,0,0
Daniel ,GOL,Internacional,2,"1,00",0,"0,00","0,00","0,00",0,0,0,0,0,0,0,0,0,0,0,0,0,0,0,0,0,0
Cassiano ,GOL,Bahia,2,"1,00",0,"0,00","0,00","0,00",0,0,0,0,0,0,0,0,0,0,0,0,0,0,0,0,0,0
Pablo Pardal ,MEI,Sport,2,"2,00",0,"0,00","0,00","0,00",0,0,0,0,0,0,0,0,0,0,0,0,0,0,0,0,0,0
Gabriel Pires ,MEI,Paraná,2,"4,00",0,"0,00","0,00","0,00",0,0,0,0,0,0,0,0,0,0,0,0,0,0,0,0,0,0
Digão ,ZAG,Cruzeiro,2,"6,00",0,"0,00","0,00","0,00",0,0,0,0,0,0,0,0,0,0,0,0,0,0,0,0,0,0
Wellington Silva ,ATA,Internacional,5,"2,83",1,"0,00","0,00","0,00",0,0,0,0,0,0,0,0,0,0,0,0,0,0,0,0,0,0
Dudu ,LAT,Internacional,2,"4,00",0,"0,00","0,00","0,00",0,0,0,0,0,0,0,0,0,0,0,0,0,0,0,0,0,0
Felipe ,GOL,Bahia,2,"1,00",0,"0,00","0,00","0,00",0,0,0,0,0,0,0,0,0,0,0,0,0,0,0,0,0,0
Gabriel Furtado ,MEI,Palmeiras,2,"2,00",0,"0,00","0,00","0,00",0,0,0,0,0,0,0,0,0,0,0,0,0,0,0,0,0,0
Marcos Calazans ,ATA,Fluminense,5,"3,00",0,"0,00","0,00","0,00",0,0,0,0,0,0,0,0,0,0,0,0,0,0,0,0,0,0
Luis Henrique ,ZAG,América-MG,2,"1,00",0,"0,00","0,00","0,00",0,0,0,0,0,0,0,0,0,0,0,0,0,0,0,0,0,0
Lepu ,MEI,Bahia,2,"2,00",0,"0,00","0,00","0,00",0,0,0,0,0,0,0,0,0,0,0,0,0,0,0,0,0,0
Hiago ,ZAG,Chapecoense,2,"2,00",0,"0,00","0,00","0,00",0,0,0,0,0,0,0,0,0,0,0,0,0,0,0,0,0,0
Giovanni ,GOL,Atlético-MG,2,"6,00",0,"0,00","0,00","0,00",0,0,0,0,0,0,0,0,0,0,0,0,0,0,0,0,0,0
Fernando ,GOL,Atlético-MG,2,"1,00",0,"0,00","0,00","0,00",0,0,0,0,0,0,0,0,0,0,0,0,0,0,0,0,0,0
Neto ,ZAG,Chapecoense,5,"2,00",0,"0,00","0,00","0,00",0,0,0,0,0,0,0,0,0,0,0,0,0,0,0,0,0,0
Marco Túlio ,ATA,Atlético-MG,2,"1,00",0,"0,00","0,00","0,00",0,0,0,0,0,0,0,0,0,0,0,0,0,0,0,0,0,0
Gabriel ,ZAG,Grêmio,2,"1,00",0,"0,00","0,00","0,00",0,0,0,0,0,0,0,0,0,0,0,0,0,0,0,0,0,0
Jhemerson ,MEI,Vitória,2,"3,00",0,"0,00","0,00","0,00",0,0,0,0,0,0,0,0,0,0,0,0,0,0,0,0,0,0
Marcelo Mattos ,MEI,Vasco,2,"2,00",0,"0,00","0,00","0,00",0,0,0,0,0,0,0,0,0,0,0,0,0,0,0,0,0,0
Ruan ,LAT,Internacional,2,"3,00",0,"0,00","0,00","0,00",0,0,0,0,0,0,0,0,0,0,0,0,0,0,0,0,0,0
Arouca ,MEI,Atlético-MG,2,"4,00",0,"0,00","0,00","0,00",0,0,0,0,0,0,0,0,0,0,0,0,0,0,0,0,0,0
Nonoca ,MEI,Sport,2,"3,00",0,"0,00","0,00","0,00",0,0,0,0,0,0,0,0,0,0,0,0,0,0,0,0,0,0
Matheus Anjos ,MEI,Atlético-PR,2,"2,00",0,"0,00","0,00","0,00",0,0,0,0,0,0,0,0,0,0,0,0,0,0,0,0,0,0
Caio ,LAT,Sport,2,"1,00",0,"0,00","0,00","0,00",0,0,0,0,0,0,0,0,0,0,0,0,0,0,0,0,0,0
Cedric ,LAT,Vitória,2,"3,00",0,"0,00","0,00","0,00",0,0,0,0,0,0,0,0,0,0,0,0,0,0,0,0,0,0
Estevão ,MEI,Grêmio,2,"1,00",0,"0,00","0,00","0,00",0,0,0,0,0,0,0,0,0,0,0,0,0,0,0,0,0,0
Jackson Caucaia ,MEI,Ceará,2,"2,00",0,"0,00","0,00","0,00",0,0,0,0,0,0,0,0,0,0,0,0,0,0,0,0,0,0
Ederson ,MEI,Flamengo,2,"3,00",0,"0,00","0,00","0,00",0,0,0,0,0,0,0,0,0,0,0,0,0,0,0,0,0,0
Gabriel Batista ,GOL,Flamengo,2,"3,00",0,"0,00","0,00","0,00",0,0,0,0,0,0,0,0,0,0,0,0,0,0,0,0,0,0
Tiepo ,GOL,Chapecoense,2,"2,00",0,"0,00","0,00","0,00",0,0,0,0,0,0,0,0,0,0,0,0,0,0,0,0,0,0
Bruno ,LAT,Chapecoense,2,"1,00",0,"0,00","0,00","0,00",0,0,0,0,0,0,0,0,0,0,0,0,0,0,0,0,0,0
Moisés Ribeiro ,MEI,Chapecoense,4,"4,00",0,"0,00","0,00","0,00",0,0,0,0,0,0,0,0,0,0,0,0,0,0,0,0,0,0
Kendy ,ATA,Chapecoense,2,"1,00",0,"0,00","0,00","0,00",0,0,0,0,0,0,0,0,0,0,0,0,0,0,0,0,0,0
Kanu ,ZAG,Botafogo,2,"2,00",0,"0,00","0,00","0,00",0,0,0,0,0,0,0,0,0,0,0,0,0,0,0,0,0,0
Nery Bareiro ,ZAG,Chapecoense,2,"5,00",0,"0,00","0,00","0,00",0,0,0,0,0,0,0,0,0,0,0,0,0,0,0,0,0,0
Ricardo Silva ,ZAG,América-MG,2,"3,00",0,"0,00","0,00","0,00",0,0,0,0,0,0,0,0,0,0,0,0,0,0,0,0,0,0
Luiz Felipe ,ZAG,Santos,2,"4,00",0,"0,00","0,00","0,00",0,0,0,0,0,0,0,0,0,0,0,0,0,0,0,0,0,0
Romário Rodrigues ,ATA,Ceará,2,"2,00",0,"0,00","0,00","0,00",0,0,0,0,0,0,0,0,0,0,0,0,0,0,0,0,0,0
Lucas Silva ,ATA,Flamengo,2,"2,00",0,"0,00","0,00","0,00",0,0,0,0,0,0,0,0,0,0,0,0,0,0,0,0,0,0
Ronald ,ATA,Internacional,2,"1,00",0,"0,00","0,00","0,00",0,0,0,0,0,0,0,0,0,0,0,0,0,0,0,0,0,0
João Paulo ,MEI,Botafogo,5,"10,00",0,"0,00","0,00","0,00",0,0,0,0,0,0,0,0,0,0,0,0,0,0,0,0,0,0
Cláudio Prates ,TEC,Bahia,3,"9,25",0,"0,00","0,00","0,00",0,0,0,0,0,0,0,0,0,0,0,0,0,0,0,0,0,0
Marquinhos ,MEI,Atlético-MG,2,"1,00",0,"0,00","0,00","0,00",0,0,0,0,0,0,0,0,0,0,0,0,0,0,0,0,0,0
Matheus Mancini ,ZAG,Atlético-MG,2,"3,00",0,"0,00","0,00","0,00",0,0,0,0,0,0,0,0,0,0,0,0,0,0,0,0,0,0
Hernane ,ATA,Grêmio,2,"5,00",0,"0,00","0,00","0,00",0,0,0,0,0,0,0,0,0,0,0,0,0,0,0,0,0,0
Marcelo ,ATA,Atlético-PR,2,"2,00",0,"0,00","0,00","0,00",0,0,0,0,0,0,0,0,0,0,0,0,0,0,0,0,0,0
Jean Pyerre ,MEI,Grêmio,2,"3,00",0,"0,00","0,00","0,00",0,0,0,0,0,0,0,0,0,0,0,0,0,0,0,0,0,0
Felipe ,ATA,Fluminense,2,"1,00",0,"0,00","0,00","0,00",0,0,0,0,0,0,0,0,0,0,0,0,0,0,0,0,0,0
Valdir ,TEC,Vasco,3,"9,34",0,"0,00","0,00","0,00",0,0,0,0,0,0,0,0,0,0,0,0,0,0,0,0,0,0
Ruy ,MEI,América-MG,2,"3,76",3,"0,00","0,00","0,00",0,0,0,0,3,0,0,0,0,0,0,0,0,0,0,0,0,5
Alexsander ,MEI,Atlético-PR,2,"1,00",0,"0,00","0,00","0,00",0,0,0,0,0,0,0,0,0,0,0,0,0,0,0,0,0,0
Matheus Vidotto ,GOL,Corinthians,2,"2,00",0,"0,00","0,00","0,00",0,0,0,0,0,0,0,0,0,0,0,0,0,0,0,0,0,0
Baralhas ,MEI,Atlético-PR,2,"2,00",0,"0,00","0,00","0,00",0,0,0,0,0,0,0,0,0,0,0,0,0,0,0,0,0,0
Daniel  ,ZAG,Atlético-PR,2,"1,00",0,"0,00","0,00","0,00",0,0,0,0,0,0,0,0,0,0,0,0,0,0,0,0,0,0
Caio ,GOL,Atlético-PR,2,"1,00",0,"0,00","0,00","0,00",0,0,0,0,0,0,0,0,0,0,0,0,0,0,0,0,0,0
Riuler ,LAT,Atlético-PR,2,"1,00",0,"0,00","0,00","0,00",0,0,0,0,0,0,0,0,0,0,0,0,0,0,0,0,0,0
Max ,ZAG,Sport,5,"2,00",0,"0,00","0,00","0,00",0,0,0,0,0,0,0,0,0,0,0,0,0,0,0,0,0,0
Luan ,ZAG,Palmeiras,2,"5,00",0,"0,00","0,00","0,00",0,0,0,0,0,0,0,0,0,0,0,0,0,0,0,0,0,0
Ivan ,GOL,Chapecoense,2,"2,00",0,"0,00","0,00","0,00",0,0,0,0,0,0,0,0,0,0,0,0,0,0,0,0,0,0
Linik ,MEI,Vitória,2,"1,00",0,"0,00","0,00","0,00",0,0,0,0,0,0,0,0,0,0,0,0,0,0,0,0,0,0
Esperon ,MEI,Grêmio,2,"1,00",0,"0,00","0,00","0,00",0,0,0,0,0,0,0,0,0,0,0,0,0,0,0,0,0,0
Jadson ,ATA,Grêmio,2,"1,00",0,"0,00","0,00","0,00",0,0,0,0,0,0,0,0,0,0,0,0,0,0,0,0,0,0
Oswaldo Henríquez ,ZAG,Sport,2,"6,00",0,"0,00","0,00","0,00",0,0,0,0,0,0,0,0,0,0,0,0,0,0,0,0,0,0
Arthur ,ZAG,Cruzeiro,2,"3,00",0,"0,00","0,00","0,00",0,0,0,0,0,0,0,0,0,0,0,0,0,0,0,0,0,0
Josué ,ZAG,Vitória,2,"2,00",0,"0,00","0,00","0,00",0,0,0,0,0,0,0,0,0,0,0,0,0,0,0,0,0,0
Clayton ,ATA,Atlético-MG,5,"6,00",0,"0,00","0,00","0,00",0,0,0,0,0,0,0,0,0,0,0,0,0,0,0,0,0,0
Osman ,ATA,Chapecoense,2,"4,00",0,"0,00","0,00","0,00",0,0,0,0,0,0,0,0,0,0,0,0,0,0,0,0,0,0
Paulinho ,ATA,Vasco,5,"8,00",0,"0,00","0,00","0,00",0,0,0,0,0,0,0,0,0,0,0,0,0,0,0,0,0,0
Thales  ,ZAG,Internacional,2,"4,00",0,"0,00","0,00","0,00",0,0,0,0,0,0,0,0,0,0,0,0,0,0,0,0,0,0
Leonardo Simas ,LAT,Atlético-PR,2,"1,00",0,"0,00","0,00","0,00",0,0,0,0,0,0,0,0,0,0,0,0,0,0,0,0,0,0
Lucas Campos ,ATA,Botafogo,2,"1,00",0,"0,00","0,00","0,00",0,0,0,0,0,0,0,0,0,0,0,0,0,0,0,0,0,0
Léo Passos ,ATA,Palmeiras,2,"2,00",0,"0,00","0,00","0,00",0,0,0,0,0,0,0,0,0,0,0,0,0,0,0,0,0,0
Patrick ,MEI,Grêmio,2,"2,00",0,"0,00","0,00","0,00",0,0,0,0,0,0,0,0,0,0,0,0,0,0,0,0,0,0
Khevin ,MEI,Chapecoense,5,"2,00",0,"0,00","0,00","0,00",0,0,0,0,0,0,0,0,0,0,0,0,0,0,0,0,0,0
Léo Pereira ,ZAG,Atlético-PR,2,"3,00",0,"0,00","0,00","0,00",0,0,0,0,0,0,0,0,0,0,0,0,0,0,0,0,0,0
Kleber ,LAT,Flamengo,2,"2,00",0,"0,00","0,00","0,00",0,0,0,0,0,0,0,0,0,0,0,0,0,0,0,0,0,0
Igor Gomes ,MEI,São Paulo,2,"1,00",0,"0,00","0,00","0,00",0,0,0,0,0,0,0,0,0,0,0,0,0,0,0,0,0,0
Pablo Maldini ,LAT,Flamengo,2,"1,00",0,"0,00","0,00","0,00",0,0,0,0,0,0,0,0,0,0,0,0,0,0,0,0,0,0
Lucas Poletto ,ATA,Grêmio,2,"2,00",0,"0,00","0,00","0,00",0,0,0,0,0,0,0,0,0,0,0,0,0,0,0,0,0,0
Lisca ,TEC,Ceará,3,"4,96",0,"0,00","0,00","0,00",0,0,0,0,0,0,0,0,0,0,0,0,0,0,0,0,0,0
Vander ,MEI,Cruzeiro,2,"1,00",0,"0,00","0,00","0,00",0,0,0,0,0,0,0,0,0,0,0,0,0,0,0,0,0,0
Lucas Soares ,LAT,Cruzeiro,2,"1,00",0,"0,00","0,00","0,00",0,0,0,0,0,0,0,0,0,0,0,0,0,0,0,0,0,0
Charles ,ZAG,Paraná,2,"6,00",0,"0,00","0,00","0,00",0,0,0,0,0,0,0,0,0,0,0,0,0,0,0,0,0,0
Bruno Pires ,ZAG,Ceará,2,"4,00",0,"0,00","0,00","0,00",0,0,0,0,0,0,0,0,0,0,0,0,0,0,0,0,0,0
Glauco ,GOL,América-MG,2,"4,00",0,"0,00","0,00","0,00",0,0,0,0,0,0,0,0,0,0,0,0,0,0,0,0,0,0
Lucas Cândido ,MEI,Atlético-MG,2,"2,00",0,"0,00","0,00","0,00",0,0,0,0,0,0,0,0,0,0,0,0,0,0,0,0,0,0
Pedrão ,ZAG,Palmeiras,2,"2,00",0,"0,00","0,00","0,00",0,0,0,0,0,0,0,0,0,0,0,0,0,0,0,0,0,0
Marcos Felipe  ,GOL,Fluminense,2,"2,00",0,"0,00","0,00","0,00",0,0,0,0,0,0,0,0,0,0,0,0,0,0,0,0,0,0
Berrío  ,ATA,Flamengo,5,"5,00",0,"0,00","0,00","0,00",0,0,0,0,0,0,0,0,0,0,0,0,0,0,0,0,0,0
Uilson ,GOL,Atlético-MG,5,"2,00",0,"0,00","0,00","0,00",0,0,0,0,0,0,0,0,0,0,0,0,0,0,0,0,0,0
João Paulo ,GOL,Santos,2,"2,00",0,"0,00","0,00","0,00",0,0,0,0,0,0,0,0,0,0,0,0,0,0,0,0,0,0
Matheus Matias ,ATA,Corinthians,2,"4,00",0,"0,00","0,00","0,00",0,0,0,0,0,0,0,0,0,0,0,0,0,0,0,0,0,0
Alex Amado ,ATA,Ceará,2,"4,00",0,"0,00","0,00","0,00",0,0,0,0,0,0,0,0,0,0,0,0,0,0,0,0,0,0
Weverton Almeida ,ZAG,Atlético-PR,2,"1,00",0,"0,00","0,00","0,00",0,0,0,0,0,0,0,0,0,0,0,0,0,0,0,0,0,0
Fernandinho ,ATA,Internacional,2,"1,00",0,"0,00","0,00","0,00",0,0,0,0,0,0,0,0,0,0,0,0,0,0,0,0,0,0
Morato ,ATA,São Paulo,5,"2,00",0,"0,00","0,00","0,00",0,0,0,0,0,0,0,0,0,0,0,0,0,0,0,0,0,0
Lucas Araújo ,MEI,Grêmio,2,"1,00",0,"0,00","0,00","0,00",0,0,0,0,0,0,0,0,0,0,0,0,0,0,0,0,0,0
Rafael ,ZAG,Flamengo,2,"1,00",0,"0,00","0,00","0,00",0,0,0,0,0,0,0,0,0,0,0,0,0,0,0,0,0,0
Vitão ,ZAG,Palmeiras,2,"2,00",0,"0,00","0,00","0,00",0,0,0,0,0,0,0,0,0,0,0,0,0,0,0,0,0,0
Vladimir ,GOL,Santos,2,"6,00",0,"0,00","0,00","0,00",0,0,0,0,0,0,0,0,0,0,0,0,0,0,0,0,0,0
Bruno Grassi ,GOL,Grêmio,2,"4,00",0,"0,00","0,00","0,00",0,0,0,0,0,0,0,0,0,0,0,0,0,0,0,0,0,0
Erick ,GOL,América-MG,2,"1,00",0,"0,00","0,00","0,00",0,0,0,0,0,0,0,0,0,0,0,0,0,0,0,0,0,0
Gabriel ,MEI,São Paulo,2,"1,00",0,"0,00","0,00","0,00",0,0,0,0,0,0,0,0,0,0,0,0,0,0,0,0,0,0
Emerson Barbosa ,LAT,Santos,2,"1,00",0,"0,00","0,00","0,00",0,0,0,0,0,0,0,0,0,0,0,0,0,0,0,0,0,0
Marcos Vinícius  ,LAT,Chapecoense,2,"2,00",0,"0,00","0,00","0,00",0,0,0,0,0,0,0,0,0,0,0,0,0,0,0,0,0,0
Ericson ,ZAG,Grêmio,2,"2,00",0,"0,00","0,00","0,00",0,0,0,0,0,0,0,0,0,0,0,0,0,0,0,0,0,0
Brenno ,GOL,Grêmio,2,"1,00",0,"0,00","0,00","0,00",0,0,0,0,0,0,0,0,0,0,0,0,0,0,0,0,0,0
Lucas Macanhan ,GOL,Atlético-PR,2,"1,00",0,"0,00","0,00","0,00",0,0,0,0,0,0,0,0,0,0,0,0,0,0,0,0,0,0
Emanuel ,ZAG,Grêmio,2,"2,00",0,"0,00","0,00","0,00",0,0,0,0,0,0,0,0,0,0,0,0,0,0,0,0,0,0
Ruan ,ZAG,Grêmio,2,"1,00",0,"0,00","0,00","0,00",0,0,0,0,0,0,0,0,0,0,0,0,0,0,0,0,0,0
Felipe ,LAT,Grêmio,2,"2,00",0,"0,00","0,00","0,00",0,0,0,0,0,0,0,0,0,0,0,0,0,0,0,0,0,0
Bryan ,LAT,Vitória,5,"7,00",0,"0,00","0,00","0,00",0,0,0,0,0,0,0,0,0,0,0,0,0,0,0,0,0,0
Bruno Paulista ,MEI,Vasco,2,"4,00",0,"0,00","0,00","0,00",0,0,0,0,0,0,0,0,0,0,0,0,0,0,0,0,0,0
Nathan ,ATA,Vasco,2,"2,00",0,"0,00","0,00","0,00",0,0,0,0,0,0,0,0,0,0,0,0,0,0,0,0,0,0
Vinicius ,ZAG,Vitória,2,"3,00",0,"0,00","0,00","0,00",0,0,0,0,0,0,0,0,0,0,0,0,0,0,0,0,0,0
Léo ,GOL,Grêmio,2,"3,00",0,"0,00","0,00","0,00",0,0,0,0,0,0,0,0,0,0,0,0,0,0,0,0,0,0
Emerson Santos ,ZAG,Palmeiras,2,"3,00",0,"0,00","0,00","0,00",0,0,0,0,0,0,0,0,0,0,0,0,0,0,0,0,0,0
Felipe Rodrigues ,LAT,Sport,2,"2,00",0,"0,00","0,00","0,00",0,0,0,0,0,0,0,0,0,0,0,0,0,0,0,0,0,0
Alanzinho ,MEI,Palmeiras,2,"3,00",0,"0,00","0,00","0,00",0,0,0,0,0,0,0,0,0,0,0,0,0,0,0,0,0,0
Alan Cardoso ,LAT,Vasco,2,"3,00",0,"0,00","0,00","0,00",0,0,0,0,0,0,0,0,0,0,0,0,0,0,0,0,0,0
Esteves ,LAT,Palmeiras,2,"1,00",0,"0,00","0,00","0,00",0,0,0,0,0,0,0,0,0,0,0,0,0,0,0,0,0,0
Yuri ,LAT,Botafogo,5,"1,00",0,"0,00","0,00","0,00",0,0,0,0,0,0,0,0,0,0,0,0,0,0,0,0,0,0
Michael ,GOL,Atlético-MG,2,"1,00",0,"0,00","0,00","0,00",0,0,0,0,0,0,0,0,0,0,0,0,0,0,0,0,0,0
Miranda ,ZAG,Vasco,2,"1,00",0,"0,00","0,00","0,00",0,0,0,0,0,0,0,0,0,0,0,0,0,0,0,0,0,0
Patrick Brey ,LAT,Cruzeiro,2,"2,00",0,"0,00","0,00","0,00",0,0,0,0,0,0,0,0,0,0,0,0,0,0,0,0,0,0
João Pedro ,GOL,Vasco,2,"1,00",0,"0,00","0,00","0,00",0,0,0,0,0,0,0,0,0,0,0,0,0,0,0,0,0,0
Matheus Santos ,ATA,América-MG,2,"1,00",0,"0,00","0,00","0,00",0,0,0,0,0,0,0,0,0,0,0,0,0,0,0,0,0,0
Marcelinho ,ATA,Grêmio,2,"4,00",0,"0,00","0,00","0,00",0,0,0,0,0,0,0,0,0,0,0,0,0,0,0,0,0,0
Aníbal ,ATA,Palmeiras,2,"1,00",0,"0,00","0,00","0,00",0,0,0,0,0,0,0,0,0,0,0,0,0,0,0,0,0,0
Rafael França ,ZAG,Vasco,2,"1,00",0,"0,00","0,00","0,00",0,0,0,0,0,0,0,0,0,0,0,0,0,0,0,0,0,0
Miullen ,ATA,Chapecoense,2,"2,00",0,"0,00","0,00","0,00",0,0,0,0,0,0,0,0,0,0,0,0,0,0,0,0,0,0
Carneiro ,ATA,São Paulo,2,"4,00",0,"0,00","0,00","0,00",0,0,0,0,0,0,0,0,0,0,0,0,0,0,0,0,0,0
Caíque França ,GOL,Corinthians,2,"2,00",0,"0,00","0,00","0,00",0,0,0,0,0,0,0,0,0,0,0,0,0,0,0,0,0,0
Alex ,MEI,Atlético-PR,2,"1,00",0,"0,00","0,00","0,00",0,0,0,0,0,0,0,0,0,0,0,0,0,0,0,0,0,0
Flávio ,ATA,Vitória,2,"2,00",0,"0,00","0,00","0,00",0,0,0,0,0,0,0,0,0,0,0,0,0,0,0,0,0,0
Lucas ,MEI,Vasco,2,"3,00",0,"0,00","0,00","0,00",0,0,0,0,0,0,0,0,0,0,0,0,0,0,0,0,0,0
João Pedro Ribeiro ,LAT,Bahia,2,"1,00",0,"0,00","0,00","0,00",0,0,0,0,0,0,0,0,0,0,0,0,0,0,0,0,0,0
Carlos Augusto ,LAT,Corinthians,2,"1,00",0,"0,00","0,00","0,00",0,0,0,0,0,0,0,0,0,0,0,0,0,0,0,0,0,0
Lucas Paes ,GOL,São Paulo,2,"1,00",0,"0,00","0,00","0,00",0,0,0,0,0,0,0,0,0,0,0,0,0,0,0,0,0,0
Luan Cândido ,LAT,Palmeiras,2,"1,00",0,"0,00","0,00","0,00",0,0,0,0,0,0,0,0,0,0,0,0,0,0,0,0,0,0
Keiller ,GOL,Internacional,2,"3,00",0,"0,00","0,00","0,00",0,0,0,0,0,0,0,0,0,0,0,0,0,0,0,0,0,0
Lucas França ,GOL,Cruzeiro,2,"3,00",0,"0,00","0,00","0,00",0,0,0,0,0,0,0,0,0,0,0,0,0,0,0,0,0,0
Gabriel Calabres ,MEI,Santos,2,"3,00",0,"0,00","0,00","0,00",0,0,0,0,0,0,0,0,0,0,0,0,0,0,0,0,0,0
Tiago Cunha ,ATA,Ceará,2,"1,00",0,"0,00","0,00","0,00",0,0,0,0,0,0,0,0,0,0,0,0,0,0,0,0,0,0
Cleiton ,GOL,Atlético-MG,2,"2,00",0,"0,00","0,00","0,00",0,0,0,0,0,0,0,0,0,0,0,0,0,0,0,0,0,0
Toró ,ATA,São Paulo,2,"3,00",0,"0,00","0,00","0,00",0,0,0,0,0,0,0,0,0,0,0,0,0,0,0,0,0,0
Yuri ,MEI,Santos,2,"4,00",0,"0,00","0,00","0,00",0,0,0,0,0,0,0,0,0,0,0,0,0,0,0,0,0,0
Guilherme Nunes ,MEI,Santos,2,"1,00",0,"0,00","0,00","0,00",0,0,0,0,0,0,0,0,0,0,0,0,0,0,0,0,0,0
Helerson ,ZAG,Botafogo,2,"1,00",0,"0,00","0,00","0,00",0,0,0,0,0,0,0,0,0,0,0,0,0,0,0,0,0,0
Cascardo ,LAT,Atlético-PR,2,"4,00",0,"0,00","0,00","0,00",0,0,0,0,0,0,0,0,0,0,0,0,0,0,0,0,0,0
Iago Maidana ,ZAG,Atlético-MG,2,"4,00",0,"0,00","0,00","0,00",0,0,0,0,0,0,0,0,0,0,0,0,0,0,0,0,0,0
Murillo Lopes ,GOL,Paraná,2,"2,00",0,"0,00","0,00","0,00",0,0,0,0,0,0,0,0,0,0,0,0,0,0,0,0,0,0
Igor Campos ,GOL,Chapecoense,2,"1,00",0,"0,00","0,00","0,00",0,0,0,0,0,0,0,0,0,0,0,0,0,0,0,0,0,0
Fabrício Bruno ,ZAG,Chapecoense,5,"6,00",0,"0,00","0,00","0,00",0,0,0,0,0,0,0,0,0,0,0,0,0,0,0,0,0,0
Marco Saravia ,ZAG,Grêmio,2,"1,00",0,"0,00","0,00","0,00",0,0,0,0,0,0,0,0,0,0,0,0,0,0,0,0,0,0
Mendonça ,ZAG,Grêmio,2,"1,00",0,"0,00","0,00","0,00",0,0,0,0,0,0,0,0,0,0,0,0,0,0,0,0,0,0
Santiago ,ZAG,Grêmio,2,"1,00",0,"0,00","0,00","0,00",0,0,0,0,0,0,0,0,0,0,0,0,0,0,0,0,0,0
Rodrigo Ancheta ,MEI,Grêmio,2,"1,00",0,"0,00","0,00","0,00",0,0,0,0,0,0,0,0,0,0,0,0,0,0,0,0,0,0
Jean ,GOL,São Paulo,2,"8,00",0,"0,00","0,00","0,00",0,0,0,0,0,0,0,0,0,0,0,0,0,0,0,0,0,0
Evandro ,LAT,Sport,3,"3,00",0,"0,00","0,00","0,00",0,0,0,0,0,0,0,0,0,0,0,0,0,0,0,0,0,0
Isaque ,MEI,Grêmio,2,"2,00",0,"0,00","0,00","0,00",0,0,0,0,0,0,0,0,0,0,0,0,0,0,0,0,0,0
Guilherme Vieira ,ATA,Palmeiras,2,"1,00",0,"0,00","0,00","0,00",0,0,0,0,0,0,0,0,0,0,0,0,0,0,0,0,0,0
Ronaldo ,GOL,Vitória,3,"3,00",0,"0,00","0,00","0,00",0,0,0,0,0,0,0,0,0,0,0,0,0,0,0,0,0,0
Paulo Henrique ,MEI,São Paulo,2,"1,00",0,"0,00","0,00","0,00",0,0,0,0,0,0,0,0,0,0,0,0,0,0,0,0,0,0
Vitor Naum ,ATA,Atlético-PR,2,"1,00",0,"0,00","0,00","0,00",0,0,0,0,0,0,0,0,0,0,0,0,0,0,0,0,0,0
Hugo Souza ,GOL,Flamengo,2,"1,00",0,"0,00","0,00","0,00",0,0,0,0,0,0,0,0,0,0,0,0,0,0,0,0,0,0
Pepê ,MEI,Flamengo,2,"2,00",0,"0,00","0,00","0,00",0,0,0,0,0,0,0,0,0,0,0,0,0,0,0,0,0,0
Caju ,LAT,Santos,2,"5,00",0,"0,00","0,00","0,00",0,0,0,0,0,0,0,0,0,0,0,0,0,0,0,0,0,0
Saulo ,GOL,Botafogo,2,"1,00",0,"0,00","0,00","0,00",0,0,0,0,0,0,0,0,0,0,0,0,0,0,0,0,0,0
Michael ,LAT,Flamengo,2,"1,00",0,"0,00","0,00","0,00",0,0,0,0,0,0,0,0,0,0,0,0,0,0,0,0,0,0
Wendel ,ATA,Flamengo,2,"1,00",0,"0,00","0,00","0,00",0,0,0,0,0,0,0,0,0,0,0,0,0,0,0,0,0,0
Matheusinho ,MEI,América-MG,5,"4,00",0,"0,00","0,00","0,00",0,0,0,0,0,0,0,0,0,0,0,0,0,0,0,0,0,0
Balbino ,MEI,Grêmio,2,"2,00",0,"0,00","0,00","0,00",0,0,0,0,0,0,0,0,0,0,0,0,0,0,0,0,0,0
Richard ,MEI,Internacional,2,"1,00",0,"0,00","0,00","0,00",0,0,0,0,0,0,0,0,0,0,0,0,0,0,0,0,0,0
Robson Bambu ,ZAG,Santos,2,"1,00",0,"0,00","0,00","0,00",0,0,0,0,0,0,0,0,0,0,0,0,0,0,0,0,0,0
Nickson ,MEI,Vitória,2,"1,48",1,"0,00","0,00","0,00",0,0,0,0,0,0,0,0,0,0,0,0,0,0,0,0,0,0
Lucas Lourenço ,MEI,Santos,2,"1,00",0,"0,00","0,00","0,00",0,0,0,0,0,0,0,0,0,0,0,0,0,0,0,0,0,0
Hugo Moura ,MEI,Flamengo,2,"2,00",0,"0,00","0,00","0,00",0,0,0,0,0,0,0,0,0,0,0,0,0,0,0,0,0,0
Vitor Gabriel ,ATA,Flamengo,2,"1,00",0,"0,00","0,00","0,00",0,0,0,0,0,0,0,0,0,0,0,0,0,0,0,0,0,0
Leandrinho ,MEI,Botafogo,2,"3,00",0,"0,00","0,00","0,00",0,0,0,0,0,0,0,0,0,0,0,0,0,0,0,0,0,0
Caio ,MEI,Fluminense,2,"2,00",0,"0,00","0,00","0,00",0,0,0,0,0,0,0,0,0,0,0,0,0,0,0,0,0,0
Ramon ,LAT,Flamengo,2,"1,00",0,"0,00","0,00","0,00",0,0,0,0,0,0,0,0,0,0,0,0,0,0,0,0,0,0
Matheus Dantas ,ZAG,Flamengo,2,"1,00",0,"0,00","0,00","0,00",0,0,0,0,0,0,0,0,0,0,0,0,0,0,0,0,0,0
Bruno Henrique ,ATA,Santos,2,"9,57",3,"0,00","0,00","0,00",0,0,0,0,4,3,0,0,0,0,0,0,1,0,0,3,0,3
Patrick ,ZAG,Flamengo,2,"1,00",0,"0,00","0,00","0,00",0,0,0,0,0,0,0,0,0,0,0,0,0,0,0,0,0,0
Bruno Bispo ,ZAG,Vitória,2,"5,00",0,"0,00","0,00","0,00",0,0,0,0,0,0,0,0,0,0,0,0,0,0,0,0,0,0
Thiago ,GOL,Flamengo,2,"4,00",0,"0,00","0,00","0,00",0,0,0,0,0,0,0,0,0,0,0,0,0,0,0,0,0,0
Dudu ,ATA,Fluminense,2,"2,00",0,"0,00","0,00","0,00",0,0,0,0,0,0,0,0,0,0,0,0,0,0,0,0,0,0
Léo Gomes ,MEI,Vitória,2,"1,00",0,"0,00","0,00","0,00",0,0,0,0,0,0,0,0,0,0,0,0,0,0,0,0,0,0
João Vitor ,LAT,Fluminense,2,"1,00",0,"0,00","0,00","0,00",0,0,0,0,0,0,0,0,0,0,0,0,0,0,0,0,0,0
Éder  ,ZAG,Atlético-PR,2,"3,00",0,"0,00","0,00","0,00",0,0,0,0,0,0,0,0,0,0,0,0,0,0,0,0,0,0
Demethryus ,MEI,Atlético-PR,2,"1,00",0,"0,00","0,00","0,00",0,0,0,0,0,0,0,0,0,0,0,0,0,0,0,0,0,0
Lucas Perri ,GOL,São Paulo,2,"1,00",0,"0,00","0,00","0,00",0,0,0,0,0,0,0,0,0,0,0,0,0,0,0,0,0,0
Gabriel Félix ,GOL,Vasco,2,"3,00",0,"0,00","0,00","0,00",0,0,0,0,0,0,0,0,0,0,0,0,0,0,0,0,0,0
Giovanny  ,ATA,Atlético-PR,2,"4,00",0,"0,00","0,00","0,00",0,0,0,0,0,0,0,0,0,0,0,0,0,0,0,0,0,0
Guilherme Ribeiro ,MEI,Atlético-PR,2,"1,00",0,"0,00","0,00","0,00",0,0,0,0,0,0,0,0,0,0,0,0,0,0,0,0,0,0
Luis Henrique ,ATA,Grêmio,2,"2,00",0,"0,00","0,00","0,00",0,0,0,0,0,0,0,0,0,0,0,0,0,0,0,0,0,0
Rafinha ,MEI,Ceará,2,"3,00",0,"0,00","0,00","0,00",0,0,0,0,0,0,0,0,0,0,0,0,0,0,0,0,0,0
De Amores ,GOL,Fluminense,2,"3,00",0,"0,00","0,00","0,00",0,0,0,0,0,0,0,0,0,0,0,0,0,0,0,0,0,0
Juninho ,ZAG,Atlético-MG,3,"6,00",0,"0,00","0,00","0,00",0,0,0,0,0,0,0,0,0,0,0,0,0,0,0,0,0,0
Adryelson ,ZAG,Sport,2,"3,00",0,"0,00","0,00","0,00",0,0,0,0,0,0,0,0,0,0,0,0,0,0,0,0,0,0
Diogo Vitor ,ATA,Santos,4,"2,00",0,"0,00","0,00","0,00",0,0,0,0,0,0,0,0,0,0,0,0,0,0,0,0,0,0
Raul ,MEI,Vasco,2,"2,00",0,"0,00","0,00","0,00",0,0,0,0,0,0,0,0,0,0,0,0,0,0,0,0,0,0
Felipe Jonatan ,LAT,Ceará,2,"1,00",0,"0,00","0,00","0,00",0,0,0,0,0,0,0,0,0,0,0,0,0,0,0,0,0,0
Michel ,LAT,América-MG,2,"2,00",0,"0,00","0,00","0,00",0,0,0,0,0,0,0,0,0,0,0,0,0,0,0,0,0,0
Báez ,LAT,Paraná,2,"1,77",2,"0,00","0,00","0,00",0,0,0,0,1,0,0,0,0,0,0,0,0,0,0,1,0,0
Yan ,MEI,Palmeiras,2,"1,00",0,"0,00","0,00","0,00",0,0,0,0,0,0,0,0,0,0,0,0,0,0,0,0,0,0
Kaio ,MEI,Grêmio,2,"3,00",0,"0,00","0,00","0,00",0,0,0,0,0,0,0,0,0,0,0,0,0,0,0,0,0,0
Léo Tilica ,ATA,Grêmio,2,"2,00",0,"0,00","0,00","0,00",0,0,0,0,0,0,0,0,0,0,0,0,0,0,0,0,0,0
Diego Ferreira ,LAT,Atlético-PR,2,"3,00",0,"0,00","0,00","0,00",0,0,0,0,0,0,0,0,0,0,0,0,0,0,0,0,0,0
Ronaldo ,MEI,Flamengo,2,"3,00",0,"0,00","0,00","0,00",0,0,0,0,0,0,0,0,0,0,0,0,0,0,0,0,0,0
Rodrigo Carioca ,ATA,Paraná,2,"1,00",0,"0,00","0,00","0,00",0,0,0,0,0,0,0,0,0,0,0,0,0,0,0,0,0,0
Vitor Eudes ,GOL,Cruzeiro,2,"1,00",0,"0,00","0,00","0,00",0,0,0,0,0,0,0,0,0,0,0,0,0,0,0,0,0,0
John Victor ,GOL,Santos,2,"1,00",0,"0,00","0,00","0,00",0,0,0,0,0,0,0,0,0,0,0,0,0,0,0,0,0,0
Maurício ,MEI,Ceará,2,"1,00",0,"0,00","0,00","0,00",0,0,0,0,0,0,0,0,0,0,0,0,0,0,0,0,0,0
Matheus Lira ,MEI,Ceará,2,"1,00",0,"0,00","0,00","0,00",0,0,0,0,0,0,0,0,0,0,0,0,0,0,0,0,0,0
Warley ,MEI,Paraná,2,"1,00",0,"0,00","0,00","0,00",0,0,0,0,0,0,0,0,0,0,0,0,0,0,0,0,0,0
Mikael ,ATA,Sport,2,"1,00",0,"0,00","0,00","0,00",0,0,0,0,0,0,0,0,0,0,0,0,0,0,0,0,0,0
Lucas Halter ,ZAG,Atlético-PR,2,"1,00",0,"0,00","0,00","0,00",0,0,0,0,0,0,0,0,0,0,0,0,0,0,0,0,0,0
Bruno Leite ,MEI,Atlético-PR,2,"1,00",0,"0,00","0,00","0,00",0,0,0,0,0,0,0,0,0,0,0,0,0,0,0,0,0,0
Lucas Ferreira ,GOL,Sport,2,"2,00",0,"0,00","0,00","0,00",0,0,0,0,0,0,0,0,0,0,0,0,0,0,0,0,0,0
Gabriel ,GOL,Atlético-PR,2,"1,00",0,"0,00","0,00","0,00",0,0,0,0,0,0,0,0,0,0,0,0,0,0,0,0,0,0
Ronaldo ,LAT,América-MG,2,"1,00",0,"0,00","0,00","0,00",0,0,0,0,0,0,0,0,0,0,0,0,0,0,0,0,0,0
Guilherme Guedes ,LAT,Grêmio,2,"1,00",0,"0,00","0,00","0,00",0,0,0,0,0,0,0,0,0,0,0,0,0,0,0,0,0,0
Fernando ,ATA,Palmeiras,2,"2,00",0,"0,00","0,00","0,00",0,0,0,0,0,0,0,0,0,0,0,0,0,0,0,0,0,0
Filipe ,GOL,Corinthians,2,"1,00",0,"0,00","0,00","0,00",0,0,0,0,0,0,0,0,0,0,0,0,0,0,0,0,0,0
Matheus Guedes ,ZAG,Santos,2,"2,00",0,"0,00","0,00","0,00",0,0,0,0,0,0,0,0,0,0,0,0,0,0,0,0,0,0
Malcoon ,LAT,América-MG,2,"2,00",0,"0,00","0,00","0,00",0,0,0,0,0,0,0,0,0,0,0,0,0,0,0,0,0,0
Matheus Henrique ,MEI,Grêmio,2,"1,00",0,"0,00","0,00","0,00",0,0,0,0,0,0,0,0,0,0,0,0,0,0,0,0,0,0
Bissoli ,ATA,São Paulo,2,"2,00",0,"0,00","0,00","0,00",0,0,0,0,0,0,0,0,0,0,0,0,0,0,0,0,0,0
Yago Darub ,GOL,Flamengo,2,"1,00",0,"0,00","0,00","0,00",0,0,0,0,0,0,0,0,0,0,0,0,0,0,0,0,0,0
Kevin ,LAT,Atlético-MG,2,"1,00",0,"0,00","0,00","0,00",0,0,0,0,0,0,0,0,0,0,0,0,0,0,0,0,0,0
Diego ,GOL,Vitória,2,"1,00",0,"0,00","0,00","0,00",0,0,0,0,0,0,0,0,0,0,0,0,0,0,0,0,0,0
Fernando Leal ,GOL,América-MG,2,"3,00",0,"0,00","0,00","0,00",0,0,0,0,0,0,0,0,0,0,0,0,0,0,0,0,0,0
Macula ,ATA,Fluminense,2,"1,00",0,"0,00","0,00","0,00",0,0,0,0,0,0,0,0,0,0,0,0,0,0,0,0,0,0
Luis David ,ATA,Ceará,2,"1,00",0,"0,00","0,00","0,00",0,0,0,0,0,0,0,0,0,0,0,0,0,0,0,0,0,0
Thiaguinho ,MEI,Corinthians,2,"3,00",0,"0,00","0,00","0,00",0,0,0,0,0,0,0,0,0,0,0,0,0,0,0,0,0,0
Léo Xavier ,ZAG,Vitória,2,"1,00",0,"0,00","0,00","0,00",0,0,0,0,0,0,0,0,0,0,0,0,0,0,0,0,0,0
Fernando Castro ,GOL,Bahia,2,"1,00",0,"0,00","0,00","0,00",0,0,0,0,0,0,0,0,0,0,0,0,0,0,0,0,0,0
Jonathan ,LAT,Botafogo,2,"2,00",0,"0,00","0,00","0,00",0,0,0,0,0,0,0,0,0,0,0,0,0,0,0,0,0,0
Cacá ,ZAG,Cruzeiro,2,"1,00",0,"0,00","0,00","0,00",0,0,0,0,0,0,0,0,0,0,0,0,0,0,0,0,0,0
Rodrigo Fernandes ,MEI,Vasco,2,"1,00",0,"0,00","0,00","0,00",0,0,0,0,0,0,0,0,0,0,0,0,0,0,0,0,0,0
Alex Baumjohann ,MEI,Vitória,2,"1,65",3,"-0,10","0,00","0,00",0,0,0,0,1,1,1,0,0,0,0,0,0,0,0,5,0,1
Samuel Xavier ,LAT,Ceará,2,"3,30",3,"-0,10","0,00","0,00",3,0,0,0,6,0,0,0,0,0,0,0,1,0,0,5,0,11
Hygor ,ATA,Sport,2,"0,75",3,"-0,17","0,00","0,05",0,0,0,0,1,0,0,0,0,0,0,0,0,0,0,1,1,0
Reina ,MEI,Ceará,2,"1,67",4,"-0,20","-0,80","-0,17",0,0,0,0,2,0,1,0,0,0,0,0,0,0,0,3,0,5
Brenner ,ATA,Internacional,2,"0,74",4,"-0,20","0,00","0,00",1,0,0,0,3,0,1,0,0,0,0,0,2,0,0,2,0,0
Leandro Donizete ,MEI,América-MG,2,"1,49",5,"-0,24","0,00","0,00",6,0,0,0,6,0,2,0,0,0,0,1,1,0,0,10,0,12
Airton ,MEI,Fluminense,2,"2,92",1,"-0,30","0,00","0,00",0,0,0,0,0,0,0,0,0,0,0,0,0,0,0,0,0,1
Marquinhos Gabriel ,MEI,Corinthians,2,"2,60",7,"-0,30","0,50","0,38",0,0,0,0,5,2,0,0,0,0,0,0,1,0,0,3,0,9
David ,ATA,Cruzeiro,5,"4,02",2,"-0,30","0,00","0,00",0,0,0,0,1,0,1,0,0,0,0,0,0,0,0,0,1,6
Bergson ,ATA,Atlético-PR,2,"3,48",3,"-0,33","0,00","-0,09",0,0,0,0,0,0,0,0,0,0,0,0,0,0,0,2,0,0
Erik ,ATA,Atlético-MG,2,"1,78",5,"-0,34","-0,10","-0,14",0,0,0,0,4,1,0,0,0,0,0,0,0,0,0,5,1,5
Rodrigo Andrade ,MEI,Vitória,4,"0,75",5,"-0,34","-1,60","-0,09",5,0,0,0,4,1,1,0,0,0,0,0,3,0,0,9,0,9
Kanu ,ZAG,Vitória,3,"1,21",8,"-0,35","-3,10","-0,75",9,0,0,0,0,2,0,0,0,0,0,0,4,0,0,13,2,8
Deyverson ,ATA,Palmeiras,2,"1,88",5,"-0,38","0,00","0,00",1,0,0,0,0,0,0,0,0,0,0,0,1,0,0,1,0,3
Wesley Dias ,MEI,Paraná,2,"0,75",5,"-0,40","-3,00","-0,75",3,0,0,0,6,0,0,0,0,0,0,0,1,0,0,9,0,10
Martín Silva ,GOL,Vasco,2,"6,91",5,"-0,40","0,00","0,00",0,0,0,0,0,0,0,0,4,0,0,0,0,0,7,0,0,0
João Pedro ,MEI,Botafogo,2,"1,74",3,"-0,40","0,00","0,00",1,0,0,0,1,0,0,0,0,0,0,0,0,0,0,2,2,4
Elias ,GOL,Vitória,2,"2,44",4,"-0,45","-1,00","0,49",0,0,0,0,1,0,0,0,6,0,0,0,0,0,10,0,0,1
Renan Oliveira ,MEI,América-MG,2,"3,50",1,"-0,50","0,00","0,00",0,0,0,0,0,0,0,0,0,0,0,0,0,0,0,1,0,0
Mateus Norton ,MEI,Fluminense,2,"2,11",1,"-0,50","0,00","0,00",0,0,0,0,0,0,0,0,0,0,0,0,0,0,0,1,0,0
Camilo ,MEI,Internacional,2,"4,01",1,"-0,50","0,00","0,00",1,0,0,0,0,0,0,0,0,0,0,0,0,0,0,1,0,5
Fabrício ,MEI,Sport,2,"1,33",3,"-0,57","0,00","0,00",1,0,0,0,2,1,1,0,0,0,0,0,1,0,0,6,0,4
Jael ,ATA,Grêmio,5,"2,55",2,"-0,65","0,00","0,00",0,0,0,0,0,0,0,0,0,0,0,0,0,0,0,2,0,1
Riascos ,ATA,Vasco,2,"2,37",6,"-0,65","-0,30","-0,09",1,0,0,0,2,3,1,0,0,0,0,1,0,0,0,5,2,5
Araruna ,MEI,São Paulo,2,"2,07",1,"-0,70","0,00","0,00",0,0,0,0,1,0,0,0,0,0,0,0,0,0,0,0,0,4
Capixaba ,ATA,América-MG,2,"1,86",2,"-0,80","0,00","0,00",0,0,0,0,0,0,0,0,0,0,0,0,0,0,0,2,0,2
Juninho Capixaba ,LAT,Corinthians,2,"4,94",1,"-0,80","0,00","0,00",2,0,0,0,0,0,0,0,0,0,0,0,1,0,0,3,0,1
Naldo ,MEI,Ceará,2,"1,98",2,"-0,80","0,00","0,00",1,0,0,0,1,0,0,0,0,0,0,0,1,0,0,2,0,2
Luan ,MEI,Vitória,2,"1,23",1,"-0,80","0,00","0,00",0,0,0,0,0,0,0,0,0,0,0,0,0,0,0,1,0,1
Papagaio ,ATA,Palmeiras,2,"1,31",1,"-0,80","0,00","0,00",0,0,0,0,0,0,0,0,0,0,0,0,0,0,0,1,0,1
Juninho Piauiense ,ATA,Ceará,2,"2,22",2,"-0,90","-1,30","-0,55",1,0,0,0,0,0,0,0,0,0,0,0,1,0,0,2,0,1
Brenner ,ATA,São Paulo,2,"2,76",1,"-1,00","0,00","0,00",0,0,0,0,0,1,0,0,0,0,0,0,0,0,0,1,2,1
Bruno Silva ,MEI,Vasco,5,"0,96",3,"-1,17","0,00","0,00",2,0,0,0,2,1,0,0,0,0,0,0,1,0,0,6,0,11
Uendel ,LAT,Internacional,2,"4,17",1,"-1,20","0,00","0,00",0,0,0,0,0,0,0,0,0,0,0,0,0,0,0,0,0,4
Paulo Vitor ,ATA,Vasco,2,"2,68",1,"-1,30","0,00","0,00",0,0,0,0,1,0,0,0,0,0,0,0,0,0,0,3,0,1
Léo Ortiz ,ZAG,Sport,2,"3,10",1,"-1,50","0,00","0,00",1,0,0,0,0,0,0,0,0,0,0,0,1,0,0,2,0,0
Erazo ,ZAG,Vasco,3,"4,41",2,"-1,55","-1,40","-0,42",0,0,0,0,1,0,0,0,0,0,0,0,0,0,0,3,0,7
Wesley ,MEI,América-MG,2,"0,74",4,"-1,80","0,00","0,00",0,0,0,0,3,1,0,0,0,0,0,1,1,0,0,5,0,0
Mayke ,LAT,Palmeiras,2,"4,84",1,"-1,80","-1,80","-2,16",0,0,0,0,0,0,0,0,0,0,0,0,0,0,0,3,0,1
Fillipe Soutto ,MEI,Vitória,5,"3,75",1,"-2,30","0,00","0,00",1,0,0,0,1,0,0,0,0,0,0,0,1,0,0,4,0,1
Breno ,ZAG,Vasco,2,"3,22",2,"-2,45","0,00","0,00",2,0,0,0,2,0,0,0,0,0,0,1,1,0,0,2,0,3
Moresche ,MEI,Vasco,4,"0,74",2,"-2,90","0,00","0,00",0,0,0,0,0,0,0,0,0,0,0,1,0,0,0,1,0,1
Yago ,MEI,Atlético-MG,2,"0,69",1,"-3,00","0,00","0,00",0,0,0,0,0,0,0,0,0,0,0,0,1,0,0,2,0,0
Barreto ,MEI,Chapecoense,2,"0,90",1,"-3,00","-3,00","-2,10",0,0,0,0,0,0,0,0,0,0,0,0,1,0,0,2,0,0
David ,GOL,Paraná,2,"0,73",3,"-3,20","0,00","0,00",0,0,0,0,0,0,0,0,1,0,0,0,0,0,6,0,0,2
Felipe Alves ,GOL,Atlético-PR,3,"0,78",1,"-3,30","-3,30","-1,22",0,0,0,0,0,0,0,0,1,0,0,0,0,0,3,0,0,1
Luis Carlos ,GOL,Paraná,2,"0,70",1,"-4,00","0,00","0,00",0,0,0,0,0,0,0,0,0,0,0,0,0,0,2,0,0,0
Ítalo ,ATA,Bahia,2,"0,73",1,"-4,50","0,00","0,00",1,0,0,0,0,0,0,0,0,0,0,1,0,0,0,2,0,0
Agenor ,GOL,Sport,2,"0,69",1,"-6,00","0,00","0,00",0,0,0,0,0,0,0,0,0,0,0,0,0,0,3,0,0,0
César ,GOL,Flamengo,2,"3,35",1,"-6,60","0,00","0,00",0,0,0,0,0,0,0,0,0,0,0,0,0,0,3,0,0,2
