round,fitness,name,position,team,situation,price,meatches,average,last_score,difference,disarms,goals,assists,no_goals,fouls_suffered,strikes_out,strikes_defended,strikes_post,difficult_defense,penalty_defense,own_goal,red_card,yellow_card,goal_suffered,penalty_lost,fouls_commited,offsides,wrong_pass
37,1.7532593208406355,Abel Braga ,TEC,Fluminense,3,"11,68",36,"3,12","2,35","-0,10",0,0,0,0,0,0,0,0,0,0,0,0,0,0,0,0,0,0
37,1.7532593208406355,Jordi ,GOL,Vasco,2,"2,81",1,"-2,00","0,00","0,00",0,0,0,0,0,0,0,0,0,0,0,0,0,0,1,0,0,0
37,1.7532593208406355,Romercio ,ZAG,Coritiba,2,"1,63",1,"0,20","0,00","0,00",0,0,0,0,0,0,1,0,0,0,0,0,0,0,0,1,0,1
37,1.7532593208406355,Reynaldo ,ZAG,Ponte Preta,2,"2,00",0,"0,00","0,00","0,00",0,0,0,0,0,0,0,0,0,0,0,0,0,0,0,0,0,0
37,1.7532593208406355,Apodi ,LAT,Chapecoense,3,"10,26",34,"3,70","14,20","1,07",40,1,2,11,69,16,10,1,0,0,0,0,10,0,0,61,2,76
37,1.7532593208406355,Eduardo ,LAT,Atlético-GO,3,"0,71",1,"-0,90","-0,90","-0,29",0,0,0,0,1,0,0,0,0,0,0,0,0,0,0,1,0,3
37,1.7532593208406355,Michel  ,MEI,Grêmio,2,"8,87",22,"4,88","0,00","0,00",59,5,0,0,25,14,3,0,0,0,0,0,7,0,0,50,2,61
37,1.7532593208406355,Nadson ,MEI,Chapecoense,5,"0,99",6,"0,98","1,70","-0,13",2,0,0,0,3,2,1,0,0,0,0,0,0,0,0,1,0,3
37,1.7532593208406355,Thiago Lopes ,MEI,Coritiba,2,"4,00",0,"0,00","0,00","0,00",0,0,0,0,0,0,0,0,0,0,0,0,0,0,0,0,0,0
37,1.7532593208406355,Arthur  ,ATA,Chapecoense,3,"11,21",34,"4,92","-0,30","-0,27",38,8,6,0,68,29,18,2,0,0,0,0,6,0,0,58,12,78
37,1.7532593208406355,Matheus Peixoto ,ATA,Bahia,2,"1,00",0,"0,00","0,00","0,00",0,0,0,0,0,0,0,0,0,0,0,0,0,0,0,0,0,0
37,1.7532593208406355,Lucca ,ATA,Ponte Preta,3,"20,75",35,"5,61","8,20","-0,65",28,13,2,0,111,34,30,0,0,0,0,0,6,2,0,45,11,92
0,1.7532593208406355,Abel Braga ,TEC,Fluminense,3,"14,12",1,"4,96","4,96","-0,88",0,0,0,0,0,0,0,0,0,0,0,0,0,0,0,0,0,0
0,1.7532593208406355,Jordi ,GOL,Vasco,2,"4,00",0,"0,00","0,00","0,00",0,0,0,0,0,0,0,0,0,0,0,0,0,0,0,0,0,0
0,1.7532593208406355,Romercio ,ZAG,Coritiba,2,"2,00",0,"0,00","0,00","0,00",0,0,0,0,0,0,0,0,0,0,0,0,0,0,0,0,0,0
0,1.7532593208406355,Reynaldo ,ZAG,Ponte Preta,2,"2,00",0,"0,00","0,00","0,00",0,0,0,0,0,0,0,0,0,0,0,0,0,0,0,0,0,0
0,1.7532593208406355,Apodi ,LAT,Chapecoense,3,"4,88",1,"0,90","0,90","-1,12",1,0,0,0,4,0,0,0,0,0,0,0,0,0,0,4,1,1
0,1.7532593208406355,Eduardo ,LAT,Atlético-GO,3,"0,71",1,"-0,90","-0,90","-0,29",0,0,0,0,1,0,0,0,0,0,0,0,0,0,0,1,0,3
0,1.7532593208406355,Michel  ,MEI,Grêmio,3,"4,60",1,"3,50","3,50","1,60",2,0,0,0,1,1,0,0,0,0,0,0,0,0,0,1,0,2
0,1.7532593208406355,Nadson ,MEI,Chapecoense,2,"0,85",1,"-0,80","-0,80","-1,15",0,0,0,0,0,0,0,0,0,0,0,0,0,0,0,1,0,1
0,1.7532593208406355,Thiago Lopes ,MEI,Coritiba,2,"4,00",0,"0,00","0,00","0,00",0,0,0,0,0,0,0,0,0,0,0,0,0,0,0,0,0,0
0,1.7532593208406355,Arthur  ,ATA,Chapecoense,3,"4,46",1,"2,30","2,30","0,46",0,0,0,0,1,1,0,1,0,0,0,0,0,0,0,1,2,3
0,1.7532593208406355,Matheus Peixoto ,ATA,Bahia,2,"1,00",0,"0,00","0,00","0,00",0,0,0,0,0,0,0,0,0,0,0,0,0,0,0,0,0,0
0,1.7532593208406355,Lucca ,ATA,Ponte Preta,3,"14,78",1,"13,90","13,90","7,78",3,1,0,0,2,1,1,0,0,0,0,0,0,0,0,1,1,3
1,1.7532593208406355,Abel Braga ,TEC,Fluminense,3,"12,66",2,"3,50","2,04","-1,46",0,0,0,0,0,0,0,0,0,0,0,0,0,0,0,0,0,0
1,1.7532593208406355,Jordi ,GOL,Vasco,2,"4,00",0,"0,00","0,00","0,00",0,0,0,0,0,0,0,0,0,0,0,0,0,0,0,0,0,0
1,1.7532593208406355,Romercio ,ZAG,Coritiba,2,"2,00",0,"0,00","0,00","0,00",0,0,0,0,0,0,0,0,0,0,0,0,0,0,0,0,0,0
1,1.7532593208406355,Reynaldo ,ZAG,Ponte Preta,2,"2,00",0,"0,00","0,00","0,00",0,0,0,0,0,0,0,0,0,0,0,0,0,0,0,0,0,0
1,1.7532593208406355,Apodi ,LAT,Chapecoense,3,"6,28",2,"3,25","5,60","1,40",2,0,0,1,5,0,0,0,0,0,0,0,0,0,0,6,1,3
1,1.7532593208406355,Eduardo ,LAT,Atlético-GO,3,"0,71",1,"-0,90","-0,90","-0,29",0,0,0,0,1,0,0,0,0,0,0,0,0,0,0,1,0,3
1,1.7532593208406355,Michel  ,MEI,Grêmio,3,"3,99",2,"1,30","-0,90","-0,61",2,0,0,0,3,1,0,0,0,0,0,0,0,0,0,3,0,5
1,1.7532593208406355,Nadson ,MEI,Chapecoense,2,"0,85",1,"-0,80","-0,80","-1,15",0,0,0,0,0,0,0,0,0,0,0,0,0,0,0,1,0,1
1,1.7532593208406355,Thiago Lopes ,MEI,Coritiba,2,"4,00",0,"0,00","0,00","0,00",0,0,0,0,0,0,0,0,0,0,0,0,0,0,0,0,0,0
1,1.7532593208406355,Arthur  ,ATA,Chapecoense,3,"5,11",2,"2,50","2,70","0,65",0,0,0,0,4,1,2,1,0,0,0,0,0,0,0,2,2,4
1,1.7532593208406355,Matheus Peixoto ,ATA,Bahia,2,"1,00",0,"0,00","0,00","0,00",0,0,0,0,0,0,0,0,0,0,0,0,0,0,0,0,0,0
1,1.7532593208406355,Lucca ,ATA,Ponte Preta,3,"15,25",2,"7,40","0,90","0,47",3,1,0,0,5,1,2,0,0,0,0,0,0,0,0,3,1,5
2,6.720833333333332,Marcelo Cabo ,TEC,Atlético-GO,3,"4,04",3,"1,95","2,24","0,46",0,0,0,0,0,0,0,0,0,0,0,0,0,0,0,0,0,0
2,6.720833333333332,Martín Silva ,GOL,Vasco,3,"8,61",3,"0,57","-1,00","-1,29",0,0,0,0,0,0,0,0,6,0,0,0,1,0,7,0,0,1
2,6.720833333333332,Breno ,ZAG,São Paulo,2,"4,00",0,"0,00","0,00","0,00",0,0,0,0,0,0,0,0,0,0,0,0,0,0,0,0,0,0
2,6.720833333333332,Marcus Winícius ,ZAG,Atlético-GO,2,"3,00",0,"0,00","0,00","0,00",0,0,0,0,0,0,0,0,0,0,0,0,0,0,0,0,0,0
2,6.720833333333332,Jeferson ,LAT,Ponte Preta,2,"5,00",0,"0,00","0,00","0,00",0,0,0,0,0,0,0,0,0,0,0,0,0,0,0,0,0,0
2,6.720833333333332,Matheus Reis ,LAT,Bahia,2,"2,28",2,"-1,10","-1,90","-1,75",0,0,0,0,4,0,0,0,0,0,0,0,1,0,0,2,0,4
2,6.720833333333332,Alex ,MEI,Cruzeiro,2,"3,30",1,"4,20","0,00","0,00",2,0,0,0,2,1,0,0,0,0,0,0,0,0,0,0,0,3
2,6.720833333333332,Abuda ,MEI,Atlético-GO,2,"6,00",0,"0,00","0,00","0,00",0,0,0,0,0,0,0,0,0,0,0,0,0,0,0,0,0,0
2,6.720833333333332,Rodrigo Lindoso ,MEI,Botafogo,3,"10,55",2,"9,30","3,00","-0,67",7,1,0,0,2,0,0,0,0,0,0,0,0,0,0,1,0,6
2,6.720833333333332,Everaldo ,ATA,Atlético-GO,3,"5,32",3,"1,40","-0,40","-0,58",0,0,0,0,1,1,6,0,0,0,0,0,0,0,0,2,1,5
2,6.720833333333332,Fernandinho ,ATA,Grêmio,2,"11,80",1,"21,10","21,10","5,80",1,2,0,0,8,0,0,0,0,0,0,0,0,0,0,0,0,2
2,6.720833333333332,Pedro ,ATA,Fluminense,2,"5,00",0,"0,00","0,00","0,00",0,0,0,0,0,0,0,0,0,0,0,0,0,0,0,0,0,0
3,7.875,Ney Franco ,TEC,Sport,3,"2,28",1,"-0,77","-0,77","-1,72",0,0,0,0,0,0,0,0,0,0,0,0,0,0,0,0,0,0
3,7.875,Cássio ,GOL,Corinthians,3,"9,69",4,"3,93","5,00","0,35",0,0,0,3,0,0,0,0,1,0,0,0,0,0,1,0,0,1
3,7.875,Breno ,ZAG,São Paulo,2,"4,00",0,"0,00","0,00","0,00",0,0,0,0,0,0,0,0,0,0,0,0,0,0,0,0,0,0
3,7.875,Marcus Winícius ,ZAG,Atlético-GO,2,"3,00",0,"0,00","0,00","0,00",0,0,0,0,0,0,0,0,0,0,0,0,0,0,0,0,0,0
3,7.875,Jeferson ,LAT,Ponte Preta,3,"5,19",1,"4,50","4,50","0,19",1,0,0,1,0,0,0,0,0,0,0,0,0,0,0,2,0,4
3,7.875,Matheus Reis ,LAT,Bahia,3,"4,19",3,"1,33","6,20","1,91",1,0,0,1,6,0,0,0,0,0,0,0,1,0,0,2,0,9
3,7.875,Alex ,MEI,Cruzeiro,2,"3,30",1,"4,20","0,00","0,00",2,0,0,0,2,1,0,0,0,0,0,0,0,0,0,0,0,3
3,7.875,Abuda ,MEI,Atlético-GO,2,"6,00",0,"0,00","0,00","0,00",0,0,0,0,0,0,0,0,0,0,0,0,0,0,0,0,0,0
3,7.875,Rodrigo Lindoso ,MEI,Botafogo,2,"10,55",2,"9,30","0,00","0,00",7,1,0,0,2,0,0,0,0,0,0,0,0,0,0,1,0,6
3,7.875,Everaldo ,ATA,Atlético-GO,3,"6,51",4,"2,20","4,60","1,19",1,0,0,0,5,2,7,0,0,0,0,0,0,0,0,3,1,6
3,7.875,Fernandinho ,ATA,Grêmio,2,"11,80",1,"21,10","0,00","0,00",1,2,0,0,8,0,0,0,0,0,0,0,0,0,0,0,0,2
3,7.875,Pedro ,ATA,Fluminense,2,"5,00",0,"0,00","0,00","0,00",0,0,0,0,0,0,0,0,0,0,0,0,0,0,0,0,0,0
4,12.002,Marcelo Cabo ,TEC,Atlético-GO,3,"3,25",1,"2,60","2,60","1,25",0,0,0,0,0,0,0,0,0,0,0,0,0,0,0,0,0,0
4,12.002,Martín Silva ,GOL,Vasco,3,"4,89",5,"-2,04","-7,30","-1,92",0,0,0,0,0,0,0,0,7,0,0,0,1,0,14,0,0,4
4,12.002,Vilson ,ZAG,Corinthians,2,"4,00",0,"0,00","0,00","0,00",0,0,0,0,0,0,0,0,0,0,0,0,0,0,0,0,0,0
4,12.002,Rafael Thyere ,ZAG,Grêmio,3,"5,62",3,"3,83","-0,50","-1,19",0,1,0,1,0,0,1,0,0,0,0,0,0,0,0,2,0,5
4,12.002,Capa ,LAT,Avaí,3,"10,60",5,"5,34","1,30","-1,94",8,0,1,2,13,3,1,0,0,0,0,0,0,0,0,3,2,30
4,12.002,Marcos Rocha ,LAT,Atlético-MG,5,"11,33",2,"3,35","0,00","0,00",4,0,1,0,3,1,0,0,0,0,0,0,0,0,0,5,0,16
4,12.002,Ariel Cabral ,MEI,Cruzeiro,3,"7,03",4,"3,13","3,90","0,64",9,0,0,0,8,2,0,0,0,0,0,0,1,0,0,4,0,14
4,12.002,Marlone ,MEI,Atlético-MG,2,"6,90",1,"0,20","0,20","-2,10",0,0,0,0,2,0,0,0,0,0,0,0,0,0,0,1,0,1
4,12.002,Zé Rafael  ,MEI,Bahia,3,"20,19",5,"9,82","3,70","-2,47",12,1,3,0,13,3,5,0,0,0,0,0,0,0,0,10,1,8
4,12.002,Arthur Gomes ,ATA,Santos,3,"2,32",1,"2,90","2,90","0,32",1,0,0,0,2,0,1,0,0,0,0,0,0,0,0,1,0,1
4,12.002,Fernandinho ,ATA,Grêmio,2,"11,80",1,"21,10","0,00","0,00",1,2,0,0,8,0,0,0,0,0,0,0,0,0,0,0,0,2
4,12.002,Pedro ,ATA,Fluminense,2,"5,00",0,"0,00","0,00","0,00",0,0,0,0,0,0,0,0,0,0,0,0,0,0,0,0,0,0
5,12.002,Marcelo Cabo ,TEC,Atlético-GO,3,"3,25",1,"2,60","2,60","1,25",0,0,0,0,0,0,0,0,0,0,0,0,0,0,0,0,0,0
5,12.002,Martín Silva ,GOL,Vasco,3,"5,01",6,"-2,03","-2,00","0,12",0,0,0,0,0,0,0,0,7,0,0,0,1,0,15,0,0,4
5,12.002,Vilson ,ZAG,Corinthians,2,"4,00",0,"0,00","0,00","0,00",0,0,0,0,0,0,0,0,0,0,0,0,0,0,0,0,0,0
5,12.002,Rafael Thyere ,ZAG,Grêmio,2,"5,62",3,"3,83","0,00","0,00",0,1,0,1,0,0,1,0,0,0,0,0,0,0,0,2,0,5
5,12.002,Capa ,LAT,Avaí,3,"11,03",6,"5,07","3,70","0,43",10,0,1,2,16,4,1,0,0,0,0,0,0,0,0,4,3,33
5,12.002,Marcos Rocha ,LAT,Atlético-MG,5,"11,33",2,"3,35","0,00","0,00",4,0,1,0,3,1,0,0,0,0,0,0,0,0,0,5,0,16
5,12.002,Ariel Cabral ,MEI,Cruzeiro,3,"6,35",5,"2,54","0,20","-0,68",10,0,0,0,9,2,0,0,0,0,0,0,1,0,0,5,0,19
5,12.002,Marlone ,MEI,Atlético-MG,2,"6,22",2,"-0,60","-1,40","-0,68",0,0,0,0,4,0,0,0,0,0,0,0,0,0,0,1,0,9
5,12.002,Zé Rafael  ,MEI,Bahia,3,"20,27",6,"8,98","4,80","0,08",14,1,3,0,16,4,7,0,0,0,0,0,0,0,0,12,1,14
5,12.002,Arthur Gomes ,ATA,Santos,2,"2,32",1,"2,90","0,00","0,00",1,0,0,0,2,0,1,0,0,0,0,0,0,0,0,1,0,1
5,12.002,Fernandinho ,ATA,Grêmio,2,"10,00",2,"11,75","2,40","-1,80",2,2,0,0,9,0,1,0,0,0,0,0,0,0,0,1,0,3
5,12.002,Pedro ,ATA,Fluminense,2,"5,00",0,"0,00","0,00","0,00",0,0,0,0,0,0,0,0,0,0,0,0,0,0,0,0,0,0
6,12.002,Marcelo Cabo ,TEC,Atlético-GO,3,"3,25",1,"2,60","2,60","1,25",0,0,0,0,0,0,0,0,0,0,0,0,0,0,0,0,0,0
6,12.002,Martín Silva ,GOL,Vasco,3,"7,68",7,"-0,17","11,00","2,67",0,0,0,0,0,0,0,0,12,0,0,0,1,0,17,0,0,4
6,12.002,Vilson ,ZAG,Corinthians,2,"4,00",0,"0,00","0,00","0,00",0,0,0,0,0,0,0,0,0,0,0,0,0,0,0,0,0,0
6,12.002,Rafael Thyere ,ZAG,Grêmio,2,"5,62",3,"3,83","0,00","0,00",0,1,0,1,0,0,1,0,0,0,0,0,0,0,0,2,0,5
6,12.002,Capa ,LAT,Avaí,3,"10,67",7,"4,63","2,00","-0,36",13,0,1,2,19,4,1,0,0,0,0,0,1,0,0,5,3,40
6,12.002,Marcos Rocha ,LAT,Atlético-MG,5,"11,33",2,"3,35","0,00","0,00",4,0,1,0,3,1,0,0,0,0,0,0,0,0,0,5,0,16
6,12.002,Ariel Cabral ,MEI,Cruzeiro,3,"6,51",6,"2,40","1,70","0,16",11,0,0,0,9,4,0,0,0,0,0,0,1,0,0,6,0,22
6,12.002,Marlone ,MEI,Atlético-MG,2,"6,22",3,"-0,30","0,30","0,00",0,0,0,0,4,2,0,0,0,0,0,0,0,0,0,1,1,11
6,12.002,Zé Rafael  ,MEI,Bahia,3,"19,62",7,"8,08","2,70","-0,65",17,1,3,0,18,5,8,0,0,0,0,0,1,0,0,17,1,16
6,12.002,Arthur Gomes ,ATA,Santos,2,"2,32",1,"2,90","0,00","0,00",1,0,0,0,2,0,1,0,0,0,0,0,0,0,0,1,0,1
6,12.002,Fernandinho ,ATA,Grêmio,2,"9,14",3,"7,53","-0,90","-0,86",3,2,0,0,10,0,1,0,0,0,0,0,1,0,0,2,0,5
6,12.002,Pedro ,ATA,Fluminense,2,"4,25",1,"1,80","1,80","-0,75",1,0,0,0,0,1,0,0,0,0,0,0,0,0,0,0,0,2
7,12.002,Marcelo Cabo ,TEC,Atlético-GO,3,"3,25",1,"2,60","2,60","1,25",0,0,0,0,0,0,0,0,0,0,0,0,0,0,0,0,0,0
7,12.002,Martín Silva ,GOL,Vasco,3,"8,47",8,"1,19","10,70","0,79",0,0,0,1,0,0,0,0,14,0,0,0,1,0,17,0,0,5
7,12.002,Vilson ,ZAG,Corinthians,2,"4,00",0,"0,00","0,00","0,00",0,0,0,0,0,0,0,0,0,0,0,0,0,0,0,0,0,0
7,12.002,Rafael Thyere ,ZAG,Grêmio,2,"5,65",4,"3,35","1,90","0,03",1,1,0,1,0,1,1,0,0,0,0,0,0,0,0,3,0,5
7,12.002,Capa ,LAT,Avaí,3,"11,05",8,"4,54","3,90","0,38",16,0,1,2,21,4,1,0,0,0,0,0,1,0,0,7,3,44
7,12.002,Marcos Rocha ,LAT,Atlético-MG,5,"11,33",2,"3,35","0,00","0,00",4,0,1,0,3,1,0,0,0,0,0,0,0,0,0,5,0,16
7,12.002,Ariel Cabral ,MEI,Cruzeiro,3,"6,47",7,"2,27","1,50","-0,04",12,0,0,0,11,5,0,0,0,0,0,0,1,0,0,8,0,25
7,12.002,Marlone ,MEI,Atlético-MG,2,"6,22",3,"-0,30","0,00","0,00",0,0,0,0,4,2,0,0,0,0,0,0,0,0,0,1,1,11
7,12.002,Zé Rafael  ,MEI,Bahia,3,"19,84",8,"7,63","4,50","0,22",19,1,3,0,23,6,9,0,0,0,0,0,1,0,0,19,1,23
7,12.002,Arthur Gomes ,ATA,Santos,2,"2,32",1,"2,90","0,00","0,00",1,0,0,0,2,0,1,0,0,0,0,0,0,0,0,1,0,1
7,12.002,Fernandinho ,ATA,Grêmio,2,"9,31",4,"5,95","1,20","0,17",3,2,0,0,11,1,1,0,0,0,0,0,1,0,0,2,0,5
7,12.002,Pedro ,ATA,Fluminense,2,"4,25",1,"1,80","0,00","0,00",1,0,0,0,0,1,0,0,0,0,0,0,0,0,0,0,0,2
8,12.002,Marcelo Cabo ,TEC,Atlético-GO,3,"3,25",1,"2,60","2,60","1,25",0,0,0,0,0,0,0,0,0,0,0,0,0,0,0,0,0,0
8,12.002,Martín Silva ,GOL,Vasco,3,"5,50",9,"0,39","-6,00","-2,97",0,0,0,1,0,0,0,0,14,0,0,0,1,0,20,0,0,5
8,12.002,Vilson ,ZAG,Corinthians,5,"4,00",0,"0,00","0,00","0,00",0,0,0,0,0,0,0,0,0,0,0,0,0,0,0,0,0,0
8,12.002,Rafael Thyere ,ZAG,Grêmio,3,"6,59",5,"3,86","5,90","0,94",2,1,0,2,0,1,1,0,0,0,0,0,0,0,0,4,0,6
8,12.002,Capa ,LAT,Avaí,3,"10,39",9,"4,08","0,40","-0,66",17,0,1,2,23,4,1,0,0,0,0,0,1,0,0,8,3,50
8,12.002,Marcos Rocha ,LAT,Atlético-MG,5,"11,33",2,"3,35","0,00","0,00",4,0,1,0,3,1,0,0,0,0,0,0,0,0,0,5,0,16
8,12.002,Ariel Cabral ,MEI,Cruzeiro,3,"6,47",7,"2,27","0,00","0,00",12,0,0,0,11,5,0,0,0,0,0,0,1,0,0,8,0,25
8,12.002,Marlone ,MEI,Atlético-MG,2,"6,22",3,"-0,30","0,00","0,00",0,0,0,0,4,2,0,0,0,0,0,0,0,0,0,1,1,11
8,12.002,Zé Rafael  ,MEI,Bahia,3,"19,56",9,"7,15","3,30","-0,28",20,1,3,0,24,7,10,0,0,0,0,0,1,0,0,19,1,25
8,12.002,Arthur Gomes ,ATA,Santos,2,"1,87",2,"1,45","0,00","-0,45",1,0,0,0,2,0,1,0,0,0,0,0,0,0,0,1,0,1
8,12.002,Fernandinho ,ATA,Grêmio,1,"11,87",5,"7,38","13,10","2,56",5,3,0,0,13,2,3,0,0,0,0,0,1,0,0,6,0,5
8,12.002,Pedro ,ATA,Fluminense,2,"4,25",1,"1,80","0,00","0,00",1,0,0,0,0,1,0,0,0,0,0,0,0,0,0,0,0,2
9,12.002,Marcelo Cabo ,TEC,Atlético-GO,3,"3,25",1,"2,60","2,60","1,25",0,0,0,0,0,0,0,0,0,0,0,0,0,0,0,0,0,0
9,12.002,Martín Silva ,GOL,Vasco,3,"7,37",10,"0,87","0,00","1,87",0,0,0,0,0,0,0,0,0,0,0,0,0,0,0,0,0,0
9,12.002,Vilson ,ZAG,Corinthians,5,"4,00",0,"0,00","0,00","0,00",0,0,0,0,0,0,0,0,0,0,0,0,0,0,0,0,0,0
9,12.002,Rafael Thyere ,ZAG,Grêmio,3,"6,59",5,"3,86","0,00","0,00",0,0,0,0,0,0,0,0,0,0,0,0,0,0,0,0,0,0
9,12.002,Capa ,LAT,Avaí,3,"11,35",10,"4,20","0,00","0,96",0,0,0,0,0,0,0,0,0,0,0,0,0,0,0,0,0,0
9,12.002,Marcos Rocha ,LAT,Atlético-MG,5,"11,33",2,"3,35","0,00","0,00",0,0,0,0,0,0,0,0,0,0,0,0,0,0,0,0,0,0
9,12.002,Ariel Cabral ,MEI,Cruzeiro,3,"7,62",8,"2,87","0,00","1,15",0,0,0,0,0,0,0,0,0,0,0,0,0,0,0,0,0,0
9,12.002,Marlone ,MEI,Atlético-MG,2,"7,77",4,"2,02","0,00","1,55",0,0,0,0,0,0,0,0,0,0,0,0,0,0,0,0,0,0
9,12.002,Zé Rafael  ,MEI,Bahia,3,"20,70",10,"7,29","0,00","1,14",0,0,0,0,0,0,0,0,0,0,0,0,0,0,0,0,0,0
9,12.002,Arthur Gomes ,ATA,Santos,1,"1,87",2,"1,45","0,00","0,00",0,0,0,0,0,0,0,0,0,0,0,0,0,0,0,0,0,0
9,12.002,Fernandinho ,ATA,Grêmio,3,"10,20",6,"6,38","0,00","-1,67",0,0,0,0,0,0,0,0,0,0,0,0,0,0,0,0,0,0
9,12.002,Pedro ,ATA,Fluminense,1,"4,25",1,"1,80","0,00","0,00",0,0,0,0,0,0,0,0,0,0,0,0,0,0,0,0,0,0
10,12.002,Marcelo Cabo ,TEC,Atlético-GO,3,"3,25",1,"2,60","2,60","1,25",0,0,0,0,0,0,0,0,0,0,0,0,0,0,0,0,0,0
10,12.002,Martín Silva ,GOL,Vasco,3,"5,23",11,"0,25","-6,00","-2,14",0,0,0,2,1,0,0,0,14,0,0,0,2,0,22,0,0,6
10,12.002,Vilson ,ZAG,Corinthians,5,"4,00",0,"0,00","0,00","0,00",0,0,0,0,0,0,0,0,0,0,0,0,0,0,0,0,0,0
10,12.002,Rafael Thyere ,ZAG,Grêmio,3,"5,56",6,"3,15","-0,40","-1,03",2,1,0,2,2,1,1,0,0,0,0,0,0,0,0,5,0,9
10,12.002,Capa ,LAT,Avaí,3,"11,57",11,"4,32","5,50","0,22",21,0,1,4,28,4,1,0,0,0,0,0,1,0,0,12,4,70
10,12.002,Marcos Rocha ,LAT,Atlético-MG,5,"11,33",2,"3,35","0,00","0,00",4,0,1,0,3,1,0,0,0,0,0,0,0,0,0,5,0,16
10,12.002,Ariel Cabral ,MEI,Cruzeiro,3,"6,70",9,"2,66","1,00","-0,92",17,0,0,0,19,7,0,0,0,0,0,0,2,0,0,9,0,36
10,12.002,Marlone ,MEI,Atlético-MG,2,"5,93",5,"1,22","-2,00","-1,84",2,1,0,0,4,2,1,0,0,0,0,0,1,0,0,4,3,14
10,12.002,Zé Rafael  ,MEI,Bahia,3,"19,68",11,"6,86","2,60","-1,02",27,1,3,0,30,8,11,0,0,0,0,0,2,0,0,23,2,28
10,12.002,Arthur Gomes ,ATA,Santos,1,"2,00",3,"1,27","0,90","0,13",1,0,0,0,5,0,1,0,0,0,0,0,0,0,0,1,0,3
10,12.002,Fernandinho ,ATA,Grêmio,3,"9,93",7,"5,54","0,50","-0,27",6,3,0,0,17,3,3,0,0,0,0,0,1,0,0,8,0,10
10,12.002,Pedro ,ATA,Fluminense,1,"5,79",2,"5,65","9,50","1,54",1,1,0,0,2,1,1,0,0,0,0,0,0,0,0,1,0,2
11,12.002,Marcelo Cabo ,TEC,Atlético-GO,3,"3,25",1,"2,60","2,60","1,25",0,0,0,0,0,0,0,0,0,0,0,0,0,0,0,0,0,0
11,12.002,Martín Silva ,GOL,Vasco,3,"6,22",12,"0,31","1,00","0,99",0,0,0,2,1,0,0,0,14,0,0,0,2,0,22,0,0,6
11,12.002,Vilson ,ZAG,Corinthians,2,"4,00",0,"0,00","0,00","0,00",0,0,0,0,0,0,0,0,0,0,0,0,0,0,0,0,0,0
11,12.002,Rafael Thyere ,ZAG,Grêmio,2,"5,56",6,"3,15","0,00","0,00",2,1,0,2,2,1,1,0,0,0,0,0,0,0,0,5,0,9
11,12.002,Capa ,LAT,Avaí,3,"11,97",12,"4,49","6,30","0,40",21,0,1,4,28,4,1,0,0,0,0,0,1,0,0,12,4,70
11,12.002,Marcos Rocha ,LAT,Atlético-MG,3,"9,99",3,"3,27","3,10","-1,34",4,0,1,0,3,1,0,0,0,0,0,0,0,0,0,5,0,16
11,12.002,Ariel Cabral ,MEI,Cruzeiro,3,"6,33",10,"2,32","-0,70","-0,37",17,0,0,0,19,7,0,0,0,0,0,0,2,0,0,9,0,36
11,12.002,Marlone ,MEI,Atlético-MG,3,"7,67",6,"2,23","7,30","1,74",2,1,0,0,4,2,1,0,0,0,0,0,1,0,0,4,3,14
11,12.002,Zé Rafael  ,MEI,Bahia,3,"20,55",12,"6,87","7,00","0,87",27,1,3,0,30,8,11,0,0,0,0,0,2,0,0,23,2,28
11,12.002,Arthur Gomes ,ATA,Santos,2,"1,84",4,"0,95","0,00","-0,16",1,0,0,0,5,0,1,0,0,0,0,0,0,0,0,1,0,3
11,12.002,Fernandinho ,ATA,Grêmio,1,"10,49",8,"5,30","3,60","0,56",6,3,0,0,17,3,3,0,0,0,0,0,1,0,0,8,0,10
11,12.002,Pedro ,ATA,Fluminense,2,"4,62",3,"4,17","1,20","-1,17",1,1,0,0,2,1,1,0,0,0,0,0,0,0,0,1,0,2
12,12.002,Marcelo Cabo ,TEC,Atlético-GO,3,"3,25",1,"2,60","2,60","1,25",0,0,0,0,0,0,0,0,0,0,0,0,0,0,0,0,0,0
12,12.002,Martín Silva ,GOL,Vasco,3,"7,28",13,"0,77","6,30","1,06",0,0,0,2,1,0,0,0,15,0,0,0,2,0,23,0,0,6
12,12.002,Vilson ,ZAG,Corinthians,2,"4,00",0,"0,00","0,00","0,00",0,0,0,0,0,0,0,0,0,0,0,0,0,0,0,0,0,0
12,12.002,Rafael Thyere ,ZAG,Grêmio,2,"6,50",7,"3,41","5,00","0,94",2,1,0,2,2,1,1,0,0,0,0,0,0,0,0,5,0,9
12,12.002,Capa ,LAT,Avaí,3,"11,49",13,"4,37","2,90","-0,48",23,0,1,5,30,4,1,0,0,0,0,0,2,0,0,13,4,72
12,12.002,Marcos Rocha ,LAT,Atlético-MG,3,"9,35",4,"2,40","-0,20","-0,64",7,0,1,0,4,1,0,0,0,0,0,0,0,0,0,7,0,21
12,12.002,Ariel Cabral ,MEI,Cruzeiro,4,"6,33",10,"2,32","0,00","0,00",18,0,0,0,21,7,0,0,0,0,0,0,3,0,0,10,0,39
12,12.002,Marlone ,MEI,Atlético-MG,2,"6,52",7,"1,93","0,10","-1,15",2,2,0,0,4,2,2,0,0,0,0,0,1,0,0,5,3,18
12,12.002,Zé Rafael  ,MEI,Bahia,3,"18,93",13,"6,23","-1,50","-1,62",31,1,3,0,32,10,11,0,0,0,0,0,2,0,0,25,2,32
12,12.002,Arthur Gomes ,ATA,Santos,2,"1,84",4,"0,95","0,00","0,00",1,0,0,0,5,0,1,0,0,0,0,0,0,0,0,1,0,3
12,12.002,Fernandinho ,ATA,Grêmio,3,"10,05",9,"4,83","1,10","-0,44",6,3,0,0,22,3,5,0,0,0,0,0,1,0,0,8,0,13
12,12.002,Pedro ,ATA,Fluminense,1,"4,62",4,"3,43","1,20","0,00",2,1,0,0,3,1,1,0,0,0,0,0,0,0,0,3,0,2
13,12.002,Marcelo Cabo ,TEC,Atlético-GO,3,"3,25",1,"2,60","2,60","1,25",0,0,0,0,0,0,0,0,0,0,0,0,0,0,0,0,0,0
13,12.002,Martín Silva ,GOL,Vasco,3,"7,23",14,"1,05","4,70","-0,05",0,0,0,2,2,0,0,0,18,0,0,0,2,0,24,0,0,10
13,12.002,Vilson ,ZAG,Corinthians,2,"4,00",0,"0,00","0,00","0,00",0,0,0,0,0,0,0,0,0,0,0,0,0,0,0,0,0,0
13,12.002,Rafael Thyere ,ZAG,Grêmio,3,"5,21",8,"2,68","-2,40","-1,29",2,1,0,3,2,1,1,0,0,0,0,0,0,0,0,5,0,9
13,12.002,Capa ,LAT,Avaí,3,"11,82",14,"4,37","4,30","0,33",25,0,1,5,33,4,1,0,0,0,0,0,2,0,0,14,4,77
13,12.002,Marcos Rocha ,LAT,Atlético-MG,3,"9,35",4,"2,40","0,00","0,00",8,0,1,0,5,3,0,0,0,0,0,0,0,0,0,11,0,27
13,12.002,Ariel Cabral ,MEI,Cruzeiro,3,"6,33",11,"2,14","0,30","0,00",18,0,0,0,21,7,0,0,0,0,0,0,3,0,0,10,0,39
13,12.002,Marlone ,MEI,Atlético-MG,3,"6,23",8,"1,56","-1,00","-0,29",2,2,0,0,6,2,2,0,0,0,0,0,1,0,0,5,3,21
13,12.002,Zé Rafael  ,MEI,Bahia,4,"18,93",13,"6,23","0,00","0,00",31,1,3,0,33,10,12,0,0,0,0,0,3,0,0,27,2,32
13,12.002,Arthur Gomes ,ATA,Santos,2,"1,84",4,"0,95","0,00","0,00",1,0,0,0,5,0,1,0,0,0,0,0,0,0,0,1,0,3
13,12.002,Fernandinho ,ATA,Grêmio,2,"10,16",10,"4,54","1,90","0,11",7,3,0,0,23,3,5,0,0,0,0,0,1,0,0,9,0,15
13,12.002,Pedro ,ATA,Fluminense,2,"3,95",5,"2,30","-2,20","-0,67",2,1,0,0,4,2,1,0,0,0,0,0,0,0,0,3,0,2
14,12.002,Marcelo Cabo ,TEC,Atlético-GO,3,"3,25",1,"2,60","2,60","1,25",0,0,0,0,0,0,0,0,0,0,0,0,0,0,0,0,0,0
14,12.002,Martín Silva ,GOL,Vasco,3,"7,05",15,"1,23","3,70","-0,18",0,0,0,3,2,0,0,0,20,0,0,0,2,0,25,0,0,12
14,12.002,Vilson ,ZAG,Corinthians,2,"4,00",0,"0,00","0,00","0,00",0,0,0,0,0,0,0,0,0,0,0,0,0,0,0,0,0,0
14,12.002,Rafael Thyere ,ZAG,Grêmio,2,"5,79",9,"2,60","2,00","0,58",6,1,0,3,7,1,1,0,0,0,1,0,1,0,0,6,0,13
14,12.002,Capa ,LAT,Avaí,4,"11,47",15,"4,29","3,20","-0,35",29,0,1,6,35,5,2,0,0,0,0,0,3,0,0,18,4,87
14,12.002,Marcos Rocha ,LAT,Atlético-MG,3,"10,83",5,"3,80","9,40","1,48",14,0,1,0,6,3,1,0,0,0,0,0,0,0,0,12,0,33
14,12.002,Ariel Cabral ,MEI,Cruzeiro,3,"6,56",12,"2,16","2,40","0,23",21,0,0,0,23,8,0,0,0,0,0,0,3,0,0,14,0,46
14,12.002,Marlone ,MEI,Atlético-MG,3,"6,89",9,"1,79","3,60","0,66",4,2,0,0,7,4,3,0,0,0,0,0,1,0,0,6,4,30
14,12.002,Zé Rafael  ,MEI,Bahia,3,"19,78",14,"6,30","7,20","0,85",34,1,3,0,40,11,12,0,0,0,0,0,3,0,0,30,2,34
14,12.002,Arthur Gomes ,ATA,Santos,2,"1,84",5,"0,86","0,50","0,00",1,0,0,0,6,0,1,0,0,0,0,0,0,0,0,1,0,3
14,12.002,Fernandinho ,ATA,Grêmio,3,"12,83",11,"5,63","16,50","2,67",8,4,1,0,30,4,7,0,0,0,0,0,1,0,0,11,0,20
14,12.002,Pedro ,ATA,Fluminense,1,"4,38",6,"2,12","1,20","0,43",3,1,0,0,8,2,2,0,0,0,0,0,1,0,0,7,1,6
15,12.002,Marcelo Cabo ,TEC,Atlético-GO,3,"3,25",1,"2,60","2,60","1,25",0,0,0,0,0,0,0,0,0,0,0,0,0,0,0,0,0,0
15,12.002,Martín Silva ,GOL,Vasco,3,"6,63",16,"1,20","0,70","-0,42",0,0,0,3,2,0,0,0,20,0,0,0,2,0,25,0,0,12
15,12.002,Vilson ,ZAG,Corinthians,2,"4,00",0,"0,00","0,00","0,00",0,0,0,0,0,0,0,0,0,0,0,0,0,0,0,0,0,0
15,12.002,Rafael Thyere ,ZAG,Grêmio,1,"5,79",9,"2,60","0,00","0,00",6,1,0,3,7,1,1,0,0,0,1,0,1,0,0,6,0,13
15,12.002,Capa ,LAT,Avaí,4,"11,47",15,"4,29","0,00","0,00",29,0,1,6,35,5,2,0,0,0,0,0,3,0,0,18,4,87
15,12.002,Marcos Rocha ,LAT,Atlético-MG,2,"10,83",5,"3,80","0,00","0,00",14,0,1,0,6,3,1,0,0,0,0,0,0,0,0,12,0,33
15,12.002,Ariel Cabral ,MEI,Cruzeiro,2,"6,56",12,"2,16","0,00","0,00",21,0,0,0,23,8,0,0,0,0,0,0,3,0,0,14,0,46
15,12.002,Marlone ,MEI,Atlético-MG,3,"5,36",10,"1,11","-5,00","-1,53",4,2,0,0,7,4,3,0,0,0,0,0,1,0,0,6,4,30
15,12.002,Zé Rafael  ,MEI,Bahia,3,"19,82",15,"6,27","5,80","0,04",34,1,3,0,40,11,12,0,0,0,0,0,3,0,0,30,2,34
15,12.002,Arthur Gomes ,ATA,Santos,2,"1,84",5,"0,86","0,00","0,00",1,0,0,0,6,0,1,0,0,0,0,0,0,0,0,1,0,3
15,12.002,Fernandinho ,ATA,Grêmio,1,"11,34",12,"5,57","4,90","-1,49",8,4,1,0,30,4,7,0,0,0,0,0,1,0,0,11,0,20
15,12.002,Pedro ,ATA,Fluminense,3,"4,38",6,"2,12","0,00","0,00",3,1,0,0,8,2,2,0,0,0,0,0,1,0,0,7,1,6
16,12.002,Marcelo Cabo ,TEC,Atlético-GO,3,"3,25",1,"2,60","2,60","1,25",0,0,0,0,0,0,0,0,0,0,0,0,0,0,0,0,0,0
16,12.002,Martín Silva ,GOL,Vasco,3,"12,73",1,"4,00","4,00","-1,27",0,0,0,0,0,0,0,0,4,0,0,0,0,0,4,0,0,0
16,12.002,Vilson ,ZAG,Corinthians,2,"4,00",0,"0,00","0,00","0,00",0,0,0,0,0,0,0,0,0,0,0,0,0,0,0,0,0,0
16,12.002,Rafael Thyere ,ZAG,Grêmio,2,"4,00",0,"0,00","0,00","0,00",0,0,0,0,0,0,0,0,0,0,0,0,0,0,0,0,0,0
16,12.002,Capa ,LAT,Avaí,3,"12,40",16,"4,57","8,70","0,93",34,0,1,6,39,6,2,0,0,0,0,0,3,0,0,20,4,92
16,12.002,Marcos Rocha ,LAT,Atlético-MG,3,"11,61",6,"5,22","12,30","0,78",18,0,2,1,7,3,1,0,0,0,0,0,1,0,0,18,0,33
16,12.002,Ariel Cabral ,MEI,Cruzeiro,2,"7,00",0,"0,00","0,00","0,00",0,0,0,0,0,0,0,0,0,0,0,0,0,0,0,0,0,0
16,12.002,Marlone ,MEI,Atlético-MG,2,"9,00",0,"0,00","0,00","0,00",0,0,0,0,0,0,0,0,0,0,0,0,0,0,0,0,0,0
16,12.002,Zé Rafael  ,MEI,Bahia,3,"21,30",16,"6,80","14,70","1,48",42,1,3,0,52,11,16,0,0,0,0,0,3,0,0,34,3,36
16,12.002,Arthur Gomes ,ATA,Santos,2,"2,00",0,"0,00","0,00","0,00",0,0,0,0,0,0,0,0,0,0,0,0,0,0,0,0,0,0
16,12.002,Fernandinho ,ATA,Grêmio,1,"12,34",13,"5,94","10,40","1,00",11,5,1,0,32,4,9,0,0,0,0,0,1,0,0,12,0,21
16,12.002,Pedro ,ATA,Fluminense,2,"5,00",0,"0,00","0,00","0,00",0,0,0,0,0,0,0,0,0,0,0,0,0,0,0,0,0,0
17,12.002,Marcelo Cabo ,TEC,Atlético-GO,3,"3,25",1,"2,60","2,60","1,25",0,0,0,0,0,0,0,0,0,0,0,0,0,0,0,0,0,0
17,12.002,Martín Silva ,GOL,Vasco,3,"6,32",18,"0,95","0,00","0,34",0,0,0,3,2,0,0,0,23,0,0,0,2,0,30,0,0,13
17,12.002,Vilson ,ZAG,Corinthians,2,"4,00",0,"0,00","0,00","0,00",0,0,0,0,0,0,0,0,0,0,0,0,0,0,0,0,0,0
17,12.002,Rafael Thyere ,ZAG,Grêmio,2,"5,79",9,"2,60","0,00","0,00",6,1,0,3,7,1,1,0,0,0,1,0,1,0,0,6,0,13
17,12.002,Capa ,LAT,Avaí,3,"10,60",17,"4,12","-3,10","-1,80",37,0,1,6,41,6,2,0,0,0,1,0,3,0,0,24,4,96
17,12.002,Marcos Rocha ,LAT,Atlético-MG,2,"8,91",7,"3,77","-4,90","-2,70",18,0,2,1,8,3,1,0,0,0,0,0,2,0,0,20,0,41
17,12.002,Ariel Cabral ,MEI,Cruzeiro,5,"5,29",13,"1,69","0,00","0,00",22,0,0,0,23,8,0,0,0,0,0,0,4,0,0,16,0,55
17,12.002,Marlone ,MEI,Atlético-MG,2,"5,36",10,"1,11","0,00","0,00",4,2,0,0,7,4,3,0,0,0,0,0,2,0,0,9,4,35
17,12.002,Zé Rafael  ,MEI,Bahia,3,"20,28",17,"6,71","5,20","-1,02",45,1,3,0,55,11,16,0,0,0,0,0,3,0,0,35,3,39
17,12.002,Arthur Gomes ,ATA,Santos,2,"1,84",5,"0,86","0,00","0,00",1,0,0,0,6,0,1,0,0,0,0,0,0,0,0,1,0,3
17,12.002,Fernandinho ,ATA,Grêmio,1,"11,98",14,"5,92","5,60","-0,36",13,5,1,0,34,4,11,0,0,0,0,0,1,0,0,13,0,22
17,12.002,Pedro ,ATA,Fluminense,2,"4,38",6,"2,12","0,00","0,00",3,1,0,0,8,2,2,0,0,0,0,0,1,0,0,7,1,6
18,12.002,Marcelo Cabo ,TEC,Atlético-GO,3,"3,25",1,"2,60","2,60","1,25",0,0,0,0,0,0,0,0,0,0,0,0,0,0,0,0,0,0
18,12.002,Martín Silva ,GOL,Vasco,3,"8,08",19,"1,43","10,10","1,76",0,0,0,4,2,0,0,0,25,0,0,0,2,0,30,0,0,16
18,12.002,Vilson ,ZAG,Corinthians,2,"4,00",0,"0,00","0,00","0,00",0,0,0,0,0,0,0,0,0,0,0,0,0,0,0,0,0,0
18,12.002,Rafael Thyere ,ZAG,Grêmio,2,"5,79",9,"2,60","0,00","0,00",6,1,0,3,7,1,1,0,0,0,1,0,1,0,0,6,0,13
18,12.002,Capa ,LAT,Avaí,3,"12,24",18,"4,31","7,60","1,64",40,0,1,7,44,6,2,0,0,0,1,0,3,0,0,29,4,101
18,12.002,Marcos Rocha ,LAT,Atlético-MG,3,"8,91",7,"3,77","0,00","0,00",18,0,2,1,8,3,1,0,0,0,0,0,2,0,0,20,0,41
18,12.002,Ariel Cabral ,MEI,Cruzeiro,5,"5,29",13,"1,69","0,00","0,00",22,0,0,0,23,8,0,0,0,0,0,0,4,0,0,16,0,55
18,12.002,Marlone ,MEI,Atlético-MG,2,"5,83",11,"1,03","0,20","0,47",4,2,0,0,8,4,3,0,0,0,0,0,2,0,0,9,4,36
18,12.002,Zé Rafael  ,MEI,Bahia,3,"19,77",18,"6,55","3,90","-0,51",47,1,3,0,59,11,17,0,0,0,0,0,3,0,0,38,5,39
18,12.002,Arthur Gomes ,ATA,Santos,2,"1,84",5,"0,86","0,00","0,00",1,0,0,0,6,0,1,0,0,0,0,0,0,0,0,1,0,3
18,12.002,Fernandinho ,ATA,Grêmio,3,"13,69",15,"6,52","14,90","1,71",17,6,1,0,37,4,11,0,0,0,0,0,1,0,0,14,0,25
18,12.002,Pedro ,ATA,Fluminense,2,"4,38",6,"2,12","0,00","0,00",3,1,0,0,8,2,2,0,0,0,0,0,1,0,0,7,1,6
19,12.002,Marcelo Cabo ,TEC,Atlético-GO,3,"3,25",1,"2,60","2,60","1,25",0,0,0,0,0,0,0,0,0,0,0,0,0,0,0,0,0,0
19,12.002,Martín Silva ,GOL,Vasco,3,"6,72",20,"1,41","1,00","-1,36",0,0,0,4,2,0,0,0,26,0,0,0,2,0,31,0,0,16
19,12.002,Vilson ,ZAG,Corinthians,2,"4,00",0,"0,00","0,00","0,00",0,0,0,0,0,0,0,0,0,0,0,0,0,0,0,0,0,0
19,12.002,Rafael Thyere ,ZAG,Grêmio,2,"5,79",9,"2,60","0,00","0,00",6,1,0,3,7,1,1,0,0,0,1,0,1,0,0,6,0,13
19,12.002,Capa ,LAT,Avaí,3,"12,82",19,"4,58","9,40","0,58",42,0,1,8,48,8,2,0,0,0,1,0,3,0,0,32,4,104
19,12.002,Marcos Rocha ,LAT,Atlético-MG,3,"11,86",8,"4,96","13,30","2,95",23,0,2,2,12,3,1,0,0,0,0,0,2,0,0,21,1,45
19,12.002,Ariel Cabral ,MEI,Cruzeiro,5,"5,29",13,"1,69","0,00","0,00",22,0,0,0,23,8,0,0,0,0,0,0,4,0,0,16,0,55
19,12.002,Marlone ,MEI,Atlético-MG,2,"5,83",11,"1,03","0,00","0,00",4,2,0,0,8,4,3,0,0,0,0,0,2,0,0,9,4,36
19,12.002,Zé Rafael  ,MEI,Bahia,3,"18,77",19,"6,12","-1,60","-1,00",48,1,3,0,61,11,17,0,0,0,0,0,4,0,0,42,5,40
19,12.002,Arthur Gomes ,ATA,Santos,2,"1,84",5,"0,86","0,00","0,00",1,0,0,0,6,0,1,0,0,0,0,0,0,0,0,1,0,3
19,12.002,Fernandinho ,ATA,Grêmio,3,"11,62",16,"6,19","1,20","-2,07",17,6,1,0,42,4,11,0,0,0,0,0,1,0,0,16,0,26
19,12.002,Pedro ,ATA,Fluminense,2,"4,04",7,"1,82","0,00","-0,34",3,1,0,0,8,2,2,0,0,0,0,0,1,0,0,7,1,6
20,12.002,Marcelo Cabo ,TEC,Atlético-GO,3,"3,25",1,"2,60","2,60","1,25",0,0,0,0,0,0,0,0,0,0,0,0,0,0,0,0,0,0
20,12.002,Martín Silva ,GOL,Vasco,3,"5,80",21,"1,19","-3,30","-0,92",0,0,0,4,2,0,0,0,27,0,0,0,2,0,34,0,0,17
20,12.002,Vilson ,ZAG,Corinthians,2,"4,00",0,"0,00","0,00","0,00",0,0,0,0,0,0,0,0,0,0,0,0,0,0,0,0,0,0
20,12.002,Rafael Thyere ,ZAG,Grêmio,2,"5,79",9,"2,60","0,00","0,00",6,1,0,3,7,1,1,0,0,0,1,0,1,0,0,6,0,13
20,12.002,Capa ,LAT,Avaí,3,"10,85",20,"4,28","-1,50","-1,97",42,0,1,8,51,10,2,0,0,0,1,0,3,0,0,36,4,112
20,12.002,Marcos Rocha ,LAT,Atlético-MG,3,"10,63",9,"5,02","5,50","-1,23",26,0,2,2,12,4,1,0,0,0,0,0,2,0,0,21,1,46
20,12.002,Ariel Cabral ,MEI,Cruzeiro,5,"5,29",13,"1,69","0,00","0,00",22,0,0,0,23,8,0,0,0,0,0,0,4,0,0,16,0,55
20,12.002,Marlone ,MEI,Atlético-MG,2,"5,83",11,"1,03","0,00","0,00",4,2,0,0,8,4,3,0,0,0,0,0,2,0,0,9,4,36
20,12.002,Zé Rafael  ,MEI,Bahia,3,"19,01",20,"5,93","2,40","0,24",50,1,3,0,63,11,17,0,0,0,0,0,4,0,0,45,6,40
20,12.002,Arthur Gomes ,ATA,Santos,2,"1,84",5,"0,86","0,00","0,00",1,0,0,0,6,0,1,0,0,0,0,0,0,0,0,1,0,3
20,12.002,Fernandinho ,ATA,Grêmio,3,"11,11",17,"5,81","-0,30","-0,51",17,6,1,0,47,4,11,0,0,0,0,0,1,0,0,17,1,32
20,12.002,Pedro ,ATA,Fluminense,2,"4,04",7,"1,82","0,00","0,00",3,1,0,0,8,2,2,0,0,0,0,0,1,0,0,7,1,6
21,12.002,Marcelo Cabo ,TEC,Atlético-GO,3,"3,25",1,"2,60","2,60","1,25",0,0,0,0,0,0,0,0,0,0,0,0,0,0,0,0,0,0
21,12.002,Martín Silva ,GOL,Vasco,3,"7,25",22,"1,36","5,00","1,45",0,0,0,5,2,0,0,0,27,0,0,0,2,0,34,0,0,17
21,12.002,Vilson ,ZAG,Corinthians,2,"4,00",0,"0,00","0,00","0,00",0,0,0,0,0,0,0,0,0,0,0,0,0,0,0,0,0,0
21,12.002,Rafael Thyere ,ZAG,Grêmio,2,"5,79",9,"2,60","0,00","0,00",6,1,0,3,7,1,1,0,0,0,1,0,1,0,0,6,0,13
21,12.002,Capa ,LAT,Avaí,3,"13,00",21,"4,56","10,10","2,15",46,0,1,9,57,10,2,0,0,0,1,0,4,0,0,39,4,116
21,12.002,Marcos Rocha ,LAT,Atlético-MG,3,"10,41",10,"4,82","3,00","-0,22",29,0,2,2,15,4,1,0,0,0,0,0,3,0,0,23,1,48
21,12.002,Ariel Cabral ,MEI,Cruzeiro,5,"5,29",13,"1,69","0,00","0,00",22,0,0,0,23,8,0,0,0,0,0,0,4,0,0,16,0,55
21,12.002,Marlone ,MEI,Atlético-MG,2,"5,83",11,"1,03","0,00","0,00",4,2,0,0,8,4,3,0,0,0,0,0,2,0,0,9,4,36
21,12.002,Zé Rafael  ,MEI,Bahia,3,"20,43",21,"6,08","9,10","1,42",53,1,4,0,65,11,17,0,0,0,0,0,4,0,0,46,6,45
21,12.002,Arthur Gomes ,ATA,Santos,2,"1,84",5,"0,86","0,00","0,00",1,0,0,0,6,0,1,0,0,0,0,0,0,0,0,1,0,3
21,12.002,Fernandinho ,ATA,Grêmio,2,"11,11",17,"5,81","0,00","0,00",17,6,1,0,47,4,11,0,0,0,0,0,1,0,0,17,1,32
21,12.002,Pedro ,ATA,Fluminense,2,"4,04",7,"1,82","0,00","0,00",3,1,0,0,8,2,2,0,0,0,0,0,1,0,0,7,1,6
22,12.002,Marcelo Cabo ,TEC,Atlético-GO,3,"3,25",1,"2,60","2,60","1,25",0,0,0,0,0,0,0,0,0,0,0,0,0,0,0,0,0,0
22,12.002,Martín Silva ,GOL,Vasco,3,"7,88",23,"1,64","7,70","0,63",0,0,0,6,2,0,0,0,28,0,0,0,2,0,34,0,0,18
22,12.002,Vilson ,ZAG,Corinthians,2,"4,00",0,"0,00","0,00","0,00",0,0,0,0,0,0,0,0,0,0,0,0,0,0,0,0,0,0
22,12.002,Rafael Thyere ,ZAG,Grêmio,2,"5,79",9,"2,60","0,00","0,00",6,1,0,3,7,1,1,0,0,0,1,0,1,0,0,6,0,13
22,12.002,Capa ,LAT,Avaí,3,"11,99",22,"4,50","3,20","-1,01",47,0,1,10,60,10,2,0,0,0,1,0,5,0,0,42,4,121
22,12.002,Marcos Rocha ,LAT,Atlético-MG,4,"10,41",10,"4,82","0,00","0,00",29,0,2,2,15,4,1,0,0,0,0,0,3,0,0,23,1,48
22,12.002,Ariel Cabral ,MEI,Cruzeiro,5,"5,29",13,"1,69","0,00","0,00",22,0,0,0,23,8,0,0,0,0,0,0,4,0,0,16,0,55
22,12.002,Marlone ,MEI,Atlético-MG,2,"5,83",11,"1,03","0,00","0,00",4,2,0,0,8,4,3,0,0,0,0,0,2,0,0,9,4,36
22,12.002,Zé Rafael  ,MEI,Bahia,3,"21,11",22,"6,34","11,80","0,68",55,2,4,0,67,12,17,0,0,0,0,0,4,0,0,47,7,46
22,12.002,Arthur Gomes ,ATA,Santos,2,"1,84",5,"0,86","0,00","0,00",1,0,0,0,6,0,1,0,0,0,0,0,0,0,0,1,0,3
22,12.002,Fernandinho ,ATA,Grêmio,3,"12,02",18,"5,75","4,80","0,91",18,6,1,0,52,6,12,0,0,0,0,0,1,0,0,20,1,33
22,12.002,Pedro ,ATA,Fluminense,2,"4,04",7,"1,82","0,00","0,00",3,1,0,0,8,2,2,0,0,0,0,0,1,0,0,7,1,6
23,12.002,Marcelo Cabo ,TEC,Atlético-GO,3,"3,25",1,"2,60","2,60","1,25",0,0,0,0,0,0,0,0,0,0,0,0,0,0,0,0,0,0
23,12.002,Martín Silva ,GOL,Vasco,3,"7,93",24,"1,86","7,00","0,05",0,0,0,6,2,0,0,0,31,0,0,0,2,0,35,0,0,18
23,12.002,Vilson ,ZAG,Corinthians,2,"4,00",0,"0,00","0,00","0,00",0,0,0,0,0,0,0,0,0,0,0,0,0,0,0,0,0,0
23,12.002,Rafael Thyere ,ZAG,Grêmio,3,"5,30",10,"2,40","0,60","-0,49",7,1,0,3,7,1,1,0,0,0,1,0,1,0,0,7,0,15
23,12.002,Capa ,LAT,Avaí,3,"12,95",23,"4,67","8,40","0,96",51,0,1,10,65,10,2,0,0,0,1,0,5,0,0,42,4,124
23,12.002,Marcos Rocha ,LAT,Atlético-MG,5,"11,29",11,"5,11","8,00","0,88",32,0,3,2,18,4,2,0,0,0,0,0,4,0,0,24,1,55
23,12.002,Ariel Cabral ,MEI,Cruzeiro,5,"5,29",13,"1,69","0,00","0,00",22,0,0,0,23,8,0,0,0,0,0,0,4,0,0,16,0,55
23,12.002,Marlone ,MEI,Atlético-MG,2,"5,83",11,"1,03","0,00","0,00",4,2,0,0,8,4,3,0,0,0,0,0,2,0,0,9,4,36
23,12.002,Zé Rafael  ,MEI,Bahia,3,"20,24",23,"6,33","6,00","-0,87",57,2,4,0,73,12,18,0,0,0,0,0,4,0,0,48,7,49
23,12.002,Arthur Gomes ,ATA,Santos,2,"1,84",5,"0,86","0,00","0,00",1,0,0,0,6,0,1,0,0,0,0,0,0,0,0,1,0,3
23,12.002,Fernandinho ,ATA,Grêmio,1,"12,54",19,"5,83","7,30","0,52",20,6,1,0,57,10,12,0,0,0,0,0,1,0,0,20,2,36
23,12.002,Pedro ,ATA,Fluminense,2,"4,04",7,"1,82","0,00","0,00",3,1,0,0,8,2,2,0,0,0,0,0,1,0,0,7,1,6
24,12.002,Marcelo Cabo ,TEC,Atlético-GO,3,"3,25",1,"2,60","2,60","1,25",0,0,0,0,0,0,0,0,0,0,0,0,0,0,0,0,0,0
24,12.002,Martín Silva ,GOL,Vasco,3,"6,98",25,"1,83","1,00","-0,95",0,0,0,6,2,0,0,0,32,0,0,0,2,0,36,0,0,18
24,12.002,Vilson ,ZAG,Corinthians,2,"4,00",0,"0,00","0,00","0,00",0,0,0,0,0,0,0,0,0,0,0,0,0,0,0,0,0,0
24,12.002,Rafael Thyere ,ZAG,Grêmio,3,"5,30",10,"2,40","0,00","0,00",7,1,0,3,7,1,1,0,0,0,1,0,1,0,0,7,0,15
24,12.002,Capa ,LAT,Avaí,3,"11,99",24,"4,58","2,40","-0,96",53,0,1,10,66,10,2,0,0,0,1,0,5,0,0,42,4,129
24,12.002,Marcos Rocha ,LAT,Atlético-MG,5,"11,29",11,"5,11","0,00","0,00",32,0,3,2,18,4,2,0,0,0,0,0,4,0,0,24,1,55
24,12.002,Ariel Cabral ,MEI,Cruzeiro,5,"5,29",13,"1,69","0,00","0,00",22,0,0,0,23,8,0,0,0,0,0,0,4,0,0,16,0,55
24,12.002,Marlone ,MEI,Atlético-MG,2,"5,48",12,"0,92","-0,30","-0,35",4,2,0,0,8,4,3,0,0,0,0,0,2,0,0,9,4,37
24,12.002,Zé Rafael  ,MEI,Bahia,3,"20,60",24,"6,40","8,00","0,36",61,2,4,0,76,12,18,0,0,0,0,0,4,0,0,48,7,50
24,12.002,Arthur Gomes ,ATA,Santos,2,"1,84",5,"0,86","0,00","0,00",1,0,0,0,6,0,1,0,0,0,0,0,0,0,0,1,0,3
24,12.002,Fernandinho ,ATA,Grêmio,1,"11,75",20,"5,66","2,40","-0,79",20,6,1,0,61,11,13,0,0,0,0,0,1,0,0,22,2,37
24,12.002,Pedro ,ATA,Fluminense,2,"4,04",7,"1,82","0,00","0,00",3,1,0,0,8,2,2,0,0,0,0,0,1,0,0,7,1,6
25,12.002,Marcelo Cabo ,TEC,Atlético-GO,3,"3,25",1,"2,60","2,60","1,25",0,0,0,0,0,0,0,0,0,0,0,0,0,0,0,0,0,0
25,12.002,Martín Silva ,GOL,Vasco,3,"7,64",26,"1,92","4,20","0,66",0,0,0,6,3,0,0,0,34,0,0,0,2,0,37,0,0,19
25,12.002,Vilson ,ZAG,Corinthians,5,"4,00",0,"0,00","0,00","0,00",0,0,0,0,0,0,0,0,0,0,0,0,0,0,0,0,0,0
25,12.002,Rafael Thyere ,ZAG,Grêmio,2,"5,30",10,"2,40","0,00","0,00",7,1,0,3,7,1,1,0,0,0,1,0,1,0,0,7,0,15
25,12.002,Capa ,LAT,Avaí,3,"12,72",25,"4,62","5,60","0,73",56,0,1,10,72,10,2,0,0,0,1,0,5,0,0,44,4,134
25,12.002,Marcos Rocha ,LAT,Atlético-MG,3,"11,29",11,"5,11","0,00","0,00",32,0,3,2,18,4,2,0,0,0,0,0,4,0,0,24,1,55
25,12.002,Ariel Cabral ,MEI,Cruzeiro,5,"5,29",13,"1,69","0,00","0,00",22,0,0,0,23,8,0,0,0,0,0,0,4,0,0,16,0,55
25,12.002,Marlone ,MEI,Atlético-MG,2,"5,48",12,"0,92","0,00","0,00",4,2,0,0,8,4,3,0,0,0,0,0,2,0,0,9,4,37
25,12.002,Zé Rafael  ,MEI,Bahia,3,"22,69",25,"6,84","17,40","2,09",65,3,4,0,84,12,18,0,0,0,0,0,4,0,0,49,7,53
25,12.002,Arthur Gomes ,ATA,Santos,2,"1,84",5,"0,86","0,00","0,00",1,0,0,0,6,0,1,0,0,0,0,0,0,0,0,1,0,3
25,12.002,Fernandinho ,ATA,Grêmio,3,"11,75",20,"5,66","0,00","0,00",20,6,1,0,61,11,13,0,0,0,0,0,1,0,0,22,2,37
25,12.002,Pedro ,ATA,Fluminense,2,"4,04",7,"1,82","0,00","0,00",3,1,0,0,8,2,2,0,0,0,0,0,1,0,0,7,1,6
26,12.002,Marcelo Cabo ,TEC,Atlético-GO,3,"3,25",1,"2,60","2,60","1,25",0,0,0,0,0,0,0,0,0,0,0,0,0,0,0,0,0,0
26,12.002,Martín Silva ,GOL,Vasco,3,"7,71",27,"2,00","0,00","0,07",0,0,0,0,0,0,0,0,0,0,0,0,0,0,0,0,0,0
26,12.002,Vilson ,ZAG,Corinthians,2,"4,00",0,"0,00","0,00","0,00",0,0,0,0,0,0,0,0,0,0,0,0,0,0,0,0,0,0
26,12.002,Rafael Thyere ,ZAG,Grêmio,2,"5,30",10,"2,40","0,00","0,00",0,0,0,0,0,0,0,0,0,0,0,0,0,0,0,0,0,0
26,12.002,Capa ,LAT,Avaí,3,"12,27",26,"4,55","0,00","-0,45",0,0,0,0,0,0,0,0,0,0,0,0,0,0,0,0,0,0
26,12.002,Marcos Rocha ,LAT,Atlético-MG,3,"11,99",12,"5,58","0,00","0,70",0,0,0,0,0,0,0,0,0,0,0,0,0,0,0,0,0,0
26,12.002,Ariel Cabral ,MEI,Cruzeiro,2,"7,00",0,"0,00","0,00","0,00",0,0,0,0,0,0,0,0,0,0,0,0,0,0,0,0,0,0
26,12.002,Marlone ,MEI,Atlético-MG,2,"9,00",0,"0,00","0,00","0,00",0,0,0,0,0,0,0,0,0,0,0,0,0,0,0,0,0,0
26,12.002,Zé Rafael  ,MEI,Bahia,3,"21,40",26,"6,90","0,00","-1,29",0,0,0,0,0,0,0,0,0,0,0,0,0,0,0,0,0,0
26,12.002,Arthur Gomes ,ATA,Santos,2,"2,00",0,"0,00","0,00","0,00",0,0,0,0,0,0,0,0,0,0,0,0,0,0,0,0,0,0
26,12.002,Fernandinho ,ATA,Grêmio,3,"11,81",21,"5,50","0,00","0,06",0,0,0,0,0,0,0,0,0,0,0,0,0,0,0,0,0,0
26,12.002,Pedro ,ATA,Fluminense,2,"5,00",0,"0,00","0,00","0,00",0,0,0,0,0,0,0,0,0,0,0,0,0,0,0,0,0,0
27,12.002,Marcelo Cabo ,TEC,Atlético-GO,3,"3,25",1,"2,60","2,60","1,25",0,0,0,0,0,0,0,0,0,0,0,0,0,0,0,0,0,0
27,12.002,Martín Silva ,GOL,Vasco,3,"8,40",28,"2,21","0,00","0,69",0,0,0,0,0,0,0,0,0,0,0,0,0,0,0,0,0,0
27,12.002,Vilson ,ZAG,Corinthians,5,"4,00",0,"0,00","0,00","0,00",0,0,0,0,0,0,0,0,0,0,0,0,0,0,0,0,0,0
27,12.002,Rafael Thyere ,ZAG,Grêmio,2,"5,30",10,"2,40","0,00","0,00",0,0,0,0,0,0,0,0,0,0,0,0,0,0,0,0,0,0
27,12.002,Capa ,LAT,Avaí,2,"12,27",26,"4,55","0,00","0,00",0,0,0,0,0,0,0,0,0,0,0,0,0,0,0,0,0,0
27,12.002,Marcos Rocha ,LAT,Atlético-MG,3,"10,98",13,"5,49","0,00","-1,01",0,0,0,0,0,0,0,0,0,0,0,0,0,0,0,0,0,0
27,12.002,Ariel Cabral ,MEI,Cruzeiro,5,"5,29",13,"1,69","0,00","0,00",0,0,0,0,0,0,0,0,0,0,0,0,0,0,0,0,0,0
27,12.002,Marlone ,MEI,Atlético-MG,2,"5,48",12,"0,92","0,00","0,00",0,0,0,0,0,0,0,0,0,0,0,0,0,0,0,0,0,0
27,12.002,Zé Rafael  ,MEI,Bahia,3,"20,01",27,"6,69","0,00","-1,39",0,0,0,0,0,0,0,0,0,0,0,0,0,0,0,0,0,0
27,12.002,Arthur Gomes ,ATA,Santos,2,"1,84",5,"0,86","0,00","0,00",0,0,0,0,0,0,0,0,0,0,0,0,0,0,0,0,0,0
27,12.002,Fernandinho ,ATA,Grêmio,3,"10,94",22,"5,17","0,00","-0,87",0,0,0,0,0,0,0,0,0,0,0,0,0,0,0,0,0,0
27,12.002,Pedro ,ATA,Fluminense,2,"4,04",7,"1,82","0,00","0,00",0,0,0,0,0,0,0,0,0,0,0,0,0,0,0,0,0,0
28,12.002,Marcelo Cabo ,TEC,Atlético-GO,3,"3,25",1,"2,60","2,60","1,25",0,0,0,0,0,0,0,0,0,0,0,0,0,0,0,0,0,0
28,12.002,Martín Silva ,GOL,Vasco,3,"9,60",29,"2,62","14,00","1,20",0,0,0,8,4,0,0,0,40,0,0,0,2,0,38,0,0,20
28,12.002,Vilson ,ZAG,Corinthians,5,"4,00",0,"0,00","0,00","0,00",0,0,0,0,0,0,0,0,0,0,0,0,0,0,0,0,0,0
28,12.002,Rafael Thyere ,ZAG,Grêmio,2,"5,30",10,"2,40","0,00","0,00",7,1,0,3,7,1,1,0,0,0,1,0,1,0,0,7,0,15
28,12.002,Capa ,LAT,Avaí,2,"11,49",27,"4,37","-0,30","-0,78",57,0,1,10,78,10,2,0,0,0,1,0,5,0,0,45,4,140
28,12.002,Marcos Rocha ,LAT,Atlético-MG,3,"10,87",14,"5,38","3,90","-0,11",42,0,3,3,21,4,2,0,0,0,0,0,4,0,0,27,1,65
28,12.002,Ariel Cabral ,MEI,Cruzeiro,5,"5,29",13,"1,69","0,00","0,00",22,0,0,0,23,8,0,0,0,0,0,0,4,0,0,16,0,55
28,12.002,Marlone ,MEI,Atlético-MG,2,"5,48",12,"0,92","0,00","0,00",4,2,0,0,8,4,3,0,0,0,0,0,2,0,0,9,4,37
28,12.002,Zé Rafael  ,MEI,Bahia,3,"20,36",28,"6,60","4,30","0,35",70,3,4,0,94,14,22,0,0,0,0,0,4,0,0,52,8,63
28,12.002,Arthur Gomes ,ATA,Santos,2,"1,84",5,"0,86","0,00","0,00",1,0,0,0,6,0,1,0,0,0,0,0,0,0,0,1,0,3
28,12.002,Fernandinho ,ATA,Grêmio,3,"11,41",23,"5,02","1,80","0,47",22,6,1,0,67,13,13,0,0,0,0,0,1,0,0,27,3,45
28,12.002,Pedro ,ATA,Fluminense,2,"3,94",8,"1,70","0,90","-0,10",4,1,0,0,8,2,2,0,0,0,0,0,1,0,0,8,1,7
29,12.002,Marcelo Cabo ,TEC,Atlético-GO,3,"3,25",1,"2,60","2,60","1,25",0,0,0,0,0,0,0,0,0,0,0,0,0,0,0,0,0,0
29,12.002,Martín Silva ,GOL,Vasco,3,"7,14",30,"2,48","-1,50","-2,46",0,0,0,8,5,0,0,0,40,0,0,0,2,0,39,0,0,20
29,12.002,Vilson ,ZAG,Corinthians,5,"4,00",0,"0,00","0,00","0,00",0,0,0,0,0,0,0,0,0,0,0,0,0,0,0,0,0,0
29,12.002,Rafael Thyere ,ZAG,Grêmio,3,"5,21",11,"2,28","1,10","-0,09",8,1,0,3,8,1,1,0,0,0,1,0,1,0,0,8,0,17
29,12.002,Capa ,LAT,Avaí,2,"11,49",27,"4,37","0,00","0,00",57,0,1,10,78,10,2,0,0,0,1,0,5,0,0,45,4,140
29,12.002,Marcos Rocha ,LAT,Atlético-MG,3,"12,07",15,"5,71","10,30","1,20",48,0,3,3,25,4,2,0,0,0,0,0,4,0,0,29,1,68
29,12.002,Ariel Cabral ,MEI,Cruzeiro,5,"5,29",13,"1,69","0,00","0,00",22,0,0,0,23,8,0,0,0,0,0,0,4,0,0,16,0,55
29,12.002,Marlone ,MEI,Atlético-MG,2,"5,48",12,"0,92","0,00","0,00",4,2,0,0,8,4,3,0,0,0,0,0,2,0,0,9,4,37
29,12.002,Zé Rafael  ,MEI,Bahia,3,"20,67",29,"6,58","6,00","0,31",73,3,4,0,98,14,22,0,0,0,0,0,4,0,0,53,8,65
29,12.002,Arthur Gomes ,ATA,Santos,2,"1,84",5,"0,86","0,00","0,00",1,0,0,0,6,0,1,0,0,0,0,0,0,0,0,1,0,3
29,12.002,Fernandinho ,ATA,Grêmio,2,"11,41",23,"5,02","0,00","0,00",22,6,1,0,67,13,13,0,0,0,0,0,1,0,0,27,3,45
29,12.002,Pedro ,ATA,Fluminense,2,"4,93",9,"2,22","6,40","0,99",9,1,0,0,10,2,2,0,0,0,0,0,1,0,0,13,1,9
30,12.002,Marcelo Cabo ,TEC,Atlético-GO,3,"3,25",1,"2,60","2,60","1,25",0,0,0,0,0,0,0,0,0,0,0,0,0,0,0,0,0,0
30,12.002,Martín Silva ,GOL,Vasco,3,"9,19",31,"2,75","10,90","2,05",0,0,0,9,6,0,0,0,42,0,0,0,2,0,39,0,0,22
30,12.002,Vilson ,ZAG,Corinthians,5,"4,00",0,"0,00","0,00","0,00",0,0,0,0,0,0,0,0,0,0,0,0,0,0,0,0,0,0
30,12.002,Rafael Thyere ,ZAG,Grêmio,2,"6,87",12,"2,99","10,80","1,66",10,2,0,3,8,1,1,0,0,0,1,0,1,0,0,8,0,19
30,12.002,Capa ,LAT,Avaí,3,"11,85",28,"4,32","3,10","0,36",59,0,1,10,79,10,2,0,0,0,1,0,5,0,0,46,4,141
30,12.002,Marcos Rocha ,LAT,Atlético-MG,3,"11,79",16,"5,87","8,30","-0,28",51,0,3,4,26,4,2,0,0,0,0,0,4,0,0,30,1,74
30,12.002,Ariel Cabral ,MEI,Cruzeiro,5,"5,29",13,"1,69","0,00","0,00",22,0,0,0,23,8,0,0,0,0,0,0,4,0,0,16,0,55
30,12.002,Marlone ,MEI,Atlético-MG,2,"5,48",12,"0,92","0,00","0,00",4,2,0,0,8,4,3,0,0,0,0,0,2,0,0,9,4,37
30,12.002,Zé Rafael  ,MEI,Bahia,3,"21,04",30,"6,66","9,00","0,37",76,3,5,0,101,14,22,0,0,0,0,0,4,0,0,56,9,67
30,12.002,Arthur Gomes ,ATA,Santos,3,"1,84",5,"0,86","0,00","0,00",1,0,0,0,6,0,1,0,0,0,0,0,0,0,0,1,0,3
30,12.002,Fernandinho ,ATA,Grêmio,3,"11,41",23,"5,02","0,00","0,00",22,6,1,0,67,13,13,0,0,0,0,0,1,0,0,27,3,45
30,12.002,Pedro ,ATA,Fluminense,2,"4,93",9,"2,22","0,00","0,00",9,1,0,0,10,2,2,0,0,0,0,0,1,0,0,13,1,9
31,12.002,Marcelo Cabo ,TEC,Atlético-GO,3,"3,25",1,"2,60","2,60","1,25",0,0,0,0,0,0,0,0,0,0,0,0,0,0,0,0,0,0
31,12.002,Martín Silva ,GOL,Vasco,3,"7,87",32,"2,73","2,00","-1,32",0,0,0,9,6,0,0,0,44,0,0,0,3,0,40,0,0,22
31,12.002,Vilson ,ZAG,Corinthians,5,"4,00",0,"0,00","0,00","0,00",0,0,0,0,0,0,0,0,0,0,0,0,0,0,0,0,0,0
31,12.002,Rafael Thyere ,ZAG,Grêmio,2,"6,87",12,"2,99","0,00","0,00",10,2,0,3,8,1,1,0,0,0,1,0,1,0,0,8,0,19
31,12.002,Capa ,LAT,Avaí,3,"11,37",29,"4,17","0,00","-0,48",61,0,1,10,79,10,2,0,0,0,1,0,5,0,0,48,4,149
31,12.002,Marcos Rocha ,LAT,Atlético-MG,3,"11,54",17,"5,87","5,80","-0,25",55,0,3,4,28,4,2,0,0,0,0,0,4,0,0,31,1,79
31,12.002,Ariel Cabral ,MEI,Cruzeiro,5,"5,29",13,"1,69","0,00","0,00",22,0,0,0,23,8,0,0,0,0,0,0,4,0,0,16,0,55
31,12.002,Marlone ,MEI,Atlético-MG,2,"5,48",12,"0,92","0,00","0,00",4,2,0,0,8,4,3,0,0,0,0,0,2,0,0,9,4,37
31,12.002,Zé Rafael  ,MEI,Bahia,3,"21,35",31,"6,75","9,60","0,31",81,3,5,0,104,15,23,0,0,0,0,0,4,0,0,58,10,69
31,12.002,Arthur Gomes ,ATA,Santos,3,"3,13",6,"2,15","8,60","1,29",1,1,0,0,6,2,1,0,0,0,0,0,0,0,0,2,0,4
31,12.002,Fernandinho ,ATA,Grêmio,3,"10,90",24,"4,81","-0,10","-0,51",22,6,1,0,69,14,13,0,0,0,0,0,1,0,0,30,3,46
31,12.002,Pedro ,ATA,Fluminense,2,"4,93",9,"2,22","0,00","0,00",9,1,0,0,10,2,2,0,0,0,0,0,1,0,0,13,1,9
32,12.002,Marcelo Cabo ,TEC,Atlético-GO,3,"3,25",1,"2,60","2,60","1,25",0,0,0,0,0,0,0,0,0,0,0,0,0,0,0,0,0,0
32,12.002,Martín Silva ,GOL,Vasco,2,"7,87",32,"2,73","0,00","0,00",0,0,0,0,0,0,0,0,0,0,0,0,0,0,0,0,0,0
32,12.002,Vilson ,ZAG,Corinthians,5,"4,00",0,"0,00","0,00","0,00",0,0,0,0,0,0,0,0,0,0,0,0,0,0,0,0,0,0
32,12.002,Rafael Thyere ,ZAG,Grêmio,2,"6,61",13,"3,35","0,00","-0,26",0,0,0,0,0,0,0,0,0,0,0,0,0,0,0,0,0,0
32,12.002,Capa ,LAT,Avaí,3,"11,37",29,"4,17","0,00","0,00",0,0,0,0,0,0,0,0,0,0,0,0,0,0,0,0,0,0
32,12.002,Marcos Rocha ,LAT,Atlético-MG,2,"12,11",18,"6,01","0,00","0,57",0,0,0,0,0,0,0,0,0,0,0,0,0,0,0,0,0,0
32,12.002,Ariel Cabral ,MEI,Cruzeiro,2,"5,29",13,"1,69","0,00","0,00",0,0,0,0,0,0,0,0,0,0,0,0,0,0,0,0,0,0
32,12.002,Marlone ,MEI,Atlético-MG,2,"5,48",12,"0,92","0,00","0,00",0,0,0,0,0,0,0,0,0,0,0,0,0,0,0,0,0,0
32,12.002,Zé Rafael  ,MEI,Bahia,3,"20,04",32,"6,58","0,00","-1,31",0,0,0,0,0,0,0,0,0,0,0,0,0,0,0,0,0,0
32,12.002,Arthur Gomes ,ATA,Santos,3,"2,03",7,"2,03","0,00","-1,10",0,0,0,0,0,0,0,0,0,0,0,0,0,0,0,0,0,0
32,12.002,Fernandinho ,ATA,Grêmio,3,"10,46",25,"4,52","0,00","-0,44",0,0,0,0,0,0,0,0,0,0,0,0,0,0,0,0,0,0
32,12.002,Pedro ,ATA,Fluminense,3,"4,93",9,"2,22","0,00","0,00",0,0,0,0,0,0,0,0,0,0,0,0,0,0,0,0,0,0
33,12.002,Marcelo Cabo ,TEC,Atlético-GO,3,"3,25",1,"2,60","2,60","1,25",0,0,0,0,0,0,0,0,0,0,0,0,0,0,0,0,0,0
33,12.002,Martín Silva ,GOL,Vasco,2,"7,87",32,"2,73","0,00","0,00",0,0,0,9,6,0,0,0,44,0,0,0,3,0,40,0,0,22
33,12.002,Vilson ,ZAG,Corinthians,5,"4,00",0,"0,00","0,00","0,00",0,0,0,0,0,0,0,0,0,0,0,0,0,0,0,0,0,0
33,12.002,Rafael Thyere ,ZAG,Grêmio,2,"6,61",13,"3,35","0,00","0,00",11,2,0,4,10,1,1,0,0,0,1,0,1,0,0,8,0,19
33,12.002,Capa ,LAT,Avaí,3,"11,37",29,"4,17","0,00","0,00",61,0,1,10,79,10,2,0,0,0,1,0,5,0,0,48,4,149
33,12.002,Marcos Rocha ,LAT,Atlético-MG,2,"12,11",18,"6,01","0,00","0,00",59,0,4,4,28,5,2,0,0,0,0,0,5,0,0,34,1,81
33,12.002,Ariel Cabral ,MEI,Cruzeiro,2,"5,29",13,"1,69","0,00","0,00",22,0,0,0,23,8,0,0,0,0,0,0,4,0,0,16,0,55
33,12.002,Marlone ,MEI,Atlético-MG,2,"5,13",13,"0,83","-0,30","-0,35",4,2,0,0,8,4,3,0,0,0,0,0,2,0,0,9,4,38
33,12.002,Zé Rafael  ,MEI,Bahia,3,"20,10",33,"6,47","3,00","0,06",85,3,5,0,108,16,24,0,0,0,0,0,5,0,0,64,10,73
33,12.002,Arthur Gomes ,ATA,Santos,3,"2,12",8,"2,00","1,80","0,09",5,1,0,0,8,4,2,0,0,0,0,0,1,0,0,5,0,16
33,12.002,Fernandinho ,ATA,Grêmio,3,"12,12",26,"4,66","8,20","1,66",22,7,1,0,73,16,13,0,0,0,0,0,2,0,0,36,3,48
33,12.002,Pedro ,ATA,Fluminense,3,"5,49",10,"2,91","9,10","0,56",9,2,0,0,11,3,3,0,0,0,0,0,1,0,0,14,1,11
34,12.002,Marcelo Cabo ,TEC,Atlético-GO,3,"3,25",1,"2,60","2,60","1,25",0,0,0,0,0,0,0,0,0,0,0,0,0,0,0,0,0,0
34,12.002,Martín Silva ,GOL,Vasco,3,"7,87",32,"2,73","0,00","0,00",0,0,0,9,6,0,0,0,44,0,0,0,3,0,40,0,0,22
34,12.002,Vilson ,ZAG,Corinthians,5,"4,00",0,"0,00","0,00","0,00",0,0,0,0,0,0,0,0,0,0,0,0,0,0,0,0,0,0
34,12.002,Rafael Thyere ,ZAG,Grêmio,3,"6,61",13,"3,35","0,00","0,00",11,2,0,4,10,1,1,0,0,0,1,0,1,0,0,8,0,19
34,12.002,Capa ,LAT,Avaí,2,"11,37",29,"4,17","0,00","0,00",61,0,1,10,79,10,2,0,0,0,1,0,5,0,0,48,4,149
34,12.002,Marcos Rocha ,LAT,Atlético-MG,3,"11,16",19,"5,84","2,70","-0,95",61,0,4,4,30,5,2,0,0,0,0,0,5,0,0,35,1,85
34,12.002,Ariel Cabral ,MEI,Cruzeiro,2,"5,29",13,"1,69","0,00","0,00",22,0,0,0,23,8,0,0,0,0,0,0,4,0,0,16,0,55
34,12.002,Marlone ,MEI,Atlético-MG,2,"5,13",13,"0,83","0,00","0,00",4,2,0,0,8,4,3,0,0,0,0,0,2,0,0,9,4,38
34,12.002,Zé Rafael  ,MEI,Bahia,3,"19,85",34,"6,32","1,30","-0,25",86,3,5,0,112,16,25,0,0,0,0,0,5,0,0,68,11,76
34,12.002,Arthur Gomes ,ATA,Santos,3,"1,67",9,"1,67","-1,00","-0,45",5,1,0,0,9,4,2,0,0,0,0,0,1,0,0,8,0,16
34,12.002,Fernandinho ,ATA,Grêmio,4,"10,47",27,"4,41","-2,20","-1,65",22,7,1,0,74,18,13,0,0,0,0,0,3,0,0,38,4,50
34,12.002,Pedro ,ATA,Fluminense,2,"3,65",11,"2,42","-2,50","-1,84",9,2,0,0,11,3,3,0,0,0,0,0,2,0,0,15,1,11
35,12.002,Marcelo Cabo ,TEC,Atlético-GO,3,"3,25",1,"2,60","2,60","1,25",0,0,0,0,0,0,0,0,0,0,0,0,0,0,0,0,0,0
35,12.002,Martín Silva ,GOL,Vasco,3,"6,83",33,"2,55","-3,30","-1,04",0,0,0,9,6,0,0,0,45,0,0,0,3,0,43,0,0,23
35,12.002,Vilson ,ZAG,Corinthians,5,"4,00",0,"0,00","0,00","0,00",0,0,0,0,0,0,0,0,0,0,0,0,0,0,0,0,0,0
35,12.002,Rafael Thyere ,ZAG,Grêmio,3,"5,69",14,"3,25","1,90","-0,92",12,2,0,4,11,1,1,0,0,0,1,0,1,0,0,8,0,20
35,12.002,Capa ,LAT,Avaí,2,"11,37",29,"4,17","0,00","0,00",61,0,1,10,79,10,2,0,0,0,1,0,5,0,0,48,4,149
35,12.002,Marcos Rocha ,LAT,Atlético-MG,3,"12,91",20,"6,19","12,80","1,75",64,0,5,5,30,5,2,0,0,0,0,0,5,0,0,36,1,91
35,12.002,Ariel Cabral ,MEI,Cruzeiro,2,"5,29",13,"1,69","0,00","0,00",22,0,0,0,23,8,0,0,0,0,0,0,4,0,0,16,0,55
35,12.002,Marlone ,MEI,Atlético-MG,2,"5,13",13,"0,83","0,00","0,00",4,2,0,0,8,4,3,0,0,0,0,0,2,0,0,9,4,38
35,12.002,Zé Rafael  ,MEI,Bahia,3,"20,12",35,"6,24","3,50","0,27",87,3,5,0,117,16,26,0,0,0,0,0,5,0,0,69,11,80
35,12.002,Arthur Gomes ,ATA,Santos,3,"2,11",10,"1,67","1,70","0,44",6,1,0,0,9,4,2,0,0,0,0,0,1,0,0,8,0,16
35,12.002,Fernandinho ,ATA,Grêmio,4,"10,47",27,"4,41","0,00","0,00",22,7,1,0,74,18,13,0,0,0,0,0,3,0,0,38,4,50
35,12.002,Pedro ,ATA,Fluminense,2,"4,00",12,"2,22","0,00","0,35",9,2,0,0,11,3,3,0,0,0,0,0,2,0,0,15,1,11
36,12.002,Marcelo Cabo ,TEC,Atlético-GO,3,"3,25",1,"2,60","2,60","1,25",0,0,0,0,0,0,0,0,0,0,0,0,0,0,0,0,0,0
36,12.002,Martín Silva ,GOL,Vasco,3,"9,24",34,"2,80","11,00","2,41",0,0,0,10,6,0,0,0,47,0,0,0,3,0,43,0,0,23
36,12.002,Vilson ,ZAG,Corinthians,5,"4,00",0,"0,00","0,00","0,00",0,0,0,0,0,0,0,0,0,0,0,0,0,0,0,0,0,0
36,12.002,Rafael Thyere ,ZAG,Grêmio,2,"6,24",15,"3,36","4,90","0,55",14,2,0,4,11,1,3,0,0,0,1,0,1,0,0,9,0,20
36,12.002,Capa ,LAT,Avaí,2,"11,37",29,"4,17","0,00","0,00",61,0,1,10,79,10,2,0,0,0,1,0,5,0,0,48,4,149
36,12.002,Marcos Rocha ,LAT,Atlético-MG,4,"11,60",21,"6,09","4,00","-1,31",69,0,5,5,31,5,2,0,0,0,0,0,6,0,0,39,1,96
36,12.002,Ariel Cabral ,MEI,Cruzeiro,2,"5,29",13,"1,69","0,00","0,00",22,0,0,0,23,8,0,0,0,0,0,0,4,0,0,16,0,55
36,12.002,Marlone ,MEI,Atlético-MG,2,"5,13",13,"0,83","0,00","0,00",4,2,0,0,8,4,3,0,0,0,0,0,2,0,0,9,4,38
36,12.002,Zé Rafael  ,MEI,Bahia,4,"19,93",36,"6,13","2,40","-0,19",91,3,5,0,122,17,27,0,0,0,0,1,5,0,0,72,11,87
36,12.002,Arthur Gomes ,ATA,Santos,1,"3,24",11,"2,25","8,00","1,13",6,2,0,0,9,4,2,0,0,0,0,0,1,0,0,8,0,16
36,12.002,Fernandinho ,ATA,Grêmio,2,"10,47",27,"4,41","0,00","0,00",22,7,1,0,74,18,13,0,0,0,0,0,3,0,0,38,4,50
36,12.002,Pedro ,ATA,Fluminense,2,"4,16",13,"2,13","1,00","0,16",9,2,0,0,11,3,4,0,0,0,0,0,2,0,0,15,1,11
37,12.002,Marcelo Cabo ,TEC,Atlético-GO,3,"3,25",1,"2,60","2,60","1,25",0,0,0,0,0,0,0,0,0,0,0,0,0,0,0,0,0,0
37,12.002,Martín Silva ,GOL,Vasco,3,"7,12",35,"2,66","-2,00","-2,12",0,0,0,10,6,0,0,0,47,0,0,0,3,0,44,0,0,23
37,12.002,Vilson ,ZAG,Corinthians,5,"4,00",0,"0,00","0,00","0,00",0,0,0,0,0,0,0,0,0,0,0,0,0,0,0,0,0,0
37,12.002,Rafael Thyere ,ZAG,Grêmio,2,"6,24",15,"3,36","0,00","0,00",14,2,0,4,11,1,3,0,0,0,1,0,1,0,0,9,0,20
37,12.002,Capa ,LAT,Avaí,2,"11,37",29,"4,17","0,00","0,00",61,0,1,10,79,10,2,0,0,0,1,0,5,0,0,48,4,149
37,12.002,Marcos Rocha ,LAT,Atlético-MG,4,"11,60",21,"6,09","0,00","0,00",69,0,5,5,31,5,2,0,0,0,0,0,6,0,0,39,1,96
37,12.002,Ariel Cabral ,MEI,Cruzeiro,2,"4,88",14,"1,53","-0,50","-0,41",22,0,0,0,23,8,0,0,0,0,0,0,4,0,0,17,0,55
37,12.002,Marlone ,MEI,Atlético-MG,2,"5,13",13,"0,83","0,00","0,00",4,2,0,0,8,4,3,0,0,0,0,0,2,0,0,9,4,38
37,12.002,Zé Rafael  ,MEI,Bahia,4,"19,93",36,"6,13","0,00","0,00",91,3,5,0,122,17,27,0,0,0,0,1,5,0,0,72,11,87
37,12.002,Arthur Gomes ,ATA,Santos,2,"3,24",11,"2,25","0,00","0,00",6,2,0,0,9,4,2,0,0,0,0,0,1,0,0,8,0,16
37,12.002,Fernandinho ,ATA,Grêmio,2,"10,47",27,"4,41","0,00","0,00",22,7,1,0,74,18,13,0,0,0,0,0,3,0,0,38,4,50
37,12.002,Pedro ,ATA,Fluminense,2,"3,97",14,"1,98","0,00","-0,19",9,2,0,0,11,3,4,0,0,0,0,0,2,0,0,15,1,11
